worst,best,mean,median,limit
93.16715212265805,0.8184390072019039,38.09168816057568,36.03290726599324,11.38
93.16715212265805,0.8184390072019039,30.40040752636113,31.51104671231068,11.38
85.69607306818627,0.8184390072019039,22.82001673879806,3.2694259779038966,11.38
85.69607306818627,0.8184390072019039,20.233327245778998,28.107355455335345,11.38
73.82101079850172,0.8184390072019039,16.247430961132476,27.14297374070437,11.38
69.64324036868685,0.8184390072019039,14.432759494445431,24.294182130633722,11.38
69.64324036868685,0.8184390072019039,13.231394492554632,23.977392327291653,11.38
69.64324036868685,0.8184390072019039,12.118290535864876,24.294182130633722,11.38
67.23301828439143,0.8184390072019039,10.573969627713153,25.082288813797966,11.38
67.23301828439143,0.8184390072019039,9.815243566449626,16.00384707789518,11.38
39.65881680912281,0.8184390072019039,9.205372477518107,3.246483909808161,11.38
39.65881680912281,0.8184390072019039,8.808837988753785,3.32658384516376,11.38
28.858624775284305,0.4747512759541257,8.18396736843463,3.187124924959603,11.38
28.206580279582102,0.4747512759541257,7.660044439494301,3.32658384516376,11.38
28.206580279582102,0.4747512759541257,7.224770670339466,3.387011306490039,11.38
28.206580279582102,0.4747512759541257,7.088739662856884,3.4129897871337844,11.38
21.912008403226906,0.4747512759541257,6.626979016861193,3.4129897871337844,11.38
21.912008403226906,0.4747512759541257,6.3082734368152895,3.4796632416579074,11.38
21.87241261410728,0.4747512759541257,5.986648009308893,3.557087385747291,11.38
21.87241261410728,0.4747512759541257,5.86477652550212,3.597212355894603,11.38
21.87241261410728,0.4747512759541257,5.804599981171903,3.6690457927648574,11.38
21.87241261410728,0.4747512759541257,5.60956654634283,3.597212355894603,11.38
21.87241261410728,0.4747512759541257,5.47649339551793,3.620743830778536,11.38
20.17795049614424,0.4747512759541257,5.25590642733215,3.557087385747291,11.38
20.17795049614424,0.4747512759541257,5.049288050369214,3.529418062291091,11.38
20.17795049614424,0.4747512759541257,4.974254436455363,3.557087385747291,11.38
20.17795049614424,0.4747512759541257,4.734884901185143,3.387011306490039,11.38
20.17795049614424,0.4747512759541257,4.628856793981201,3.4558858786028566,11.38
20.17795049614424,0.4747512759541257,4.508270400334938,3.246483909808161,11.38
15.196494980129371,0.4747512759541257,4.341783238177979,3.246483909808161,11.38
12.022195408903103,0.4747512759541257,4.247244360245248,3.32658384516376,11.38
11.016262218173262,0.4747512759541257,4.082969778609268,3.246483909808161,11.38
11.016262218173262,0.4747512759541257,4.070061754024278,3.246483909808161,11.38
11.016262218173262,0.4747512759541257,4.070061754024278,3.246483909808161,11.38
11.016262218173262,0.4747512759541257,4.070061754024278,3.246483909808161,11.38
11.016262218173262,0.4747512759541257,3.9918662189680747,3.193801765364854,11.38
11.016262218173262,0.4747512759541257,3.8969760571243754,3.193801765364854,11.38
11.016262218173262,0.4747512759541257,3.893785088388284,3.193801765364854,11.38
11.016262218173262,0.4747512759541257,3.8146479578039703,3.1563163721343104,11.38
11.016262218173262,0.4747512759541257,3.759352766254543,3.149354456117557,11.38
11.016262218173262,0.4747512759541257,3.7442171797037243,3.149354456117557,11.38
11.016262218173262,0.4747512759541257,3.736761331788984,3.149354456117557,11.38
10.655959586462656,0.4747512759541257,3.5418628560779153,2.7989996015620804,11.38
10.655959586462656,0.4747512759541257,3.4549352026031785,2.747497022357522,11.38
10.655959586462656,0.4747512759541257,3.4256044880301624,2.6737058700295453,11.38
10.655959586462656,0.4747512759541257,3.3424716005477446,2.6737058700295453,11.38
10.655959586462656,0.4747512759541257,3.3113233969256095,2.6737058700295453,11.38
10.655959586462656,0.4747512759541257,3.267157539011655,2.6465758678779334,11.38
10.655959586462656,0.4747512759541257,3.196987841528335,2.6465758678779334,11.38
10.655959586462656,0.4747512759541257,3.1408239941467504,2.6259749414220575,11.38
8.321593873436598,0.4747512759541257,3.070181841123702,2.6465758678779334,11.38
8.321593873436598,0.4747512759541257,3.056206006895558,2.6465758678779334,11.38
8.321593873436598,0.4747512759541257,2.979455347055849,2.5964075363457964,11.38
8.321593873436598,0.4747512759541257,2.979455347055849,2.5964075363457964,11.38
8.321593873436598,0.4747512759541257,2.8591711726766444,2.5792643377972815,11.38
8.321593873436598,0.4747512759541257,2.768288226258241,2.506229173135324,11.38
6.963567084151494,0.4747512759541257,2.7042040651961763,2.506229173135324,11.38
6.4031373523277315,0.4747512759541257,2.664635364080323,2.485734907537074,11.38
6.4031373523277315,0.4747512759541257,2.660082572293312,2.485734907537074,11.38
6.4031373523277315,0.4747512759541257,2.6119987771194992,2.4572062231121476,11.38
6.4031373523277315,0.4747512759541257,2.5332953824158766,2.142021685993102,11.38
6.4031373523277315,0.4747512759541257,2.5092676771105373,2.0983533843520674,11.38
6.4031373523277315,0.4747512759541257,2.5092676771105373,2.0983533843520674,11.38
6.4031373523277315,0.4747512759541257,2.488019850493272,2.0626902525961466,11.38
6.4031373523277315,0.4747512759541257,2.445625935840499,2.0313497612674136,11.38
6.4031373523277315,0.4747512759541257,2.41780842487288,2.010425890793946,11.38
6.4031373523277315,0.4747512759541257,2.3562976272497473,1.9843785598955888,11.38
6.4031373523277315,0.4747512759541257,2.3334228605841023,1.9765032264526654,11.38
6.4031373523277315,0.4747512759541257,2.3334228605841023,1.9765032264526654,11.38
6.4031373523277315,0.4747512759541257,2.3334228605841023,1.9765032264526654,11.38
6.4031373523277315,0.4747512759541257,2.3239241278564857,1.9765032264526654,11.38
6.4031373523277315,0.4747512759541257,2.291046985374412,1.9344341369320173,11.38
6.4031373523277315,0.4747512759541257,2.2163664346109244,1.9152638610274073,11.38
6.4031373523277315,0.4747512759541257,2.192825067559279,1.9065337729543534,11.38
6.4031373523277315,0.4747512759541257,2.163893281645137,1.8789260834499244,11.38
6.4031373523277315,0.4747512759541257,2.163893281645137,1.8789260834499244,11.38
6.4031373523277315,0.4747512759541257,2.1416216908429924,1.8467752772819275,11.38
6.4031373523277315,0.4747512759541257,2.1367586296409904,1.8467752772819275,11.38
6.4031373523277315,0.36836607382692754,2.1143852479586744,1.834766171100921,11.38
6.4031373523277315,0.36836607382692754,2.1143852479586744,1.834766171100921,11.38
6.4031373523277315,0.36836607382692754,2.0625838006278094,1.7912497714961886,11.38
6.4031373523277315,0.36836607382692754,2.028389471110093,1.7624011354068077,11.38
6.4031373523277315,0.36836607382692754,2.028389471110093,1.7624011354068077,11.38
6.4031373523277315,0.36836607382692754,2.028389471110093,1.7624011354068077,11.38
5.697455535073988,0.36836607382692754,1.9524834673956273,1.7282923260657541,11.38
5.697455535073988,0.36836607382692754,1.9384886686170895,1.7255883060831665,11.38
5.697455535073988,0.36836607382692754,1.8918129429742887,1.7067777415353604,11.38
5.697455535073988,0.36836607382692754,1.8918129429742887,1.7067777415353604,11.38
5.697455535073988,0.36836607382692754,1.8804508705722263,1.6889978215135129,11.38
5.697455535073988,0.36836607382692754,1.8775547173009608,1.6889978215135129,11.38
5.697455535073988,0.36836607382692754,1.8775547173009608,1.6889978215135129,11.38
5.697455535073988,0.36836607382692754,1.8775547173009608,1.6889978215135129,11.38
5.697455535073988,0.36836607382692754,1.8775547173009608,1.6889978215135129,11.38
5.697455535073988,0.36836607382692754,1.868160785468408,1.6720046123987666,11.38
5.125858208836155,0.36836607382692754,1.822153845441077,1.6462672666225964,11.38
5.125858208836155,0.36836607382692754,1.8031983828397258,1.6462672666225964,11.38
5.125858208836155,0.36836607382692754,1.7994241818007872,1.6462672666225964,11.38
5.125858208836155,0.36836607382692754,1.7994241818007872,1.6462672666225964,11.38
5.125858208836155,0.36836607382692754,1.7994241818007872,1.6462672666225964,11.38
5.125858208836155,0.36836607382692754,1.7994241818007872,1.6462672666225964,11.38
5.125858208836155,0.36836607382692754,1.7980682632008327,1.6462672666225964,11.38
5.125858208836155,0.36836607382692754,1.7980682632008327,1.6462672666225964,11.38
5.125858208836155,0.36836607382692754,1.7900452085066485,1.6462672666225964,11.38
5.125858208836155,0.36836607382692754,1.7900452085066485,1.6462672666225964,11.38
5.125858208836155,0.36836607382692754,1.7831283914982106,1.6207406655635852,11.38
5.125858208836155,0.36836607382692754,1.7831283914982106,1.6207406655635852,11.38
5.125858208836155,0.25897747516210834,1.7616303718758295,1.6207406655635852,11.38
5.125858208836155,0.25897747516210834,1.7435336976222797,1.6207406655635852,11.38
4.561167158563369,0.25897747516210834,1.7028299105781826,1.6095344199307013,11.38
4.561167158563369,0.25897747516210834,1.7028299105781826,1.6095344199307013,11.38
4.561167158563369,0.25897747516210834,1.6992282330018176,1.6095344199307013,11.38
4.561167158563369,0.25897747516210834,1.6682727093369976,1.5832954428681507,11.38
4.561167158563369,0.25897747516210834,1.6682727093369976,1.5832954428681507,11.38
4.561167158563369,0.25897747516210834,1.6682727093369976,1.5832954428681507,11.38
4.561167158563369,0.25897747516210834,1.6682727093369976,1.5832954428681507,11.38
4.561167158563369,0.25897747516210834,1.6682727093369976,1.5832954428681507,11.38
4.561167158563369,0.25897747516210834,1.6682727093369976,1.5832954428681507,11.38
4.561167158563369,0.25897747516210834,1.6614369466665435,1.5621888249816533,11.38
4.561167158563369,0.25897747516210834,1.6556775544791535,1.5621888249816533,11.38
4.561167158563369,0.25897747516210834,1.6556775544791535,1.5621888249816533,11.38
4.561167158563369,0.25897747516210834,1.6499665037226625,1.5621888249816533,11.38
4.561167158563369,0.25897747516210834,1.6468415217318773,1.5421354430931005,11.38
4.561167158563369,0.25897747516210834,1.6314402352502804,1.52395833355782,11.38
4.561167158563369,0.25897747516210834,1.6314402352502804,1.52395833355782,11.38
4.561167158563369,0.25897747516210834,1.6314402352502804,1.52395833355782,11.38
4.561167158563369,0.25897747516210834,1.6314402352502804,1.52395833355782,11.38
4.561167158563369,0.25897747516210834,1.6257510703404592,1.5179823347274723,11.38
4.561167158563369,0.25897747516210834,1.5966320046305378,1.500153961963172,11.38
4.561167158563369,0.25897747516210834,1.585939440452379,1.4739369061240266,11.38
4.561167158563369,0.25897747516210834,1.585939440452379,1.4739369061240266,11.38
4.561167158563369,0.25897747516210834,1.5644258950763137,1.4491811508100638,11.38
4.561167158563369,0.25897747516210834,1.5644258950763137,1.4491811508100638,11.38
4.561167158563369,0.25897747516210834,1.5644258950763137,1.4491811508100638,11.38
4.561167158563369,0.25897747516210834,1.5619334927853035,1.4491811508100638,11.38
4.561167158563369,0.25897747516210834,1.561892032505481,1.4491811508100638,11.38
4.561167158563369,0.25897747516210834,1.5577779280168773,1.4491811508100638,11.38
4.561167158563369,0.25897747516210834,1.5548233427893239,1.4491811508100638,11.38
4.561167158563369,0.25897747516210834,1.545503661128734,1.4252499017724705,11.38
4.561167158563369,0.25897747516210834,1.545503661128734,1.4252499017724705,11.38
4.561167158563369,0.25897747516210834,1.545503661128734,1.4252499017724705,11.38
4.561167158563369,0.25897747516210834,1.5262829910289804,1.4099246614932186,11.38
4.561167158563369,0.25897747516210834,1.5212526459666444,1.4099246614932186,11.38
4.561167158563369,0.25897747516210834,1.5212526459666444,1.4099246614932186,11.38
4.561167158563369,0.25897747516210834,1.513490850433724,1.4099246614932186,11.38
4.561167158563369,0.25897747516210834,1.513490850433724,1.4099246614932186,11.38
4.561167158563369,0.25897747516210834,1.513490850433724,1.4099246614932186,11.38
4.561167158563369,0.25897747516210834,1.513490850433724,1.4099246614932186,11.38
4.561167158563369,0.25897747516210834,1.504619621122438,1.4099246614932186,11.38
4.561167158563369,0.25897747516210834,1.5016800538667312,1.403615549606728,11.38
4.561167158563369,0.25897747516210834,1.4810259940541104,1.3983367369836674,11.38
4.561167158563369,0.25897747516210834,1.4638155143191627,1.3886002037072567,11.38
4.561167158563369,0.25897747516210834,1.4638155143191627,1.3886002037072567,11.38
4.561167158563369,0.25897747516210834,1.4638155143191627,1.3886002037072567,11.38
4.561167158563369,0.25897747516210834,1.4638155143191627,1.3886002037072567,11.38
4.561167158563369,0.25897747516210834,1.4556903868014133,1.3886002037072567,11.38
4.561167158563369,0.25897747516210834,1.440538576044282,1.372975703755491,11.38
4.561167158563369,0.25897747516210834,1.431333083543608,1.3598379939201075,11.38
4.561167158563369,0.25897747516210834,1.4111897370003,1.3497116675958218,11.38
4.561167158563369,0.25897747516210834,1.3966407202044735,1.3340500996983446,11.38
4.561167158563369,0.25897747516210834,1.3904031237116328,1.3160569821015868,11.38
4.561167158563369,0.25897747516210834,1.3904031237116328,1.3160569821015868,11.38
3.6354239378700632,0.25897747516210834,1.3599828144867125,1.3160569821015868,11.38
3.6354239378700632,0.25897747516210834,1.3566347287168148,1.2960946640259245,11.38
3.6354239378700632,0.25897747516210834,1.3559800791139278,1.2960946640259245,11.38
3.6354239378700632,0.25897747516210834,1.3559800791139278,1.2960946640259245,11.38
3.5871845438691934,0.25897747516210834,1.3541655218216826,1.2960946640259245,11.38
3.5871845438691934,0.25897747516210834,1.3541655218216826,1.2960946640259245,11.38
3.5871845438691934,0.25897747516210834,1.3482795772766616,1.2960946640259245,11.38
3.5871845438691934,0.25897747516210834,1.3482795772766616,1.2960946640259245,11.38
3.5871845438691934,0.25897747516210834,1.341721945169764,1.2521813606244592,11.38
3.5871845438691934,0.25897747516210834,1.341721945169764,1.2521813606244592,11.38
3.5871845438691934,0.25897747516210834,1.3359889308428121,1.2521813606244592,11.38
3.5871845438691934,0.25897747516210834,1.3243420727331001,1.2197543232226495,11.38
3.5871845438691934,0.25897747516210834,1.3243420727331001,1.2197543232226495,11.38
3.5871845438691934,0.25897747516210834,1.3243420727331001,1.2197543232226495,11.38
3.5871845438691934,0.25897747516210834,1.3205326483933981,1.2197543232226495,11.38
3.5871845438691934,0.25897747516210834,1.3141116891594637,1.2197543232226495,11.38
3.5871845438691934,0.25897747516210834,1.3125373886983678,1.2197543232226495,11.38
3.5871845438691934,0.25897747516210834,1.3125373886983678,1.2197543232226495,11.38
3.5871845438691934,0.25897747516210834,1.3125373886983678,1.2197543232226495,11.38
3.5871845438691934,0.25897747516210834,1.3125373886983678,1.2197543232226495,11.38
3.5871845438691934,0.25897747516210834,1.3125373886983678,1.2197543232226495,11.38
3.5871845438691934,0.25897747516210834,1.3109686059528953,1.2197543232226495,11.38
3.5871845438691934,0.25897747516210834,1.3107986616718281,1.2197543232226495,11.38
3.5871845438691934,0.25897747516210834,1.3107986616718281,1.2197543232226495,11.38
3.5871845438691934,0.25897747516210834,1.3055502154069552,1.2197543232226495,11.38
3.5871845438691934,0.25897747516210834,1.3055502154069552,1.2197543232226495,11.38
3.5871845438691934,0.25897747516210834,1.297743638276885,1.2164919021905636,11.38
3.5871845438691934,0.25897747516210834,1.2868099608381474,1.212969197255602,11.38
3.5871845438691934,0.25897747516210834,1.2731438208913708,1.2022703109928932,11.38
3.5871845438691934,0.25897747516210834,1.2659882441779837,1.157962479630633,11.38
3.5871845438691934,0.25897747516210834,1.2659882441779837,1.157962479630633,11.38
3.5871845438691934,0.25897747516210834,1.2659882441779837,1.157962479630633,11.38
3.5871845438691934,0.25897747516210834,1.2539189669941462,1.157962479630633,11.38
3.5871845438691934,0.25897747516210834,1.2539189669941462,1.157962479630633,11.38
3.5871845438691934,0.25897747516210834,1.2539189669941462,1.157962479630633,11.38
3.5871845438691934,0.25897747516210834,1.2539189669941462,1.157962479630633,11.38
3.5871845438691934,0.25897747516210834,1.2539189669941462,1.157962479630633,11.38
3.5871845438691934,0.25897747516210834,1.2539189669941462,1.157962479630633,11.38
3.5871845438691934,0.25897747516210834,1.2539189669941462,1.157962479630633,11.38
3.5871845438691934,0.25897747516210834,1.2539189669941462,1.157962479630633,11.38
3.5871845438691934,0.25897747516210834,1.2539189669941462,1.157962479630633,11.38
3.5871845438691934,0.25897747516210834,1.2539189669941462,1.157962479630633,11.38
3.5871845438691934,0.25897747516210834,1.2539189669941462,1.157962479630633,11.38
3.5871845438691934,0.25897747516210834,1.2539189669941462,1.157962479630633,11.38
3.5871845438691934,0.25897747516210834,1.2539189669941462,1.157962479630633,11.38
3.5871845438691934,0.25897747516210834,1.2539189669941462,1.157962479630633,11.38
3.5871845438691934,0.25897747516210834,1.2539189669941462,1.157962479630633,11.38
3.5871845438691934,0.25897747516210834,1.2539189669941462,1.157962479630633,11.38
3.5871845438691934,0.25897747516210834,1.2539189669941462,1.157962479630633,11.38
3.5871845438691934,0.25897747516210834,1.2539189669941462,1.157962479630633,11.38
3.5871845438691934,0.25897747516210834,1.2539189669941462,1.157962479630633,11.38
3.5871845438691934,0.25897747516210834,1.2539189669941462,1.157962479630633,11.38
3.5871845438691934,0.25897747516210834,1.241405042913326,1.1219210459493814,11.38
3.5871845438691934,0.25897747516210834,1.241405042913326,1.1219210459493814,11.38
3.5871845438691934,0.25897747516210834,1.241405042913326,1.1219210459493814,11.38
3.5871845438691934,0.25897747516210834,1.241405042913326,1.1219210459493814,11.38
3.5871845438691934,0.25897747516210834,1.241405042913326,1.1219210459493814,11.38
3.5871845438691934,0.25897747516210834,1.2362886750959974,1.1219210459493814,11.38
3.5871845438691934,0.25897747516210834,1.2362886750959974,1.1219210459493814,11.38
3.5871845438691934,0.24220662504088797,1.2234887719275127,1.1176682706969907,11.38
3.5871845438691934,0.24220662504088797,1.2212870205088193,1.1176682706969907,11.38
3.5871845438691934,0.24220662504088797,1.2212870205088193,1.1176682706969907,11.38
3.5871845438691934,0.24220662504088797,1.220301970637755,1.1176682706969907,11.38
3.5871845438691934,0.24220662504088797,1.210547964006434,1.1003868668697208,11.38
3.5871845438691934,0.24220662504088797,1.210547964006434,1.1003868668697208,11.38
3.5871845438691934,0.24220662504088797,1.210547964006434,1.1003868668697208,11.38
3.5871845438691934,0.24220662504088797,1.210547964006434,1.1003868668697208,11.38
3.5871845438691934,0.24220662504088797,1.210547964006434,1.1003868668697208,11.38
3.5871845438691934,0.24220662504088797,1.210547964006434,1.1003868668697208,11.38
3.5871845438691934,0.24220662504088797,1.210547964006434,1.1003868668697208,11.38
3.5871845438691934,0.24220662504088797,1.210547964006434,1.1003868668697208,11.38
3.5871845438691934,0.24220662504088797,1.210547964006434,1.1003868668697208,11.38
3.5871845438691934,0.24220662504088797,1.210547964006434,1.1003868668697208,11.38
3.5871845438691934,0.24220662504088797,1.210547964006434,1.1003868668697208,11.38
3.5871845438691934,0.24220662504088797,1.210547964006434,1.1003868668697208,11.38
3.5871845438691934,0.24220662504088797,1.210547964006434,1.1003868668697208,11.38
3.5871845438691934,0.24220662504088797,1.210547964006434,1.1003868668697208,11.38
3.5871845438691934,0.24220662504088797,1.210547964006434,1.1003868668697208,11.38
3.5871845438691934,0.24220662504088797,1.210547964006434,1.1003868668697208,11.38
3.5871845438691934,0.24220662504088797,1.1957294070326245,1.0664566544565486,11.38
3.5871845438691934,0.24220662504088797,1.1957294070326245,1.0664566544565486,11.38
3.5871845438691934,0.24220662504088797,1.183802306123375,1.0393859160760766,11.38
3.5871845438691934,0.24220662504088797,1.183802306123375,1.0393859160760766,11.38
3.5871845438691934,0.24220662504088797,1.179088177641798,1.0393859160760766,11.38
3.5871845438691934,0.24220662504088797,1.179088177641798,1.0393859160760766,11.38
3.5871845438691934,0.24220662504088797,1.1667044925868622,1.0317488432385113,11.38
3.5871845438691934,0.24220662504088797,1.1667044925868622,1.0317488432385113,11.38
3.5871845438691934,0.24220662504088797,1.1667044925868622,1.0317488432385113,11.38
3.5871845438691934,0.24220662504088797,1.1667044925868622,1.0317488432385113,11.38
3.5871845438691934,0.24220662504088797,1.1667044925868622,1.0317488432385113,11.38
3.5871845438691934,0.24220662504088797,1.1667044925868622,1.0317488432385113,11.38
3.5871845438691934,0.24220662504088797,1.1571772394497843,1.0148667337016641,11.38
3.5871845438691934,0.24220662504088797,1.1495517707452136,1.0148667337016641,11.38
3.5871845438691934,0.24220662504088797,1.1466796061844358,1.0148667337016641,11.38
3.5871845438691934,0.24220662504088797,1.1466796061844358,1.0148667337016641,11.38
3.5871845438691934,0.24220662504088797,1.1466796061844358,1.0148667337016641,11.38
3.5871845438691934,0.24220662504088797,1.1466796061844358,1.0148667337016641,11.38
3.5871845438691934,0.24220662504088797,1.145729840452866,1.0148667337016641,11.38
3.5871845438691934,0.24220662504088797,1.145729840452866,1.0148667337016641,11.38
3.5871845438691934,0.24220662504088797,1.145729840452866,1.0148667337016641,11.38
3.5871845438691934,0.24220662504088797,1.145729840452866,1.0148667337016641,11.38
3.5871845438691934,0.24220662504088797,1.145729840452866,1.0148667337016641,11.38
3.5871845438691934,0.24220662504088797,1.145729840452866,1.0148667337016641,11.38
3.5871845438691934,0.24220662504088797,1.1309243140869656,1.0148667337016641,11.38
3.5871845438691934,0.24220662504088797,1.1309243140869656,1.0148667337016641,11.38
3.5871845438691934,0.24220662504088797,1.1309243140869656,1.0148667337016641,11.38
3.5871845438691934,0.24220662504088797,1.1309243140869656,1.0148667337016641,11.38
3.5871845438691934,0.24220662504088797,1.1309243140869656,1.0148667337016641,11.38
3.5871845438691934,0.24220662504088797,1.1156693294266704,0.9982439493071127,11.38
3.5871845438691934,0.24220662504088797,1.1156693294266704,0.9982439493071127,11.38
3.5871845438691934,0.24220662504088797,1.1143775441970867,0.9982439493071127,11.38
3.5871845438691934,0.24220662504088797,1.1143775441970867,0.9982439493071127,11.38
3.5871845438691934,0.24220662504088797,1.1135427839186263,0.9982439493071127,11.38
3.5871845438691934,0.24220662504088797,1.1135427839186263,0.9982439493071127,11.38
3.5871845438691934,0.24220662504088797,1.1135427839186263,0.9982439493071127,11.38
3.5871845438691934,0.24220662504088797,1.1135427839186263,0.9982439493071127,11.38
3.5871845438691934,0.24220662504088797,1.0903070094856642,0.9714556028039745,11.38
3.5871845438691934,0.24220662504088797,1.0903070094856642,0.9714556028039745,11.38
3.5871845438691934,0.24220662504088797,1.0894196854524594,0.9714556028039745,11.38
3.5871845438691934,0.24220662504088797,1.0894196854524594,0.9714556028039745,11.38
3.5871845438691934,0.24220662504088797,1.0884573783610894,0.9714556028039745,11.38
3.5871845438691934,0.24220662504088797,1.0884573783610894,0.9714556028039745,11.38
3.5871845438691934,0.24220662504088797,1.0846887354530999,0.9714556028039745,11.38
3.5871845438691934,0.24220662504088797,1.0846887354530999,0.9714556028039745,11.38
3.5871845438691934,0.24220662504088797,1.0846887354530999,0.9714556028039745,11.38
3.5871845438691934,0.24220662504088797,1.0846887354530999,0.9714556028039745,11.38
3.5871845438691934,0.24220662504088797,1.0846887354530999,0.9714556028039745,11.38
3.5871845438691934,0.24220662504088797,1.0846887354530999,0.9714556028039745,11.38
3.5871845438691934,0.24220662504088797,1.0846887354530999,0.9714556028039745,11.38
3.5871845438691934,0.24220662504088797,1.0846887354530999,0.9714556028039745,11.38
3.5871845438691934,0.24220662504088797,1.0825993610214986,0.9354974434506373,11.38
3.5871845438691934,0.24220662504088797,1.0797018510175445,0.9354974434506373,11.38
3.5871845438691934,0.24220662504088797,1.0795034094765419,0.9354974434506373,11.38
3.5871845438691934,0.24220662504088797,1.0674945279629595,0.9354974434506373,11.38
3.5871845438691934,0.24220662504088797,1.0628197669258816,0.9251461362415241,11.38
3.5871845438691934,0.24220662504088797,1.0582273870287593,0.9251461362415241,11.38
3.5871845438691934,0.24220662504088797,1.0582273870287593,0.9251461362415241,11.38
3.5871845438691934,0.24220662504088797,1.0582273870287593,0.9251461362415241,11.38
3.5871845438691934,0.24220662504088797,1.0582273870287593,0.9251461362415241,11.38
3.5871845438691934,0.24220662504088797,1.0582273870287593,0.9251461362415241,11.38
3.5871845438691934,0.24220662504088797,1.0582273870287593,0.9251461362415241,11.38
3.5871845438691934,0.24220662504088797,1.0582273870287593,0.9251461362415241,11.38
3.5871845438691934,0.24220662504088797,1.0582273870287593,0.9251461362415241,11.38
3.5871845438691934,0.24220662504088797,1.0577134718860008,0.9251461362415241,11.38
3.5871845438691934,0.24220662504088797,1.0561140282501738,0.9251461362415241,11.38
3.5871845438691934,0.24220662504088797,1.0561140282501738,0.9251461362415241,11.38
3.5871845438691934,0.24220662504088797,1.0561140282501738,0.9251461362415241,11.38
3.5871845438691934,0.24220662504088797,1.0522587712715987,0.9251461362415241,11.38
3.5871845438691934,0.24220662504088797,1.0440723489127828,0.9251461362415241,11.38
3.5871845438691934,0.24220662504088797,1.0440723489127828,0.9251461362415241,11.38
3.5871845438691934,0.24220662504088797,1.0295280791567845,0.9176882444360496,11.38
3.5871845438691934,0.24220662504088797,1.0295280791567845,0.9176882444360496,11.38
3.5871845438691934,0.24220662504088797,1.0295280791567845,0.9176882444360496,11.38
3.5871845438691934,0.24220662504088797,1.0122430799765199,0.9176882444360496,11.38
3.5871845438691934,0.24220662504088797,1.0122430799765199,0.9176882444360496,11.38
3.5871845438691934,0.24220662504088797,1.0122430799765199,0.9176882444360496,11.38
3.5871845438691934,0.24220662504088797,1.0122430799765199,0.9176882444360496,11.38
3.5871845438691934,0.24220662504088797,1.011061896158825,0.9176882444360496,11.38
3.5871845438691934,0.24220662504088797,1.011061896158825,0.9176882444360496,11.38
3.5871845438691934,0.24220662504088797,1.011061896158825,0.9176882444360496,11.38
3.5871845438691934,0.24220662504088797,1.011061896158825,0.9176882444360496,11.38
3.5871845438691934,0.24220662504088797,1.011061896158825,0.9176882444360496,11.38
3.5871845438691934,0.24220662504088797,1.011061896158825,0.9176882444360496,11.38
3.5871845438691934,0.24220662504088797,1.011061896158825,0.9176882444360496,11.38
3.5871845438691934,0.24220662504088797,1.011061896158825,0.9176882444360496,11.38
3.5871845438691934,0.24220662504088797,1.011061896158825,0.9176882444360496,11.38
3.5871845438691934,0.24220662504088797,1.0054484923453926,0.9033891218771233,11.38
3.5871845438691934,0.24220662504088797,1.0054484923453926,0.9033891218771233,11.38
3.5871845438691934,0.24220662504088797,1.0010874299852583,0.9033891218771233,11.38
3.5871845438691934,0.24220662504088797,1.0010874299852583,0.9033891218771233,11.38
3.5871845438691934,0.24220662504088797,1.0010874299852583,0.9033891218771233,11.38
3.5871845438691934,0.1130153650950182,0.9838179457928312,0.8942728526012376,11.38
3.5871845438691934,0.1130153650950182,0.9838179457928312,0.8942728526012376,11.38
3.5871845438691934,0.1130153650950182,0.9838179457928312,0.8942728526012376,11.38
3.5871845438691934,0.1130153650950182,0.974463863638466,0.8862033819880744,11.38
3.5871845438691934,0.1130153650950182,0.974463863638466,0.8862033819880744,11.38
3.5871845438691934,0.1130153650950182,0.974463863638466,0.8862033819880744,11.38
3.5871845438691934,0.1130153650950182,0.974463863638466,0.8862033819880744,11.38
3.5871845438691934,0.1130153650950182,0.974463863638466,0.8862033819880744,11.38
3.5871845438691934,0.1130153650950182,0.9682945628704147,0.876994279132306,11.38
3.5871845438691934,0.1130153650950182,0.967264000922282,0.876994279132306,11.38
3.5871845438691934,0.1130153650950182,0.9565862043753433,0.876994279132306,11.38
3.5871845438691934,0.1130153650950182,0.9565862043753433,0.876994279132306,11.38
3.5871845438691934,0.1130153650950182,0.9565862043753433,0.876994279132306,11.38
3.5871845438691934,0.1130153650950182,0.9565862043753433,0.876994279132306,11.38
3.5871845438691934,0.1130153650950182,0.9565862043753433,0.876994279132306,11.38
3.5871845438691934,0.09494435901181186,0.9545821386613396,0.876994279132306,11.38
3.5871845438691934,0.09494435901181186,0.9545821386613396,0.876994279132306,11.38
3.5871845438691934,0.09494435901181186,0.9545821386613396,0.876994279132306,11.38
3.5871845438691934,0.09494435901181186,0.9517959572622701,0.876994279132306,11.38
3.5871845438691934,0.09494435901181186,0.9517959572622701,0.876994279132306,11.38
3.5871845438691934,0.09494435901181186,0.9517959572622701,0.876994279132306,11.38
3.5871845438691934,0.09494435901181186,0.9411929270867536,0.8698575597544688,11.38
3.5871845438691934,0.09494435901181186,0.9411929270867536,0.8698575597544688,11.38
3.5871845438691934,0.09494435901181186,0.9411929270867536,0.8698575597544688,11.38
3.5871845438691934,0.09494435901181186,0.9411929270867536,0.8698575597544688,11.38
3.5871845438691934,0.09494435901181186,0.9411929270867536,0.8698575597544688,11.38
3.5871845438691934,0.09494435901181186,0.9411929270867536,0.8698575597544688,11.38
3.5871845438691934,0.09494435901181186,0.9411929270867536,0.8698575597544688,11.38
3.5871845438691934,0.09494435901181186,0.9341175055180664,0.8698575597544688,11.38
3.5871845438691934,0.09494435901181186,0.9341175055180664,0.8698575597544688,11.38
3.5871845438691934,0.09494435901181186,0.9341175055180664,0.8698575597544688,11.38
3.5871845438691934,0.09494435901181186,0.9341175055180664,0.8698575597544688,11.38
3.5871845438691934,0.09494435901181186,0.9341175055180664,0.8698575597544688,11.38
3.5871845438691934,0.09494435901181186,0.9341175055180664,0.8698575597544688,11.38
3.5871845438691934,0.09494435901181186,0.9294259305252772,0.8698575597544688,11.38
3.5871845438691934,0.09494435901181186,0.9294259305252772,0.8698575597544688,11.38
3.5871845438691934,0.09494435901181186,0.9294259305252772,0.8698575597544688,11.38
3.5871845438691934,0.09494435901181186,0.9294259305252772,0.8698575597544688,11.38
3.5871845438691934,0.09494435901181186,0.9294259305252772,0.8698575597544688,11.38
3.5871845438691934,0.09494435901181186,0.9236467469081354,0.8698575597544688,11.38
3.5871845438691934,0.09494435901181186,0.9236467469081354,0.8698575597544688,11.38
3.5871845438691934,0.09494435901181186,0.9236467469081354,0.8698575597544688,11.38
3.5871845438691934,0.09494435901181186,0.9149409370756614,0.8648837058963337,11.38
3.5871845438691934,0.09494435901181186,0.9149409370756614,0.8648837058963337,11.38
3.5871845438691934,0.09494435901181186,0.9149409370756614,0.8648837058963337,11.38
3.5871845438691934,0.09494435901181186,0.9149409370756614,0.8648837058963337,11.38
3.5871845438691934,0.09494435901181186,0.9149409370756614,0.8648837058963337,11.38
3.5871845438691934,0.09494435901181186,0.9149409370756614,0.8648837058963337,11.38
3.5871845438691934,0.09494435901181186,0.9149409370756614,0.8648837058963337,11.38
3.5871845438691934,0.09494435901181186,0.9149409370756614,0.8648837058963337,11.38
3.5871845438691934,0.09494435901181186,0.9083424630194868,0.8648837058963337,11.38
3.5871845438691934,0.09494435901181186,0.9083424630194868,0.8648837058963337,11.38
3.5871845438691934,0.09494435901181186,0.9083424630194868,0.8648837058963337,11.38
3.5871845438691934,0.09494435901181186,0.9083424630194868,0.8648837058963337,11.38
3.5871845438691934,0.09494435901181186,0.9083424630194868,0.8648837058963337,11.38
3.5871845438691934,0.09494435901181186,0.9083424630194868,0.8648837058963337,11.38
2.703155925446258,0.09494435901181186,0.8995021768352573,0.8648837058963337,11.38
2.703155925446258,0.09494435901181186,0.8995021768352573,0.8648837058963337,11.38
2.703155925446258,0.09494435901181186,0.8995021768352573,0.8648837058963337,11.38
2.703155925446258,0.09494435901181186,0.8995021768352573,0.8648837058963337,11.38
2.703155925446258,0.09494435901181186,0.8995021768352573,0.8648837058963337,11.38
2.703155925446258,0.09494435901181186,0.8995021768352573,0.8648837058963337,11.38
2.703155925446258,0.09494435901181186,0.8995021768352573,0.8648837058963337,11.38
2.703155925446258,0.09494435901181186,0.8995021768352573,0.8648837058963337,11.38
2.703155925446258,0.09494435901181186,0.8995021768352573,0.8648837058963337,11.38
2.703155925446258,0.09494435901181186,0.8995021768352573,0.8648837058963337,11.38
2.703155925446258,0.09494435901181186,0.8995021768352573,0.8648837058963337,11.38
2.703155925446258,0.09494435901181186,0.8995021768352573,0.8648837058963337,11.38
2.703155925446258,0.09494435901181186,0.8995021768352573,0.8648837058963337,11.38
2.703155925446258,0.09494435901181186,0.8995021768352573,0.8648837058963337,11.38
2.703155925446258,0.09494435901181186,0.8995021768352573,0.8648837058963337,11.38
2.703155925446258,0.09494435901181186,0.8995021768352573,0.8648837058963337,11.38
2.703155925446258,0.09494435901181186,0.8829722398540152,0.8648837058963337,11.38
2.703155925446258,0.09494435901181186,0.8805607020999942,0.8648837058963337,11.38
2.703155925446258,0.09494435901181186,0.8805607020999942,0.8648837058963337,11.38
2.703155925446258,0.09494435901181186,0.8805607020999942,0.8648837058963337,11.38
2.703155925446258,0.09494435901181186,0.8716455802523951,0.8605453210015637,11.38
2.703155925446258,0.09494435901181186,0.8716455802523951,0.8605453210015637,11.38
2.703155925446258,0.09494435901181186,0.8716455802523951,0.8605453210015637,11.38
2.703155925446258,0.09494435901181186,0.8716455802523951,0.8605453210015637,11.38
2.703155925446258,0.09494435901181186,0.8716455802523951,0.8605453210015637,11.38
2.703155925446258,0.09494435901181186,0.8716455802523951,0.8605453210015637,11.38
2.703155925446258,0.09494435901181186,0.8716455802523951,0.8605453210015637,11.38
2.1824889633911275,0.09494435901181186,0.8664389106318439,0.8605453210015637,11.38
2.1824889633911275,0.09494435901181186,0.8664389106318439,0.8605453210015637,11.38
2.1824889633911275,0.09494435901181186,0.8664389106318439,0.8605453210015637,11.38
2.1824889633911275,0.09494435901181186,0.8624330399765909,0.84972916470755,11.38
2.1824889633911275,0.09494435901181186,0.8624330399765909,0.84972916470755,11.38
2.1824889633911275,0.09494435901181186,0.8624330399765909,0.84972916470755,11.38
2.1824889633911275,0.09494435901181186,0.8609340781790021,0.8346766608415154,11.38
2.1824889633911275,0.09494435901181186,0.8609340781790021,0.8346766608415154,11.38
2.1824889633911275,0.09494435901181186,0.8609340781790021,0.8346766608415154,11.38
2.1824889633911275,0.09494435901181186,0.8594951182202935,0.8346766608415154,11.38
2.1824889633911275,0.09494435901181186,0.8594951182202935,0.8346766608415154,11.38
2.1824889633911275,0.09494435901181186,0.85880140290945,0.8346766608415154,11.38
2.1824889633911275,0.09494435901181186,0.85880140290945,0.8346766608415154,11.38
2.1824889633911275,0.09494435901181186,0.85880140290945,0.8346766608415154,11.38
2.1824889633911275,0.09494435901181186,0.8573780701940505,0.8346766608415154,11.38
2.1824889633911275,0.09494435901181186,0.8573780701940505,0.8346766608415154,11.38
2.1824889633911275,0.09494435901181186,0.8512679893952853,0.8112340214501976,11.38
2.1824889633911275,0.09494435901181186,0.8512679893952853,0.8112340214501976,11.38
2.1824889633911275,0.09494435901181186,0.8512679893952853,0.8112340214501976,11.38
1.6895944571573018,0.09494435901181186,0.8440660152761388,0.8112340214501976,11.38
1.6895944571573018,0.09494435901181186,0.8440660152761388,0.8112340214501976,11.38
1.6895944571573018,0.09494435901181186,0.8440660152761388,0.8112340214501976,11.38
1.583529677676062,0.09494435901181186,0.8317711934806169,0.7949488232127602,11.38
1.583529677676062,0.09494435901181186,0.8317711934806169,0.7949488232127602,11.38
1.583529677676062,0.09494435901181186,0.8317711934806169,0.7949488232127602,11.38
1.583529677676062,0.09494435901181186,0.8317711934806169,0.7949488232127602,11.38
1.583529677676062,0.09494435901181186,0.8317711934806169,0.7949488232127602,11.38
1.583529677676062,0.09494435901181186,0.8317711934806169,0.7949488232127602,11.38
1.583529677676062,0.09494435901181186,0.8317711934806169,0.7949488232127602,11.38
1.583529677676062,0.09494435901181186,0.8317711934806169,0.7949488232127602,11.38
1.583529677676062,0.09494435901181186,0.8317711934806169,0.7949488232127602,11.38
1.583529677676062,0.09494435901181186,0.8317711934806169,0.7949488232127602,11.38
1.583529677676062,0.09494435901181186,0.8317711934806169,0.7949488232127602,11.38
1.583529677676062,0.09494435901181186,0.8317711934806169,0.7949488232127602,11.38
1.583529677676062,0.09494435901181186,0.8317711934806169,0.7949488232127602,11.38
1.583529677676062,0.09494435901181186,0.8317711934806169,0.7949488232127602,11.38
1.583529677676062,0.09494435901181186,0.8281799637640722,0.7949488232127602,11.38
1.583529677676062,0.09494435901181186,0.8281799637640722,0.7949488232127602,11.38
1.583529677676062,0.09494435901181186,0.8281799637640722,0.7949488232127602,11.38
1.583529677676062,0.09494435901181186,0.8281799637640722,0.7949488232127602,11.38
1.583529677676062,0.09494435901181186,0.8281799637640722,0.7949488232127602,11.38
1.583529677676062,0.09494435901181186,0.8281799637640722,0.7949488232127602,11.38
1.583529677676062,0.09494435901181186,0.8264169027590761,0.7914541744666228,11.38
1.583529677676062,0.09494435901181186,0.8264169027590761,0.7914541744666228,11.38
1.583529677676062,0.09494435901181186,0.8264169027590761,0.7914541744666228,11.38
1.583529677676062,0.09494435901181186,0.8264169027590761,0.7914541744666228,11.38
1.583529677676062,0.09494435901181186,0.8264169027590761,0.7914541744666228,11.38
1.583529677676062,0.09494435901181186,0.8264169027590761,0.7914541744666228,11.38
1.583529677676062,0.09494435901181186,0.8187351770456484,0.7871559916271282,11.38
1.583529677676062,0.09494435901181186,0.8187351770456484,0.7871559916271282,11.38
1.583529677676062,0.09494435901181186,0.8187351770456484,0.7871559916271282,11.38
1.583529677676062,0.09494435901181186,0.8187351770456484,0.7871559916271282,11.38
1.583529677676062,0.09494435901181186,0.8173667896984991,0.7871559916271282,11.38
1.583529677676062,0.09494435901181186,0.8173667896984991,0.7871559916271282,11.38
1.583529677676062,0.09494435901181186,0.8173667896984991,0.7871559916271282,11.38
1.583529677676062,0.09494435901181186,0.8173667896984991,0.7871559916271282,11.38
1.583529677676062,0.09494435901181186,0.8173667896984991,0.7871559916271282,11.38
1.583529677676062,0.09494435901181186,0.8173667896984991,0.7871559916271282,11.38
1.583529677676062,0.09494435901181186,0.8173667896984991,0.7871559916271282,11.38
1.583529677676062,0.09494435901181186,0.8173667896984991,0.7871559916271282,11.38
1.583529677676062,0.09494435901181186,0.8173667896984991,0.7871559916271282,11.38
1.583529677676062,0.09494435901181186,0.8173667896984991,0.7871559916271282,11.38
1.583529677676062,0.09494435901181186,0.8138887496247993,0.7871559916271282,11.38
1.583529677676062,0.09494435901181186,0.8138887496247993,0.7871559916271282,11.38
1.583529677676062,0.09494435901181186,0.8138887496247993,0.7871559916271282,11.38
1.583529677676062,0.09494435901181186,0.8030977345295015,0.769069726643661,11.38
1.583529677676062,0.09494435901181186,0.8030977345295015,0.769069726643661,11.38
1.583529677676062,0.09494435901181186,0.8030977345295015,0.769069726643661,11.38
1.583529677676062,0.09494435901181186,0.8030977345295015,0.769069726643661,11.38
1.583529677676062,0.09494435901181186,0.8030977345295015,0.769069726643661,11.38
1.583529677676062,0.09494435901181186,0.8030977345295015,0.769069726643661,11.38
1.583529677676062,0.09494435901181186,0.8030977345295015,0.769069726643661,11.38
1.583529677676062,0.09494435901181186,0.8030977345295015,0.769069726643661,11.38
1.583529677676062,0.09494435901181186,0.8030977345295015,0.769069726643661,11.38
1.583529677676062,0.09494435901181186,0.8030977345295015,0.769069726643661,11.38
1.583529677676062,0.09494435901181186,0.8030977345295015,0.769069726643661,11.38
1.583529677676062,0.09494435901181186,0.8030977345295015,0.769069726643661,11.38
1.583529677676062,0.09494435901181186,0.8030977345295015,0.769069726643661,11.38
1.583529677676062,0.09494435901181186,0.8030977345295015,0.769069726643661,11.38
1.583529677676062,0.09494435901181186,0.8030977345295015,0.769069726643661,11.38
1.5134069578350655,0.09494435901181186,0.8014529585210739,0.769069726643661,11.38
1.5134069578350655,0.09494435901181186,0.8014529585210739,0.769069726643661,11.38
1.5134069578350655,0.09494435901181186,0.8014529585210739,0.769069726643661,11.38
1.5134069578350655,0.09494435901181186,0.8014529585210739,0.769069726643661,11.38
1.5134069578350655,0.09494435901181186,0.8014529585210739,0.769069726643661,11.38
1.5134069578350655,0.09494435901181186,0.8014529585210739,0.769069726643661,11.38
1.5134069578350655,0.09494435901181186,0.8014529585210739,0.769069726643661,11.38
1.5134069578350655,0.09494435901181186,0.8014529585210739,0.769069726643661,11.38
1.5134069578350655,0.09494435901181186,0.8014529585210739,0.769069726643661,11.38
1.5134069578350655,0.09494435901181186,0.8014529585210739,0.769069726643661,11.38
1.5134069578350655,0.09494435901181186,0.8014529585210739,0.769069726643661,11.38
1.5134069578350655,0.09494435901181186,0.8014529585210739,0.769069726643661,11.38
1.5134069578350655,0.09494435901181186,0.8014529585210739,0.769069726643661,11.38
1.5134069578350655,0.09494435901181186,0.8014529585210739,0.769069726643661,11.38
1.5134069578350655,0.09494435901181186,0.7987829941767604,0.769069726643661,11.38
1.5134069578350655,0.09494435901181186,0.7987829941767604,0.769069726643661,11.38
1.5134069578350655,0.09494435901181186,0.7987829941767604,0.769069726643661,11.38
1.5134069578350655,0.09494435901181186,0.7987829941767604,0.769069726643661,11.38
1.5134069578350655,0.09494435901181186,0.7987829941767604,0.769069726643661,11.38
1.5134069578350655,0.09494435901181186,0.7987829941767604,0.769069726643661,11.38
1.5134069578350655,0.09494435901181186,0.7934446665891245,0.769069726643661,11.38
1.5134069578350655,0.09494435901181186,0.7934446665891245,0.769069726643661,11.38
1.5134069578350655,0.09494435901181186,0.7934446665891245,0.769069726643661,11.38
1.5134069578350655,0.09494435901181186,0.7934446665891245,0.769069726643661,11.38
1.5134069578350655,0.09494435901181186,0.7934446665891245,0.769069726643661,11.38
1.5134069578350655,0.09494435901181186,0.7934446665891245,0.769069726643661,11.38
1.5134069578350655,0.09494435901181186,0.7934446665891245,0.769069726643661,11.38
1.5134069578350655,0.09494435901181186,0.7929136767907614,0.7519743602734068,11.38
1.5134069578350655,0.09494435901181186,0.7929136767907614,0.7519743602734068,11.38
1.5134069578350655,0.09494435901181186,0.7929136767907614,0.7519743602734068,11.38
1.5134069578350655,0.09494435901181186,0.7892542128740971,0.7519743602734068,11.38
1.5134069578350655,0.09494435901181186,0.7892542128740971,0.7519743602734068,11.38
1.5134069578350655,0.09494435901181186,0.7892542128740971,0.7519743602734068,11.38
1.5134069578350655,0.09494435901181186,0.7892542128740971,0.7519743602734068,11.38
1.5134069578350655,0.09494435901181186,0.7892542128740971,0.7519743602734068,11.38
1.5134069578350655,0.09494435901181186,0.7892542128740971,0.7519743602734068,11.38
1.5134069578350655,0.09494435901181186,0.7892542128740971,0.7519743602734068,11.38
1.5134069578350655,0.09494435901181186,0.7892542128740971,0.7519743602734068,11.38
1.5134069578350655,0.09494435901181186,0.7892542128740971,0.7519743602734068,11.38
1.5134069578350655,0.09494435901181186,0.7892291023991345,0.7519743602734068,11.38
1.5134069578350655,0.09494435901181186,0.7892291023991345,0.7519743602734068,11.38
1.5134069578350655,0.09494435901181186,0.7800254898972758,0.7495152293566139,11.38
1.5134069578350655,0.09494435901181186,0.7800254898972758,0.7495152293566139,11.38
1.5134069578350655,0.09494435901181186,0.7800254898972758,0.7495152293566139,11.38
1.5134069578350655,0.09494435901181186,0.7800254898972758,0.7495152293566139,11.38
1.5134069578350655,0.09494435901181186,0.7800254898972758,0.7495152293566139,11.38
1.5134069578350655,0.09494435901181186,0.7800254898972758,0.7495152293566139,11.38
1.5134069578350655,0.09494435901181186,0.7800254898972758,0.7495152293566139,11.38
1.5134069578350655,0.09494435901181186,0.7800254898972758,0.7495152293566139,11.38
1.5134069578350655,0.09494435901181186,0.7800254898972758,0.7495152293566139,11.38
1.5134069578350655,0.09494435901181186,0.7800254898972758,0.7495152293566139,11.38
1.5134069578350655,0.09494435901181186,0.7800254898972758,0.7495152293566139,11.38
1.5134069578350655,0.0694293259116836,0.7751040334651814,0.7495152293566139,11.38
1.5134069578350655,0.0694293259116836,0.7751040334651814,0.7495152293566139,11.38
1.5134069578350655,0.0694293259116836,0.7751040334651814,0.7495152293566139,11.38
1.5134069578350655,0.0694293259116836,0.7751040334651814,0.7495152293566139,11.38
1.5134069578350655,0.0694293259116836,0.7630503861638103,0.7455573487129034,11.38
1.5134069578350655,0.0694293259116836,0.7630503861638103,0.7455573487129034,11.38
1.5134069578350655,0.0694293259116836,0.7630503861638103,0.7455573487129034,11.38
1.5134069578350655,0.0694293259116836,0.7630503861638103,0.7455573487129034,11.38
1.5134069578350655,0.0694293259116836,0.7630503861638103,0.7455573487129034,11.38
1.5134069578350655,0.0694293259116836,0.7630503861638103,0.7455573487129034,11.38
1.5134069578350655,0.0694293259116836,0.7614407033426012,0.7289080991651911,11.38
1.5134069578350655,0.0694293259116836,0.7614407033426012,0.7289080991651911,11.38
1.5134069578350655,0.0694293259116836,0.7614407033426012,0.7289080991651911,11.38
1.5134069578350655,0.0694293259116836,0.7614407033426012,0.7289080991651911,11.38
1.5134069578350655,0.0694293259116836,0.7614407033426012,0.7289080991651911,11.38
1.5134069578350655,0.0694293259116836,0.7614407033426012,0.7289080991651911,11.38
1.5134069578350655,0.0694293259116836,0.7614407033426012,0.7289080991651911,11.38
1.5134069578350655,0.0694293259116836,0.7614407033426012,0.7289080991651911,11.38
1.5134069578350655,0.0694293259116836,0.7567749819553584,0.7289080991651911,11.38
1.5134069578350655,0.0694293259116836,0.7567749819553584,0.7289080991651911,11.38
1.5134069578350655,0.0694293259116836,0.7567749819553584,0.7289080991651911,11.38
1.5134069578350655,0.0694293259116836,0.7523418989299624,0.71196871697734,11.38
1.5134069578350655,0.0694293259116836,0.7523418989299624,0.71196871697734,11.38
1.5134069578350655,0.0694293259116836,0.7509665358876628,0.71196871697734,11.38
1.5134069578350655,0.0694293259116836,0.7509665358876628,0.71196871697734,11.38
1.5134069578350655,0.0694293259116836,0.7509665358876628,0.71196871697734,11.38
1.5134069578350655,0.0694293259116836,0.7509665358876628,0.71196871697734,11.38
1.5134069578350655,0.0694293259116836,0.7509665358876628,0.71196871697734,11.38
1.5134069578350655,0.0694293259116836,0.7509665358876628,0.71196871697734,11.38
1.5134069578350655,0.0694293259116836,0.7509665358876628,0.71196871697734,11.38
1.5134069578350655,0.0694293259116836,0.7509665358876628,0.71196871697734,11.38
1.5134069578350655,0.0694293259116836,0.7509665358876628,0.71196871697734,11.38
1.5134069578350655,0.0694293259116836,0.7509665358876628,0.71196871697734,11.38
1.5134069578350655,0.0694293259116836,0.7509665358876628,0.71196871697734,11.38
1.5134069578350655,0.0694293259116836,0.7509665358876628,0.71196871697734,11.38
1.5134069578350655,0.0694293259116836,0.7509665358876628,0.71196871697734,11.38
1.5134069578350655,0.0694293259116836,0.7509665358876628,0.71196871697734,11.38
1.5134069578350655,0.0694293259116836,0.7509665358876628,0.71196871697734,11.38
1.5134069578350655,0.0694293259116836,0.7509665358876628,0.71196871697734,11.38
1.5134069578350655,0.0694293259116836,0.7509665358876628,0.71196871697734,11.38
1.5134069578350655,0.0694293259116836,0.7509665358876628,0.71196871697734,11.38
1.5134069578350655,0.0694293259116836,0.7509665358876628,0.71196871697734,11.38
1.5134069578350655,0.0694293259116836,0.7509665358876628,0.71196871697734,11.38
1.5134069578350655,0.0694293259116836,0.7509665358876628,0.71196871697734,11.38
1.5134069578350655,0.0694293259116836,0.7467763958683297,0.71196871697734,11.38
1.5134069578350655,0.0694293259116836,0.7467763958683297,0.71196871697734,11.38
1.5134069578350655,0.0694293259116836,0.7467763958683297,0.71196871697734,11.38
1.5134069578350655,0.0694293259116836,0.7467763958683297,0.71196871697734,11.38
1.50941328166384,0.0694293259116836,0.7442765385341896,0.71196871697734,11.38
1.50941328166384,0.0694293259116836,0.7442765385341896,0.71196871697734,11.38
1.50941328166384,0.0694293259116836,0.7442765385341896,0.71196871697734,11.38
1.50941328166384,0.0694293259116836,0.7442765385341896,0.71196871697734,11.38
1.50941328166384,0.0694293259116836,0.7442765385341896,0.71196871697734,11.38
1.50941328166384,0.0694293259116836,0.7442765385341896,0.71196871697734,11.38
1.50941328166384,0.0694293259116836,0.7442765385341896,0.71196871697734,11.38
1.50941328166384,0.0694293259116836,0.7442765385341896,0.71196871697734,11.38
1.50941328166384,0.0694293259116836,0.7442765385341896,0.71196871697734,11.38
1.50941328166384,0.0694293259116836,0.7442765385341896,0.71196871697734,11.38
1.50941328166384,0.0694293259116836,0.7442765385341896,0.71196871697734,11.38
1.50941328166384,0.0694293259116836,0.7442765385341896,0.71196871697734,11.38
1.50941328166384,0.0694293259116836,0.7403529593922188,0.71196871697734,11.38
1.50941328166384,0.0694293259116836,0.7403529593922188,0.71196871697734,11.38
1.50941328166384,0.0694293259116836,0.7403529593922188,0.71196871697734,11.38
1.50941328166384,0.0694293259116836,0.7403529593922188,0.71196871697734,11.38
1.50941328166384,0.0694293259116836,0.7403529593922188,0.71196871697734,11.38
1.50941328166384,0.0694293259116836,0.736014951367456,0.71196871697734,11.38
1.50941328166384,0.0694293259116836,0.736014951367456,0.71196871697734,11.38
1.50941328166384,0.0694293259116836,0.736014951367456,0.71196871697734,11.38
1.50941328166384,0.0694293259116836,0.736014951367456,0.71196871697734,11.38
1.50941328166384,0.0694293259116836,0.736014951367456,0.71196871697734,11.38
1.50941328166384,0.0694293259116836,0.736014951367456,0.71196871697734,11.38
1.50941328166384,0.0694293259116836,0.736014951367456,0.71196871697734,11.38
1.50941328166384,0.0694293259116836,0.736014951367456,0.71196871697734,11.38
1.50941328166384,0.0694293259116836,0.7316365267592437,0.6961672303868105,11.38
1.50941328166384,0.0694293259116836,0.7316365267592437,0.6961672303868105,11.38
1.50941328166384,0.0694293259116836,0.7316365267592437,0.6961672303868105,11.38
1.50941328166384,0.0694293259116836,0.7316365267592437,0.6961672303868105,11.38
1.50941328166384,0.0694293259116836,0.7316365267592437,0.6961672303868105,11.38
1.50941328166384,0.0694293259116836,0.7316365267592437,0.6961672303868105,11.38
1.50941328166384,0.0694293259116836,0.7316365267592437,0.6961672303868105,11.38
1.50941328166384,0.0694293259116836,0.73109930988591,0.6961672303868105,11.38
1.50941328166384,0.0694293259116836,0.73109930988591,0.6961672303868105,11.38
1.50941328166384,0.0694293259116836,0.73109930988591,0.6961672303868105,11.38
1.50941328166384,0.0694293259116836,0.73109930988591,0.6961672303868105,11.38
1.50941328166384,0.0694293259116836,0.73109930988591,0.6961672303868105,11.38
1.50941328166384,0.0694293259116836,0.7285752993465675,0.6961672303868105,11.38
1.50941328166384,0.0694293259116836,0.7285752993465675,0.6961672303868105,11.38
1.50941328166384,0.0694293259116836,0.7285752993465675,0.6961672303868105,11.38
1.50941328166384,0.0694293259116836,0.7285752993465675,0.6961672303868105,11.38
1.50941328166384,0.0694293259116836,0.7285752993465675,0.6961672303868105,11.38
1.50941328166384,0.0694293259116836,0.7285752993465675,0.6961672303868105,11.38
1.50941328166384,0.0694293259116836,0.7285752993465675,0.6961672303868105,11.38
1.50941328166384,0.0694293259116836,0.7285752993465675,0.6961672303868105,11.38
1.50941328166384,0.0694293259116836,0.7285752993465675,0.6961672303868105,11.38
1.50941328166384,0.0694293259116836,0.7285752993465675,0.6961672303868105,11.38
1.50941328166384,0.0694293259116836,0.7283973831386166,0.6961672303868105,11.38
1.50941328166384,0.0694293259116836,0.7283973831386166,0.6961672303868105,11.38
1.50941328166384,0.0694293259116836,0.7279398412276487,0.6961672303868105,11.38
1.50941328166384,0.0694293259116836,0.7279398412276487,0.6961672303868105,11.38
1.50941328166384,0.0694293259116836,0.7279398412276487,0.6961672303868105,11.38
1.50941328166384,0.0694293259116836,0.7279398412276487,0.6961672303868105,11.38
1.50941328166384,0.0694293259116836,0.7279398412276487,0.6961672303868105,11.38
1.50941328166384,0.0694293259116836,0.7279398412276487,0.6961672303868105,11.38
1.50941328166384,0.0694293259116836,0.7279398412276487,0.6961672303868105,11.38
1.50941328166384,0.0694293259116836,0.7279398412276487,0.6961672303868105,11.38
1.50941328166384,0.0694293259116836,0.7279398412276487,0.6961672303868105,11.38
1.50941328166384,0.0694293259116836,0.7279398412276487,0.6961672303868105,11.38
1.50941328166384,0.0694293259116836,0.7279398412276487,0.6961672303868105,11.38
1.50941328166384,0.0694293259116836,0.7242843341987313,0.6961672303868105,11.38
1.50941328166384,0.0694293259116836,0.7227249309612713,0.6961672303868105,11.38
1.50941328166384,0.0694293259116836,0.7227249309612713,0.6961672303868105,11.38
1.50941328166384,0.0694293259116836,0.7209789369474094,0.6961672303868105,11.38
1.50941328166384,0.0694293259116836,0.7209789369474094,0.6961672303868105,11.38
1.50941328166384,0.0694293259116836,0.7209789369474094,0.6961672303868105,11.38
1.50941328166384,0.0694293259116836,0.7209789369474094,0.6961672303868105,11.38
1.50941328166384,0.0694293259116836,0.7209789369474094,0.6961672303868105,11.38
1.50941328166384,0.0694293259116836,0.7209789369474094,0.6961672303868105,11.38
1.50941328166384,0.0694293259116836,0.7209789369474094,0.6961672303868105,11.38
1.50941328166384,0.0694293259116836,0.7209789369474094,0.6961672303868105,11.38
1.50941328166384,0.0694293259116836,0.7209789369474094,0.6961672303868105,11.38
1.50941328166384,0.0694293259116836,0.7209789369474094,0.6961672303868105,11.38
1.50941328166384,0.0694293259116836,0.7209789369474094,0.6961672303868105,11.38
1.50941328166384,0.0694293259116836,0.7118527198352609,0.6756521562474376,11.38
1.50941328166384,0.0694293259116836,0.7118527198352609,0.6756521562474376,11.38
1.50941328166384,0.0694293259116836,0.7118527198352609,0.6756521562474376,11.38
1.50941328166384,0.0694293259116836,0.7118332843255812,0.6756521562474376,11.38
1.50941328166384,0.0694293259116836,0.7118332843255812,0.6756521562474376,11.38
1.50941328166384,0.0694293259116836,0.7044076845959018,0.6663311966614398,11.38
1.50941328166384,0.0694293259116836,0.7044076845959018,0.6663311966614398,11.38
1.50941328166384,0.0694293259116836,0.7044076845959018,0.6663311966614398,11.38
1.50941328166384,0.0694293259116836,0.7044076845959018,0.6663311966614398,11.38
1.50941328166384,0.0694293259116836,0.7044076845959018,0.6663311966614398,11.38
1.50941328166384,0.0694293259116836,0.7044076845959018,0.6663311966614398,11.38
1.50941328166384,0.0694293259116836,0.7044076845959018,0.6663311966614398,11.38
1.50941328166384,0.0694293259116836,0.7044076845959018,0.6663311966614398,11.38
1.50941328166384,0.0694293259116836,0.7044076845959018,0.6663311966614398,11.38
1.50941328166384,0.0694293259116836,0.7044076845959018,0.6663311966614398,11.38
1.50941328166384,0.0694293259116836,0.7044076845959018,0.6663311966614398,11.38
1.50941328166384,0.0694293259116836,0.7044076845959018,0.6663311966614398,11.38
1.50941328166384,0.0694293259116836,0.7044076845959018,0.6663311966614398,11.38
1.50941328166384,0.0694293259116836,0.7044076845959018,0.6663311966614398,11.38
1.50941328166384,0.0694293259116836,0.7044076845959018,0.6663311966614398,11.38
1.50941328166384,0.0694293259116836,0.7044076845959018,0.6663311966614398,11.38
1.50941328166384,0.0694293259116836,0.7044076845959018,0.6663311966614398,11.38
1.50941328166384,0.0694293259116836,0.7044076845959018,0.6663311966614398,11.38
1.50941328166384,0.0694293259116836,0.7044076845959018,0.6663311966614398,11.38
1.50941328166384,0.0694293259116836,0.7044076845959018,0.6663311966614398,11.38
1.50941328166384,0.0694293259116836,0.7044076845959018,0.6663311966614398,11.38
1.50941328166384,0.0694293259116836,0.7044076845959018,0.6663311966614398,11.38
1.50941328166384,0.0694293259116836,0.7044076845959018,0.6663311966614398,11.38
1.50941328166384,0.0694293259116836,0.7044076845959018,0.6663311966614398,11.38
1.50941328166384,0.0694293259116836,0.7044076845959018,0.6663311966614398,11.38
1.50941328166384,0.0694293259116836,0.7044076845959018,0.6663311966614398,11.38
1.50941328166384,0.0694293259116836,0.697136743885682,0.6663311966614398,11.38
1.50941328166384,0.0694293259116836,0.697136743885682,0.6663311966614398,11.38
1.50941328166384,0.0694293259116836,0.697136743885682,0.6663311966614398,11.38
1.50941328166384,0.0694293259116836,0.697136743885682,0.6663311966614398,11.38
1.50941328166384,0.0694293259116836,0.697136743885682,0.6663311966614398,11.38
1.50941328166384,0.0694293259116836,0.697136743885682,0.6663311966614398,11.38
1.50941328166384,0.0694293259116836,0.697136743885682,0.6663311966614398,11.38
1.50941328166384,0.0694293259116836,0.697136743885682,0.6663311966614398,11.38
1.50941328166384,0.0694293259116836,0.697136743885682,0.6663311966614398,11.38
1.50941328166384,0.0694293259116836,0.697136743885682,0.6663311966614398,11.38
1.50941328166384,0.0694293259116836,0.697136743885682,0.6663311966614398,11.38
1.50941328166384,0.0694293259116836,0.697136743885682,0.6663311966614398,11.38
1.50941328166384,0.0694293259116836,0.697136743885682,0.6663311966614398,11.38
1.50941328166384,0.0694293259116836,0.697136743885682,0.6663311966614398,11.38
1.50941328166384,0.0694293259116836,0.697136743885682,0.6663311966614398,11.38
1.50941328166384,0.0694293259116836,0.697136743885682,0.6663311966614398,11.38
1.50941328166384,0.0694293259116836,0.697136743885682,0.6663311966614398,11.38
1.50941328166384,0.0694293259116836,0.697136743885682,0.6663311966614398,11.38
1.50941328166384,0.0694293259116836,0.697136743885682,0.6663311966614398,11.38
1.50941328166384,0.0694293259116836,0.697136743885682,0.6663311966614398,11.38
1.50941328166384,0.0694293259116836,0.697136743885682,0.6663311966614398,11.38
1.50941328166384,0.0694293259116836,0.697136743885682,0.6663311966614398,11.38
1.50941328166384,0.0694293259116836,0.697136743885682,0.6663311966614398,11.38
1.50941328166384,0.0694293259116836,0.697136743885682,0.6663311966614398,11.38
1.50941328166384,0.0694293259116836,0.697136743885682,0.6663311966614398,11.38
1.50941328166384,0.0694293259116836,0.697136743885682,0.6663311966614398,11.38
1.50941328166384,0.0694293259116836,0.6870296120285505,0.6639856618019635,11.38
1.50941328166384,0.0694293259116836,0.6870296120285505,0.6639856618019635,11.38
1.50941328166384,0.0694293259116836,0.6870296120285505,0.6639856618019635,11.38
1.50941328166384,0.0694293259116836,0.6870296120285505,0.6639856618019635,11.38
1.50941328166384,0.0694293259116836,0.6870296120285505,0.6639856618019635,11.38
1.50941328166384,0.0694293259116836,0.6870296120285505,0.6639856618019635,11.38
1.50941328166384,0.0694293259116836,0.6870296120285505,0.6639856618019635,11.38
1.50941328166384,0.0694293259116836,0.6870296120285505,0.6639856618019635,11.38
1.50941328166384,0.0694293259116836,0.6870296120285505,0.6639856618019635,11.38
1.50941328166384,0.0694293259116836,0.6870296120285505,0.6639856618019635,11.38
1.50941328166384,0.0694293259116836,0.6846164890697337,0.659582174198057,11.38
1.50941328166384,0.0694293259116836,0.6846164890697337,0.659582174198057,11.38
1.50941328166384,0.0694293259116836,0.6846164890697337,0.659582174198057,11.38
1.50941328166384,0.0694293259116836,0.6846164890697337,0.659582174198057,11.38
1.50941328166384,0.0694293259116836,0.6846164890697337,0.659582174198057,11.38
1.50941328166384,0.0694293259116836,0.6846164890697337,0.659582174198057,11.38
1.50941328166384,0.0694293259116836,0.6846164890697337,0.659582174198057,11.38
1.50941328166384,0.0694293259116836,0.6832766741933892,0.6550630434023912,11.38
1.50941328166384,0.0694293259116836,0.6832766741933892,0.6550630434023912,11.38
1.50941328166384,0.0694293259116836,0.6832766741933892,0.6550630434023912,11.38
1.50941328166384,0.0694293259116836,0.6832766741933892,0.6550630434023912,11.38
1.50941328166384,0.0694293259116836,0.6832766741933892,0.6550630434023912,11.38
1.50941328166384,0.0694293259116836,0.6832766741933892,0.6550630434023912,11.38
1.50941328166384,0.0694293259116836,0.6832766741933892,0.6550630434023912,11.38
1.50941328166384,0.0694293259116836,0.6832766741933892,0.6550630434023912,11.38
1.50941328166384,0.0694293259116836,0.6832766741933892,0.6550630434023912,11.38
1.50941328166384,0.0694293259116836,0.6832766741933892,0.6550630434023912,11.38
1.50941328166384,0.0694293259116836,0.6832766741933892,0.6550630434023912,11.38
1.50941328166384,0.0694293259116836,0.6832766741933892,0.6550630434023912,11.38
1.50941328166384,0.0694293259116836,0.6832766741933892,0.6550630434023912,11.38
1.50941328166384,0.0694293259116836,0.6832766741933892,0.6550630434023912,11.38
1.50941328166384,0.0694293259116836,0.6832766741933892,0.6550630434023912,11.38
1.50941328166384,0.0694293259116836,0.6832766741933892,0.6550630434023912,11.38
1.50941328166384,0.0694293259116836,0.6832766741933892,0.6550630434023912,11.38
1.50941328166384,0.0694293259116836,0.6832766741933892,0.6550630434023912,11.38
1.50941328166384,0.0694293259116836,0.6832766741933892,0.6550630434023912,11.38
1.50941328166384,0.0694293259116836,0.6832766741933892,0.6550630434023912,11.38
1.50941328166384,0.0694293259116836,0.6832766741933892,0.6550630434023912,11.38
1.50941328166384,0.0694293259116836,0.6832766741933892,0.6550630434023912,11.38
1.50941328166384,0.0694293259116836,0.6832766741933892,0.6550630434023912,11.38
1.50941328166384,0.0694293259116836,0.6832766741933892,0.6550630434023912,11.38
1.50941328166384,0.0694293259116836,0.6832766741933892,0.6550630434023912,11.38
1.50941328166384,0.0694293259116836,0.6832766741933892,0.6550630434023912,11.38
1.50941328166384,0.0694293259116836,0.6832766741933892,0.6550630434023912,11.38
1.50941328166384,0.0694293259116836,0.6832766741933892,0.6550630434023912,11.38
1.50941328166384,0.0694293259116836,0.6832766741933892,0.6550630434023912,11.38
1.50941328166384,0.0694293259116836,0.6819717157839459,0.6491605361749782,11.38
1.50941328166384,0.0694293259116836,0.6819717157839459,0.6491605361749782,11.38
1.50941328166384,0.0694293259116836,0.6819717157839459,0.6491605361749782,11.38
1.50941328166384,0.0694293259116836,0.6819717157839459,0.6491605361749782,11.38
1.50941328166384,0.0694293259116836,0.6819717157839459,0.6491605361749782,11.38
1.50941328166384,0.0694293259116836,0.6819717157839459,0.6491605361749782,11.38
1.50941328166384,0.0694293259116836,0.6819717157839459,0.6491605361749782,11.38
1.50941328166384,0.0694293259116836,0.6819717157839459,0.6491605361749782,11.38
1.4618389000194174,0.0694293259116836,0.6717092734068025,0.6404795427017282,11.38
1.4618389000194174,0.0694293259116836,0.6717092734068025,0.6404795427017282,11.38
1.4618389000194174,0.0694293259116836,0.6717092734068025,0.6404795427017282,11.38
1.4618389000194174,0.0694293259116836,0.6684433143034793,0.6354529977371779,11.38
1.4618389000194174,0.0694293259116836,0.6672803158050747,0.6354529977371779,11.38
1.4618389000194174,0.0694293259116836,0.6672803158050747,0.6354529977371779,11.38
1.4618389000194174,0.0694293259116836,0.6672803158050747,0.6354529977371779,11.38
1.4618389000194174,0.0694293259116836,0.6672803158050747,0.6354529977371779,11.38
1.4618389000194174,0.0694293259116836,0.6672803158050747,0.6354529977371779,11.38
1.4618389000194174,0.0694293259116836,0.6672803158050747,0.6354529977371779,11.38
1.4618389000194174,0.0694293259116836,0.6672803158050747,0.6354529977371779,11.38
1.4618389000194174,0.0694293259116836,0.6672803158050747,0.6354529977371779,11.38
1.4618389000194174,0.0694293259116836,0.6672803158050747,0.6354529977371779,11.38
1.4618389000194174,0.0694293259116836,0.6672803158050747,0.6354529977371779,11.38
1.4618389000194174,0.0694293259116836,0.6576216095801183,0.6333204019857974,11.38
1.4618389000194174,0.0694293259116836,0.6576216095801183,0.6333204019857974,11.38
1.4618389000194174,0.0694293259116836,0.6576216095801183,0.6333204019857974,11.38
1.4618389000194174,0.0694293259116836,0.6576216095801183,0.6333204019857974,11.38
1.4618389000194174,0.0694293259116836,0.6576216095801183,0.6333204019857974,11.38
1.4618389000194174,0.0694293259116836,0.6576216095801183,0.6333204019857974,11.38
1.4618389000194174,0.0694293259116836,0.6576216095801183,0.6333204019857974,11.38
1.4618389000194174,0.0694293259116836,0.6576216095801183,0.6333204019857974,11.38
1.4618389000194174,0.0694293259116836,0.6576216095801183,0.6333204019857974,11.38
1.4618389000194174,0.0694293259116836,0.6541555917310734,0.6238627293684342,11.38
1.4618389000194174,0.0694293259116836,0.6541555917310734,0.6238627293684342,11.38
1.4618389000194174,0.0694293259116836,0.6541555917310734,0.6238627293684342,11.38
1.4618389000194174,0.0694293259116836,0.6541555917310734,0.6238627293684342,11.38
1.4618389000194174,0.0694293259116836,0.6541555917310734,0.6238627293684342,11.38
1.4618389000194174,0.0694293259116836,0.6541555917310734,0.6238627293684342,11.38
1.4618389000194174,0.0694293259116836,0.6541555917310734,0.6238627293684342,11.38
1.4618389000194174,0.0694293259116836,0.6541555917310734,0.6238627293684342,11.38
1.4618389000194174,0.0694293259116836,0.6541555917310734,0.6238627293684342,11.38
1.4618389000194174,0.0694293259116836,0.6541555917310734,0.6238627293684342,11.38
1.4618389000194174,0.0694293259116836,0.6541555917310734,0.6238627293684342,11.38
1.4618389000194174,0.0694293259116836,0.6541555917310734,0.6238627293684342,11.38
1.4618389000194174,0.0694293259116836,0.6541555917310734,0.6238627293684342,11.38
1.4618389000194174,0.0694293259116836,0.6541555917310734,0.6238627293684342,11.38
1.4618389000194174,0.0694293259116836,0.6541555917310734,0.6238627293684342,11.38
1.4618389000194174,0.0694293259116836,0.6502725091507381,0.6238627293684342,11.38
1.4618389000194174,0.0694293259116836,0.6502725091507381,0.6238627293684342,11.38
1.4618389000194174,0.0694293259116836,0.6502725091507381,0.6238627293684342,11.38
1.4618389000194174,0.0694293259116836,0.6502725091507381,0.6238627293684342,11.38
1.4618389000194174,0.0694293259116836,0.6502725091507381,0.6238627293684342,11.38
1.4618389000194174,0.0694293259116836,0.6502725091507381,0.6238627293684342,11.38
1.4618389000194174,0.0694293259116836,0.6502725091507381,0.6238627293684342,11.38
1.4618389000194174,0.0694293259116836,0.6502725091507381,0.6238627293684342,11.38
1.4618389000194174,0.0694293259116836,0.6502725091507381,0.6238627293684342,11.38
1.4618389000194174,0.0694293259116836,0.6502725091507381,0.6238627293684342,11.38
1.4618389000194174,0.0694293259116836,0.6502725091507381,0.6238627293684342,11.38
1.4618389000194174,0.0694293259116836,0.6502725091507381,0.6238627293684342,11.38
1.4618389000194174,0.0694293259116836,0.6502725091507381,0.6238627293684342,11.38
1.4618389000194174,0.0694293259116836,0.6502725091507381,0.6238627293684342,11.38
1.4618389000194174,0.0694293259116836,0.6502725091507381,0.6238627293684342,11.38
1.4618389000194174,0.0694293259116836,0.6495323964457789,0.6238627293684342,11.38
1.4618389000194174,0.0694293259116836,0.6495323964457789,0.6238627293684342,11.38
1.4618389000194174,0.0694293259116836,0.6495323964457789,0.6238627293684342,11.38
1.4618389000194174,0.0694293259116836,0.6495323964457789,0.6238627293684342,11.38
1.4618389000194174,0.0694293259116836,0.6495323964457789,0.6238627293684342,11.38
1.4618389000194174,0.0694293259116836,0.6495323964457789,0.6238627293684342,11.38
1.4618389000194174,0.0694293259116836,0.6495323964457789,0.6238627293684342,11.38
1.4618389000194174,0.0694293259116836,0.6495323964457789,0.6238627293684342,11.38
1.4618389000194174,0.0694293259116836,0.6495323964457789,0.6238627293684342,11.38
1.4618389000194174,0.0694293259116836,0.6495323964457789,0.6238627293684342,11.38
1.4618389000194174,0.0694293259116836,0.645954897273852,0.6238627293684342,11.38
1.4618389000194174,0.0694293259116836,0.645954897273852,0.6238627293684342,11.38
1.4618389000194174,0.0694293259116836,0.645954897273852,0.6238627293684342,11.38
1.4618389000194174,0.0694293259116836,0.645954897273852,0.6238627293684342,11.38
1.4618389000194174,0.0694293259116836,0.645954897273852,0.6238627293684342,11.38
1.4618389000194174,0.0694293259116836,0.645954897273852,0.6238627293684342,11.38
1.4618389000194174,0.0694293259116836,0.645954897273852,0.6238627293684342,11.38
1.4618389000194174,0.0694293259116836,0.645954897273852,0.6238627293684342,11.38
1.4618389000194174,0.0694293259116836,0.645954897273852,0.6238627293684342,11.38
1.4618389000194174,0.0694293259116836,0.645954897273852,0.6238627293684342,11.38
1.4618389000194174,0.0694293259116836,0.645954897273852,0.6238627293684342,11.38
1.4618389000194174,0.0694293259116836,0.6397313998133992,0.6141297506540495,11.38
1.4618389000194174,0.0694293259116836,0.6397313998133992,0.6141297506540495,11.38
1.4618389000194174,0.0694293259116836,0.6397313998133992,0.6141297506540495,11.38
1.4618389000194174,0.0694293259116836,0.6397313998133992,0.6141297506540495,11.38
1.4618389000194174,0.0694293259116836,0.6397313998133992,0.6141297506540495,11.38
1.4618389000194174,0.0694293259116836,0.6397313998133992,0.6141297506540495,11.38
1.4618389000194174,0.0694293259116836,0.636138727928719,0.6016522641436473,11.38
1.4618389000194174,0.0694293259116836,0.636138727928719,0.6016522641436473,11.38
1.4618389000194174,0.0694293259116836,0.636138727928719,0.6016522641436473,11.38
1.4618389000194174,0.0694293259116836,0.6319846188977251,0.6016522641436473,11.38
1.4618389000194174,0.0694293259116836,0.6319846188977251,0.6016522641436473,11.38
1.4618389000194174,0.0694293259116836,0.6297487040806258,0.6016522641436473,11.38
1.4618389000194174,0.0694293259116836,0.6297487040806258,0.6016522641436473,11.38
1.4618389000194174,0.0694293259116836,0.6297487040806258,0.6016522641436473,11.38
1.4618389000194174,0.0694293259116836,0.6297487040806258,0.6016522641436473,11.38
1.4618389000194174,0.0694293259116836,0.6297487040806258,0.6016522641436473,11.38
1.4618389000194174,0.0694293259116836,0.6274839653179419,0.6016522641436473,11.38
1.4618389000194174,0.0694293259116836,0.6274839653179419,0.6016522641436473,11.38
1.4618389000194174,0.0694293259116836,0.6274839653179419,0.6016522641436473,11.38
1.4618389000194174,0.0694293259116836,0.6274839653179419,0.6016522641436473,11.38
1.4618389000194174,0.0694293259116836,0.6274839653179419,0.6016522641436473,11.38
1.4618389000194174,0.0694293259116836,0.625858849804136,0.6016522641436473,11.38
1.4618389000194174,0.0694293259116836,0.625858849804136,0.6016522641436473,11.38
1.4618389000194174,0.0694293259116836,0.625858849804136,0.6016522641436473,11.38
1.4618389000194174,0.0694293259116836,0.625858849804136,0.6016522641436473,11.38
1.4618389000194174,0.0694293259116836,0.625858849804136,0.6016522641436473,11.38
1.4618389000194174,0.0694293259116836,0.6232113382799939,0.5951698947096247,11.38
1.4618389000194174,0.0694293259116836,0.6232113382799939,0.5951698947096247,11.38
1.4618389000194174,0.0694293259116836,0.6232113382799939,0.5951698947096247,11.38
1.3234205022900634,0.0694293259116836,0.6198263814081199,0.5951698947096247,11.38
1.3234205022900634,0.0694293259116836,0.6198263814081199,0.5951698947096247,11.38
1.3234205022900634,0.0694293259116836,0.6198263814081199,0.5951698947096247,11.38
1.3234205022900634,0.0694293259116836,0.6198263814081199,0.5951698947096247,11.38
1.3234205022900634,0.0694293259116836,0.6198263814081199,0.5951698947096247,11.38
1.3234205022900634,0.0694293259116836,0.6198263814081199,0.5951698947096247,11.38
1.3234205022900634,0.0694293259116836,0.6198263814081199,0.5951698947096247,11.38
1.3234205022900634,0.0694293259116836,0.6198263814081199,0.5951698947096247,11.38
1.3234205022900634,0.0694293259116836,0.6198263814081199,0.5951698947096247,11.38
1.3234205022900634,0.0694293259116836,0.6198263814081199,0.5951698947096247,11.38
1.3234205022900634,0.0694293259116836,0.6198263814081199,0.5951698947096247,11.38
1.3234205022900634,0.0694293259116836,0.6198263814081199,0.5951698947096247,11.38
1.3234205022900634,0.0694293259116836,0.6198263814081199,0.5951698947096247,11.38
1.3234205022900634,0.0694293259116836,0.6198263814081199,0.5951698947096247,11.38
1.3234205022900634,0.0694293259116836,0.619132885818066,0.5951698947096247,11.38
1.3234205022900634,0.0694293259116836,0.619132885818066,0.5951698947096247,11.38
1.3234205022900634,0.0694293259116836,0.619132885818066,0.5951698947096247,11.38
1.3234205022900634,0.0694293259116836,0.619132885818066,0.5951698947096247,11.38
1.3234205022900634,0.0694293259116836,0.619132885818066,0.5951698947096247,11.38
1.3234205022900634,0.0694293259116836,0.619132885818066,0.5951698947096247,11.38
1.3234205022900634,0.0694293259116836,0.619132885818066,0.5951698947096247,11.38
1.3234205022900634,0.0694293259116836,0.619132885818066,0.5951698947096247,11.38
1.3234205022900634,0.0694293259116836,0.619132885818066,0.5951698947096247,11.38
1.3234205022900634,0.0694293259116836,0.619132885818066,0.5951698947096247,11.38
1.3234205022900634,0.0694293259116836,0.619132885818066,0.5951698947096247,11.38
1.3234205022900634,0.0694293259116836,0.619132885818066,0.5951698947096247,11.38
1.3234205022900634,0.0694293259116836,0.619132885818066,0.5951698947096247,11.38
1.3234205022900634,0.0694293259116836,0.619132885818066,0.5951698947096247,11.38
1.3234205022900634,0.0694293259116836,0.619132885818066,0.5951698947096247,11.38
1.3234205022900634,0.0694293259116836,0.619132885818066,0.5951698947096247,11.38
1.3234205022900634,0.0694293259116836,0.619132885818066,0.5951698947096247,11.38
1.3234205022900634,0.0694293259116836,0.6185815603663462,0.5787872751200319,11.38
1.3234205022900634,0.0694293259116836,0.6182388846867363,0.5787872751200319,11.38
1.3234205022900634,0.0694293259116836,0.6182388846867363,0.5787872751200319,11.38
1.3234205022900634,0.0694293259116836,0.6182388846867363,0.5787872751200319,11.38
1.3234205022900634,0.0694293259116836,0.6182388846867363,0.5787872751200319,11.38
1.3234205022900634,0.0694293259116836,0.6182388846867363,0.5787872751200319,11.38
1.3234205022900634,0.0694293259116836,0.6182388846867363,0.5787872751200319,11.38
1.3234205022900634,0.0694293259116836,0.6166216241527341,0.5787872751200319,11.38
1.3234205022900634,0.0694293259116836,0.6166216241527341,0.5787872751200319,11.38
1.3234205022900634,0.0694293259116836,0.6166216241527341,0.5787872751200319,11.38
1.3234205022900634,0.0694293259116836,0.6166216241527341,0.5787872751200319,11.38
1.3234205022900634,0.0694293259116836,0.6166216241527341,0.5787872751200319,11.38
1.3234205022900634,0.0694293259116836,0.6166216241527341,0.5787872751200319,11.38
1.3234205022900634,0.0694293259116836,0.6166216241527341,0.5787872751200319,11.38
1.3234205022900634,0.0694293259116836,0.6166216241527341,0.5787872751200319,11.38
1.3234205022900634,0.0694293259116836,0.6166216241527341,0.5787872751200319,11.38
1.3234205022900634,0.0694293259116836,0.6165147763424362,0.5787872751200319,11.38
1.3234205022900634,0.0694293259116836,0.6165147763424362,0.5787872751200319,11.38
1.3234205022900634,0.0694293259116836,0.6165147763424362,0.5787872751200319,11.38
1.3234205022900634,0.0694293259116836,0.6165147763424362,0.5787872751200319,11.38
1.3234205022900634,0.0694293259116836,0.6165147763424362,0.5787872751200319,11.38
1.3234205022900634,0.0694293259116836,0.6165147763424362,0.5787872751200319,11.38
1.3234205022900634,0.0694293259116836,0.6165147763424362,0.5787872751200319,11.38
1.3234205022900634,0.0694293259116836,0.616349816650569,0.5787872751200319,11.38
1.3234205022900634,0.0694293259116836,0.616349816650569,0.5787872751200319,11.38
1.3234205022900634,0.0694293259116836,0.616349816650569,0.5787872751200319,11.38
1.3234205022900634,0.0694293259116836,0.616349816650569,0.5787872751200319,11.38
1.3234205022900634,0.0694293259116836,0.616349816650569,0.5787872751200319,11.38
1.3234205022900634,0.0694293259116836,0.6138815485281416,0.5787872751200319,11.38
1.3234205022900634,0.0694293259116836,0.6138815485281416,0.5787872751200319,11.38
1.3234205022900634,0.0694293259116836,0.6138815485281416,0.5787872751200319,11.38
1.3234205022900634,0.0694293259116836,0.6138815485281416,0.5787872751200319,11.38
1.3234205022900634,0.0694293259116836,0.6138815485281416,0.5787872751200319,11.38
1.3234205022900634,0.0694293259116836,0.6138815485281416,0.5787872751200319,11.38
1.3234205022900634,0.0694293259116836,0.6138815485281416,0.5787872751200319,11.38
1.3234205022900634,0.0694293259116836,0.6138815485281416,0.5787872751200319,11.38
1.3234205022900634,0.0694293259116836,0.6138815485281416,0.5787872751200319,11.38
1.3234205022900634,0.0694293259116836,0.6138815485281416,0.5787872751200319,11.38
1.3234205022900634,0.0694293259116836,0.6138815485281416,0.5787872751200319,11.38
1.3234205022900634,0.0694293259116836,0.6122745792057289,0.577478203647276,11.38
1.3234205022900634,0.0694293259116836,0.6122745792057289,0.577478203647276,11.38
1.3234205022900634,0.0694293259116836,0.6122745792057289,0.577478203647276,11.38
1.3234205022900634,0.0694293259116836,0.6122745792057289,0.577478203647276,11.38
1.3234205022900634,0.0694293259116836,0.6122745792057289,0.577478203647276,11.38
1.3234205022900634,0.0694293259116836,0.6122745792057289,0.577478203647276,11.38
1.3234205022900634,0.0694293259116836,0.6122745792057289,0.577478203647276,11.38
1.3234205022900634,0.0694293259116836,0.6122745792057289,0.577478203647276,11.38
1.3234205022900634,0.0694293259116836,0.6122745792057289,0.577478203647276,11.38
1.3234205022900634,0.0694293259116836,0.6122745792057289,0.577478203647276,11.38
1.3234205022900634,0.0694293259116836,0.6122745792057289,0.577478203647276,11.38
1.3234205022900634,0.0694293259116836,0.6122745792057289,0.577478203647276,11.38
1.3234205022900634,0.0694293259116836,0.6122745792057289,0.577478203647276,11.38
1.3234205022900634,0.0694293259116836,0.6122745792057289,0.577478203647276,11.38
1.3234205022900634,0.0694293259116836,0.6122745792057289,0.577478203647276,11.38
1.3234205022900634,0.0694293259116836,0.6122745792057289,0.577478203647276,11.38
1.3234205022900634,0.0694293259116836,0.6122745792057289,0.577478203647276,11.38
1.3234205022900634,0.0694293259116836,0.6122745792057289,0.577478203647276,11.38
1.3234205022900634,0.0694293259116836,0.6122745792057289,0.577478203647276,11.38
1.3234205022900634,0.0694293259116836,0.6122745792057289,0.577478203647276,11.38
1.3234205022900634,0.0694293259116836,0.6110190595090763,0.577478203647276,11.38
1.3234205022900634,0.0694293259116836,0.6110190595090763,0.577478203647276,11.38
1.3234205022900634,0.0694293259116836,0.6110190595090763,0.577478203647276,11.38
1.3234205022900634,0.0694293259116836,0.6110190595090763,0.577478203647276,11.38
1.3234205022900634,0.0694293259116836,0.6110190595090763,0.577478203647276,11.38
1.3234205022900634,0.0694293259116836,0.6110190595090763,0.577478203647276,11.38
1.3234205022900634,0.0694293259116836,0.6100621241475476,0.5636984890444416,11.38
1.3234205022900634,0.0694293259116836,0.6100621241475476,0.5636984890444416,11.38
1.3234205022900634,0.0694293259116836,0.6100621241475476,0.5636984890444416,11.38
1.3234205022900634,0.0694293259116836,0.6100621241475476,0.5636984890444416,11.38
1.3234205022900634,0.0694293259116836,0.6100621241475476,0.5636984890444416,11.38
1.3234205022900634,0.0694293259116836,0.6100621241475476,0.5636984890444416,11.38
1.3234205022900634,0.0694293259116836,0.6100621241475476,0.5636984890444416,11.38
1.3234205022900634,0.0694293259116836,0.6100621241475476,0.5636984890444416,11.38
1.3234205022900634,0.0694293259116836,0.6100621241475476,0.5636984890444416,11.38
1.3234205022900634,0.0694293259116836,0.6086799839130608,0.5636984890444416,11.38
1.3234205022900634,0.0694293259116836,0.6086799839130608,0.5636984890444416,11.38
1.3234205022900634,0.0694293259116836,0.6086799839130608,0.5636984890444416,11.38
1.3234205022900634,0.0694293259116836,0.6086799839130608,0.5636984890444416,11.38
1.3234205022900634,0.0694293259116836,0.6086799839130608,0.5636984890444416,11.38
1.3234205022900634,0.0694293259116836,0.6086799839130608,0.5636984890444416,11.38
1.3234205022900634,0.0694293259116836,0.6086799839130608,0.5636984890444416,11.38
1.3234205022900634,0.0694293259116836,0.6086799839130608,0.5636984890444416,11.38
1.3234205022900634,0.0694293259116836,0.6086799839130608,0.5636984890444416,11.38
1.3234205022900634,0.0694293259116836,0.6086799839130608,0.5636984890444416,11.38
1.3234205022900634,0.0694293259116836,0.6086799839130608,0.5636984890444416,11.38
1.3234205022900634,0.0694293259116836,0.6086799839130608,0.5636984890444416,11.38