worst,best,mean,median,limit
173.20707683914117,1.750457900631599,62.83796370284163,47.10648033158274,0
160.08702372492994,2.0781034532127793,62.22070604034352,46.16060703829454,0
159.3455881085002,2.2391816122709542,62.39883223159066,45.44136835048264,0
159.9097670361162,2.2420473525378615,62.20077968310704,46.16393459382964,0
159.99046578983757,2.2420473649673407,62.22319285347283,46.16393459998388,0
160.01576374267879,2.242047364967341,62.20759727836509,46.16393459998977,0
160.01719135135622,2.2420473649673407,62.2259745976473,46.16393459998977,0
160.01722628487485,2.242047364967341,62.22832062941488,46.16393459998977,0
160.01722706919057,2.2420473649673407,62.22939279478345,46.16393459998977,0
160.01722708653352,2.242047364967341,62.229400093066126,46.16393459998977,0
160.01722708691636,2.2420473649673407,62.22940015194561,46.16393459998977,0
160.01722708692486,2.242047364967341,62.22940015255781,46.16393459998977,0
160.01722708692503,2.2420473649673407,62.229400152565546,46.16393459998977,0
160.01722708692503,2.242047364967341,62.22940015256566,46.16393459998977,0
160.017227086925,2.2420473649673407,62.22940015256566,46.16393459998977,0
160.01722708692503,2.242047364967341,62.22940015256566,46.16393459998977,0
160.017227086925,2.2420473649673407,62.22940015256566,46.16393459998977,0
160.017227086925,2.242047364967341,62.22940015256566,46.16393459998977,0
160.01722708692503,2.2420473649673407,62.22940015256566,46.16393459998977,0
160.01722708692503,2.242047364967341,62.22940015256566,46.16393459998977,0
160.01722708692503,2.2420473649673407,62.22940015256566,46.16393459998977,0
160.01722708692503,2.242047364967341,62.22940015256566,46.16393459998977,0
160.01722708692503,2.2420473649673407,62.22940015256566,46.16393459998977,0
160.01722708692503,2.242047364967341,62.22940015256566,46.16393459998977,0
160.01722708692503,2.2420473649673407,62.22940015256566,46.16393459998977,0
160.01722708692503,2.242047364967341,62.22940015256566,46.16393459998977,0
160.01722708692503,2.2420473649673407,62.22940015256566,46.16393459998977,0
160.01722708692503,2.242047364967341,62.22940015256566,46.16393459998977,0
160.01722708692503,2.2420473649673407,62.22940015256566,46.16393459998977,0
160.01722708692503,2.242047364967341,62.22940015256566,46.16393459998977,0
160.01722708692503,2.2420473649673407,62.22940015256566,46.16393459998977,0
160.01722708692503,2.242047364967341,62.22940015256566,46.16393459998977,0
160.01722708692503,2.2420473649673407,62.22940015256566,46.16393459998977,0
160.01722708692503,2.242047364967341,62.22940015256566,46.16393459998977,0
160.01722708692503,2.2420473649673407,62.22940015256566,46.16393459998977,0
160.01722708692503,2.242047364967341,62.22940015256566,46.16393459998977,0
160.01722708692503,2.2420473649673407,62.22940015256566,46.16393459998977,0
160.01722708692503,2.242047364967341,62.22940015256566,46.16393459998977,0
160.01722708692503,2.2420473649673407,62.22940015256566,46.16393459998977,0
160.01722708692503,2.242047364967341,62.22940015256566,46.16393459998977,0
160.01722708692503,2.2420473649673407,62.22940015256566,46.16393459998977,0
160.01722708692503,2.242047364967341,62.22940015256566,46.16393459998977,0
160.01722708692503,2.2420473649673407,62.22940015256566,46.16393459998977,0
160.01722708692503,2.242047364967341,62.22940015256566,46.16393459998977,0
160.01722708692503,2.2420473649673407,62.22940015256566,46.16393459998977,0
160.01722708692503,2.242047364967341,62.22940015256566,46.16393459998977,0
160.01722708692503,2.2420473649673407,62.22940015256566,46.16393459998977,0
160.01722708692503,2.242047364967341,62.22940015256566,46.16393459998977,0
160.01722708692503,2.2420473649673407,62.22940015256566,46.16393459998977,0
160.01722708692503,2.242047364967341,62.22940015256566,46.16393459998977,0
160.01722708692503,2.2420473649673407,62.22940015256566,46.16393459998977,0
160.01722708692503,2.242047364967341,62.22940015256566,46.16393459998977,0
160.01722708692503,2.2420473649673407,62.22940015256566,46.16393459998977,0
160.01722708692503,2.242047364967341,62.22940015256566,46.16393459998977,0
160.01722708692503,2.2420473649673407,62.22940015256566,46.16393459998977,0
160.01722708692503,2.242047364967341,62.22940015256566,46.16393459998977,0
160.01722708692503,2.2420473649673407,62.22940015256566,46.16393459998977,0
160.01722708692503,2.242047364967341,62.22940015256566,46.16393459998977,0
160.01722708692503,2.2420473649673407,62.22940015256566,46.16393459998977,0
160.01722708692503,2.242047364967341,62.22940015256566,46.16393459998977,0
160.01722708692503,2.2420473649673407,62.22940015256566,46.16393459998977,0
160.01722708692503,2.242047364967341,62.22940015256566,46.16393459998977,0
160.01722708692503,2.2420473649673407,62.22940015256566,46.16393459998977,0
160.01722708692503,2.242047364967341,62.22940015256566,46.16393459998977,0
160.01722708692503,2.2420473649673407,62.22940015256566,46.16393459998977,0
160.01722708692503,2.242047364967341,62.22940015256566,46.16393459998977,0
160.01722708692503,2.2420473649673407,62.22940015256566,46.16393459998977,0
160.01722708692503,2.242047364967341,62.22940015256566,46.16393459998977,0
160.01722708692503,2.2420473649673407,62.22940015256566,46.16393459998977,0
160.01722708692503,2.242047364967341,62.22940015256566,46.16393459998977,0
160.01722708692503,2.2420473649673407,62.22940015256566,46.16393459998977,0
160.01722708692503,2.242047364967341,62.22940015256566,46.16393459998977,0
160.01722708692503,2.2420473649673407,62.22940015256566,46.16393459998977,0
160.01722708692503,2.242047364967341,62.22940015256566,46.16393459998977,0
160.01722708692503,2.2420473649673407,62.22940015256566,46.16393459998977,0
160.01722708692503,2.242047364967341,62.22940015256566,46.16393459998977,0
160.01722708692503,2.2420473649673407,62.22940015256566,46.16393459998977,0
160.01722708692503,2.242047364967341,62.22940015256566,46.16393459998977,0
160.01722708692503,2.2420473649673407,62.22940015256566,46.16393459998977,0
160.01722708692503,2.242047364967341,62.22940015256566,46.16393459998977,0
160.01722708692503,2.2420473649673407,62.22940015256566,46.16393459998977,0
160.01722708692503,2.242047364967341,62.22940015256566,46.16393459998977,0
160.01722708692503,2.2420473649673407,62.22940015256566,46.16393459998977,0
160.01722708692503,2.242047364967341,62.22940015256566,46.16393459998977,0
160.01722708692503,2.2420473649673407,62.22940015256566,46.16393459998977,0
160.01722708692503,2.242047364967341,62.22940015256566,46.16393459998977,0
160.01722708692503,2.2420473649673407,62.22940015256566,46.16393459998977,0
160.01722708692503,2.242047364967341,62.22940015256566,46.16393459998977,0
160.01722708692503,2.2420473649673407,62.22940015256566,46.16393459998977,0
160.01722708692503,2.242047364967341,62.22940015256566,46.16393459998977,0
160.01722708692503,2.2420473649673407,62.22940015256566,46.16393459998977,0
160.01722708692503,2.242047364967341,62.22940015256566,46.16393459998977,0
160.01722708692503,2.2420473649673407,62.22940015256566,46.16393459998977,0
160.01722708692503,2.242047364967341,62.22940015256566,46.16393459998977,0
160.01722708692503,2.2420473649673407,62.22940015256566,46.16393459998977,0
160.01722708692503,2.242047364967341,62.22940015256566,46.16393459998977,0
160.01722708692503,2.2420473649673407,62.22940015256566,46.16393459998977,0
160.01722708692503,2.242047364967341,62.22940015256566,46.16393459998977,0
160.01722708692503,2.2420473649673407,62.22940015256566,46.16393459998977,0
160.01722708692503,2.242047364967341,62.22940015256566,46.16393459998977,0
160.01722708692503,2.2420473649673407,62.22940015256566,46.16393459998977,0
160.01722708692503,2.242047364967341,62.22940015256566,46.16393459998977,0
160.01722708692503,2.2420473649673407,62.22940015256566,46.16393459998977,0
160.01722708692503,2.242047364967341,62.22940015256566,46.16393459998977,0
160.01722708692503,2.2420473649673407,62.22940015256566,46.16393459998977,0
160.01722708692503,2.242047364967341,62.22940015256566,46.16393459998977,0
160.01722708692503,2.2420473649673407,62.22940015256566,46.16393459998977,0
160.01722708692503,2.242047364967341,62.22940015256566,46.16393459998977,0
160.01722708692503,2.2420473649673407,62.22940015256566,46.16393459998977,0
160.01722708692503,2.242047364967341,62.22940015256566,46.16393459998977,0
160.01722708692503,2.2420473649673407,62.22940015256566,46.16393459998977,0
160.01722708692503,2.242047364967341,62.22940015256566,46.16393459998977,0
160.01722708692503,2.2420473649673407,62.22940015256566,46.16393459998977,0
160.01722708692503,2.242047364967341,62.22940015256566,46.16393459998977,0
160.01722708692503,2.2420473649673407,62.22940015256566,46.16393459998977,0
160.01722708692503,2.242047364967341,62.22940015256566,46.16393459998977,0
160.01722708692503,2.2420473649673407,62.22940015256566,46.16393459998977,0
160.01722708692503,2.242047364967341,62.22940015256566,46.16393459998977,0
160.01722708692503,2.2420473649673407,62.22940015256566,46.16393459998977,0
160.01722708692503,2.242047364967341,62.22940015256566,46.16393459998977,0
160.01722708692503,2.2420473649673407,62.22940015256566,46.16393459998977,0
160.01722708692503,2.242047364967341,62.22940015256566,46.16393459998977,0
160.01722708692503,2.2420473649673407,62.22940015256566,46.16393459998977,0
160.01722708692503,2.242047364967341,62.22940015256566,46.16393459998977,0
160.01722708692503,2.2420473649673407,62.22940015256566,46.16393459998977,0
160.01722708692503,2.242047364967341,62.22940015256566,46.16393459998977,0
160.01722708692503,2.2420473649673407,62.22940015256566,46.16393459998977,0
160.01722708692503,2.242047364967341,62.22940015256566,46.16393459998977,0
160.01722708692503,2.2420473649673407,62.22940015256566,46.16393459998977,0
160.01722708692503,2.242047364967341,62.22940015256566,46.16393459998977,0
160.01722708692503,2.2420473649673407,62.22940015256566,46.16393459998977,0
160.01722708692503,2.242047364967341,62.22940015256566,46.16393459998977,0
160.01722708692503,2.2420473649673407,62.22940015256566,46.16393459998977,0
160.01722708692503,2.242047364967341,62.22940015256566,46.16393459998977,0
160.01722708692503,2.2420473649673407,62.22940015256566,46.16393459998977,0
160.01722708692503,2.242047364967341,62.22940015256566,46.16393459998977,0
160.01722708692503,2.2420473649673407,62.22940015256566,46.16393459998977,0
160.01722708692503,2.242047364967341,62.22940015256566,46.16393459998977,0
160.01722708692503,2.2420473649673407,62.22940015256566,46.16393459998977,0
160.01722708692503,2.242047364967341,62.22940015256566,46.16393459998977,0
160.01722708692503,2.2420473649673407,62.22940015256566,46.16393459998977,0
160.01722708692503,2.242047364967341,62.22940015256566,46.16393459998977,0
160.01722708692503,2.2420473649673407,62.22940015256566,46.16393459998977,0
160.01722708692503,2.242047364967341,62.22940015256566,46.16393459998977,0
160.01722708692503,2.2420473649673407,62.22940015256566,46.16393459998977,0
160.01722708692503,2.242047364967341,62.22940015256566,46.16393459998977,0
160.01722708692503,2.2420473649673407,62.22940015256566,46.16393459998977,0
160.01722708692503,2.242047364967341,62.22940015256566,46.16393459998977,0
160.01722708692503,2.2420473649673407,62.22940015256566,46.16393459998977,0
160.01722708692503,2.242047364967341,62.22940015256566,46.16393459998977,0
160.01722708692503,2.2420473649673407,62.22940015256566,46.16393459998977,0
160.01722708692503,2.242047364967341,62.22940015256566,46.16393459998977,0
160.01722708692503,2.2420473649673407,62.22940015256566,46.16393459998977,0
160.01722708692503,2.242047364967341,62.22940015256566,46.16393459998977,0
160.01722708692503,2.2420473649673407,62.22940015256566,46.16393459998977,0
160.01722708692503,2.242047364967341,62.22940015256566,46.16393459998977,0
160.01722708692503,2.2420473649673407,62.22940015256566,46.16393459998977,0
160.01722708692503,2.242047364967341,62.22940015256566,46.16393459998977,0
160.01722708692503,2.2420473649673407,62.22940015256566,46.16393459998977,0
160.01722708692503,2.242047364967341,62.22940015256566,46.16393459998977,0
160.01722708692503,2.2420473649673407,62.22940015256566,46.16393459998977,0
160.01722708692503,2.242047364967341,62.22940015256566,46.16393459998977,0
160.01722708692503,2.2420473649673407,62.22940015256566,46.16393459998977,0
160.01722708692503,2.242047364967341,62.22940015256566,46.16393459998977,0
160.01722708692503,2.2420473649673407,62.22940015256566,46.16393459998977,0
160.01722708692503,2.242047364967341,62.22940015256566,46.16393459998977,0
160.01722708692503,2.2420473649673407,62.22940015256566,46.16393459998977,0
160.01722708692503,2.242047364967341,62.22940015256566,46.16393459998977,0
160.01722708692503,2.2420473649673407,62.22940015256566,46.16393459998977,0
160.01722708692503,2.242047364967341,62.22940015256566,46.16393459998977,0
160.01722708692503,2.2420473649673407,62.22940015256566,46.16393459998977,0
160.01722708692503,2.242047364967341,62.22940015256566,46.16393459998977,0
160.01722708692503,2.2420473649673407,62.22940015256566,46.16393459998977,0
160.01722708692503,2.242047364967341,62.22940015256566,46.16393459998977,0
160.01722708692503,2.2420473649673407,62.22940015256566,46.16393459998977,0
160.01722708692503,2.242047364967341,62.22940015256566,46.16393459998977,0
160.01722708692503,2.2420473649673407,62.22940015256566,46.16393459998977,0
160.01722708692503,2.242047364967341,62.22940015256566,46.16393459998977,0
160.01722708692503,2.2420473649673407,62.22940015256566,46.16393459998977,0
160.01722708692503,2.242047364967341,62.22940015256566,46.16393459998977,0
160.01722708692503,2.2420473649673407,62.22940015256566,46.16393459998977,0
160.01722708692503,2.242047364967341,62.22940015256566,46.16393459998977,0
160.01722708692503,2.2420473649673407,62.22940015256566,46.16393459998977,0
160.01722708692503,2.242047364967341,62.22940015256566,46.16393459998977,0
160.01722708692503,2.2420473649673407,62.22940015256566,46.16393459998977,0
160.01722708692503,2.242047364967341,62.22940015256566,46.16393459998977,0
160.01722708692503,2.2420473649673407,62.22940015256566,46.16393459998977,0
160.01722708692503,2.242047364967341,62.22940015256566,46.16393459998977,0
160.01722708692503,2.2420473649673407,62.22940015256566,46.16393459998977,0
160.01722708692503,2.242047364967341,62.22940015256566,46.16393459998977,0
160.01722708692503,2.2420473649673407,62.22940015256566,46.16393459998977,0
160.01722708692503,2.242047364967341,62.22940015256566,46.16393459998977,0
160.01722708692503,2.2420473649673407,62.22940015256566,46.16393459998977,0
160.01722708692503,2.242047364967341,62.22940015256566,46.16393459998977,0
160.01722708692503,2.2420473649673407,62.22940015256566,46.16393459998977,0
160.01722708692503,2.242047364967341,62.22940015256566,46.16393459998977,0
160.01722708692503,2.2420473649673407,62.22940015256566,46.16393459998977,0
160.01722708692503,2.242047364967341,62.22940015256566,46.16393459998977,0
160.01722708692503,2.2420473649673407,62.22940015256566,46.16393459998977,0
160.01722708692503,2.242047364967341,62.22940015256566,46.16393459998977,0
160.01722708692503,2.2420473649673407,62.22940015256566,46.16393459998977,0
160.01722708692503,2.242047364967341,62.22940015256566,46.16393459998977,0
160.01722708692503,2.2420473649673407,62.22940015256566,46.16393459998977,0
160.01722708692503,2.242047364967341,62.22940015256566,46.16393459998977,0
160.01722708692503,2.2420473649673407,62.22940015256566,46.16393459998977,0
160.01722708692503,2.242047364967341,62.22940015256566,46.16393459998977,0
160.01722708692503,2.2420473649673407,62.22940015256566,46.16393459998977,0
160.01722708692503,2.242047364967341,62.22940015256566,46.16393459998977,0
160.01722708692503,2.2420473649673407,62.22940015256566,46.16393459998977,0
160.01722708692503,2.242047364967341,62.22940015256566,46.16393459998977,0
160.01722708692503,2.2420473649673407,62.22940015256566,46.16393459998977,0
160.01722708692503,2.242047364967341,62.22940015256566,46.16393459998977,0
160.01722708692503,2.2420473649673407,62.22940015256566,46.16393459998977,0
160.01722708692503,2.242047364967341,62.22940015256566,46.16393459998977,0
160.01722708692503,2.2420473649673407,62.22940015256566,46.16393459998977,0
160.01722708692503,2.242047364967341,62.22940015256566,46.16393459998977,0
160.01722708692503,2.2420473649673407,62.22940015256566,46.16393459998977,0
160.01722708692503,2.242047364967341,62.22940015256566,46.16393459998977,0
160.01722708692503,2.2420473649673407,62.22940015256566,46.16393459998977,0
160.01722708692503,2.242047364967341,62.22940015256566,46.16393459998977,0
160.01722708692503,2.2420473649673407,62.22940015256566,46.16393459998977,0
160.01722708692503,2.242047364967341,62.22940015256566,46.16393459998977,0
160.01722708692503,2.2420473649673407,62.22940015256566,46.16393459998977,0
160.01722708692503,2.242047364967341,62.22940015256566,46.16393459998977,0
160.01722708692503,2.2420473649673407,62.22940015256566,46.16393459998977,0
160.01722708692503,2.242047364967341,62.22940015256566,46.16393459998977,0
160.01722708692503,2.2420473649673407,62.22940015256566,46.16393459998977,0
160.01722708692503,2.242047364967341,62.22940015256566,46.16393459998977,0
160.01722708692503,2.2420473649673407,62.22940015256566,46.16393459998977,0
160.01722708692503,2.242047364967341,62.22940015256566,46.16393459998977,0
160.01722708692503,2.2420473649673407,62.22940015256566,46.16393459998977,0
160.01722708692503,2.242047364967341,62.22940015256566,46.16393459998977,0
160.01722708692503,2.2420473649673407,62.22940015256566,46.16393459998977,0
160.01722708692503,2.242047364967341,62.22940015256566,46.16393459998977,0
160.01722708692503,2.2420473649673407,62.22940015256566,46.16393459998977,0
160.01722708692503,2.242047364967341,62.22940015256566,46.16393459998977,0
160.01722708692503,2.2420473649673407,62.22940015256566,46.16393459998977,0
160.01722708692503,2.242047364967341,62.22940015256566,46.16393459998977,0
160.01722708692503,2.2420473649673407,62.22940015256566,46.16393459998977,0
160.01722708692503,2.242047364967341,62.22940015256566,46.16393459998977,0
160.01722708692503,2.2420473649673407,62.22940015256566,46.16393459998977,0
160.01722708692503,2.242047364967341,62.22940015256566,46.16393459998977,0
160.01722708692503,2.2420473649673407,62.22940015256566,46.16393459998977,0
160.01722708692503,2.242047364967341,62.22940015256566,46.16393459998977,0
160.01722708692503,2.2420473649673407,62.22940015256566,46.16393459998977,0
160.01722708692503,2.242047364967341,62.22940015256566,46.16393459998977,0
160.01722708692503,2.2420473649673407,62.22940015256566,46.16393459998977,0
160.01722708692503,2.242047364967341,62.22940015256566,46.16393459998977,0
160.01722708692503,2.2420473649673407,62.22940015256566,46.16393459998977,0
160.01722708692503,2.242047364967341,62.22940015256566,46.16393459998977,0
160.01722708692503,2.2420473649673407,62.22940015256566,46.16393459998977,0
160.01722708692503,2.242047364967341,62.22940015256566,46.16393459998977,0
160.01722708692503,2.2420473649673407,62.22940015256566,46.16393459998977,0
160.01722708692503,2.242047364967341,62.22940015256566,46.16393459998977,0
160.01722708692503,2.2420473649673407,62.22940015256566,46.16393459998977,0
160.01722708692503,2.242047364967341,62.22940015256566,46.16393459998977,0
160.01722708692503,2.2420473649673407,62.22940015256566,46.16393459998977,0
160.01722708692503,2.242047364967341,62.22940015256566,46.16393459998977,0
160.01722708692503,2.2420473649673407,62.22940015256566,46.16393459998977,0
160.01722708692503,2.242047364967341,62.22940015256566,46.16393459998977,0
160.01722708692503,2.2420473649673407,62.22940015256566,46.16393459998977,0
160.01722708692503,2.242047364967341,62.22940015256566,46.16393459998977,0
160.01722708692503,2.2420473649673407,62.22940015256566,46.16393459998977,0
160.01722708692503,2.242047364967341,62.22940015256566,46.16393459998977,0
160.01722708692503,2.2420473649673407,62.22940015256566,46.16393459998977,0
160.01722708692503,2.242047364967341,62.22940015256566,46.16393459998977,0
160.01722708692503,2.2420473649673407,62.22940015256566,46.16393459998977,0
160.01722708692503,2.242047364967341,62.22940015256566,46.16393459998977,0
160.01722708692503,2.2420473649673407,62.22940015256566,46.16393459998977,0
160.01722708692503,2.242047364967341,62.22940015256566,46.16393459998977,0
160.01722708692503,2.2420473649673407,62.22940015256566,46.16393459998977,0
160.01722708692503,2.242047364967341,62.22940015256566,46.16393459998977,0
160.01722708692503,2.2420473649673407,62.22940015256566,46.16393459998977,0
160.01722708692503,2.242047364967341,62.22940015256566,46.16393459998977,0
160.01722708692503,2.2420473649673407,62.22940015256566,46.16393459998977,0
160.01722708692503,2.242047364967341,62.22940015256566,46.16393459998977,0
160.01722708692503,2.2420473649673407,62.22940015256566,46.16393459998977,0
160.01722708692503,2.242047364967341,62.22940015256566,46.16393459998977,0
160.01722708692503,2.2420473649673407,62.22940015256566,46.16393459998977,0
160.01722708692503,2.242047364967341,62.22940015256566,46.16393459998977,0
160.01722708692503,2.2420473649673407,62.22940015256566,46.16393459998977,0
160.01722708692503,2.242047364967341,62.22940015256566,46.16393459998977,0
160.01722708692503,2.2420473649673407,62.22940015256566,46.16393459998977,0
160.01722708692503,2.242047364967341,62.22940015256566,46.16393459998977,0
160.01722708692503,2.2420473649673407,62.22940015256566,46.16393459998977,0
160.01722708692503,2.242047364967341,62.22940015256566,46.16393459998977,0
160.01722708692503,2.2420473649673407,62.22940015256566,46.16393459998977,0
160.01722708692503,2.242047364967341,62.22940015256566,46.16393459998977,0
160.01722708692503,2.2420473649673407,62.22940015256566,46.16393459998977,0
160.01722708692503,2.242047364967341,62.22940015256566,46.16393459998977,0
160.01722708692503,2.2420473649673407,62.22940015256566,46.16393459998977,0
160.01722708692503,2.242047364967341,62.22940015256566,46.16393459998977,0
160.01722708692503,2.2420473649673407,62.22940015256566,46.16393459998977,0
160.01722708692503,2.242047364967341,62.22940015256566,46.16393459998977,0
160.01722708692503,2.2420473649673407,62.22940015256566,46.16393459998977,0
160.01722708692503,2.242047364967341,62.22940015256566,46.16393459998977,0
160.01722708692503,2.2420473649673407,62.22940015256566,46.16393459998977,0
160.01722708692503,2.242047364967341,62.22940015256566,46.16393459998977,0
160.01722708692503,2.2420473649673407,62.22940015256566,46.16393459998977,0
160.01722708692503,2.242047364967341,62.22940015256566,46.16393459998977,0
160.01722708692503,2.2420473649673407,62.22940015256566,46.16393459998977,0
160.01722708692503,2.242047364967341,62.22940015256566,46.16393459998977,0
160.01722708692503,2.2420473649673407,62.22940015256566,46.16393459998977,0
160.01722708692503,2.242047364967341,62.22940015256566,46.16393459998977,0
160.01722708692503,2.2420473649673407,62.22940015256566,46.16393459998977,0
160.01722708692503,2.242047364967341,62.22940015256566,46.16393459998977,0
160.01722708692503,2.2420473649673407,62.22940015256566,46.16393459998977,0
160.01722708692503,2.242047364967341,62.22940015256566,46.16393459998977,0
160.01722708692503,2.2420473649673407,62.22940015256566,46.16393459998977,0
160.01722708692503,2.242047364967341,62.22940015256566,46.16393459998977,0
160.01722708692503,2.2420473649673407,62.22940015256566,46.16393459998977,0
160.01722708692503,2.242047364967341,62.22940015256566,46.16393459998977,0
160.01722708692503,2.2420473649673407,62.22940015256566,46.16393459998977,0
160.01722708692503,2.242047364967341,62.22940015256566,46.16393459998977,0
160.01722708692503,2.2420473649673407,62.22940015256566,46.16393459998977,0
160.01722708692503,2.242047364967341,62.22940015256566,46.16393459998977,0
160.01722708692503,2.2420473649673407,62.22940015256566,46.16393459998977,0
160.01722708692503,2.242047364967341,62.22940015256566,46.16393459998977,0
160.01722708692503,2.2420473649673407,62.22940015256566,46.16393459998977,0
160.01722708692503,2.242047364967341,62.22940015256566,46.16393459998977,0
160.01722708692503,2.2420473649673407,62.22940015256566,46.16393459998977,0
160.01722708692503,2.242047364967341,62.22940015256566,46.16393459998977,0
160.01722708692503,2.2420473649673407,62.22940015256566,46.16393459998977,0
160.01722708692503,2.242047364967341,62.22940015256566,46.16393459998977,0
160.01722708692503,2.2420473649673407,62.22940015256566,46.16393459998977,0
160.01722708692503,2.242047364967341,62.22940015256566,46.16393459998977,0
160.01722708692503,2.2420473649673407,62.22940015256566,46.16393459998977,0
160.01722708692503,2.242047364967341,62.22940015256566,46.16393459998977,0
160.01722708692503,2.2420473649673407,62.22940015256566,46.16393459998977,0
160.01722708692503,2.242047364967341,62.22940015256566,46.16393459998977,0
160.01722708692503,2.2420473649673407,62.22940015256566,46.16393459998977,0
160.01722708692503,2.242047364967341,62.22940015256566,46.16393459998977,0
160.01722708692503,2.2420473649673407,62.22940015256566,46.16393459998977,0
160.01722708692503,2.242047364967341,62.22940015256566,46.16393459998977,0
160.01722708692503,2.2420473649673407,62.22940015256566,46.16393459998977,0
160.01722708692503,2.242047364967341,62.22940015256566,46.16393459998977,0
160.01722708692503,2.2420473649673407,62.22940015256566,46.16393459998977,0
160.01722708692503,2.242047364967341,62.22940015256566,46.16393459998977,0
160.01722708692503,2.2420473649673407,62.22940015256566,46.16393459998977,0
160.01722708692503,2.242047364967341,62.22940015256566,46.16393459998977,0
160.01722708692503,2.2420473649673407,62.22940015256566,46.16393459998977,0
160.01722708692503,2.242047364967341,62.22940015256566,46.16393459998977,0
160.01722708692503,2.2420473649673407,62.22940015256566,46.16393459998977,0
160.01722708692503,2.242047364967341,62.22940015256566,46.16393459998977,0
160.01722708692503,2.2420473649673407,62.22940015256566,46.16393459998977,0
160.01722708692503,2.242047364967341,62.22940015256566,46.16393459998977,0
160.01722708692503,2.2420473649673407,62.22940015256566,46.16393459998977,0
160.01722708692503,2.242047364967341,62.22940015256566,46.16393459998977,0
160.01722708692503,2.2420473649673407,62.22940015256566,46.16393459998977,0
160.01722708692503,2.242047364967341,62.22940015256566,46.16393459998977,0
160.01722708692503,2.2420473649673407,62.22940015256566,46.16393459998977,0
160.01722708692503,2.242047364967341,62.22940015256566,46.16393459998977,0
160.01722708692503,2.2420473649673407,62.22940015256566,46.16393459998977,0
160.01722708692503,2.242047364967341,62.22940015256566,46.16393459998977,0
160.01722708692503,2.2420473649673407,62.22940015256566,46.16393459998977,0
160.01722708692503,2.242047364967341,62.22940015256566,46.16393459998977,0
160.01722708692503,2.2420473649673407,62.22940015256566,46.16393459998977,0
160.01722708692503,2.242047364967341,62.22940015256566,46.16393459998977,0
160.01722708692503,2.2420473649673407,62.22940015256566,46.16393459998977,0
160.01722708692503,2.242047364967341,62.22940015256566,46.16393459998977,0
160.01722708692503,2.2420473649673407,62.22940015256566,46.16393459998977,0
160.01722708692503,2.242047364967341,62.22940015256566,46.16393459998977,0
160.01722708692503,2.2420473649673407,62.22940015256566,46.16393459998977,0
160.01722708692503,2.242047364967341,62.22940015256566,46.16393459998977,0
160.01722708692503,2.2420473649673407,62.22940015256566,46.16393459998977,0
160.01722708692503,2.242047364967341,62.22940015256566,46.16393459998977,0
160.01722708692503,2.2420473649673407,62.22940015256566,46.16393459998977,0
160.01722708692503,2.242047364967341,62.22940015256566,46.16393459998977,0
160.01722708692503,2.2420473649673407,62.22940015256566,46.16393459998977,0
160.01722708692503,2.242047364967341,62.22940015256566,46.16393459998977,0
160.01722708692503,2.2420473649673407,62.22940015256566,46.16393459998977,0
160.01722708692503,2.242047364967341,62.22940015256566,46.16393459998977,0
160.01722708692503,2.2420473649673407,62.22940015256566,46.16393459998977,0
160.01722708692503,2.242047364967341,62.22940015256566,46.16393459998977,0
160.01722708692503,2.2420473649673407,62.22940015256566,46.16393459998977,0
160.01722708692503,2.242047364967341,62.22940015256566,46.16393459998977,0
160.01722708692503,2.2420473649673407,62.22940015256566,46.16393459998977,0
160.01722708692503,2.242047364967341,62.22940015256566,46.16393459998977,0
160.01722708692503,2.2420473649673407,62.22940015256566,46.16393459998977,0
160.01722708692503,2.242047364967341,62.22940015256566,46.16393459998977,0
160.01722708692503,2.2420473649673407,62.22940015256566,46.16393459998977,0
160.01722708692503,2.242047364967341,62.22940015256566,46.16393459998977,0
160.01722708692503,2.2420473649673407,62.22940015256566,46.16393459998977,0
160.01722708692503,2.242047364967341,62.22940015256566,46.16393459998977,0
160.01722708692503,2.2420473649673407,62.22940015256566,46.16393459998977,0
160.01722708692503,2.242047364967341,62.22940015256566,46.16393459998977,0
160.01722708692503,2.2420473649673407,62.22940015256566,46.16393459998977,0
160.01722708692503,2.242047364967341,62.22940015256566,46.16393459998977,0
160.01722708692503,2.2420473649673407,62.22940015256566,46.16393459998977,0
160.01722708692503,2.242047364967341,62.22940015256566,46.16393459998977,0
160.01722708692503,2.2420473649673407,62.22940015256566,46.16393459998977,0
160.01722708692503,2.242047364967341,62.22940015256566,46.16393459998977,0
160.01722708692503,2.2420473649673407,62.22940015256566,46.16393459998977,0
160.01722708692503,2.242047364967341,62.22940015256566,46.16393459998977,0
160.01722708692503,2.2420473649673407,62.22940015256566,46.16393459998977,0
160.01722708692503,2.242047364967341,62.22940015256566,46.16393459998977,0
160.01722708692503,2.2420473649673407,62.22940015256566,46.16393459998977,0
160.01722708692503,2.242047364967341,62.22940015256566,46.16393459998977,0
160.01722708692503,2.2420473649673407,62.22940015256566,46.16393459998977,0
160.01722708692503,2.242047364967341,62.22940015256566,46.16393459998977,0
160.01722708692503,2.2420473649673407,62.22940015256566,46.16393459998977,0
160.01722708692503,2.242047364967341,62.22940015256566,46.16393459998977,0
160.01722708692503,2.2420473649673407,62.22940015256566,46.16393459998977,0
160.01722708692503,2.242047364967341,62.22940015256566,46.16393459998977,0
160.01722708692503,2.2420473649673407,62.22940015256566,46.16393459998977,0
160.01722708692503,2.242047364967341,62.22940015256566,46.16393459998977,0
160.01722708692503,2.2420473649673407,62.22940015256566,46.16393459998977,0
160.01722708692503,2.242047364967341,62.22940015256566,46.16393459998977,0
160.01722708692503,2.2420473649673407,62.22940015256566,46.16393459998977,0
160.01722708692503,2.242047364967341,62.22940015256566,46.16393459998977,0
160.01722708692503,2.2420473649673407,62.22940015256566,46.16393459998977,0
160.01722708692503,2.242047364967341,62.22940015256566,46.16393459998977,0
160.01722708692503,2.2420473649673407,62.22940015256566,46.16393459998977,0
160.01722708692503,2.242047364967341,62.22940015256566,46.16393459998977,0
160.01722708692503,2.2420473649673407,62.22940015256566,46.16393459998977,0
160.01722708692503,2.242047364967341,62.22940015256566,46.16393459998977,0
160.01722708692503,2.2420473649673407,62.22940015256566,46.16393459998977,0
160.01722708692503,2.242047364967341,62.22940015256566,46.16393459998977,0
160.01722708692503,2.2420473649673407,62.22940015256566,46.16393459998977,0
160.01722708692503,2.242047364967341,62.22940015256566,46.16393459998977,0
160.01722708692503,2.2420473649673407,62.22940015256566,46.16393459998977,0
160.01722708692503,2.242047364967341,62.22940015256566,46.16393459998977,0
160.01722708692503,2.2420473649673407,62.22940015256566,46.16393459998977,0
160.01722708692503,2.242047364967341,62.22940015256566,46.16393459998977,0
160.01722708692503,2.2420473649673407,62.22940015256566,46.16393459998977,0
160.01722708692503,2.242047364967341,62.22940015256566,46.16393459998977,0
160.01722708692503,2.2420473649673407,62.22940015256566,46.16393459998977,0
160.01722708692503,2.242047364967341,62.22940015256566,46.16393459998977,0
160.01722708692503,2.2420473649673407,62.22940015256566,46.16393459998977,0
160.01722708692503,2.242047364967341,62.22940015256566,46.16393459998977,0
160.01722708692503,2.2420473649673407,62.22940015256566,46.16393459998977,0
160.01722708692503,2.242047364967341,62.22940015256566,46.16393459998977,0
160.01722708692503,2.2420473649673407,62.22940015256566,46.16393459998977,0
160.01722708692503,2.242047364967341,62.22940015256566,46.16393459998977,0
160.01722708692503,2.2420473649673407,62.22940015256566,46.16393459998977,0
160.01722708692503,2.242047364967341,62.22940015256566,46.16393459998977,0
160.01722708692503,2.2420473649673407,62.22940015256566,46.16393459998977,0
160.01722708692503,2.242047364967341,62.22940015256566,46.16393459998977,0
160.01722708692503,2.2420473649673407,62.22940015256566,46.16393459998977,0
160.01722708692503,2.242047364967341,62.22940015256566,46.16393459998977,0
160.01722708692503,2.2420473649673407,62.22940015256566,46.16393459998977,0
160.01722708692503,2.242047364967341,62.22940015256566,46.16393459998977,0
160.01722708692503,2.2420473649673407,62.22940015256566,46.16393459998977,0
160.01722708692503,2.242047364967341,62.22940015256566,46.16393459998977,0
160.01722708692503,2.2420473649673407,62.22940015256566,46.16393459998977,0
160.01722708692503,2.242047364967341,62.22940015256566,46.16393459998977,0
160.01722708692503,2.2420473649673407,62.22940015256566,46.16393459998977,0
160.01722708692503,2.242047364967341,62.22940015256566,46.16393459998977,0
160.01722708692503,2.2420473649673407,62.22940015256566,46.16393459998977,0
160.01722708692503,2.242047364967341,62.22940015256566,46.16393459998977,0
160.01722708692503,2.2420473649673407,62.22940015256566,46.16393459998977,0
160.01722708692503,2.242047364967341,62.22940015256566,46.16393459998977,0
160.01722708692503,2.2420473649673407,62.22940015256566,46.16393459998977,0
160.01722708692503,2.242047364967341,62.22940015256566,46.16393459998977,0
160.01722708692503,2.2420473649673407,62.22940015256566,46.16393459998977,0
160.01722708692503,2.242047364967341,62.22940015256566,46.16393459998977,0
160.01722708692503,2.2420473649673407,62.22940015256566,46.16393459998977,0
160.01722708692503,2.242047364967341,62.22940015256566,46.16393459998977,0
160.01722708692503,2.2420473649673407,62.22940015256566,46.16393459998977,0
160.01722708692503,2.242047364967341,62.22940015256566,46.16393459998977,0
160.01722708692503,2.2420473649673407,62.22940015256566,46.16393459998977,0
160.01722708692503,2.242047364967341,62.22940015256566,46.16393459998977,0
160.01722708692503,2.2420473649673407,62.22940015256566,46.16393459998977,0
160.01722708692503,2.242047364967341,62.22940015256566,46.16393459998977,0
160.01722708692503,2.2420473649673407,62.22940015256566,46.16393459998977,0
160.01722708692503,2.242047364967341,62.22940015256566,46.16393459998977,0
160.01722708692503,2.2420473649673407,62.22940015256566,46.16393459998977,0
160.01722708692503,2.242047364967341,62.22940015256566,46.16393459998977,0
160.01722708692503,2.2420473649673407,62.22940015256566,46.16393459998977,0
160.01722708692503,2.242047364967341,62.22940015256566,46.16393459998977,0
160.01722708692503,2.2420473649673407,62.22940015256566,46.16393459998977,0
160.01722708692503,2.242047364967341,62.22940015256566,46.16393459998977,0
160.01722708692503,2.2420473649673407,62.22940015256566,46.16393459998977,0
160.01722708692503,2.242047364967341,62.22940015256566,46.16393459998977,0
160.01722708692503,2.2420473649673407,62.22940015256566,46.16393459998977,0
160.01722708692503,2.242047364967341,62.22940015256566,46.16393459998977,0
160.01722708692503,2.2420473649673407,62.22940015256566,46.16393459998977,0
160.01722708692503,2.242047364967341,62.22940015256566,46.16393459998977,0
160.01722708692503,2.2420473649673407,62.22940015256566,46.16393459998977,0
160.01722708692503,2.242047364967341,62.22940015256566,46.16393459998977,0
160.01722708692503,2.2420473649673407,62.22940015256566,46.16393459998977,0
160.01722708692503,2.242047364967341,62.22940015256566,46.16393459998977,0
160.01722708692503,2.2420473649673407,62.22940015256566,46.16393459998977,0
160.01722708692503,2.242047364967341,62.22940015256566,46.16393459998977,0
160.01722708692503,2.2420473649673407,62.22940015256566,46.16393459998977,0
160.01722708692503,2.242047364967341,62.22940015256566,46.16393459998977,0
160.01722708692503,2.2420473649673407,62.22940015256566,46.16393459998977,0
160.01722708692503,2.242047364967341,62.22940015256566,46.16393459998977,0
160.01722708692503,2.2420473649673407,62.22940015256566,46.16393459998977,0
160.01722708692503,2.242047364967341,62.22940015256566,46.16393459998977,0
160.01722708692503,2.2420473649673407,62.22940015256566,46.16393459998977,0
160.01722708692503,2.242047364967341,62.22940015256566,46.16393459998977,0
160.01722708692503,2.2420473649673407,62.22940015256566,46.16393459998977,0
160.01722708692503,2.242047364967341,62.22940015256566,46.16393459998977,0
160.01722708692503,2.2420473649673407,62.22940015256566,46.16393459998977,0
160.01722708692503,2.242047364967341,62.22940015256566,46.16393459998977,0
160.01722708692503,2.2420473649673407,62.22940015256566,46.16393459998977,0
160.01722708692503,2.242047364967341,62.22940015256566,46.16393459998977,0
160.01722708692503,2.2420473649673407,62.22940015256566,46.16393459998977,0
160.01722708692503,2.242047364967341,62.22940015256566,46.16393459998977,0
160.01722708692503,2.2420473649673407,62.22940015256566,46.16393459998977,0
160.01722708692503,2.242047364967341,62.22940015256566,46.16393459998977,0
160.01722708692503,2.2420473649673407,62.22940015256566,46.16393459998977,0
160.01722708692503,2.242047364967341,62.22940015256566,46.16393459998977,0
160.01722708692503,2.2420473649673407,62.22940015256566,46.16393459998977,0
160.01722708692503,2.242047364967341,62.22940015256566,46.16393459998977,0
160.01722708692503,2.2420473649673407,62.22940015256566,46.16393459998977,0
160.01722708692503,2.242047364967341,62.22940015256566,46.16393459998977,0
160.01722708692503,2.2420473649673407,62.22940015256566,46.16393459998977,0
160.01722708692503,2.242047364967341,62.22940015256566,46.16393459998977,0
160.01722708692503,2.2420473649673407,62.22940015256566,46.16393459998977,0
160.01722708692503,2.242047364967341,62.22940015256566,46.16393459998977,0
160.01722708692503,2.2420473649673407,62.22940015256566,46.16393459998977,0
160.01722708692503,2.242047364967341,62.22940015256566,46.16393459998977,0
160.01722708692503,2.2420473649673407,62.22940015256566,46.16393459998977,0
160.01722708692503,2.242047364967341,62.22940015256566,46.16393459998977,0
160.01722708692503,2.2420473649673407,62.22940015256566,46.16393459998977,0
160.01722708692503,2.242047364967341,62.22940015256566,46.16393459998977,0
160.01722708692503,2.2420473649673407,62.22940015256566,46.16393459998977,0
160.01722708692503,2.242047364967341,62.22940015256566,46.16393459998977,0
160.01722708692503,2.2420473649673407,62.22940015256566,46.16393459998977,0
160.01722708692503,2.242047364967341,62.22940015256566,46.16393459998977,0
160.01722708692503,2.2420473649673407,62.22940015256566,46.16393459998977,0
160.01722708692503,2.242047364967341,62.22940015256566,46.16393459998977,0
160.01722708692503,2.2420473649673407,62.22940015256566,46.16393459998977,0
160.01722708692503,2.242047364967341,62.22940015256566,46.16393459998977,0
160.01722708692503,2.2420473649673407,62.22940015256566,46.16393459998977,0
160.01722708692503,2.242047364967341,62.22940015256566,46.16393459998977,0
160.01722708692503,2.2420473649673407,62.22940015256566,46.16393459998977,0
160.01722708692503,2.242047364967341,62.22940015256566,46.16393459998977,0
160.01722708692503,2.2420473649673407,62.22940015256566,46.16393459998977,0
160.01722708692503,2.242047364967341,62.22940015256566,46.16393459998977,0
160.01722708692503,2.2420473649673407,62.22940015256566,46.16393459998977,0
160.01722708692503,2.242047364967341,62.22940015256566,46.16393459998977,0
160.01722708692503,2.2420473649673407,62.22940015256566,46.16393459998977,0
160.01722708692503,2.242047364967341,62.22940015256566,46.16393459998977,0
160.01722708692503,2.2420473649673407,62.22940015256566,46.16393459998977,0
160.01722708692503,2.242047364967341,62.22940015256566,46.16393459998977,0
160.01722708692503,2.2420473649673407,62.22940015256566,46.16393459998977,0
160.01722708692503,2.242047364967341,62.22940015256566,46.16393459998977,0
160.01722708692503,2.2420473649673407,62.22940015256566,46.16393459998977,0
160.01722708692503,2.242047364967341,62.22940015256566,46.16393459998977,0
160.01722708692503,2.2420473649673407,62.22940015256566,46.16393459998977,0
160.01722708692503,2.242047364967341,62.22940015256566,46.16393459998977,0
160.01722708692503,2.2420473649673407,62.22940015256566,46.16393459998977,0
160.01722708692503,2.242047364967341,62.22940015256566,46.16393459998977,0
160.01722708692503,2.2420473649673407,62.22940015256566,46.16393459998977,0
160.01722708692503,2.242047364967341,62.22940015256566,46.16393459998977,0
160.01722708692503,2.2420473649673407,62.22940015256566,46.16393459998977,0
160.01722708692503,2.242047364967341,62.22940015256566,46.16393459998977,0
160.01722708692503,2.2420473649673407,62.22940015256566,46.16393459998977,0
160.01722708692503,2.242047364967341,62.22940015256566,46.16393459998977,0
160.01722708692503,2.2420473649673407,62.22940015256566,46.16393459998977,0
160.01722708692503,2.242047364967341,62.22940015256566,46.16393459998977,0
160.01722708692503,2.2420473649673407,62.22940015256566,46.16393459998977,0
160.01722708692503,2.242047364967341,62.22940015256566,46.16393459998977,0
160.01722708692503,2.2420473649673407,62.22940015256566,46.16393459998977,0
160.01722708692503,2.242047364967341,62.22940015256566,46.16393459998977,0
160.01722708692503,2.2420473649673407,62.22940015256566,46.16393459998977,0
160.01722708692503,2.242047364967341,62.22940015256566,46.16393459998977,0
160.01722708692503,2.2420473649673407,62.22940015256566,46.16393459998977,0
160.01722708692503,2.242047364967341,62.22940015256566,46.16393459998977,0
160.01722708692503,2.2420473649673407,62.22940015256566,46.16393459998977,0
160.01722708692503,2.242047364967341,62.22940015256566,46.16393459998977,0
160.01722708692503,2.2420473649673407,62.22940015256566,46.16393459998977,0
160.01722708692503,2.242047364967341,62.22940015256566,46.16393459998977,0
160.01722708692503,2.2420473649673407,62.22940015256566,46.16393459998977,0
160.01722708692503,2.242047364967341,62.22940015256566,46.16393459998977,0
160.01722708692503,2.2420473649673407,62.22940015256566,46.16393459998977,0
160.01722708692503,2.242047364967341,62.22940015256566,46.16393459998977,0
160.01722708692503,2.2420473649673407,62.22940015256566,46.16393459998977,0
160.01722708692503,2.242047364967341,62.22940015256566,46.16393459998977,0
160.01722708692503,2.2420473649673407,62.22940015256566,46.16393459998977,0
160.01722708692503,2.242047364967341,62.22940015256566,46.16393459998977,0
160.01722708692503,2.2420473649673407,62.22940015256566,46.16393459998977,0
160.01722708692503,2.242047364967341,62.22940015256566,46.16393459998977,0
160.01722708692503,2.2420473649673407,62.22940015256566,46.16393459998977,0
160.01722708692503,2.242047364967341,62.22940015256566,46.16393459998977,0
160.01722708692503,2.2420473649673407,62.22940015256566,46.16393459998977,0
160.01722708692503,2.242047364967341,62.22940015256566,46.16393459998977,0
160.01722708692503,2.2420473649673407,62.22940015256566,46.16393459998977,0
160.01722708692503,2.242047364967341,62.22940015256566,46.16393459998977,0
160.01722708692503,2.2420473649673407,62.22940015256566,46.16393459998977,0
160.01722708692503,2.242047364967341,62.22940015256566,46.16393459998977,0
160.01722708692503,2.2420473649673407,62.22940015256566,46.16393459998977,0
160.01722708692503,2.242047364967341,62.22940015256566,46.16393459998977,0
160.01722708692503,2.2420473649673407,62.22940015256566,46.16393459998977,0
160.01722708692503,2.242047364967341,62.22940015256566,46.16393459998977,0
160.01722708692503,2.2420473649673407,62.22940015256566,46.16393459998977,0
160.01722708692503,2.242047364967341,62.22940015256566,46.16393459998977,0
160.01722708692503,2.2420473649673407,62.22940015256566,46.16393459998977,0
160.01722708692503,2.242047364967341,62.22940015256566,46.16393459998977,0
160.01722708692503,2.2420473649673407,62.22940015256566,46.16393459998977,0
160.01722708692503,2.242047364967341,62.22940015256566,46.16393459998977,0
160.01722708692503,2.2420473649673407,62.22940015256566,46.16393459998977,0
160.01722708692503,2.242047364967341,62.22940015256566,46.16393459998977,0
160.01722708692503,2.2420473649673407,62.22940015256566,46.16393459998977,0
160.01722708692503,2.242047364967341,62.22940015256566,46.16393459998977,0
160.01722708692503,2.2420473649673407,62.22940015256566,46.16393459998977,0
160.01722708692503,2.242047364967341,62.22940015256566,46.16393459998977,0
160.01722708692503,2.2420473649673407,62.22940015256566,46.16393459998977,0
160.01722708692503,2.242047364967341,62.22940015256566,46.16393459998977,0
160.01722708692503,2.2420473649673407,62.22940015256566,46.16393459998977,0
160.01722708692503,2.242047364967341,62.22940015256566,46.16393459998977,0
160.01722708692503,2.2420473649673407,62.22940015256566,46.16393459998977,0
160.01722708692503,2.242047364967341,62.22940015256566,46.16393459998977,0
160.01722708692503,2.2420473649673407,62.22940015256566,46.16393459998977,0
160.01722708692503,2.242047364967341,62.22940015256566,46.16393459998977,0
160.01722708692503,2.2420473649673407,62.22940015256566,46.16393459998977,0
160.01722708692503,2.242047364967341,62.22940015256566,46.16393459998977,0
160.01722708692503,2.2420473649673407,62.22940015256566,46.16393459998977,0
160.01722708692503,2.242047364967341,62.22940015256566,46.16393459998977,0
160.01722708692503,2.2420473649673407,62.22940015256566,46.16393459998977,0
160.01722708692503,2.242047364967341,62.22940015256566,46.16393459998977,0
160.01722708692503,2.2420473649673407,62.22940015256566,46.16393459998977,0
160.01722708692503,2.242047364967341,62.22940015256566,46.16393459998977,0
160.01722708692503,2.2420473649673407,62.22940015256566,46.16393459998977,0
160.01722708692503,2.242047364967341,62.22940015256566,46.16393459998977,0
160.01722708692503,2.2420473649673407,62.22940015256566,46.16393459998977,0
160.01722708692503,2.242047364967341,62.22940015256566,46.16393459998977,0
160.01722708692503,2.2420473649673407,62.22940015256566,46.16393459998977,0
160.01722708692503,2.242047364967341,62.22940015256566,46.16393459998977,0
160.01722708692503,2.2420473649673407,62.22940015256566,46.16393459998977,0
160.01722708692503,2.242047364967341,62.22940015256566,46.16393459998977,0
160.01722708692503,2.2420473649673407,62.22940015256566,46.16393459998977,0
160.01722708692503,2.242047364967341,62.22940015256566,46.16393459998977,0
160.01722708692503,2.2420473649673407,62.22940015256566,46.16393459998977,0
160.01722708692503,2.242047364967341,62.22940015256566,46.16393459998977,0
160.01722708692503,2.2420473649673407,62.22940015256566,46.16393459998977,0
160.01722708692503,2.242047364967341,62.22940015256566,46.16393459998977,0
160.01722708692503,2.2420473649673407,62.22940015256566,46.16393459998977,0
160.01722708692503,2.242047364967341,62.22940015256566,46.16393459998977,0
160.01722708692503,2.2420473649673407,62.22940015256566,46.16393459998977,0
160.01722708692503,2.242047364967341,62.22940015256566,46.16393459998977,0
160.01722708692503,2.2420473649673407,62.22940015256566,46.16393459998977,0
160.01722708692503,2.242047364967341,62.22940015256566,46.16393459998977,0
160.01722708692503,2.2420473649673407,62.22940015256566,46.16393459998977,0
160.01722708692503,2.242047364967341,62.22940015256566,46.16393459998977,0
160.01722708692503,2.2420473649673407,62.22940015256566,46.16393459998977,0
160.01722708692503,2.242047364967341,62.22940015256566,46.16393459998977,0
160.01722708692503,2.2420473649673407,62.22940015256566,46.16393459998977,0
160.01722708692503,2.242047364967341,62.22940015256566,46.16393459998977,0
160.01722708692503,2.2420473649673407,62.22940015256566,46.16393459998977,0
160.01722708692503,2.242047364967341,62.22940015256566,46.16393459998977,0
160.01722708692503,2.2420473649673407,62.22940015256566,46.16393459998977,0
160.01722708692503,2.242047364967341,62.22940015256566,46.16393459998977,0
160.01722708692503,2.2420473649673407,62.22940015256566,46.16393459998977,0
160.01722708692503,2.242047364967341,62.22940015256566,46.16393459998977,0
160.01722708692503,2.2420473649673407,62.22940015256566,46.16393459998977,0
160.01722708692503,2.242047364967341,62.22940015256566,46.16393459998977,0
160.01722708692503,2.2420473649673407,62.22940015256566,46.16393459998977,0
160.01722708692503,2.242047364967341,62.22940015256566,46.16393459998977,0
160.01722708692503,2.2420473649673407,62.22940015256566,46.16393459998977,0
160.01722708692503,2.242047364967341,62.22940015256566,46.16393459998977,0
160.01722708692503,2.2420473649673407,62.22940015256566,46.16393459998977,0
160.01722708692503,2.242047364967341,62.22940015256566,46.16393459998977,0
160.01722708692503,2.2420473649673407,62.22940015256566,46.16393459998977,0
160.01722708692503,2.242047364967341,62.22940015256566,46.16393459998977,0
160.01722708692503,2.2420473649673407,62.22940015256566,46.16393459998977,0
160.01722708692503,2.242047364967341,62.22940015256566,46.16393459998977,0
160.01722708692503,2.2420473649673407,62.22940015256566,46.16393459998977,0
160.01722708692503,2.242047364967341,62.22940015256566,46.16393459998977,0
160.01722708692503,2.2420473649673407,62.22940015256566,46.16393459998977,0
160.01722708692503,2.242047364967341,62.22940015256566,46.16393459998977,0
160.01722708692503,2.2420473649673407,62.22940015256566,46.16393459998977,0
160.01722708692503,2.242047364967341,62.22940015256566,46.16393459998977,0
160.01722708692503,2.2420473649673407,62.22940015256566,46.16393459998977,0
160.01722708692503,2.242047364967341,62.22940015256566,46.16393459998977,0
160.01722708692503,2.2420473649673407,62.22940015256566,46.16393459998977,0
160.01722708692503,2.242047364967341,62.22940015256566,46.16393459998977,0
160.01722708692503,2.2420473649673407,62.22940015256566,46.16393459998977,0
160.01722708692503,2.242047364967341,62.22940015256566,46.16393459998977,0
160.01722708692503,2.2420473649673407,62.22940015256566,46.16393459998977,0
160.01722708692503,2.242047364967341,62.22940015256566,46.16393459998977,0
160.01722708692503,2.2420473649673407,62.22940015256566,46.16393459998977,0
160.01722708692503,2.242047364967341,62.22940015256566,46.16393459998977,0
160.01722708692503,2.2420473649673407,62.22940015256566,46.16393459998977,0
160.01722708692503,2.242047364967341,62.22940015256566,46.16393459998977,0
160.01722708692503,2.2420473649673407,62.22940015256566,46.16393459998977,0
160.01722708692503,2.242047364967341,62.22940015256566,46.16393459998977,0
160.01722708692503,2.2420473649673407,62.22940015256566,46.16393459998977,0
160.01722708692503,2.242047364967341,62.22940015256566,46.16393459998977,0
160.01722708692503,2.2420473649673407,62.22940015256566,46.16393459998977,0
160.01722708692503,2.242047364967341,62.22940015256566,46.16393459998977,0
160.01722708692503,2.2420473649673407,62.22940015256566,46.16393459998977,0
160.01722708692503,2.242047364967341,62.22940015256566,46.16393459998977,0
160.01722708692503,2.2420473649673407,62.22940015256566,46.16393459998977,0
160.01722708692503,2.242047364967341,62.22940015256566,46.16393459998977,0
160.01722708692503,2.2420473649673407,62.22940015256566,46.16393459998977,0
160.01722708692503,2.242047364967341,62.22940015256566,46.16393459998977,0
160.01722708692503,2.2420473649673407,62.22940015256566,46.16393459998977,0
160.01722708692503,2.242047364967341,62.22940015256566,46.16393459998977,0
160.01722708692503,2.2420473649673407,62.22940015256566,46.16393459998977,0
160.01722708692503,2.242047364967341,62.22940015256566,46.16393459998977,0
160.01722708692503,2.2420473649673407,62.22940015256566,46.16393459998977,0
160.01722708692503,2.242047364967341,62.22940015256566,46.16393459998977,0
160.01722708692503,2.2420473649673407,62.22940015256566,46.16393459998977,0
160.01722708692503,2.242047364967341,62.22940015256566,46.16393459998977,0
160.01722708692503,2.2420473649673407,62.22940015256566,46.16393459998977,0
160.01722708692503,2.242047364967341,62.22940015256566,46.16393459998977,0
160.01722708692503,2.2420473649673407,62.22940015256566,46.16393459998977,0
160.01722708692503,2.242047364967341,62.22940015256566,46.16393459998977,0
160.01722708692503,2.2420473649673407,62.22940015256566,46.16393459998977,0
160.01722708692503,2.242047364967341,62.22940015256566,46.16393459998977,0
160.01722708692503,2.2420473649673407,62.22940015256566,46.16393459998977,0
160.01722708692503,2.242047364967341,62.22940015256566,46.16393459998977,0
160.01722708692503,2.2420473649673407,62.22940015256566,46.16393459998977,0
160.01722708692503,2.242047364967341,62.22940015256566,46.16393459998977,0
160.01722708692503,2.2420473649673407,62.22940015256566,46.16393459998977,0
160.01722708692503,2.242047364967341,62.22940015256566,46.16393459998977,0
160.01722708692503,2.2420473649673407,62.22940015256566,46.16393459998977,0
160.01722708692503,2.242047364967341,62.22940015256566,46.16393459998977,0
160.01722708692503,2.2420473649673407,62.22940015256566,46.16393459998977,0
160.01722708692503,2.242047364967341,62.22940015256566,46.16393459998977,0
160.01722708692503,2.2420473649673407,62.22940015256566,46.16393459998977,0
160.01722708692503,2.242047364967341,62.22940015256566,46.16393459998977,0
160.01722708692503,2.2420473649673407,62.22940015256566,46.16393459998977,0
160.01722708692503,2.242047364967341,62.22940015256566,46.16393459998977,0
160.01722708692503,2.2420473649673407,62.22940015256566,46.16393459998977,0
160.01722708692503,2.242047364967341,62.22940015256566,46.16393459998977,0
160.01722708692503,2.2420473649673407,62.22940015256566,46.16393459998977,0
160.01722708692503,2.242047364967341,62.22940015256566,46.16393459998977,0
160.01722708692503,2.2420473649673407,62.22940015256566,46.16393459998977,0
160.01722708692503,2.242047364967341,62.22940015256566,46.16393459998977,0
160.01722708692503,2.2420473649673407,62.22940015256566,46.16393459998977,0
160.01722708692503,2.242047364967341,62.22940015256566,46.16393459998977,0
160.01722708692503,2.2420473649673407,62.22940015256566,46.16393459998977,0
160.01722708692503,2.242047364967341,62.22940015256566,46.16393459998977,0
160.01722708692503,2.2420473649673407,62.22940015256566,46.16393459998977,0
160.01722708692503,2.242047364967341,62.22940015256566,46.16393459998977,0
160.01722708692503,2.2420473649673407,62.22940015256566,46.16393459998977,0
160.01722708692503,2.242047364967341,62.22940015256566,46.16393459998977,0
160.01722708692503,2.2420473649673407,62.22940015256566,46.16393459998977,0
160.01722708692503,2.242047364967341,62.22940015256566,46.16393459998977,0
160.01722708692503,2.2420473649673407,62.22940015256566,46.16393459998977,0
160.01722708692503,2.242047364967341,62.22940015256566,46.16393459998977,0
160.01722708692503,2.2420473649673407,62.22940015256566,46.16393459998977,0
160.01722708692503,2.242047364967341,62.22940015256566,46.16393459998977,0
160.01722708692503,2.2420473649673407,62.22940015256566,46.16393459998977,0
160.01722708692503,2.242047364967341,62.22940015256566,46.16393459998977,0
160.01722708692503,2.2420473649673407,62.22940015256566,46.16393459998977,0
160.01722708692503,2.242047364967341,62.22940015256566,46.16393459998977,0
160.01722708692503,2.2420473649673407,62.22940015256566,46.16393459998977,0
160.01722708692503,2.242047364967341,62.22940015256566,46.16393459998977,0
160.01722708692503,2.2420473649673407,62.22940015256566,46.16393459998977,0
160.01722708692503,2.242047364967341,62.22940015256566,46.16393459998977,0
160.01722708692503,2.2420473649673407,62.22940015256566,46.16393459998977,0
160.01722708692503,2.242047364967341,62.22940015256566,46.16393459998977,0
160.01722708692503,2.2420473649673407,62.22940015256566,46.16393459998977,0
160.01722708692503,2.242047364967341,62.22940015256566,46.16393459998977,0
160.01722708692503,2.2420473649673407,62.22940015256566,46.16393459998977,0
160.01722708692503,2.242047364967341,62.22940015256566,46.16393459998977,0
160.01722708692503,2.2420473649673407,62.22940015256566,46.16393459998977,0
160.01722708692503,2.242047364967341,62.22940015256566,46.16393459998977,0
160.01722708692503,2.2420473649673407,62.22940015256566,46.16393459998977,0
160.01722708692503,2.242047364967341,62.22940015256566,46.16393459998977,0
160.01722708692503,2.2420473649673407,62.22940015256566,46.16393459998977,0
160.01722708692503,2.242047364967341,62.22940015256566,46.16393459998977,0
160.01722708692503,2.2420473649673407,62.22940015256566,46.16393459998977,0
160.01722708692503,2.242047364967341,62.22940015256566,46.16393459998977,0
160.01722708692503,2.2420473649673407,62.22940015256566,46.16393459998977,0
160.01722708692503,2.242047364967341,62.22940015256566,46.16393459998977,0
160.01722708692503,2.2420473649673407,62.22940015256566,46.16393459998977,0
160.01722708692503,2.242047364967341,62.22940015256566,46.16393459998977,0
160.01722708692503,2.2420473649673407,62.22940015256566,46.16393459998977,0
160.01722708692503,2.242047364967341,62.22940015256566,46.16393459998977,0
160.01722708692503,2.2420473649673407,62.22940015256566,46.16393459998977,0
160.01722708692503,2.242047364967341,62.22940015256566,46.16393459998977,0
160.01722708692503,2.2420473649673407,62.22940015256566,46.16393459998977,0
160.01722708692503,2.242047364967341,62.22940015256566,46.16393459998977,0
160.01722708692503,2.2420473649673407,62.22940015256566,46.16393459998977,0
160.01722708692503,2.242047364967341,62.22940015256566,46.16393459998977,0
160.01722708692503,2.2420473649673407,62.22940015256566,46.16393459998977,0
160.01722708692503,2.242047364967341,62.22940015256566,46.16393459998977,0
160.01722708692503,2.2420473649673407,62.22940015256566,46.16393459998977,0
160.01722708692503,2.242047364967341,62.22940015256566,46.16393459998977,0
160.01722708692503,2.2420473649673407,62.22940015256566,46.16393459998977,0
160.01722708692503,2.242047364967341,62.22940015256566,46.16393459998977,0
160.01722708692503,2.2420473649673407,62.22940015256566,46.16393459998977,0
160.01722708692503,2.242047364967341,62.22940015256566,46.16393459998977,0
160.01722708692503,2.2420473649673407,62.22940015256566,46.16393459998977,0
160.01722708692503,2.242047364967341,62.22940015256566,46.16393459998977,0
160.01722708692503,2.2420473649673407,62.22940015256566,46.16393459998977,0
160.01722708692503,2.242047364967341,62.22940015256566,46.16393459998977,0
160.01722708692503,2.2420473649673407,62.22940015256566,46.16393459998977,0
160.01722708692503,2.242047364967341,62.22940015256566,46.16393459998977,0
160.01722708692503,2.2420473649673407,62.22940015256566,46.16393459998977,0
160.01722708692503,2.242047364967341,62.22940015256566,46.16393459998977,0
160.01722708692503,2.2420473649673407,62.22940015256566,46.16393459998977,0
160.01722708692503,2.242047364967341,62.22940015256566,46.16393459998977,0
160.01722708692503,2.2420473649673407,62.22940015256566,46.16393459998977,0
160.01722708692503,2.242047364967341,62.22940015256566,46.16393459998977,0
160.01722708692503,2.2420473649673407,62.22940015256566,46.16393459998977,0
160.01722708692503,2.242047364967341,62.22940015256566,46.16393459998977,0
160.01722708692503,2.2420473649673407,62.22940015256566,46.16393459998977,0
160.01722708692503,2.242047364967341,62.22940015256566,46.16393459998977,0
160.01722708692503,2.2420473649673407,62.22940015256566,46.16393459998977,0
160.01722708692503,2.242047364967341,62.22940015256566,46.16393459998977,0
160.01722708692503,2.2420473649673407,62.22940015256566,46.16393459998977,0
160.01722708692503,2.242047364967341,62.22940015256566,46.16393459998977,0
160.01722708692503,2.2420473649673407,62.22940015256566,46.16393459998977,0
160.01722708692503,2.242047364967341,62.22940015256566,46.16393459998977,0
160.01722708692503,2.2420473649673407,62.22940015256566,46.16393459998977,0
160.01722708692503,2.242047364967341,62.22940015256566,46.16393459998977,0
160.01722708692503,2.2420473649673407,62.22940015256566,46.16393459998977,0
160.01722708692503,2.242047364967341,62.22940015256566,46.16393459998977,0
160.01722708692503,2.2420473649673407,62.22940015256566,46.16393459998977,0
160.01722708692503,2.242047364967341,62.22940015256566,46.16393459998977,0
160.01722708692503,2.2420473649673407,62.22940015256566,46.16393459998977,0
160.01722708692503,2.242047364967341,62.22940015256566,46.16393459998977,0
160.01722708692503,2.2420473649673407,62.22940015256566,46.16393459998977,0
160.01722708692503,2.242047364967341,62.22940015256566,46.16393459998977,0
160.01722708692503,2.2420473649673407,62.22940015256566,46.16393459998977,0
160.01722708692503,2.242047364967341,62.22940015256566,46.16393459998977,0
160.01722708692503,2.2420473649673407,62.22940015256566,46.16393459998977,0
160.01722708692503,2.242047364967341,62.22940015256566,46.16393459998977,0
160.01722708692503,2.2420473649673407,62.22940015256566,46.16393459998977,0
160.01722708692503,2.242047364967341,62.22940015256566,46.16393459998977,0
160.01722708692503,2.2420473649673407,62.22940015256566,46.16393459998977,0
160.01722708692503,2.242047364967341,62.22940015256566,46.16393459998977,0
160.01722708692503,2.2420473649673407,62.22940015256566,46.16393459998977,0
160.01722708692503,2.242047364967341,62.22940015256566,46.16393459998977,0
160.01722708692503,2.2420473649673407,62.22940015256566,46.16393459998977,0
160.01722708692503,2.242047364967341,62.22940015256566,46.16393459998977,0
160.01722708692503,2.2420473649673407,62.22940015256566,46.16393459998977,0
160.01722708692503,2.242047364967341,62.22940015256566,46.16393459998977,0
160.01722708692503,2.2420473649673407,62.22940015256566,46.16393459998977,0
160.01722708692503,2.242047364967341,62.22940015256566,46.16393459998977,0
160.01722708692503,2.2420473649673407,62.22940015256566,46.16393459998977,0
160.01722708692503,2.242047364967341,62.22940015256566,46.16393459998977,0
160.01722708692503,2.2420473649673407,62.22940015256566,46.16393459998977,0
160.01722708692503,2.242047364967341,62.22940015256566,46.16393459998977,0
160.01722708692503,2.2420473649673407,62.22940015256566,46.16393459998977,0
160.01722708692503,2.242047364967341,62.22940015256566,46.16393459998977,0
160.01722708692503,2.2420473649673407,62.22940015256566,46.16393459998977,0
160.01722708692503,2.242047364967341,62.22940015256566,46.16393459998977,0
160.01722708692503,2.2420473649673407,62.22940015256566,46.16393459998977,0
160.01722708692503,2.242047364967341,62.22940015256566,46.16393459998977,0
160.01722708692503,2.2420473649673407,62.22940015256566,46.16393459998977,0
160.01722708692503,2.242047364967341,62.22940015256566,46.16393459998977,0
160.01722708692503,2.2420473649673407,62.22940015256566,46.16393459998977,0
160.01722708692503,2.242047364967341,62.22940015256566,46.16393459998977,0
160.01722708692503,2.2420473649673407,62.22940015256566,46.16393459998977,0
160.01722708692503,2.242047364967341,62.22940015256566,46.16393459998977,0
160.01722708692503,2.2420473649673407,62.22940015256566,46.16393459998977,0
160.01722708692503,2.242047364967341,62.22940015256566,46.16393459998977,0
160.01722708692503,2.2420473649673407,62.22940015256566,46.16393459998977,0
160.01722708692503,2.242047364967341,62.22940015256566,46.16393459998977,0
160.01722708692503,2.2420473649673407,62.22940015256566,46.16393459998977,0
160.01722708692503,2.242047364967341,62.22940015256566,46.16393459998977,0
160.01722708692503,2.2420473649673407,62.22940015256566,46.16393459998977,0
160.01722708692503,2.242047364967341,62.22940015256566,46.16393459998977,0
160.01722708692503,2.2420473649673407,62.22940015256566,46.16393459998977,0
160.01722708692503,2.242047364967341,62.22940015256566,46.16393459998977,0
160.01722708692503,2.2420473649673407,62.22940015256566,46.16393459998977,0
160.01722708692503,2.242047364967341,62.22940015256566,46.16393459998977,0
160.01722708692503,2.2420473649673407,62.22940015256566,46.16393459998977,0
160.01722708692503,2.242047364967341,62.22940015256566,46.16393459998977,0
160.01722708692503,2.2420473649673407,62.22940015256566,46.16393459998977,0
160.01722708692503,2.242047364967341,62.22940015256566,46.16393459998977,0
160.01722708692503,2.2420473649673407,62.22940015256566,46.16393459998977,0
160.01722708692503,2.242047364967341,62.22940015256566,46.16393459998977,0
160.01722708692503,2.2420473649673407,62.22940015256566,46.16393459998977,0
160.01722708692503,2.242047364967341,62.22940015256566,46.16393459998977,0
160.01722708692503,2.2420473649673407,62.22940015256566,46.16393459998977,0
160.01722708692503,2.242047364967341,62.22940015256566,46.16393459998977,0
160.01722708692503,2.2420473649673407,62.22940015256566,46.16393459998977,0
160.01722708692503,2.242047364967341,62.22940015256566,46.16393459998977,0
160.01722708692503,2.2420473649673407,62.22940015256566,46.16393459998977,0
160.01722708692503,2.242047364967341,62.22940015256566,46.16393459998977,0
160.01722708692503,2.2420473649673407,62.22940015256566,46.16393459998977,0
160.01722708692503,2.242047364967341,62.22940015256566,46.16393459998977,0
160.01722708692503,2.2420473649673407,62.22940015256566,46.16393459998977,0
160.01722708692503,2.242047364967341,62.22940015256566,46.16393459998977,0
160.01722708692503,2.2420473649673407,62.22940015256566,46.16393459998977,0
160.01722708692503,2.242047364967341,62.22940015256566,46.16393459998977,0
160.01722708692503,2.2420473649673407,62.22940015256566,46.16393459998977,0
160.01722708692503,2.242047364967341,62.22940015256566,46.16393459998977,0
160.01722708692503,2.2420473649673407,62.22940015256566,46.16393459998977,0
160.01722708692503,2.242047364967341,62.22940015256566,46.16393459998977,0
160.01722708692503,2.2420473649673407,62.22940015256566,46.16393459998977,0
160.01722708692503,2.242047364967341,62.22940015256566,46.16393459998977,0
160.01722708692503,2.2420473649673407,62.22940015256566,46.16393459998977,0
160.01722708692503,2.242047364967341,62.22940015256566,46.16393459998977,0
160.01722708692503,2.2420473649673407,62.22940015256566,46.16393459998977,0
160.01722708692503,2.242047364967341,62.22940015256566,46.16393459998977,0
160.01722708692503,2.2420473649673407,62.22940015256566,46.16393459998977,0
160.01722708692503,2.242047364967341,62.22940015256566,46.16393459998977,0
160.01722708692503,2.2420473649673407,62.22940015256566,46.16393459998977,0
160.01722708692503,2.242047364967341,62.22940015256566,46.16393459998977,0
160.01722708692503,2.2420473649673407,62.22940015256566,46.16393459998977,0
160.01722708692503,2.242047364967341,62.22940015256566,46.16393459998977,0
160.01722708692503,2.2420473649673407,62.22940015256566,46.16393459998977,0
160.01722708692503,2.242047364967341,62.22940015256566,46.16393459998977,0
160.01722708692503,2.2420473649673407,62.22940015256566,46.16393459998977,0
160.01722708692503,2.242047364967341,62.22940015256566,46.16393459998977,0
160.01722708692503,2.2420473649673407,62.22940015256566,46.16393459998977,0
160.01722708692503,2.242047364967341,62.22940015256566,46.16393459998977,0
160.01722708692503,2.2420473649673407,62.22940015256566,46.16393459998977,0
160.01722708692503,2.242047364967341,62.22940015256566,46.16393459998977,0
160.01722708692503,2.2420473649673407,62.22940015256566,46.16393459998977,0
160.01722708692503,2.242047364967341,62.22940015256566,46.16393459998977,0
160.01722708692503,2.2420473649673407,62.22940015256566,46.16393459998977,0
160.01722708692503,2.242047364967341,62.22940015256566,46.16393459998977,0
160.01722708692503,2.2420473649673407,62.22940015256566,46.16393459998977,0
160.01722708692503,2.242047364967341,62.22940015256566,46.16393459998977,0
160.01722708692503,2.2420473649673407,62.22940015256566,46.16393459998977,0
160.01722708692503,2.242047364967341,62.22940015256566,46.16393459998977,0
160.01722708692503,2.2420473649673407,62.22940015256566,46.16393459998977,0
160.01722708692503,2.242047364967341,62.22940015256566,46.16393459998977,0
160.01722708692503,2.2420473649673407,62.22940015256566,46.16393459998977,0
160.01722708692503,2.242047364967341,62.22940015256566,46.16393459998977,0
160.01722708692503,2.2420473649673407,62.22940015256566,46.16393459998977,0
160.01722708692503,2.242047364967341,62.22940015256566,46.16393459998977,0
160.01722708692503,2.2420473649673407,62.22940015256566,46.16393459998977,0
160.01722708692503,2.242047364967341,62.22940015256566,46.16393459998977,0
160.01722708692503,2.2420473649673407,62.22940015256566,46.16393459998977,0
160.01722708692503,2.242047364967341,62.22940015256566,46.16393459998977,0
160.01722708692503,2.2420473649673407,62.22940015256566,46.16393459998977,0
160.01722708692503,2.242047364967341,62.22940015256566,46.16393459998977,0
160.01722708692503,2.2420473649673407,62.22940015256566,46.16393459998977,0
160.01722708692503,2.242047364967341,62.22940015256566,46.16393459998977,0
160.01722708692503,2.2420473649673407,62.22940015256566,46.16393459998977,0
160.01722708692503,2.242047364967341,62.22940015256566,46.16393459998977,0
160.01722708692503,2.2420473649673407,62.22940015256566,46.16393459998977,0
160.01722708692503,2.242047364967341,62.22940015256566,46.16393459998977,0
160.01722708692503,2.2420473649673407,62.22940015256566,46.16393459998977,0
160.01722708692503,2.242047364967341,62.22940015256566,46.16393459998977,0
160.01722708692503,2.2420473649673407,62.22940015256566,46.16393459998977,0
160.01722708692503,2.242047364967341,62.22940015256566,46.16393459998977,0
160.01722708692503,2.2420473649673407,62.22940015256566,46.16393459998977,0
160.01722708692503,2.242047364967341,62.22940015256566,46.16393459998977,0
160.01722708692503,2.2420473649673407,62.22940015256566,46.16393459998977,0
160.01722708692503,2.242047364967341,62.22940015256566,46.16393459998977,0
160.01722708692503,2.2420473649673407,62.22940015256566,46.16393459998977,0
160.01722708692503,2.242047364967341,62.22940015256566,46.16393459998977,0
160.01722708692503,2.2420473649673407,62.22940015256566,46.16393459998977,0
160.01722708692503,2.242047364967341,62.22940015256566,46.16393459998977,0
160.01722708692503,2.2420473649673407,62.22940015256566,46.16393459998977,0
160.01722708692503,2.242047364967341,62.22940015256566,46.16393459998977,0
160.01722708692503,2.2420473649673407,62.22940015256566,46.16393459998977,0
160.01722708692503,2.242047364967341,62.22940015256566,46.16393459998977,0
160.01722708692503,2.2420473649673407,62.22940015256566,46.16393459998977,0
160.01722708692503,2.242047364967341,62.22940015256566,46.16393459998977,0
160.01722708692503,2.2420473649673407,62.22940015256566,46.16393459998977,0
160.01722708692503,2.242047364967341,62.22940015256566,46.16393459998977,0
160.01722708692503,2.2420473649673407,62.22940015256566,46.16393459998977,0
160.01722708692503,2.242047364967341,62.22940015256566,46.16393459998977,0
160.01722708692503,2.2420473649673407,62.22940015256566,46.16393459998977,0
160.01722708692503,2.242047364967341,62.22940015256566,46.16393459998977,0
160.01722708692503,2.2420473649673407,62.22940015256566,46.16393459998977,0
160.01722708692503,2.242047364967341,62.22940015256566,46.16393459998977,0
160.01722708692503,2.2420473649673407,62.22940015256566,46.16393459998977,0
160.01722708692503,2.242047364967341,62.22940015256566,46.16393459998977,0
160.01722708692503,2.2420473649673407,62.22940015256566,46.16393459998977,0
160.01722708692503,2.242047364967341,62.22940015256566,46.16393459998977,0
160.01722708692503,2.2420473649673407,62.22940015256566,46.16393459998977,0
160.01722708692503,2.242047364967341,62.22940015256566,46.16393459998977,0
160.01722708692503,2.2420473649673407,62.22940015256566,46.16393459998977,0
160.01722708692503,2.242047364967341,62.22940015256566,46.16393459998977,0
160.01722708692503,2.2420473649673407,62.22940015256566,46.16393459998977,0
160.01722708692503,2.242047364967341,62.22940015256566,46.16393459998977,0
160.01722708692503,2.2420473649673407,62.22940015256566,46.16393459998977,0
160.01722708692503,2.242047364967341,62.22940015256566,46.16393459998977,0
160.01722708692503,2.2420473649673407,62.22940015256566,46.16393459998977,0
160.01722708692503,2.242047364967341,62.22940015256566,46.16393459998977,0
160.01722708692503,2.2420473649673407,62.22940015256566,46.16393459998977,0
160.01722708692503,2.242047364967341,62.22940015256566,46.16393459998977,0
160.01722708692503,2.2420473649673407,62.22940015256566,46.16393459998977,0
160.01722708692503,2.242047364967341,62.22940015256566,46.16393459998977,0
160.01722708692503,2.2420473649673407,62.22940015256566,46.16393459998977,0
160.01722708692503,2.242047364967341,62.22940015256566,46.16393459998977,0
160.01722708692503,2.2420473649673407,62.22940015256566,46.16393459998977,0
160.01722708692503,2.242047364967341,62.22940015256566,46.16393459998977,0
160.01722708692503,2.2420473649673407,62.22940015256566,46.16393459998977,0
160.01722708692503,2.242047364967341,62.22940015256566,46.16393459998977,0
160.01722708692503,2.2420473649673407,62.22940015256566,46.16393459998977,0
160.01722708692503,2.242047364967341,62.22940015256566,46.16393459998977,0
160.01722708692503,2.2420473649673407,62.22940015256566,46.16393459998977,0
160.01722708692503,2.242047364967341,62.22940015256566,46.16393459998977,0
160.01722708692503,2.2420473649673407,62.22940015256566,46.16393459998977,0
160.01722708692503,2.242047364967341,62.22940015256566,46.16393459998977,0
160.01722708692503,2.2420473649673407,62.22940015256566,46.16393459998977,0
160.01722708692503,2.242047364967341,62.22940015256566,46.16393459998977,0
160.01722708692503,2.2420473649673407,62.22940015256566,46.16393459998977,0
160.01722708692503,2.242047364967341,62.22940015256566,46.16393459998977,0
160.01722708692503,2.2420473649673407,62.22940015256566,46.16393459998977,0
160.01722708692503,2.242047364967341,62.22940015256566,46.16393459998977,0
160.01722708692503,2.2420473649673407,62.22940015256566,46.16393459998977,0
160.01722708692503,2.242047364967341,62.22940015256566,46.16393459998977,0
160.01722708692503,2.2420473649673407,62.22940015256566,46.16393459998977,0
160.01722708692503,2.242047364967341,62.22940015256566,46.16393459998977,0
160.01722708692503,2.2420473649673407,62.22940015256566,46.16393459998977,0
160.01722708692503,2.242047364967341,62.22940015256566,46.16393459998977,0
160.01722708692503,2.2420473649673407,62.22940015256566,46.16393459998977,0
160.01722708692503,2.242047364967341,62.22940015256566,46.16393459998977,0
160.01722708692503,2.2420473649673407,62.22940015256566,46.16393459998977,0
160.01722708692503,2.242047364967341,62.22940015256566,46.16393459998977,0
160.01722708692503,2.2420473649673407,62.22940015256566,46.16393459998977,0
160.01722708692503,2.242047364967341,62.22940015256566,46.16393459998977,0