worst,best,mean,median,limit
145.21676616422403,1.0145074092108108,58.486125060635686,47.55358231496358,0
145.02429701456768,0.8519461659681329,58.273641545214396,47.31673149306486,0
144.77103077949053,0.6927094669166245,58.056439169705435,47.944424345521924,0
144.5443655620561,0.599236520397741,57.886565472140525,47.8217158362828,0
144.4223265824015,0.5766112405196375,57.767288546598174,47.675062129638874,0
144.3694698354648,0.48799577000872163,57.68605448695961,46.2915542032282,0
144.270399747934,0.4239244954439796,57.6270115799931,44.701546111064715,0
144.01034486709096,0.511542902891926,57.57421716216016,44.60911734327297,0
143.5116307063088,0.5444858504544221,57.52752663028432,44.5612690610464,0
142.8606635367909,0.4743879712284689,57.497377180619694,44.5211163085744,0
142.4178123886652,0.375031373487801,57.48303646979854,44.498446576326515,0
142.3401822654212,0.3278921103571373,57.474039897175565,44.498778333442374,0
142.37614926337793,0.3378958941874235,57.46153023702403,44.50687056566537,0
142.37820308621235,0.35798029663283293,57.44541543724173,44.507171090689496,0
142.35842824112223,0.3578362075101009,57.430785287206135,44.49709041506503,0
142.34477288127542,0.3423466439744691,57.42024596637446,44.483649469951985,0
142.33862683644026,0.3291324206063382,57.41383180455371,44.47436347217024,0
142.3298946781188,0.3261247820409464,57.41112413310099,44.47145406670107,0
142.31372839196084,0.32875836572428807,57.41021323931305,44.47236477243187,0
142.293180566919,0.3302350999514315,57.40933634741308,44.473672971753984,0
142.27460077457317,0.32878862839555,57.408263755527784,44.47381635377363,0
142.26277071710044,0.32660203491437034,57.40733250244053,44.473072915059745,0
142.25847746720126,0.3256484553402721,57.406667500033144,44.47223397196922,0
142.25911847327052,0.32586696200124954,57.40619380574145,44.4716913091474,0
142.26116480903482,0.3261973648260317,57.405821438320466,44.471400776257596,0
142.26230565251993,0.326062924474289,57.40552530061895,44.4712222611584,0
142.26201812129216,0.32566793070985,57.40532558583323,44.471109979046005,0
142.26089151956933,0.32541080733367433,57.40522992437006,44.47107284193096,0
142.25969718518596,0.3254008200820304,57.405203317350235,44.47109110079293,0
142.25886906273487,0.32548448907775307,57.40519142873213,44.471112681459815,0
142.25846533968368,0.3255088638465651,57.40516211584613,44.47110080167083,0
142.2583533073924,0.325458707403782,57.40511871772251,44.47105968907959,0
142.2583775963832,0.3254003817867428,57.40508043148877,44.47101715618278,0
142.25843160254144,0.32537890188164886,57.40505868445407,44.470993848724376,0
142.25846191891455,0.32538626644828506,57.40505096377291,44.47099030369447,0
142.25845300275486,0.3253947316452288,57.4050489267384,44.470995098423636,0
142.25841320634245,0.3253917033527245,57.405046958090715,44.470998324490374,0
142.2583625872473,0.32538309568658386,57.40504403963482,44.47099737999725,0
142.25832064706603,0.3253779205792683,57.40504118080492,44.47099443774585,0
142.25829729739962,0.32537792712799174,57.40503903759889,44.47099190138925,0
142.2582910977657,0.3253794186468003,57.40503749597103,44.47099044920938,0
142.2582941014688,0.325379386496516,57.40503628925874,44.47098966729135,0
142.2582984371053,0.3253779796995666,57.405035386035514,44.47098916029991,0
142.2583000955542,0.32537677037895263,57.405034865424405,44.47098887413133,0
142.2582988770223,0.32537652312615384,57.405034683740276,44.470988829722515,0
142.25829633296934,0.32537682173714344,57.40503465661947,44.47098891382234,0
142.25829391871173,0.32537699920018714,57.405034608760865,44.47098895232867,0
142.2582922933126,0.3253768604570346,57.405034485654596,44.47098886860135,0
142.25829147614857,0.3253766206438563,57.40503433482217,44.47098871709542,0
142.25829122295215,0.3253764981749607,57.4050342195799,44.470988593223225,0
142.25829126492962,0.3253765083411797,57.405034161654676,44.47098854253909,0
142.25829139111525,0.325376548070622,57.40503414341267,44.47098854639411,0
142.2582914683493,0.3253765478881937,57.40503413844482,44.47098856347078,0
142.25829144738444,0.3253765166457513,57.405034132474555,44.47098856895263,0
142.25829135003013,0.32537649146355374,57.40503412401106,44.47098856198211,0
142.25829123240743,0.3253764872221836,57.40503411582963,44.47098855179886,0
142.25829114296786,0.3253764929412355,57.405034109301496,44.47098854459857,0
142.258291099487,0.3253764947231368,57.40503410415746,44.47098854080019,0
142.25829109206447,0.3253764901921221,57.40503410011689,44.47098853864833,0
142.2582911002917,0.3253764849120484,57.405034097397646,44.470988537224976,0
142.2582911083611,0.325376483045542,57.405034096110946,44.470988536572776,0
142.2582911102369,0.32537648392290397,57.40503409582249,44.470988536640874,0
142.25829110691322,0.3253764848760077,57.40503409581678,44.47098853692088,0
142.25829110160464,0.3253764846112617,57.40503409561345,44.47098853690119,0
142.2582910967643,0.32537648368908245,57.405034095168666,44.47098853649906,0
142.25829109342968,0.3253764830678174,57.40503409468997,44.470988535991154,0
142.2582910916779,0.32537648300809185,57.4050340943575,44.470988535660766,0
142.25829109113994,0.32537648316970036,57.405034094201916,44.47098853557371,0
142.25829109128887,0.3253764832163226,57.40503409415345,44.47098853561916,0
142.25829109161916,0.32537648311409884,57.405034094136866,44.47098853566768,0
142.25829109179398,0.3253764830011261,57.40503409411794,44.470988535667814,0
142.25829109171443,0.3253764829652155,57.40503409409435,44.47098853563621,0
142.25829109146818,0.3253764829831822,57.40503409407176,44.470988535604064,0
142.25829109120394,0.3253764829966962,57.405034094052205,44.470988535584574,0
142.2582910910237,0.3253764829842336,57.40503409403544,44.47098853557466,0
142.25829109094747,0.3253764829626943,57.405034094022476,44.470988535568594,0
142.2582910909407,0.3253764829518252,57.405034094014454,44.47098853556474,0
142.25829109095832,0.3253764829534278,57.40503409401129,44.470988535563535,0
142.25829109097194,0.32537648295778476,57.4050340940109,44.47098853556424,0
142.25829109097356,0.32537648295796107,57.40503409401088,44.47098853556493,0
142.25829109096617,0.3253764829546788,57.40503409401008,44.470988535564345,0
142.25829109095537,0.3253764829517791,57.4050340940086,44.470988535562725,0
142.2582910909453,0.32537648295107235,57.40503409400718,44.470988535561155,0
142.2582910909381,0.3253764829516358,57.405034094006275,44.470988535560366,0
142.2582910909343,0.32537648295199095,57.40503409400585,44.470988535560295,0
142.25829109093334,0.3253764829517072,57.40503409400567,44.470988535560494,0
142.25829109093388,0.32537648295123556,57.40503409400563,44.47098853556061,0
142.2582910909347,0.32537648295101507,57.40503409400556,44.47098853556055,0
142.25829109093502,0.32537648295105215,57.405034094005494,44.47098853556044,0
142.25829109093476,0.32537648295112365,57.405034094005444,44.47098853556034,0
142.25829109093414,0.32537648295109944,57.40503409400539,44.47098853556029,0
142.25829109093357,0.3253764829510175,57.40503409400533,44.47098853556027,0
142.25829109093326,0.3253764829509621,57.405034094005295,44.47098853556024,0
142.2582910909331,0.3253764829509589,57.405034094005266,44.47098853556024,0
142.25829109093314,0.3253764829509763,57.40503409400528,44.47098853556024,0
142.2582910909331,0.325376482950982,57.40503409400528,44.47098853556024,0
142.25829109093314,0.3253764829509713,57.40503409400528,44.47098853556024,0
142.25829109093314,0.32537648295095867,57.405034094005266,44.47098853556023,0
142.25829109093317,0.3253764829509538,57.405034094005266,44.47098853556023,0
142.25829109093314,0.32537648295095545,57.405034094005266,44.470988535560224,0
142.25829109093308,0.32537648295095734,57.40503409400526,44.470988535560224,0
142.25829109093306,0.3253764829509569,57.40503409400526,44.47098853556022,0
142.25829109093308,0.3253764829509549,57.405034094005266,44.470988535560224,0
142.25829109093306,0.3253764829509539,57.40503409400526,44.470988535560224,0
142.25829109093308,0.3253764829509538,57.405034094005266,44.470988535560224,0
142.25829109093308,0.3253764829509541,57.40503409400526,44.470988535560224,0
142.25829109093308,0.325376482950954,57.40503409400526,44.470988535560224,0
142.25829109093308,0.32537648295095356,57.40503409400526,44.470988535560224,0
142.25829109093308,0.32537648295095345,57.40503409400526,44.470988535560224,0
142.25829109093306,0.32537648295095334,57.40503409400526,44.470988535560224,0
142.25829109093306,0.32537648295095356,57.40503409400526,44.47098853556022,0
142.25829109093306,0.32537648295095356,57.40503409400526,44.470988535560224,0
142.25829109093306,0.32537648295095356,57.40503409400526,44.470988535560224,0
142.2582910909331,0.32537648295095345,57.40503409400526,44.47098853556022,0
142.25829109093306,0.32537648295095356,57.40503409400526,44.47098853556022,0
142.2582910909331,0.32537648295095334,57.40503409400526,44.470988535560224,0
142.25829109093308,0.32537648295095356,57.40503409400526,44.470988535560224,0
142.2582910909331,0.32537648295095345,57.40503409400526,44.47098853556022,0
142.25829109093308,0.32537648295095356,57.40503409400526,44.47098853556022,0
142.2582910909331,0.32537648295095356,57.40503409400526,44.47098853556022,0
142.25829109093308,0.32537648295095334,57.40503409400526,44.470988535560224,0
142.25829109093306,0.32537648295095334,57.40503409400526,44.470988535560224,0
142.25829109093306,0.32537648295095345,57.40503409400526,44.470988535560224,0
142.25829109093308,0.32537648295095334,57.40503409400526,44.47098853556022,0
142.2582910909331,0.32537648295095334,57.40503409400526,44.47098853556023,0
142.25829109093308,0.32537648295095356,57.40503409400526,44.470988535560224,0
142.25829109093308,0.32537648295095334,57.40503409400526,44.47098853556022,0
142.2582910909331,0.32537648295095345,57.40503409400526,44.470988535560224,0
142.25829109093308,0.32537648295095334,57.40503409400526,44.470988535560224,0
142.25829109093308,0.32537648295095345,57.405034094005266,44.470988535560224,0
142.25829109093306,0.32537648295095334,57.40503409400526,44.47098853556022,0
142.25829109093308,0.32537648295095334,57.40503409400526,44.47098853556022,0
142.25829109093308,0.32537648295095345,57.40503409400526,44.470988535560224,0
142.25829109093308,0.32537648295095334,57.40503409400526,44.47098853556021,0
142.25829109093308,0.32537648295095334,57.40503409400526,44.470988535560224,0
142.25829109093308,0.32537648295095345,57.40503409400526,44.470988535560224,0
142.25829109093308,0.32537648295095334,57.40503409400526,44.470988535560224,0
142.25829109093308,0.32537648295095345,57.40503409400526,44.470988535560224,0
142.2582910909331,0.32537648295095356,57.40503409400526,44.470988535560224,0
142.25829109093308,0.32537648295095356,57.40503409400526,44.470988535560224,0
142.25829109093308,0.32537648295095334,57.40503409400526,44.470988535560224,0
142.25829109093308,0.32537648295095345,57.40503409400526,44.47098853556022,0
142.25829109093308,0.32537648295095334,57.40503409400526,44.470988535560224,0
142.25829109093308,0.32537648295095334,57.40503409400526,44.470988535560224,0
142.25829109093306,0.32537648295095345,57.405034094005266,44.470988535560224,0
142.25829109093306,0.32537648295095345,57.40503409400526,44.470988535560224,0
142.2582910909331,0.32537648295095345,57.40503409400526,44.470988535560224,0
142.25829109093306,0.32537648295095334,57.40503409400526,44.470988535560224,0
142.25829109093306,0.32537648295095356,57.40503409400526,44.470988535560224,0
142.2582910909331,0.32537648295095345,57.40503409400526,44.47098853556022,0
142.25829109093308,0.32537648295095334,57.40503409400526,44.470988535560224,0
142.25829109093306,0.32537648295095345,57.40503409400526,44.470988535560224,0
142.25829109093306,0.32537648295095356,57.40503409400526,44.470988535560224,0
142.25829109093308,0.32537648295095334,57.40503409400526,44.470988535560224,0
142.2582910909331,0.32537648295095345,57.40503409400526,44.47098853556022,0
142.25829109093308,0.32537648295095334,57.40503409400526,44.47098853556022,0
142.25829109093308,0.32537648295095345,57.40503409400526,44.470988535560224,0
142.25829109093308,0.32537648295095345,57.40503409400526,44.47098853556022,0
142.25829109093308,0.32537648295095345,57.40503409400526,44.47098853556022,0
142.25829109093308,0.32537648295095356,57.40503409400526,44.470988535560224,0
142.25829109093308,0.32537648295095356,57.40503409400526,44.47098853556022,0
142.25829109093308,0.32537648295095356,57.40503409400526,44.470988535560224,0
142.25829109093308,0.32537648295095334,57.405034094005266,44.470988535560224,0
142.25829109093308,0.32537648295095356,57.40503409400526,44.470988535560224,0
142.25829109093308,0.32537648295095356,57.40503409400526,44.470988535560224,0
142.25829109093308,0.32537648295095356,57.40503409400526,44.470988535560224,0
142.25829109093306,0.32537648295095356,57.40503409400526,44.47098853556021,0
142.25829109093308,0.32537648295095356,57.40503409400526,44.47098853556021,0
142.25829109093308,0.32537648295095356,57.40503409400526,44.47098853556022,0
142.25829109093308,0.32537648295095356,57.40503409400526,44.470988535560224,0
142.25829109093306,0.32537648295095356,57.40503409400526,44.470988535560224,0
142.25829109093308,0.32537648295095345,57.40503409400526,44.470988535560224,0
142.2582910909331,0.32537648295095356,57.40503409400526,44.470988535560224,0
142.25829109093306,0.32537648295095356,57.40503409400526,44.470988535560224,0
142.25829109093308,0.32537648295095356,57.40503409400526,44.470988535560224,0
142.25829109093308,0.32537648295095356,57.40503409400526,44.470988535560224,0
142.25829109093308,0.32537648295095345,57.40503409400526,44.47098853556021,0
142.25829109093308,0.32537648295095356,57.40503409400526,44.470988535560224,0
142.25829109093308,0.32537648295095345,57.40503409400526,44.470988535560224,0
142.25829109093308,0.32537648295095356,57.40503409400526,44.470988535560224,0
142.25829109093306,0.32537648295095356,57.40503409400526,44.470988535560224,0
142.2582910909331,0.32537648295095356,57.40503409400526,44.470988535560224,0
142.25829109093306,0.32537648295095356,57.40503409400526,44.470988535560224,0
142.25829109093308,0.32537648295095356,57.40503409400526,44.470988535560224,0
142.25829109093308,0.32537648295095356,57.40503409400526,44.470988535560224,0
142.25829109093308,0.32537648295095356,57.40503409400526,44.470988535560224,0
142.25829109093308,0.32537648295095356,57.40503409400526,44.470988535560224,0
142.25829109093308,0.32537648295095334,57.40503409400526,44.470988535560224,0
142.25829109093308,0.32537648295095356,57.40503409400526,44.470988535560224,0
142.25829109093308,0.32537648295095356,57.40503409400526,44.470988535560224,0
142.25829109093308,0.32537648295095356,57.40503409400526,44.470988535560224,0
142.25829109093308,0.32537648295095356,57.40503409400526,44.470988535560224,0
142.25829109093308,0.32537648295095356,57.40503409400526,44.470988535560224,0
142.25829109093308,0.32537648295095356,57.40503409400526,44.470988535560224,0
142.25829109093308,0.32537648295095356,57.40503409400526,44.470988535560224,0
142.25829109093308,0.32537648295095356,57.40503409400526,44.470988535560224,0
142.25829109093308,0.32537648295095356,57.40503409400526,44.470988535560224,0
142.25829109093308,0.32537648295095356,57.40503409400526,44.470988535560224,0
142.25829109093308,0.32537648295095356,57.40503409400526,44.470988535560224,0
142.25829109093308,0.32537648295095356,57.40503409400526,44.470988535560224,0
142.25829109093308,0.32537648295095356,57.40503409400526,44.470988535560224,0
142.25829109093308,0.32537648295095356,57.40503409400526,44.470988535560224,0
142.25829109093308,0.32537648295095356,57.40503409400526,44.470988535560224,0
142.25829109093308,0.32537648295095356,57.40503409400526,44.470988535560224,0
142.25829109093308,0.32537648295095356,57.40503409400526,44.470988535560224,0
142.25829109093308,0.32537648295095356,57.40503409400526,44.470988535560224,0
142.25829109093308,0.32537648295095356,57.40503409400526,44.470988535560224,0
142.25829109093308,0.32537648295095356,57.40503409400526,44.470988535560224,0
142.25829109093308,0.32537648295095356,57.40503409400526,44.470988535560224,0
142.25829109093308,0.32537648295095356,57.40503409400526,44.470988535560224,0
142.25829109093308,0.32537648295095356,57.40503409400526,44.470988535560224,0
142.25829109093308,0.32537648295095356,57.40503409400526,44.470988535560224,0
142.25829109093308,0.32537648295095356,57.40503409400526,44.470988535560224,0
142.25829109093308,0.32537648295095356,57.40503409400526,44.470988535560224,0
142.25829109093308,0.32537648295095356,57.40503409400526,44.470988535560224,0
142.25829109093308,0.32537648295095356,57.40503409400526,44.470988535560224,0
142.25829109093308,0.32537648295095356,57.40503409400526,44.470988535560224,0
142.25829109093308,0.32537648295095356,57.40503409400526,44.470988535560224,0
142.25829109093308,0.32537648295095356,57.40503409400526,44.470988535560224,0
142.25829109093308,0.32537648295095356,57.40503409400526,44.470988535560224,0
142.25829109093308,0.32537648295095356,57.40503409400526,44.470988535560224,0
142.25829109093308,0.32537648295095356,57.40503409400526,44.470988535560224,0
142.25829109093308,0.32537648295095356,57.40503409400526,44.470988535560224,0
142.25829109093308,0.32537648295095356,57.40503409400526,44.470988535560224,0
142.25829109093308,0.32537648295095356,57.40503409400526,44.470988535560224,0
142.25829109093308,0.32537648295095356,57.40503409400526,44.470988535560224,0
142.25829109093308,0.32537648295095356,57.40503409400526,44.470988535560224,0
142.25829109093308,0.32537648295095356,57.40503409400526,44.470988535560224,0
142.25829109093308,0.32537648295095356,57.40503409400526,44.470988535560224,0
142.25829109093308,0.32537648295095356,57.40503409400526,44.470988535560224,0
142.25829109093308,0.32537648295095356,57.40503409400526,44.470988535560224,0
142.25829109093308,0.32537648295095356,57.40503409400526,44.470988535560224,0
142.25829109093308,0.32537648295095356,57.40503409400526,44.470988535560224,0
142.25829109093308,0.32537648295095356,57.40503409400526,44.470988535560224,0
142.25829109093308,0.32537648295095356,57.40503409400526,44.470988535560224,0
142.25829109093308,0.32537648295095356,57.40503409400526,44.470988535560224,0
142.25829109093308,0.32537648295095356,57.40503409400526,44.470988535560224,0
142.25829109093308,0.32537648295095356,57.40503409400526,44.470988535560224,0
142.25829109093308,0.32537648295095356,57.40503409400526,44.470988535560224,0
142.25829109093308,0.32537648295095356,57.40503409400526,44.470988535560224,0
142.25829109093308,0.32537648295095356,57.40503409400526,44.470988535560224,0
142.25829109093308,0.32537648295095356,57.40503409400526,44.470988535560224,0
142.25829109093308,0.32537648295095356,57.40503409400526,44.470988535560224,0
142.25829109093308,0.32537648295095356,57.40503409400526,44.470988535560224,0
142.25829109093308,0.32537648295095356,57.40503409400526,44.470988535560224,0
142.25829109093308,0.32537648295095356,57.40503409400526,44.470988535560224,0
142.25829109093308,0.32537648295095356,57.40503409400526,44.470988535560224,0
142.25829109093308,0.32537648295095356,57.40503409400526,44.470988535560224,0
142.25829109093308,0.32537648295095356,57.40503409400526,44.470988535560224,0
142.25829109093308,0.32537648295095356,57.40503409400526,44.470988535560224,0
142.25829109093308,0.32537648295095356,57.40503409400526,44.470988535560224,0
142.25829109093308,0.32537648295095356,57.40503409400526,44.470988535560224,0
142.25829109093308,0.32537648295095356,57.40503409400526,44.470988535560224,0
142.25829109093308,0.32537648295095356,57.40503409400526,44.470988535560224,0
142.25829109093308,0.32537648295095356,57.40503409400526,44.470988535560224,0
142.25829109093308,0.32537648295095356,57.40503409400526,44.470988535560224,0
142.25829109093308,0.32537648295095356,57.40503409400526,44.470988535560224,0
142.25829109093308,0.32537648295095356,57.40503409400526,44.470988535560224,0
142.25829109093308,0.32537648295095356,57.40503409400526,44.470988535560224,0
142.25829109093308,0.32537648295095356,57.40503409400526,44.470988535560224,0
142.25829109093308,0.32537648295095356,57.40503409400526,44.470988535560224,0
142.25829109093308,0.32537648295095356,57.40503409400526,44.470988535560224,0
142.25829109093308,0.32537648295095356,57.40503409400526,44.470988535560224,0
142.25829109093308,0.32537648295095356,57.40503409400526,44.470988535560224,0
142.25829109093308,0.32537648295095356,57.40503409400526,44.470988535560224,0
142.25829109093308,0.32537648295095356,57.40503409400526,44.470988535560224,0
142.25829109093308,0.32537648295095356,57.40503409400526,44.470988535560224,0
142.25829109093308,0.32537648295095356,57.40503409400526,44.470988535560224,0
142.25829109093308,0.32537648295095356,57.40503409400526,44.470988535560224,0
142.25829109093308,0.32537648295095356,57.40503409400526,44.470988535560224,0
142.25829109093308,0.32537648295095356,57.40503409400526,44.470988535560224,0
142.25829109093308,0.32537648295095356,57.40503409400526,44.470988535560224,0
142.25829109093308,0.32537648295095356,57.40503409400526,44.470988535560224,0
142.25829109093308,0.32537648295095356,57.40503409400526,44.470988535560224,0
142.25829109093308,0.32537648295095356,57.40503409400526,44.470988535560224,0
142.25829109093308,0.32537648295095356,57.40503409400526,44.470988535560224,0
142.25829109093308,0.32537648295095356,57.40503409400526,44.470988535560224,0
142.25829109093308,0.32537648295095356,57.40503409400526,44.470988535560224,0
142.25829109093308,0.32537648295095356,57.40503409400526,44.470988535560224,0
142.25829109093308,0.32537648295095356,57.40503409400526,44.470988535560224,0
142.25829109093308,0.32537648295095356,57.40503409400526,44.470988535560224,0
142.25829109093308,0.32537648295095356,57.40503409400526,44.470988535560224,0
142.25829109093308,0.32537648295095356,57.40503409400526,44.470988535560224,0
142.25829109093308,0.32537648295095356,57.40503409400526,44.470988535560224,0
142.25829109093308,0.32537648295095356,57.40503409400526,44.470988535560224,0
142.25829109093308,0.32537648295095356,57.40503409400526,44.470988535560224,0
142.25829109093308,0.32537648295095356,57.40503409400526,44.470988535560224,0
142.25829109093308,0.32537648295095356,57.40503409400526,44.470988535560224,0
142.25829109093308,0.32537648295095356,57.40503409400526,44.470988535560224,0
142.25829109093308,0.32537648295095356,57.40503409400526,44.470988535560224,0
142.25829109093308,0.32537648295095356,57.40503409400526,44.470988535560224,0
142.25829109093308,0.32537648295095356,57.40503409400526,44.470988535560224,0
142.25829109093308,0.32537648295095356,57.40503409400526,44.470988535560224,0
142.25829109093308,0.32537648295095356,57.40503409400526,44.470988535560224,0
142.25829109093308,0.32537648295095356,57.40503409400526,44.470988535560224,0
142.25829109093308,0.32537648295095356,57.40503409400526,44.470988535560224,0
142.25829109093308,0.32537648295095356,57.40503409400526,44.470988535560224,0
142.25829109093308,0.32537648295095356,57.40503409400526,44.470988535560224,0
142.25829109093308,0.32537648295095356,57.40503409400526,44.470988535560224,0
142.25829109093308,0.32537648295095356,57.40503409400526,44.470988535560224,0
142.25829109093308,0.32537648295095356,57.40503409400526,44.470988535560224,0
142.25829109093308,0.32537648295095356,57.40503409400526,44.470988535560224,0
142.25829109093308,0.32537648295095356,57.40503409400526,44.470988535560224,0
142.25829109093308,0.32537648295095356,57.40503409400526,44.470988535560224,0
142.25829109093308,0.32537648295095356,57.40503409400526,44.470988535560224,0
142.25829109093308,0.32537648295095356,57.40503409400526,44.470988535560224,0
142.25829109093308,0.32537648295095356,57.40503409400526,44.470988535560224,0
142.25829109093308,0.32537648295095356,57.40503409400526,44.470988535560224,0
142.25829109093308,0.32537648295095356,57.40503409400526,44.470988535560224,0
142.25829109093308,0.32537648295095356,57.40503409400526,44.470988535560224,0
142.25829109093308,0.32537648295095356,57.40503409400526,44.470988535560224,0
142.25829109093308,0.32537648295095356,57.40503409400526,44.470988535560224,0
142.25829109093308,0.32537648295095356,57.40503409400526,44.470988535560224,0
142.25829109093308,0.32537648295095356,57.40503409400526,44.470988535560224,0
142.25829109093308,0.32537648295095356,57.40503409400526,44.470988535560224,0
142.25829109093308,0.32537648295095356,57.40503409400526,44.470988535560224,0
142.25829109093308,0.32537648295095356,57.40503409400526,44.470988535560224,0
142.25829109093308,0.32537648295095356,57.40503409400526,44.470988535560224,0
142.25829109093308,0.32537648295095356,57.40503409400526,44.470988535560224,0
142.25829109093308,0.32537648295095356,57.40503409400526,44.470988535560224,0
142.25829109093308,0.32537648295095356,57.40503409400526,44.470988535560224,0
142.25829109093308,0.32537648295095356,57.40503409400526,44.470988535560224,0
142.25829109093308,0.32537648295095356,57.40503409400526,44.470988535560224,0
142.25829109093308,0.32537648295095356,57.40503409400526,44.470988535560224,0
142.25829109093308,0.32537648295095356,57.40503409400526,44.470988535560224,0
142.25829109093308,0.32537648295095356,57.40503409400526,44.470988535560224,0
142.25829109093308,0.32537648295095356,57.40503409400526,44.470988535560224,0
142.25829109093308,0.32537648295095356,57.40503409400526,44.470988535560224,0
142.25829109093308,0.32537648295095356,57.40503409400526,44.470988535560224,0
142.25829109093308,0.32537648295095356,57.40503409400526,44.470988535560224,0
142.25829109093308,0.32537648295095356,57.40503409400526,44.470988535560224,0
142.25829109093308,0.32537648295095356,57.40503409400526,44.470988535560224,0
142.25829109093308,0.32537648295095356,57.40503409400526,44.470988535560224,0
142.25829109093308,0.32537648295095356,57.40503409400526,44.470988535560224,0
142.25829109093308,0.32537648295095356,57.40503409400526,44.470988535560224,0
142.25829109093308,0.32537648295095356,57.40503409400526,44.470988535560224,0
142.25829109093308,0.32537648295095356,57.40503409400526,44.470988535560224,0
142.25829109093308,0.32537648295095356,57.40503409400526,44.470988535560224,0
142.25829109093308,0.32537648295095356,57.40503409400526,44.470988535560224,0
142.25829109093308,0.32537648295095356,57.40503409400526,44.470988535560224,0
142.25829109093308,0.32537648295095356,57.40503409400526,44.470988535560224,0
142.25829109093308,0.32537648295095356,57.40503409400526,44.470988535560224,0
142.25829109093308,0.32537648295095356,57.40503409400526,44.470988535560224,0
142.25829109093308,0.32537648295095356,57.40503409400526,44.470988535560224,0
142.25829109093308,0.32537648295095356,57.40503409400526,44.470988535560224,0
142.25829109093308,0.32537648295095356,57.40503409400526,44.470988535560224,0
142.25829109093308,0.32537648295095356,57.40503409400526,44.470988535560224,0
142.25829109093308,0.32537648295095356,57.40503409400526,44.470988535560224,0
142.25829109093308,0.32537648295095356,57.40503409400526,44.470988535560224,0
142.25829109093308,0.32537648295095356,57.40503409400526,44.470988535560224,0
142.25829109093308,0.32537648295095356,57.40503409400526,44.470988535560224,0
142.25829109093308,0.32537648295095356,57.40503409400526,44.470988535560224,0
142.25829109093308,0.32537648295095356,57.40503409400526,44.470988535560224,0
142.25829109093308,0.32537648295095356,57.40503409400526,44.470988535560224,0
142.25829109093308,0.32537648295095356,57.40503409400526,44.470988535560224,0
142.25829109093308,0.32537648295095356,57.40503409400526,44.470988535560224,0
142.25829109093308,0.32537648295095356,57.40503409400526,44.470988535560224,0
142.25829109093308,0.32537648295095356,57.40503409400526,44.470988535560224,0
142.25829109093308,0.32537648295095356,57.40503409400526,44.470988535560224,0
142.25829109093308,0.32537648295095356,57.40503409400526,44.470988535560224,0
142.25829109093308,0.32537648295095356,57.40503409400526,44.470988535560224,0
142.25829109093308,0.32537648295095356,57.40503409400526,44.470988535560224,0
142.25829109093308,0.32537648295095356,57.40503409400526,44.470988535560224,0
142.25829109093308,0.32537648295095356,57.40503409400526,44.470988535560224,0
142.25829109093308,0.32537648295095356,57.40503409400526,44.470988535560224,0
142.25829109093308,0.32537648295095356,57.40503409400526,44.470988535560224,0
142.25829109093308,0.32537648295095356,57.40503409400526,44.470988535560224,0
142.25829109093308,0.32537648295095356,57.40503409400526,44.470988535560224,0
142.25829109093308,0.32537648295095356,57.40503409400526,44.470988535560224,0
142.25829109093308,0.32537648295095356,57.40503409400526,44.470988535560224,0
142.25829109093308,0.32537648295095356,57.40503409400526,44.470988535560224,0
142.25829109093308,0.32537648295095356,57.40503409400526,44.470988535560224,0
142.25829109093308,0.32537648295095356,57.40503409400526,44.470988535560224,0
142.25829109093308,0.32537648295095356,57.40503409400526,44.470988535560224,0
142.25829109093308,0.32537648295095356,57.40503409400526,44.470988535560224,0
142.25829109093308,0.32537648295095356,57.40503409400526,44.470988535560224,0
142.25829109093308,0.32537648295095356,57.40503409400526,44.470988535560224,0
142.25829109093308,0.32537648295095356,57.40503409400526,44.470988535560224,0
142.25829109093308,0.32537648295095356,57.40503409400526,44.470988535560224,0
142.25829109093308,0.32537648295095356,57.40503409400526,44.470988535560224,0
142.25829109093308,0.32537648295095356,57.40503409400526,44.470988535560224,0
142.25829109093308,0.32537648295095356,57.40503409400526,44.470988535560224,0
142.25829109093308,0.32537648295095356,57.40503409400526,44.470988535560224,0
142.25829109093308,0.32537648295095356,57.40503409400526,44.470988535560224,0
142.25829109093308,0.32537648295095356,57.40503409400526,44.470988535560224,0
142.25829109093308,0.32537648295095356,57.40503409400526,44.470988535560224,0
142.25829109093308,0.32537648295095356,57.40503409400526,44.470988535560224,0
142.25829109093308,0.32537648295095356,57.40503409400526,44.470988535560224,0
142.25829109093308,0.32537648295095356,57.40503409400526,44.470988535560224,0
142.25829109093308,0.32537648295095356,57.40503409400526,44.470988535560224,0
142.25829109093308,0.32537648295095356,57.40503409400526,44.470988535560224,0
142.25829109093308,0.32537648295095356,57.40503409400526,44.470988535560224,0
142.25829109093308,0.32537648295095356,57.40503409400526,44.470988535560224,0
142.25829109093308,0.32537648295095356,57.40503409400526,44.470988535560224,0
142.25829109093308,0.32537648295095356,57.40503409400526,44.470988535560224,0
142.25829109093308,0.32537648295095356,57.40503409400526,44.470988535560224,0
142.25829109093308,0.32537648295095356,57.40503409400526,44.470988535560224,0
142.25829109093308,0.32537648295095356,57.40503409400526,44.470988535560224,0
142.25829109093308,0.32537648295095356,57.40503409400526,44.470988535560224,0
142.25829109093308,0.32537648295095356,57.40503409400526,44.470988535560224,0
142.25829109093308,0.32537648295095356,57.40503409400526,44.470988535560224,0
142.25829109093308,0.32537648295095356,57.40503409400526,44.470988535560224,0
142.25829109093308,0.32537648295095356,57.40503409400526,44.470988535560224,0
142.25829109093308,0.32537648295095356,57.40503409400526,44.470988535560224,0
142.25829109093308,0.32537648295095356,57.40503409400526,44.470988535560224,0
142.25829109093308,0.32537648295095356,57.40503409400526,44.470988535560224,0
142.25829109093308,0.32537648295095356,57.40503409400526,44.470988535560224,0
142.25829109093308,0.32537648295095356,57.40503409400526,44.470988535560224,0
142.25829109093308,0.32537648295095356,57.40503409400526,44.470988535560224,0
142.25829109093308,0.32537648295095356,57.40503409400526,44.470988535560224,0
142.25829109093308,0.32537648295095356,57.40503409400526,44.470988535560224,0
142.25829109093308,0.32537648295095356,57.40503409400526,44.470988535560224,0
142.25829109093308,0.32537648295095356,57.40503409400526,44.470988535560224,0
142.25829109093308,0.32537648295095356,57.40503409400526,44.470988535560224,0
142.25829109093308,0.32537648295095356,57.40503409400526,44.470988535560224,0
142.25829109093308,0.32537648295095356,57.40503409400526,44.470988535560224,0
142.25829109093308,0.32537648295095356,57.40503409400526,44.470988535560224,0
142.25829109093308,0.32537648295095356,57.40503409400526,44.470988535560224,0
142.25829109093308,0.32537648295095356,57.40503409400526,44.470988535560224,0
142.25829109093308,0.32537648295095356,57.40503409400526,44.470988535560224,0
142.25829109093308,0.32537648295095356,57.40503409400526,44.470988535560224,0
142.25829109093308,0.32537648295095356,57.40503409400526,44.470988535560224,0
142.25829109093308,0.32537648295095356,57.40503409400526,44.470988535560224,0
142.25829109093308,0.32537648295095356,57.40503409400526,44.470988535560224,0
142.25829109093308,0.32537648295095356,57.40503409400526,44.470988535560224,0
142.25829109093308,0.32537648295095356,57.40503409400526,44.470988535560224,0
142.25829109093308,0.32537648295095356,57.40503409400526,44.470988535560224,0
142.25829109093308,0.32537648295095356,57.40503409400526,44.470988535560224,0
142.25829109093308,0.32537648295095356,57.40503409400526,44.470988535560224,0
142.25829109093308,0.32537648295095356,57.40503409400526,44.470988535560224,0
142.25829109093308,0.32537648295095356,57.40503409400526,44.470988535560224,0
142.25829109093308,0.32537648295095356,57.40503409400526,44.470988535560224,0
142.25829109093308,0.32537648295095356,57.40503409400526,44.470988535560224,0
142.25829109093308,0.32537648295095356,57.40503409400526,44.470988535560224,0
142.25829109093308,0.32537648295095356,57.40503409400526,44.470988535560224,0
142.25829109093308,0.32537648295095356,57.40503409400526,44.470988535560224,0
142.25829109093308,0.32537648295095356,57.40503409400526,44.470988535560224,0
142.25829109093308,0.32537648295095356,57.40503409400526,44.470988535560224,0
142.25829109093308,0.32537648295095356,57.40503409400526,44.470988535560224,0
142.25829109093308,0.32537648295095356,57.40503409400526,44.470988535560224,0
142.25829109093308,0.32537648295095356,57.40503409400526,44.470988535560224,0
142.25829109093308,0.32537648295095356,57.40503409400526,44.470988535560224,0
142.25829109093308,0.32537648295095356,57.40503409400526,44.470988535560224,0
142.25829109093308,0.32537648295095356,57.40503409400526,44.470988535560224,0
142.25829109093308,0.32537648295095356,57.40503409400526,44.470988535560224,0
142.25829109093308,0.32537648295095356,57.40503409400526,44.470988535560224,0
142.25829109093308,0.32537648295095356,57.40503409400526,44.470988535560224,0
142.25829109093308,0.32537648295095356,57.40503409400526,44.470988535560224,0
142.25829109093308,0.32537648295095356,57.40503409400526,44.470988535560224,0
142.25829109093308,0.32537648295095356,57.40503409400526,44.470988535560224,0
142.25829109093308,0.32537648295095356,57.40503409400526,44.470988535560224,0
142.25829109093308,0.32537648295095356,57.40503409400526,44.470988535560224,0
142.25829109093308,0.32537648295095356,57.40503409400526,44.470988535560224,0
142.25829109093308,0.32537648295095356,57.40503409400526,44.470988535560224,0
142.25829109093308,0.32537648295095356,57.40503409400526,44.470988535560224,0
142.25829109093308,0.32537648295095356,57.40503409400526,44.470988535560224,0
142.25829109093308,0.32537648295095356,57.40503409400526,44.470988535560224,0
142.25829109093308,0.32537648295095356,57.40503409400526,44.470988535560224,0
142.25829109093308,0.32537648295095356,57.40503409400526,44.470988535560224,0
142.25829109093308,0.32537648295095356,57.40503409400526,44.470988535560224,0
142.25829109093308,0.32537648295095356,57.40503409400526,44.470988535560224,0
142.25829109093308,0.32537648295095356,57.40503409400526,44.470988535560224,0
142.25829109093308,0.32537648295095356,57.40503409400526,44.470988535560224,0
142.25829109093308,0.32537648295095356,57.40503409400526,44.470988535560224,0
142.25829109093308,0.32537648295095356,57.40503409400526,44.470988535560224,0
142.25829109093308,0.32537648295095356,57.40503409400526,44.470988535560224,0
142.25829109093308,0.32537648295095356,57.40503409400526,44.470988535560224,0
142.25829109093308,0.32537648295095356,57.40503409400526,44.470988535560224,0
142.25829109093308,0.32537648295095356,57.40503409400526,44.470988535560224,0
142.25829109093308,0.32537648295095356,57.40503409400526,44.470988535560224,0
142.25829109093308,0.32537648295095356,57.40503409400526,44.470988535560224,0
142.25829109093308,0.32537648295095356,57.40503409400526,44.470988535560224,0
142.25829109093308,0.32537648295095356,57.40503409400526,44.470988535560224,0
142.25829109093308,0.32537648295095356,57.40503409400526,44.470988535560224,0
142.25829109093308,0.32537648295095356,57.40503409400526,44.470988535560224,0
142.25829109093308,0.32537648295095356,57.40503409400526,44.470988535560224,0
142.25829109093308,0.32537648295095356,57.40503409400526,44.470988535560224,0
142.25829109093308,0.32537648295095356,57.40503409400526,44.470988535560224,0
142.25829109093308,0.32537648295095356,57.40503409400526,44.470988535560224,0
142.25829109093308,0.32537648295095356,57.40503409400526,44.470988535560224,0
142.25829109093308,0.32537648295095356,57.40503409400526,44.470988535560224,0
142.25829109093308,0.32537648295095356,57.40503409400526,44.470988535560224,0
142.25829109093308,0.32537648295095356,57.40503409400526,44.470988535560224,0
142.25829109093308,0.32537648295095356,57.40503409400526,44.470988535560224,0
142.25829109093308,0.32537648295095356,57.40503409400526,44.470988535560224,0
142.25829109093308,0.32537648295095356,57.40503409400526,44.470988535560224,0
142.25829109093308,0.32537648295095356,57.40503409400526,44.470988535560224,0
142.25829109093308,0.32537648295095356,57.40503409400526,44.470988535560224,0
142.25829109093308,0.32537648295095356,57.40503409400526,44.470988535560224,0
142.25829109093308,0.32537648295095356,57.40503409400526,44.470988535560224,0
142.25829109093308,0.32537648295095356,57.40503409400526,44.470988535560224,0
142.25829109093308,0.32537648295095356,57.40503409400526,44.470988535560224,0
142.25829109093308,0.32537648295095356,57.40503409400526,44.470988535560224,0
142.25829109093308,0.32537648295095356,57.40503409400526,44.470988535560224,0
142.25829109093308,0.32537648295095356,57.40503409400526,44.470988535560224,0
142.25829109093308,0.32537648295095356,57.40503409400526,44.470988535560224,0
142.25829109093308,0.32537648295095356,57.40503409400526,44.470988535560224,0
142.25829109093308,0.32537648295095356,57.40503409400526,44.470988535560224,0
142.25829109093308,0.32537648295095356,57.40503409400526,44.470988535560224,0
142.25829109093308,0.32537648295095356,57.40503409400526,44.470988535560224,0
142.25829109093308,0.32537648295095356,57.40503409400526,44.470988535560224,0
142.25829109093308,0.32537648295095356,57.40503409400526,44.470988535560224,0
142.25829109093308,0.32537648295095356,57.40503409400526,44.470988535560224,0
142.25829109093308,0.32537648295095356,57.40503409400526,44.470988535560224,0
142.25829109093308,0.32537648295095356,57.40503409400526,44.470988535560224,0
142.25829109093308,0.32537648295095356,57.40503409400526,44.470988535560224,0
142.25829109093308,0.32537648295095356,57.40503409400526,44.470988535560224,0
142.25829109093308,0.32537648295095356,57.40503409400526,44.470988535560224,0
142.25829109093308,0.32537648295095356,57.40503409400526,44.470988535560224,0
142.25829109093308,0.32537648295095356,57.40503409400526,44.470988535560224,0
142.25829109093308,0.32537648295095356,57.40503409400526,44.470988535560224,0
142.25829109093308,0.32537648295095356,57.40503409400526,44.470988535560224,0
142.25829109093308,0.32537648295095356,57.40503409400526,44.470988535560224,0
142.25829109093308,0.32537648295095356,57.40503409400526,44.470988535560224,0
142.25829109093308,0.32537648295095356,57.40503409400526,44.470988535560224,0
142.25829109093308,0.32537648295095356,57.40503409400526,44.470988535560224,0
142.25829109093308,0.32537648295095356,57.40503409400526,44.470988535560224,0
142.25829109093308,0.32537648295095356,57.40503409400526,44.470988535560224,0
142.25829109093308,0.32537648295095356,57.40503409400526,44.470988535560224,0
142.25829109093308,0.32537648295095356,57.40503409400526,44.470988535560224,0
142.25829109093308,0.32537648295095356,57.40503409400526,44.470988535560224,0
142.25829109093308,0.32537648295095356,57.40503409400526,44.470988535560224,0
142.25829109093308,0.32537648295095356,57.40503409400526,44.470988535560224,0
142.25829109093308,0.32537648295095356,57.40503409400526,44.470988535560224,0
142.25829109093308,0.32537648295095356,57.40503409400526,44.470988535560224,0
142.25829109093308,0.32537648295095356,57.40503409400526,44.470988535560224,0
142.25829109093308,0.32537648295095356,57.40503409400526,44.470988535560224,0
142.25829109093308,0.32537648295095356,57.40503409400526,44.470988535560224,0
142.25829109093308,0.32537648295095356,57.40503409400526,44.470988535560224,0
142.25829109093308,0.32537648295095356,57.40503409400526,44.470988535560224,0
142.25829109093308,0.32537648295095356,57.40503409400526,44.470988535560224,0
142.25829109093308,0.32537648295095356,57.40503409400526,44.470988535560224,0
142.25829109093308,0.32537648295095356,57.40503409400526,44.470988535560224,0
142.25829109093308,0.32537648295095356,57.40503409400526,44.470988535560224,0
142.25829109093308,0.32537648295095356,57.40503409400526,44.470988535560224,0
142.25829109093308,0.32537648295095356,57.40503409400526,44.470988535560224,0
142.25829109093308,0.32537648295095356,57.40503409400526,44.470988535560224,0
142.25829109093308,0.32537648295095356,57.40503409400526,44.470988535560224,0
142.25829109093308,0.32537648295095356,57.40503409400526,44.470988535560224,0
142.25829109093308,0.32537648295095356,57.40503409400526,44.470988535560224,0
142.25829109093308,0.32537648295095356,57.40503409400526,44.470988535560224,0
142.25829109093308,0.32537648295095356,57.40503409400526,44.470988535560224,0
142.25829109093308,0.32537648295095356,57.40503409400526,44.470988535560224,0
142.25829109093308,0.32537648295095356,57.40503409400526,44.470988535560224,0
142.25829109093308,0.32537648295095356,57.40503409400526,44.470988535560224,0
142.25829109093308,0.32537648295095356,57.40503409400526,44.470988535560224,0
142.25829109093308,0.32537648295095356,57.40503409400526,44.470988535560224,0
142.25829109093308,0.32537648295095356,57.40503409400526,44.470988535560224,0
142.25829109093308,0.32537648295095356,57.40503409400526,44.470988535560224,0
142.25829109093308,0.32537648295095356,57.40503409400526,44.470988535560224,0
142.25829109093308,0.32537648295095356,57.40503409400526,44.470988535560224,0
142.25829109093308,0.32537648295095356,57.40503409400526,44.470988535560224,0
142.25829109093308,0.32537648295095356,57.40503409400526,44.470988535560224,0
142.25829109093308,0.32537648295095356,57.40503409400526,44.470988535560224,0
142.25829109093308,0.32537648295095356,57.40503409400526,44.470988535560224,0
142.25829109093308,0.32537648295095356,57.40503409400526,44.470988535560224,0
142.25829109093308,0.32537648295095356,57.40503409400526,44.470988535560224,0
142.25829109093308,0.32537648295095356,57.40503409400526,44.470988535560224,0
142.25829109093308,0.32537648295095356,57.40503409400526,44.470988535560224,0
142.25829109093308,0.32537648295095356,57.40503409400526,44.470988535560224,0
142.25829109093308,0.32537648295095356,57.40503409400526,44.470988535560224,0
142.25829109093308,0.32537648295095356,57.40503409400526,44.470988535560224,0
142.25829109093308,0.32537648295095356,57.40503409400526,44.470988535560224,0
142.25829109093308,0.32537648295095356,57.40503409400526,44.470988535560224,0
142.25829109093308,0.32537648295095356,57.40503409400526,44.470988535560224,0
142.25829109093308,0.32537648295095356,57.40503409400526,44.470988535560224,0
142.25829109093308,0.32537648295095356,57.40503409400526,44.470988535560224,0
142.25829109093308,0.32537648295095356,57.40503409400526,44.470988535560224,0
142.25829109093308,0.32537648295095356,57.40503409400526,44.470988535560224,0
142.25829109093308,0.32537648295095356,57.40503409400526,44.470988535560224,0
142.25829109093308,0.32537648295095356,57.40503409400526,44.470988535560224,0
142.25829109093308,0.32537648295095356,57.40503409400526,44.470988535560224,0
142.25829109093308,0.32537648295095356,57.40503409400526,44.470988535560224,0
142.25829109093308,0.32537648295095356,57.40503409400526,44.470988535560224,0
142.25829109093308,0.32537648295095356,57.40503409400526,44.470988535560224,0
142.25829109093308,0.32537648295095356,57.40503409400526,44.470988535560224,0
142.25829109093308,0.32537648295095356,57.40503409400526,44.470988535560224,0
142.25829109093308,0.32537648295095356,57.40503409400526,44.470988535560224,0
142.25829109093308,0.32537648295095356,57.40503409400526,44.470988535560224,0
142.25829109093308,0.32537648295095356,57.40503409400526,44.470988535560224,0
142.25829109093308,0.32537648295095356,57.40503409400526,44.470988535560224,0
142.25829109093308,0.32537648295095356,57.40503409400526,44.470988535560224,0
142.25829109093308,0.32537648295095356,57.40503409400526,44.470988535560224,0
142.25829109093308,0.32537648295095356,57.40503409400526,44.470988535560224,0
142.25829109093308,0.32537648295095356,57.40503409400526,44.470988535560224,0
142.25829109093308,0.32537648295095356,57.40503409400526,44.470988535560224,0
142.25829109093308,0.32537648295095356,57.40503409400526,44.470988535560224,0
142.25829109093308,0.32537648295095356,57.40503409400526,44.470988535560224,0
142.25829109093308,0.32537648295095356,57.40503409400526,44.470988535560224,0
142.25829109093308,0.32537648295095356,57.40503409400526,44.470988535560224,0
142.25829109093308,0.32537648295095356,57.40503409400526,44.470988535560224,0
142.25829109093308,0.32537648295095356,57.40503409400526,44.470988535560224,0
142.25829109093308,0.32537648295095356,57.40503409400526,44.470988535560224,0
142.25829109093308,0.32537648295095356,57.40503409400526,44.470988535560224,0
142.25829109093308,0.32537648295095356,57.40503409400526,44.470988535560224,0
142.25829109093308,0.32537648295095356,57.40503409400526,44.470988535560224,0
142.25829109093308,0.32537648295095356,57.40503409400526,44.470988535560224,0
142.25829109093308,0.32537648295095356,57.40503409400526,44.470988535560224,0
142.25829109093308,0.32537648295095356,57.40503409400526,44.470988535560224,0
142.25829109093308,0.32537648295095356,57.40503409400526,44.470988535560224,0
142.25829109093308,0.32537648295095356,57.40503409400526,44.470988535560224,0
142.25829109093308,0.32537648295095356,57.40503409400526,44.470988535560224,0
142.25829109093308,0.32537648295095356,57.40503409400526,44.470988535560224,0
142.25829109093308,0.32537648295095356,57.40503409400526,44.470988535560224,0
142.25829109093308,0.32537648295095356,57.40503409400526,44.470988535560224,0
142.25829109093308,0.32537648295095356,57.40503409400526,44.470988535560224,0
142.25829109093308,0.32537648295095356,57.40503409400526,44.470988535560224,0
142.25829109093308,0.32537648295095356,57.40503409400526,44.470988535560224,0
142.25829109093308,0.32537648295095356,57.40503409400526,44.470988535560224,0
142.25829109093308,0.32537648295095356,57.40503409400526,44.470988535560224,0
142.25829109093308,0.32537648295095356,57.40503409400526,44.470988535560224,0
142.25829109093308,0.32537648295095356,57.40503409400526,44.470988535560224,0
142.25829109093308,0.32537648295095356,57.40503409400526,44.470988535560224,0
142.25829109093308,0.32537648295095356,57.40503409400526,44.470988535560224,0
142.25829109093308,0.32537648295095356,57.40503409400526,44.470988535560224,0
142.25829109093308,0.32537648295095356,57.40503409400526,44.470988535560224,0
142.25829109093308,0.32537648295095356,57.40503409400526,44.470988535560224,0
142.25829109093308,0.32537648295095356,57.40503409400526,44.470988535560224,0
142.25829109093308,0.32537648295095356,57.40503409400526,44.470988535560224,0
142.25829109093308,0.32537648295095356,57.40503409400526,44.470988535560224,0
142.25829109093308,0.32537648295095356,57.40503409400526,44.470988535560224,0
142.25829109093308,0.32537648295095356,57.40503409400526,44.470988535560224,0
142.25829109093308,0.32537648295095356,57.40503409400526,44.470988535560224,0
142.25829109093308,0.32537648295095356,57.40503409400526,44.470988535560224,0
142.25829109093308,0.32537648295095356,57.40503409400526,44.470988535560224,0
142.25829109093308,0.32537648295095356,57.40503409400526,44.470988535560224,0
142.25829109093308,0.32537648295095356,57.40503409400526,44.470988535560224,0
142.25829109093308,0.32537648295095356,57.40503409400526,44.470988535560224,0
142.25829109093308,0.32537648295095356,57.40503409400526,44.470988535560224,0
142.25829109093308,0.32537648295095356,57.40503409400526,44.470988535560224,0
142.25829109093308,0.32537648295095356,57.40503409400526,44.470988535560224,0
142.25829109093308,0.32537648295095356,57.40503409400526,44.470988535560224,0
142.25829109093308,0.32537648295095356,57.40503409400526,44.470988535560224,0
142.25829109093308,0.32537648295095356,57.40503409400526,44.470988535560224,0
142.25829109093308,0.32537648295095356,57.40503409400526,44.470988535560224,0
142.25829109093308,0.32537648295095356,57.40503409400526,44.470988535560224,0
142.25829109093308,0.32537648295095356,57.40503409400526,44.470988535560224,0
142.25829109093308,0.32537648295095356,57.40503409400526,44.470988535560224,0
142.25829109093308,0.32537648295095356,57.40503409400526,44.470988535560224,0
142.25829109093308,0.32537648295095356,57.40503409400526,44.470988535560224,0
142.25829109093308,0.32537648295095356,57.40503409400526,44.470988535560224,0
142.25829109093308,0.32537648295095356,57.40503409400526,44.470988535560224,0
142.25829109093308,0.32537648295095356,57.40503409400526,44.470988535560224,0
142.25829109093308,0.32537648295095356,57.40503409400526,44.470988535560224,0
142.25829109093308,0.32537648295095356,57.40503409400526,44.470988535560224,0
142.25829109093308,0.32537648295095356,57.40503409400526,44.470988535560224,0
142.25829109093308,0.32537648295095356,57.40503409400526,44.470988535560224,0
142.25829109093308,0.32537648295095356,57.40503409400526,44.470988535560224,0
142.25829109093308,0.32537648295095356,57.40503409400526,44.470988535560224,0
142.25829109093308,0.32537648295095356,57.40503409400526,44.470988535560224,0
142.25829109093308,0.32537648295095356,57.40503409400526,44.470988535560224,0
142.25829109093308,0.32537648295095356,57.40503409400526,44.470988535560224,0
142.25829109093308,0.32537648295095356,57.40503409400526,44.470988535560224,0
142.25829109093308,0.32537648295095356,57.40503409400526,44.470988535560224,0
142.25829109093308,0.32537648295095356,57.40503409400526,44.470988535560224,0
142.25829109093308,0.32537648295095356,57.40503409400526,44.470988535560224,0
142.25829109093308,0.32537648295095356,57.40503409400526,44.470988535560224,0
142.25829109093308,0.32537648295095356,57.40503409400526,44.470988535560224,0
142.25829109093308,0.32537648295095356,57.40503409400526,44.470988535560224,0
142.25829109093308,0.32537648295095356,57.40503409400526,44.470988535560224,0
142.25829109093308,0.32537648295095356,57.40503409400526,44.470988535560224,0
142.25829109093308,0.32537648295095356,57.40503409400526,44.470988535560224,0
142.25829109093308,0.32537648295095356,57.40503409400526,44.470988535560224,0
142.25829109093308,0.32537648295095356,57.40503409400526,44.470988535560224,0
142.25829109093308,0.32537648295095356,57.40503409400526,44.470988535560224,0
142.25829109093308,0.32537648295095356,57.40503409400526,44.470988535560224,0
142.25829109093308,0.32537648295095356,57.40503409400526,44.470988535560224,0
142.25829109093308,0.32537648295095356,57.40503409400526,44.470988535560224,0
142.25829109093308,0.32537648295095356,57.40503409400526,44.470988535560224,0
142.25829109093308,0.32537648295095356,57.40503409400526,44.470988535560224,0
142.25829109093308,0.32537648295095356,57.40503409400526,44.470988535560224,0
142.25829109093308,0.32537648295095356,57.40503409400526,44.470988535560224,0
142.25829109093308,0.32537648295095356,57.40503409400526,44.470988535560224,0
142.25829109093308,0.32537648295095356,57.40503409400526,44.470988535560224,0
142.25829109093308,0.32537648295095356,57.40503409400526,44.470988535560224,0
142.25829109093308,0.32537648295095356,57.40503409400526,44.470988535560224,0
142.25829109093308,0.32537648295095356,57.40503409400526,44.470988535560224,0
142.25829109093308,0.32537648295095356,57.40503409400526,44.470988535560224,0
142.25829109093308,0.32537648295095356,57.40503409400526,44.470988535560224,0
142.25829109093308,0.32537648295095356,57.40503409400526,44.470988535560224,0
142.25829109093308,0.32537648295095356,57.40503409400526,44.470988535560224,0
142.25829109093308,0.32537648295095356,57.40503409400526,44.470988535560224,0
142.25829109093308,0.32537648295095356,57.40503409400526,44.470988535560224,0
142.25829109093308,0.32537648295095356,57.40503409400526,44.470988535560224,0
142.25829109093308,0.32537648295095356,57.40503409400526,44.470988535560224,0
142.25829109093308,0.32537648295095356,57.40503409400526,44.470988535560224,0
142.25829109093308,0.32537648295095356,57.40503409400526,44.470988535560224,0
142.25829109093308,0.32537648295095356,57.40503409400526,44.470988535560224,0
142.25829109093308,0.32537648295095356,57.40503409400526,44.470988535560224,0
142.25829109093308,0.32537648295095356,57.40503409400526,44.470988535560224,0
142.25829109093308,0.32537648295095356,57.40503409400526,44.470988535560224,0
142.25829109093308,0.32537648295095356,57.40503409400526,44.470988535560224,0
142.25829109093308,0.32537648295095356,57.40503409400526,44.470988535560224,0
142.25829109093308,0.32537648295095356,57.40503409400526,44.470988535560224,0
142.25829109093308,0.32537648295095356,57.40503409400526,44.470988535560224,0
142.25829109093308,0.32537648295095356,57.40503409400526,44.470988535560224,0
142.25829109093308,0.32537648295095356,57.40503409400526,44.470988535560224,0
142.25829109093308,0.32537648295095356,57.40503409400526,44.470988535560224,0
142.25829109093308,0.32537648295095356,57.40503409400526,44.470988535560224,0
142.25829109093308,0.32537648295095356,57.40503409400526,44.470988535560224,0
142.25829109093308,0.32537648295095356,57.40503409400526,44.470988535560224,0
142.25829109093308,0.32537648295095356,57.40503409400526,44.470988535560224,0
142.25829109093308,0.32537648295095356,57.40503409400526,44.470988535560224,0
142.25829109093308,0.32537648295095356,57.40503409400526,44.470988535560224,0
142.25829109093308,0.32537648295095356,57.40503409400526,44.470988535560224,0
142.25829109093308,0.32537648295095356,57.40503409400526,44.470988535560224,0
142.25829109093308,0.32537648295095356,57.40503409400526,44.470988535560224,0
142.25829109093308,0.32537648295095356,57.40503409400526,44.470988535560224,0
142.25829109093308,0.32537648295095356,57.40503409400526,44.470988535560224,0
142.25829109093308,0.32537648295095356,57.40503409400526,44.470988535560224,0
142.25829109093308,0.32537648295095356,57.40503409400526,44.470988535560224,0
142.25829109093308,0.32537648295095356,57.40503409400526,44.470988535560224,0
142.25829109093308,0.32537648295095356,57.40503409400526,44.470988535560224,0
142.25829109093308,0.32537648295095356,57.40503409400526,44.470988535560224,0
142.25829109093308,0.32537648295095356,57.40503409400526,44.470988535560224,0
142.25829109093308,0.32537648295095356,57.40503409400526,44.470988535560224,0
142.25829109093308,0.32537648295095356,57.40503409400526,44.470988535560224,0
142.25829109093308,0.32537648295095356,57.40503409400526,44.470988535560224,0
142.25829109093308,0.32537648295095356,57.40503409400526,44.470988535560224,0
142.25829109093308,0.32537648295095356,57.40503409400526,44.470988535560224,0
142.25829109093308,0.32537648295095356,57.40503409400526,44.470988535560224,0
142.25829109093308,0.32537648295095356,57.40503409400526,44.470988535560224,0
142.25829109093308,0.32537648295095356,57.40503409400526,44.470988535560224,0
142.25829109093308,0.32537648295095356,57.40503409400526,44.470988535560224,0
142.25829109093308,0.32537648295095356,57.40503409400526,44.470988535560224,0
142.25829109093308,0.32537648295095356,57.40503409400526,44.470988535560224,0
142.25829109093308,0.32537648295095356,57.40503409400526,44.470988535560224,0
142.25829109093308,0.32537648295095356,57.40503409400526,44.470988535560224,0
142.25829109093308,0.32537648295095356,57.40503409400526,44.470988535560224,0
142.25829109093308,0.32537648295095356,57.40503409400526,44.470988535560224,0
142.25829109093308,0.32537648295095356,57.40503409400526,44.470988535560224,0
142.25829109093308,0.32537648295095356,57.40503409400526,44.470988535560224,0
142.25829109093308,0.32537648295095356,57.40503409400526,44.470988535560224,0
142.25829109093308,0.32537648295095356,57.40503409400526,44.470988535560224,0
142.25829109093308,0.32537648295095356,57.40503409400526,44.470988535560224,0
142.25829109093308,0.32537648295095356,57.40503409400526,44.470988535560224,0
142.25829109093308,0.32537648295095356,57.40503409400526,44.470988535560224,0
142.25829109093308,0.32537648295095356,57.40503409400526,44.470988535560224,0
142.25829109093308,0.32537648295095356,57.40503409400526,44.470988535560224,0
142.25829109093308,0.32537648295095356,57.40503409400526,44.470988535560224,0
142.25829109093308,0.32537648295095356,57.40503409400526,44.470988535560224,0
142.25829109093308,0.32537648295095356,57.40503409400526,44.470988535560224,0
142.25829109093308,0.32537648295095356,57.40503409400526,44.470988535560224,0
142.25829109093308,0.32537648295095356,57.40503409400526,44.470988535560224,0
142.25829109093308,0.32537648295095356,57.40503409400526,44.470988535560224,0
142.25829109093308,0.32537648295095356,57.40503409400526,44.470988535560224,0
142.25829109093308,0.32537648295095356,57.40503409400526,44.470988535560224,0
142.25829109093308,0.32537648295095356,57.40503409400526,44.470988535560224,0
142.25829109093308,0.32537648295095356,57.40503409400526,44.470988535560224,0
142.25829109093308,0.32537648295095356,57.40503409400526,44.470988535560224,0
142.25829109093308,0.32537648295095356,57.40503409400526,44.470988535560224,0
142.25829109093308,0.32537648295095356,57.40503409400526,44.470988535560224,0
142.25829109093308,0.32537648295095356,57.40503409400526,44.470988535560224,0
142.25829109093308,0.32537648295095356,57.40503409400526,44.470988535560224,0
142.25829109093308,0.32537648295095356,57.40503409400526,44.470988535560224,0
142.25829109093308,0.32537648295095356,57.40503409400526,44.470988535560224,0
142.25829109093308,0.32537648295095356,57.40503409400526,44.470988535560224,0
142.25829109093308,0.32537648295095356,57.40503409400526,44.470988535560224,0
142.25829109093308,0.32537648295095356,57.40503409400526,44.470988535560224,0
142.25829109093308,0.32537648295095356,57.40503409400526,44.470988535560224,0
142.25829109093308,0.32537648295095356,57.40503409400526,44.470988535560224,0
142.25829109093308,0.32537648295095356,57.40503409400526,44.470988535560224,0
142.25829109093308,0.32537648295095356,57.40503409400526,44.470988535560224,0
142.25829109093308,0.32537648295095356,57.40503409400526,44.470988535560224,0
142.25829109093308,0.32537648295095356,57.40503409400526,44.470988535560224,0
142.25829109093308,0.32537648295095356,57.40503409400526,44.470988535560224,0
142.25829109093308,0.32537648295095356,57.40503409400526,44.470988535560224,0
142.25829109093308,0.32537648295095356,57.40503409400526,44.470988535560224,0
142.25829109093308,0.32537648295095356,57.40503409400526,44.470988535560224,0
142.25829109093308,0.32537648295095356,57.40503409400526,44.470988535560224,0
142.25829109093308,0.32537648295095356,57.40503409400526,44.470988535560224,0
142.25829109093308,0.32537648295095356,57.40503409400526,44.470988535560224,0
142.25829109093308,0.32537648295095356,57.40503409400526,44.470988535560224,0
142.25829109093308,0.32537648295095356,57.40503409400526,44.470988535560224,0
142.25829109093308,0.32537648295095356,57.40503409400526,44.470988535560224,0
142.25829109093308,0.32537648295095356,57.40503409400526,44.470988535560224,0
142.25829109093308,0.32537648295095356,57.40503409400526,44.470988535560224,0
142.25829109093308,0.32537648295095356,57.40503409400526,44.470988535560224,0
142.25829109093308,0.32537648295095356,57.40503409400526,44.470988535560224,0
142.25829109093308,0.32537648295095356,57.40503409400526,44.470988535560224,0
142.25829109093308,0.32537648295095356,57.40503409400526,44.470988535560224,0
142.25829109093308,0.32537648295095356,57.40503409400526,44.470988535560224,0
142.25829109093308,0.32537648295095356,57.40503409400526,44.470988535560224,0
142.25829109093308,0.32537648295095356,57.40503409400526,44.470988535560224,0
142.25829109093308,0.32537648295095356,57.40503409400526,44.470988535560224,0
142.25829109093308,0.32537648295095356,57.40503409400526,44.470988535560224,0
142.25829109093308,0.32537648295095356,57.40503409400526,44.470988535560224,0
142.25829109093308,0.32537648295095356,57.40503409400526,44.470988535560224,0
142.25829109093308,0.32537648295095356,57.40503409400526,44.470988535560224,0
142.25829109093308,0.32537648295095356,57.40503409400526,44.470988535560224,0
142.25829109093308,0.32537648295095356,57.40503409400526,44.470988535560224,0
142.25829109093308,0.32537648295095356,57.40503409400526,44.470988535560224,0
142.25829109093308,0.32537648295095356,57.40503409400526,44.470988535560224,0
142.25829109093308,0.32537648295095356,57.40503409400526,44.470988535560224,0
142.25829109093308,0.32537648295095356,57.40503409400526,44.470988535560224,0
142.25829109093308,0.32537648295095356,57.40503409400526,44.470988535560224,0
142.25829109093308,0.32537648295095356,57.40503409400526,44.470988535560224,0
142.25829109093308,0.32537648295095356,57.40503409400526,44.470988535560224,0
142.25829109093308,0.32537648295095356,57.40503409400526,44.470988535560224,0
142.25829109093308,0.32537648295095356,57.40503409400526,44.470988535560224,0
142.25829109093308,0.32537648295095356,57.40503409400526,44.470988535560224,0
142.25829109093308,0.32537648295095356,57.40503409400526,44.470988535560224,0
142.25829109093308,0.32537648295095356,57.40503409400526,44.470988535560224,0
142.25829109093308,0.32537648295095356,57.40503409400526,44.470988535560224,0
142.25829109093308,0.32537648295095356,57.40503409400526,44.470988535560224,0
142.25829109093308,0.32537648295095356,57.40503409400526,44.470988535560224,0
142.25829109093308,0.32537648295095356,57.40503409400526,44.470988535560224,0
142.25829109093308,0.32537648295095356,57.40503409400526,44.470988535560224,0
142.25829109093308,0.32537648295095356,57.40503409400526,44.470988535560224,0
142.25829109093308,0.32537648295095356,57.40503409400526,44.470988535560224,0
142.25829109093308,0.32537648295095356,57.40503409400526,44.470988535560224,0
142.25829109093308,0.32537648295095356,57.40503409400526,44.470988535560224,0
142.25829109093308,0.32537648295095356,57.40503409400526,44.470988535560224,0
142.25829109093308,0.32537648295095356,57.40503409400526,44.470988535560224,0
142.25829109093308,0.32537648295095356,57.40503409400526,44.470988535560224,0
142.25829109093308,0.32537648295095356,57.40503409400526,44.470988535560224,0
142.25829109093308,0.32537648295095356,57.40503409400526,44.470988535560224,0
142.25829109093308,0.32537648295095356,57.40503409400526,44.470988535560224,0
142.25829109093308,0.32537648295095356,57.40503409400526,44.470988535560224,0
142.25829109093308,0.32537648295095356,57.40503409400526,44.470988535560224,0
142.25829109093308,0.32537648295095356,57.40503409400526,44.470988535560224,0
142.25829109093308,0.32537648295095356,57.40503409400526,44.470988535560224,0
142.25829109093308,0.32537648295095356,57.40503409400526,44.470988535560224,0
142.25829109093308,0.32537648295095356,57.40503409400526,44.470988535560224,0
142.25829109093308,0.32537648295095356,57.40503409400526,44.470988535560224,0
142.25829109093308,0.32537648295095356,57.40503409400526,44.470988535560224,0
142.25829109093308,0.32537648295095356,57.40503409400526,44.470988535560224,0
142.25829109093308,0.32537648295095356,57.40503409400526,44.470988535560224,0
142.25829109093308,0.32537648295095356,57.40503409400526,44.470988535560224,0
142.25829109093308,0.32537648295095356,57.40503409400526,44.470988535560224,0
142.25829109093308,0.32537648295095356,57.40503409400526,44.470988535560224,0
142.25829109093308,0.32537648295095356,57.40503409400526,44.470988535560224,0
142.25829109093308,0.32537648295095356,57.40503409400526,44.470988535560224,0
142.25829109093308,0.32537648295095356,57.40503409400526,44.470988535560224,0
142.25829109093308,0.32537648295095356,57.40503409400526,44.470988535560224,0
142.25829109093308,0.32537648295095356,57.40503409400526,44.470988535560224,0
142.25829109093308,0.32537648295095356,57.40503409400526,44.470988535560224,0
142.25829109093308,0.32537648295095356,57.40503409400526,44.470988535560224,0
142.25829109093308,0.32537648295095356,57.40503409400526,44.470988535560224,0
142.25829109093308,0.32537648295095356,57.40503409400526,44.470988535560224,0
142.25829109093308,0.32537648295095356,57.40503409400526,44.470988535560224,0
142.25829109093308,0.32537648295095356,57.40503409400526,44.470988535560224,0
142.25829109093308,0.32537648295095356,57.40503409400526,44.470988535560224,0
142.25829109093308,0.32537648295095356,57.40503409400526,44.470988535560224,0
142.25829109093308,0.32537648295095356,57.40503409400526,44.470988535560224,0
142.25829109093308,0.32537648295095356,57.40503409400526,44.470988535560224,0
142.25829109093308,0.32537648295095356,57.40503409400526,44.470988535560224,0
142.25829109093308,0.32537648295095356,57.40503409400526,44.470988535560224,0
142.25829109093308,0.32537648295095356,57.40503409400526,44.470988535560224,0
142.25829109093308,0.32537648295095356,57.40503409400526,44.470988535560224,0
142.25829109093308,0.32537648295095356,57.40503409400526,44.470988535560224,0
142.25829109093308,0.32537648295095356,57.40503409400526,44.470988535560224,0
142.25829109093308,0.32537648295095356,57.40503409400526,44.470988535560224,0
142.25829109093308,0.32537648295095356,57.40503409400526,44.470988535560224,0
142.25829109093308,0.32537648295095356,57.40503409400526,44.470988535560224,0
142.25829109093308,0.32537648295095356,57.40503409400526,44.470988535560224,0
142.25829109093308,0.32537648295095356,57.40503409400526,44.470988535560224,0
142.25829109093308,0.32537648295095356,57.40503409400526,44.470988535560224,0
142.25829109093308,0.32537648295095356,57.40503409400526,44.470988535560224,0
142.25829109093308,0.32537648295095356,57.40503409400526,44.470988535560224,0
142.25829109093308,0.32537648295095356,57.40503409400526,44.470988535560224,0
142.25829109093308,0.32537648295095356,57.40503409400526,44.470988535560224,0
142.25829109093308,0.32537648295095356,57.40503409400526,44.470988535560224,0
142.25829109093308,0.32537648295095356,57.40503409400526,44.470988535560224,0
142.25829109093308,0.32537648295095356,57.40503409400526,44.470988535560224,0
142.25829109093308,0.32537648295095356,57.40503409400526,44.470988535560224,0
142.25829109093308,0.32537648295095356,57.40503409400526,44.470988535560224,0
142.25829109093308,0.32537648295095356,57.40503409400526,44.470988535560224,0
142.25829109093308,0.32537648295095356,57.40503409400526,44.470988535560224,0
142.25829109093308,0.32537648295095356,57.40503409400526,44.470988535560224,0
142.25829109093308,0.32537648295095356,57.40503409400526,44.470988535560224,0
142.25829109093308,0.32537648295095356,57.40503409400526,44.470988535560224,0
142.25829109093308,0.32537648295095356,57.40503409400526,44.470988535560224,0
142.25829109093308,0.32537648295095356,57.40503409400526,44.470988535560224,0
142.25829109093308,0.32537648295095356,57.40503409400526,44.470988535560224,0
142.25829109093308,0.32537648295095356,57.40503409400526,44.470988535560224,0
142.25829109093308,0.32537648295095356,57.40503409400526,44.470988535560224,0
142.25829109093308,0.32537648295095356,57.40503409400526,44.470988535560224,0
142.25829109093308,0.32537648295095356,57.40503409400526,44.470988535560224,0
142.25829109093308,0.32537648295095356,57.40503409400526,44.470988535560224,0
142.25829109093308,0.32537648295095356,57.40503409400526,44.470988535560224,0
142.25829109093308,0.32537648295095356,57.40503409400526,44.470988535560224,0
142.25829109093308,0.32537648295095356,57.40503409400526,44.470988535560224,0
142.25829109093308,0.32537648295095356,57.40503409400526,44.470988535560224,0
142.25829109093308,0.32537648295095356,57.40503409400526,44.470988535560224,0
142.25829109093308,0.32537648295095356,57.40503409400526,44.470988535560224,0
142.25829109093308,0.32537648295095356,57.40503409400526,44.470988535560224,0
142.25829109093308,0.32537648295095356,57.40503409400526,44.470988535560224,0
142.25829109093308,0.32537648295095356,57.40503409400526,44.470988535560224,0
142.25829109093308,0.32537648295095356,57.40503409400526,44.470988535560224,0
142.25829109093308,0.32537648295095356,57.40503409400526,44.470988535560224,0
142.25829109093308,0.32537648295095356,57.40503409400526,44.470988535560224,0
142.25829109093308,0.32537648295095356,57.40503409400526,44.470988535560224,0
142.25829109093308,0.32537648295095356,57.40503409400526,44.470988535560224,0
142.25829109093308,0.32537648295095356,57.40503409400526,44.470988535560224,0
142.25829109093308,0.32537648295095356,57.40503409400526,44.470988535560224,0
142.25829109093308,0.32537648295095356,57.40503409400526,44.470988535560224,0
142.25829109093308,0.32537648295095356,57.40503409400526,44.470988535560224,0
142.25829109093308,0.32537648295095356,57.40503409400526,44.470988535560224,0
142.25829109093308,0.32537648295095356,57.40503409400526,44.470988535560224,0
142.25829109093308,0.32537648295095356,57.40503409400526,44.470988535560224,0
142.25829109093308,0.32537648295095356,57.40503409400526,44.470988535560224,0
142.25829109093308,0.32537648295095356,57.40503409400526,44.470988535560224,0
142.25829109093308,0.32537648295095356,57.40503409400526,44.470988535560224,0
142.25829109093308,0.32537648295095356,57.40503409400526,44.470988535560224,0
142.25829109093308,0.32537648295095356,57.40503409400526,44.470988535560224,0
142.25829109093308,0.32537648295095356,57.40503409400526,44.470988535560224,0
142.25829109093308,0.32537648295095356,57.40503409400526,44.470988535560224,0
142.25829109093308,0.32537648295095356,57.40503409400526,44.470988535560224,0
142.25829109093308,0.32537648295095356,57.40503409400526,44.470988535560224,0
142.25829109093308,0.32537648295095356,57.40503409400526,44.470988535560224,0
142.25829109093308,0.32537648295095356,57.40503409400526,44.470988535560224,0
142.25829109093308,0.32537648295095356,57.40503409400526,44.470988535560224,0
142.25829109093308,0.32537648295095356,57.40503409400526,44.470988535560224,0
142.25829109093308,0.32537648295095356,57.40503409400526,44.470988535560224,0
142.25829109093308,0.32537648295095356,57.40503409400526,44.470988535560224,0
142.25829109093308,0.32537648295095356,57.40503409400526,44.470988535560224,0
142.25829109093308,0.32537648295095356,57.40503409400526,44.470988535560224,0
142.25829109093308,0.32537648295095356,57.40503409400526,44.470988535560224,0
142.25829109093308,0.32537648295095356,57.40503409400526,44.470988535560224,0
142.25829109093308,0.32537648295095356,57.40503409400526,44.470988535560224,0
142.25829109093308,0.32537648295095356,57.40503409400526,44.470988535560224,0
142.25829109093308,0.32537648295095356,57.40503409400526,44.470988535560224,0
142.25829109093308,0.32537648295095356,57.40503409400526,44.470988535560224,0
142.25829109093308,0.32537648295095356,57.40503409400526,44.470988535560224,0
142.25829109093308,0.32537648295095356,57.40503409400526,44.470988535560224,0
142.25829109093308,0.32537648295095356,57.40503409400526,44.470988535560224,0
142.25829109093308,0.32537648295095356,57.40503409400526,44.470988535560224,0
142.25829109093308,0.32537648295095356,57.40503409400526,44.470988535560224,0
142.25829109093308,0.32537648295095356,57.40503409400526,44.470988535560224,0
142.25829109093308,0.32537648295095356,57.40503409400526,44.470988535560224,0
142.25829109093308,0.32537648295095356,57.40503409400526,44.470988535560224,0
142.25829109093308,0.32537648295095356,57.40503409400526,44.470988535560224,0
142.25829109093308,0.32537648295095356,57.40503409400526,44.470988535560224,0
142.25829109093308,0.32537648295095356,57.40503409400526,44.470988535560224,0
142.25829109093308,0.32537648295095356,57.40503409400526,44.470988535560224,0
142.25829109093308,0.32537648295095356,57.40503409400526,44.470988535560224,0
142.25829109093308,0.32537648295095356,57.40503409400526,44.470988535560224,0
142.25829109093308,0.32537648295095356,57.40503409400526,44.470988535560224,0
142.25829109093308,0.32537648295095356,57.40503409400526,44.470988535560224,0
142.25829109093308,0.32537648295095356,57.40503409400526,44.470988535560224,0
142.25829109093308,0.32537648295095356,57.40503409400526,44.470988535560224,0
142.25829109093308,0.32537648295095356,57.40503409400526,44.470988535560224,0
142.25829109093308,0.32537648295095356,57.40503409400526,44.470988535560224,0
142.25829109093308,0.32537648295095356,57.40503409400526,44.470988535560224,0
142.25829109093308,0.32537648295095356,57.40503409400526,44.470988535560224,0
142.25829109093308,0.32537648295095356,57.40503409400526,44.470988535560224,0
142.25829109093308,0.32537648295095356,57.40503409400526,44.470988535560224,0
142.25829109093308,0.32537648295095356,57.40503409400526,44.470988535560224,0
142.25829109093308,0.32537648295095356,57.40503409400526,44.470988535560224,0
142.25829109093308,0.32537648295095356,57.40503409400526,44.470988535560224,0
142.25829109093308,0.32537648295095356,57.40503409400526,44.470988535560224,0
142.25829109093308,0.32537648295095356,57.40503409400526,44.470988535560224,0
142.25829109093308,0.32537648295095356,57.40503409400526,44.470988535560224,0
142.25829109093308,0.32537648295095356,57.40503409400526,44.470988535560224,0
142.25829109093308,0.32537648295095356,57.40503409400526,44.470988535560224,0
142.25829109093308,0.32537648295095356,57.40503409400526,44.470988535560224,0
142.25829109093308,0.32537648295095356,57.40503409400526,44.470988535560224,0
142.25829109093308,0.32537648295095356,57.40503409400526,44.470988535560224,0
142.25829109093308,0.32537648295095356,57.40503409400526,44.470988535560224,0
142.25829109093308,0.32537648295095356,57.40503409400526,44.470988535560224,0
142.25829109093308,0.32537648295095356,57.40503409400526,44.470988535560224,0
142.25829109093308,0.32537648295095356,57.40503409400526,44.470988535560224,0
142.25829109093308,0.32537648295095356,57.40503409400526,44.470988535560224,0
142.25829109093308,0.32537648295095356,57.40503409400526,44.470988535560224,0
142.25829109093308,0.32537648295095356,57.40503409400526,44.470988535560224,0
142.25829109093308,0.32537648295095356,57.40503409400526,44.470988535560224,0
142.25829109093308,0.32537648295095356,57.40503409400526,44.470988535560224,0
142.25829109093308,0.32537648295095356,57.40503409400526,44.470988535560224,0
142.25829109093308,0.32537648295095356,57.40503409400526,44.470988535560224,0
142.25829109093308,0.32537648295095356,57.40503409400526,44.470988535560224,0
142.25829109093308,0.32537648295095356,57.40503409400526,44.470988535560224,0
142.25829109093308,0.32537648295095356,57.40503409400526,44.470988535560224,0
142.25829109093308,0.32537648295095356,57.40503409400526,44.470988535560224,0
142.25829109093308,0.32537648295095356,57.40503409400526,44.470988535560224,0
142.25829109093308,0.32537648295095356,57.40503409400526,44.470988535560224,0
142.25829109093308,0.32537648295095356,57.40503409400526,44.470988535560224,0
142.25829109093308,0.32537648295095356,57.40503409400526,44.470988535560224,0
142.25829109093308,0.32537648295095356,57.40503409400526,44.470988535560224,0
142.25829109093308,0.32537648295095356,57.40503409400526,44.470988535560224,0
142.25829109093308,0.32537648295095356,57.40503409400526,44.470988535560224,0
142.25829109093308,0.32537648295095356,57.40503409400526,44.470988535560224,0
142.25829109093308,0.32537648295095356,57.40503409400526,44.470988535560224,0
142.25829109093308,0.32537648295095356,57.40503409400526,44.470988535560224,0
142.25829109093308,0.32537648295095356,57.40503409400526,44.470988535560224,0
142.25829109093308,0.32537648295095356,57.40503409400526,44.470988535560224,0
142.25829109093308,0.32537648295095356,57.40503409400526,44.470988535560224,0
142.25829109093308,0.32537648295095356,57.40503409400526,44.470988535560224,0
142.25829109093308,0.32537648295095356,57.40503409400526,44.470988535560224,0
142.25829109093308,0.32537648295095356,57.40503409400526,44.470988535560224,0
142.25829109093308,0.32537648295095356,57.40503409400526,44.470988535560224,0
142.25829109093308,0.32537648295095356,57.40503409400526,44.470988535560224,0
142.25829109093308,0.32537648295095356,57.40503409400526,44.470988535560224,0
142.25829109093308,0.32537648295095356,57.40503409400526,44.470988535560224,0
142.25829109093308,0.32537648295095356,57.40503409400526,44.470988535560224,0
142.25829109093308,0.32537648295095356,57.40503409400526,44.470988535560224,0
142.25829109093308,0.32537648295095356,57.40503409400526,44.470988535560224,0
142.25829109093308,0.32537648295095356,57.40503409400526,44.470988535560224,0
142.25829109093308,0.32537648295095356,57.40503409400526,44.470988535560224,0
142.25829109093308,0.32537648295095356,57.40503409400526,44.470988535560224,0