worst,best,mean,median,limit
162.92498825573227,0.9471040492797338,57.329236120852926,38.00932810282715,0
162.28103203755984,0.8373461708467738,57.114686408437,36.69569025093888,0
161.95330879782958,0.6753337645491797,56.957724394562,36.43946666855333,0
161.84028240495525,0.46877466719716143,56.85043478927928,36.25101490981075,0
161.79601339509168,0.27766422669133184,56.77673080323688,36.15455021610322,0
161.7757924852781,0.15579988297295566,56.72563383673033,36.11195748841435,0
161.76597274090693,0.09619837932018493,56.68790281472615,36.09268141825713,0
161.76106707792113,0.06939433152478236,56.65736974733616,36.0837042227835,0
161.75856962546612,0.057240096109191896,56.6329913630891,36.079489164482425,0
161.7572793495865,0.05164779115487206,56.61522231334104,36.07750723129753,0
161.75660492309606,0.049061447741790665,56.603710958133,36.076574911078936,0
161.7562491716857,0.04786455723897709,56.596042406600944,36.07613611751186,0
161.75606019861064,0.04731092039212792,56.59044094240319,36.075929484952766,0
161.75595928327925,0.047054951219547614,56.58641495890801,36.07583212948872,0
161.7559051776022,0.046936643936740796,56.58343663391095,36.075786240938555,0
161.75587608271084,0.046881973408205324,56.581005384188785,36.0757646043774,0
161.75586040269286,0.04685671253744417,56.57915820414285,36.07575440025769,0
161.75585193853632,0.04684504130580347,56.57803581267411,36.075749587015466,0
161.75584736404065,0.04683964906155946,56.5774716013267,36.07574731634817,0
161.75584488953675,0.04683715783530662,56.57720848893664,36.075746245056976,0
161.7558435501155,0.04683600689945888,56.57708676536153,36.075745739594566,0
161.7558428247522,0.0468354751763953,56.577030107213105,36.075745501093785,0
161.75584243179233,0.04683522952592878,56.57700361034768,36.07574538855428,0
161.7558422188538,0.04683511603838475,56.57699118620836,36.07574533544985,0
161.75584210344357,0.04683506360863088,56.576985351515596,36.07574531039083,0
161.75584204088372,0.04683503938681022,56.57698260846999,36.07574529856575,0
161.75584200696866,0.04683502819667562,56.57698131785938,36.075745292985566,0
161.75584198858112,0.04683502302699705,56.57698071023858,36.07574529035229,0
161.75584197861158,0.04683502063868217,56.57698042402018,36.07574528910963,0
161.7558419732059,0.04683501953531655,56.576980289137,36.07574528852322,0
161.75584197027473,0.046835019025578184,56.57698022554632,36.075745288246495,0
161.75584196868536,0.04683501879008689,56.576980195555194,36.0757452881159,0
161.75584196782347,0.04683501868129336,56.5769801814054,36.075745288054264,0
161.75584196735613,0.046835018631032566,56.57698017472716,36.07574528802519,0
161.75584196710267,0.046835018607812806,56.57698017157399,36.07574528801146,0
161.75584196696528,0.0468350185970855,56.57698017008472,36.07574528800498,0
161.75584196689076,0.046835018592129685,56.576980169381,36.075745288001926,0
161.75584196685034,0.046835018589840294,56.576980169048355,36.075745288000476,0
161.75584196682843,0.046835018588782584,56.57698016889103,36.0757452879998,0
161.75584196681655,0.046835018588293864,56.57698016881658,36.07574528799948,0
161.7558419668101,0.046835018588068156,56.57698016878134,36.075745287999325,0
161.7558419668066,0.046835018587963795,56.57698016876465,36.075745287999254,0
161.7558419668047,0.04683501858791572,56.57698016875673,36.075745287999226,0
161.75584196680367,0.046835018587893296,56.57698016875297,36.075745287999204,0
161.7558419668031,0.04683501858788319,56.57698016875119,36.075745287999204,0
161.75584196680282,0.04683501858787831,56.57698016875035,36.0757452879992,0
161.75584196680265,0.0468350185878762,56.57698016874994,36.0757452879992,0
161.75584196680256,0.04683501858787509,56.57698016874975,36.07574528799919,0
161.7558419668025,0.046835018587874644,56.57698016874965,36.0757452879992,0
161.7558419668025,0.04683501858787453,56.576980168749614,36.07574528799919,0
161.75584196680248,0.04683501858787431,56.576980168749586,36.0757452879992,0
161.75584196680245,0.04683501858787431,56.576980168749586,36.0757452879992,0
161.75584196680245,0.0468350185878742,56.57698016874958,36.07574528799919,0
161.75584196680245,0.0468350185878742,56.57698016874958,36.07574528799919,0
161.75584196680245,0.0468350185878742,56.57698016874958,36.0757452879992,0
161.75584196680248,0.04683501858787431,56.57698016874958,36.07574528799919,0
161.75584196680242,0.04683501858787431,56.57698016874958,36.0757452879992,0
161.75584196680248,0.04683501858787442,56.57698016874958,36.07574528799919,0
161.75584196680248,0.04683501858787442,56.57698016874958,36.0757452879992,0
161.75584196680245,0.04683501858787442,56.57698016874958,36.0757452879992,0
161.75584196680245,0.04683501858787442,56.57698016874958,36.0757452879992,0
161.75584196680245,0.04683501858787442,56.57698016874958,36.0757452879992,0
161.75584196680245,0.04683501858787431,56.57698016874958,36.0757452879992,0
161.75584196680248,0.04683501858787431,56.57698016874958,36.0757452879992,0
161.75584196680245,0.04683501858787431,56.57698016874958,36.0757452879992,0
161.75584196680245,0.04683501858787431,56.57698016874958,36.0757452879992,0
161.75584196680248,0.04683501858787431,56.57698016874958,36.0757452879992,0
161.75584196680245,0.04683501858787431,56.57698016874958,36.0757452879992,0
161.75584196680245,0.04683501858787431,56.57698016874958,36.0757452879992,0
161.75584196680245,0.04683501858787431,56.57698016874958,36.0757452879992,0
161.75584196680245,0.04683501858787431,56.57698016874958,36.0757452879992,0
161.75584196680248,0.04683501858787431,56.57698016874958,36.0757452879992,0
161.75584196680242,0.0468350185878742,56.57698016874958,36.07574528799919,0
161.75584196680248,0.04683501858787431,56.57698016874958,36.07574528799918,0
161.75584196680245,0.04683501858787431,56.57698016874958,36.0757452879992,0
161.75584196680245,0.0468350185878742,56.57698016874958,36.0757452879992,0
161.75584196680245,0.04683501858787431,56.57698016874958,36.0757452879992,0
161.75584196680248,0.04683501858787431,56.57698016874958,36.0757452879992,0
161.75584196680245,0.04683501858787431,56.57698016874958,36.0757452879992,0
161.75584196680248,0.0468350185878742,56.57698016874958,36.0757452879992,0
161.75584196680248,0.04683501858787431,56.57698016874958,36.0757452879992,0
161.75584196680245,0.04683501858787431,56.57698016874958,36.0757452879992,0
161.75584196680245,0.04683501858787431,56.57698016874958,36.0757452879992,0
161.75584196680248,0.0468350185878742,56.57698016874958,36.0757452879992,0
161.75584196680248,0.0468350185878742,56.57698016874958,36.0757452879992,0
161.75584196680245,0.04683501858787431,56.57698016874958,36.0757452879992,0
161.75584196680242,0.0468350185878742,56.57698016874958,36.0757452879992,0
161.75584196680245,0.04683501858787431,56.57698016874958,36.0757452879992,0
161.75584196680242,0.04683501858787431,56.57698016874958,36.0757452879992,0
161.75584196680248,0.0468350185878742,56.57698016874958,36.0757452879992,0
161.75584196680245,0.0468350185878742,56.57698016874958,36.0757452879992,0
161.75584196680245,0.0468350185878742,56.57698016874958,36.0757452879992,0
161.75584196680245,0.0468350185878742,56.57698016874958,36.0757452879992,0
161.75584196680245,0.0468350185878742,56.57698016874958,36.0757452879992,0
161.75584196680248,0.0468350185878742,56.57698016874958,36.0757452879992,0
161.75584196680245,0.0468350185878742,56.57698016874958,36.0757452879992,0
161.75584196680245,0.0468350185878742,56.57698016874958,36.0757452879992,0
161.75584196680245,0.0468350185878742,56.57698016874958,36.0757452879992,0
161.75584196680245,0.0468350185878742,56.57698016874958,36.0757452879992,0
161.75584196680245,0.0468350185878742,56.57698016874958,36.0757452879992,0
161.75584196680245,0.0468350185878742,56.57698016874958,36.0757452879992,0
161.75584196680245,0.0468350185878742,56.57698016874958,36.0757452879992,0
161.75584196680245,0.0468350185878742,56.57698016874958,36.0757452879992,0
161.75584196680245,0.0468350185878742,56.57698016874958,36.0757452879992,0
161.75584196680245,0.0468350185878742,56.57698016874958,36.0757452879992,0
161.75584196680245,0.0468350185878742,56.57698016874958,36.0757452879992,0
161.75584196680245,0.0468350185878742,56.57698016874958,36.0757452879992,0
161.75584196680245,0.0468350185878742,56.57698016874958,36.0757452879992,0
161.75584196680245,0.0468350185878742,56.57698016874958,36.0757452879992,0
161.75584196680245,0.0468350185878742,56.57698016874958,36.0757452879992,0
161.75584196680245,0.0468350185878742,56.57698016874958,36.0757452879992,0
161.75584196680245,0.0468350185878742,56.57698016874958,36.0757452879992,0
161.75584196680245,0.0468350185878742,56.57698016874958,36.0757452879992,0
161.75584196680245,0.0468350185878742,56.57698016874958,36.0757452879992,0
161.75584196680245,0.0468350185878742,56.57698016874958,36.0757452879992,0
161.75584196680245,0.0468350185878742,56.57698016874958,36.0757452879992,0
161.75584196680245,0.0468350185878742,56.57698016874958,36.0757452879992,0
161.75584196680245,0.0468350185878742,56.57698016874958,36.0757452879992,0
161.75584196680245,0.0468350185878742,56.57698016874958,36.0757452879992,0
161.75584196680245,0.0468350185878742,56.57698016874958,36.0757452879992,0
161.75584196680245,0.0468350185878742,56.57698016874958,36.0757452879992,0
161.75584196680245,0.0468350185878742,56.57698016874958,36.0757452879992,0
161.75584196680245,0.0468350185878742,56.57698016874958,36.0757452879992,0
161.75584196680245,0.0468350185878742,56.57698016874958,36.0757452879992,0
161.75584196680245,0.0468350185878742,56.57698016874958,36.0757452879992,0
161.75584196680245,0.0468350185878742,56.57698016874958,36.0757452879992,0
161.75584196680245,0.0468350185878742,56.57698016874958,36.0757452879992,0
161.75584196680245,0.0468350185878742,56.57698016874958,36.0757452879992,0
161.75584196680245,0.0468350185878742,56.57698016874958,36.0757452879992,0
161.75584196680245,0.0468350185878742,56.57698016874958,36.0757452879992,0
161.75584196680245,0.0468350185878742,56.57698016874958,36.0757452879992,0
161.75584196680245,0.0468350185878742,56.57698016874958,36.0757452879992,0
161.75584196680245,0.0468350185878742,56.57698016874958,36.0757452879992,0
161.75584196680245,0.0468350185878742,56.57698016874958,36.0757452879992,0
161.75584196680245,0.0468350185878742,56.57698016874958,36.0757452879992,0
161.75584196680245,0.0468350185878742,56.57698016874958,36.0757452879992,0
161.75584196680245,0.0468350185878742,56.57698016874958,36.0757452879992,0
161.75584196680245,0.0468350185878742,56.57698016874958,36.0757452879992,0
161.75584196680245,0.0468350185878742,56.57698016874958,36.0757452879992,0
161.75584196680245,0.0468350185878742,56.57698016874958,36.0757452879992,0
161.75584196680245,0.0468350185878742,56.57698016874958,36.0757452879992,0
161.75584196680245,0.0468350185878742,56.57698016874958,36.0757452879992,0
161.75584196680245,0.0468350185878742,56.57698016874958,36.0757452879992,0
161.75584196680245,0.0468350185878742,56.57698016874958,36.0757452879992,0
161.75584196680245,0.0468350185878742,56.57698016874958,36.0757452879992,0
161.75584196680245,0.0468350185878742,56.57698016874958,36.0757452879992,0
161.75584196680245,0.0468350185878742,56.57698016874958,36.0757452879992,0
161.75584196680245,0.0468350185878742,56.57698016874958,36.0757452879992,0
161.75584196680245,0.0468350185878742,56.57698016874958,36.0757452879992,0
161.75584196680245,0.0468350185878742,56.57698016874958,36.0757452879992,0
161.75584196680245,0.0468350185878742,56.57698016874958,36.0757452879992,0
161.75584196680245,0.0468350185878742,56.57698016874958,36.0757452879992,0
161.75584196680245,0.0468350185878742,56.57698016874958,36.0757452879992,0
161.75584196680245,0.0468350185878742,56.57698016874958,36.0757452879992,0
161.75584196680245,0.0468350185878742,56.57698016874958,36.0757452879992,0
161.75584196680245,0.0468350185878742,56.57698016874958,36.0757452879992,0
161.75584196680245,0.0468350185878742,56.57698016874958,36.0757452879992,0
161.75584196680245,0.0468350185878742,56.57698016874958,36.0757452879992,0
161.75584196680245,0.0468350185878742,56.57698016874958,36.0757452879992,0
161.75584196680245,0.0468350185878742,56.57698016874958,36.0757452879992,0
161.75584196680245,0.0468350185878742,56.57698016874958,36.0757452879992,0
161.75584196680245,0.0468350185878742,56.57698016874958,36.0757452879992,0
161.75584196680245,0.0468350185878742,56.57698016874958,36.0757452879992,0
161.75584196680245,0.0468350185878742,56.57698016874958,36.0757452879992,0
161.75584196680245,0.0468350185878742,56.57698016874958,36.0757452879992,0
161.75584196680245,0.0468350185878742,56.57698016874958,36.0757452879992,0
161.75584196680245,0.0468350185878742,56.57698016874958,36.0757452879992,0
161.75584196680245,0.0468350185878742,56.57698016874958,36.0757452879992,0
161.75584196680245,0.0468350185878742,56.57698016874958,36.0757452879992,0
161.75584196680245,0.0468350185878742,56.57698016874958,36.0757452879992,0
161.75584196680245,0.0468350185878742,56.57698016874958,36.0757452879992,0
161.75584196680245,0.0468350185878742,56.57698016874958,36.0757452879992,0
161.75584196680245,0.0468350185878742,56.57698016874958,36.0757452879992,0
161.75584196680245,0.0468350185878742,56.57698016874958,36.0757452879992,0
161.75584196680245,0.0468350185878742,56.57698016874958,36.0757452879992,0
161.75584196680245,0.0468350185878742,56.57698016874958,36.0757452879992,0
161.75584196680245,0.0468350185878742,56.57698016874958,36.0757452879992,0
161.75584196680245,0.0468350185878742,56.57698016874958,36.0757452879992,0
161.75584196680245,0.0468350185878742,56.57698016874958,36.0757452879992,0
161.75584196680245,0.0468350185878742,56.57698016874958,36.0757452879992,0
161.75584196680245,0.0468350185878742,56.57698016874958,36.0757452879992,0
161.75584196680245,0.0468350185878742,56.57698016874958,36.0757452879992,0
161.75584196680245,0.0468350185878742,56.57698016874958,36.0757452879992,0
161.75584196680245,0.0468350185878742,56.57698016874958,36.0757452879992,0
161.75584196680245,0.0468350185878742,56.57698016874958,36.0757452879992,0
161.75584196680245,0.0468350185878742,56.57698016874958,36.0757452879992,0
161.75584196680245,0.0468350185878742,56.57698016874958,36.0757452879992,0
161.75584196680245,0.0468350185878742,56.57698016874958,36.0757452879992,0
161.75584196680245,0.0468350185878742,56.57698016874958,36.0757452879992,0
161.75584196680245,0.0468350185878742,56.57698016874958,36.0757452879992,0
161.75584196680245,0.0468350185878742,56.57698016874958,36.0757452879992,0
161.75584196680245,0.0468350185878742,56.57698016874958,36.0757452879992,0
161.75584196680245,0.0468350185878742,56.57698016874958,36.0757452879992,0
161.75584196680245,0.0468350185878742,56.57698016874958,36.0757452879992,0
161.75584196680245,0.0468350185878742,56.57698016874958,36.0757452879992,0
161.75584196680245,0.0468350185878742,56.57698016874958,36.0757452879992,0
161.75584196680245,0.0468350185878742,56.57698016874958,36.0757452879992,0
161.75584196680245,0.0468350185878742,56.57698016874958,36.0757452879992,0
161.75584196680245,0.0468350185878742,56.57698016874958,36.0757452879992,0
161.75584196680245,0.0468350185878742,56.57698016874958,36.0757452879992,0
161.75584196680245,0.0468350185878742,56.57698016874958,36.0757452879992,0
161.75584196680245,0.0468350185878742,56.57698016874958,36.0757452879992,0
161.75584196680245,0.0468350185878742,56.57698016874958,36.0757452879992,0
161.75584196680245,0.0468350185878742,56.57698016874958,36.0757452879992,0
161.75584196680245,0.0468350185878742,56.57698016874958,36.0757452879992,0
161.75584196680245,0.0468350185878742,56.57698016874958,36.0757452879992,0
161.75584196680245,0.0468350185878742,56.57698016874958,36.0757452879992,0
161.75584196680245,0.0468350185878742,56.57698016874958,36.0757452879992,0
161.75584196680245,0.0468350185878742,56.57698016874958,36.0757452879992,0
161.75584196680245,0.0468350185878742,56.57698016874958,36.0757452879992,0
161.75584196680245,0.0468350185878742,56.57698016874958,36.0757452879992,0
161.75584196680245,0.0468350185878742,56.57698016874958,36.0757452879992,0
161.75584196680245,0.0468350185878742,56.57698016874958,36.0757452879992,0
161.75584196680245,0.0468350185878742,56.57698016874958,36.0757452879992,0
161.75584196680245,0.0468350185878742,56.57698016874958,36.0757452879992,0
161.75584196680245,0.0468350185878742,56.57698016874958,36.0757452879992,0
161.75584196680245,0.0468350185878742,56.57698016874958,36.0757452879992,0
161.75584196680245,0.0468350185878742,56.57698016874958,36.0757452879992,0
161.75584196680245,0.0468350185878742,56.57698016874958,36.0757452879992,0
161.75584196680245,0.0468350185878742,56.57698016874958,36.0757452879992,0
161.75584196680245,0.0468350185878742,56.57698016874958,36.0757452879992,0
161.75584196680245,0.0468350185878742,56.57698016874958,36.0757452879992,0
161.75584196680245,0.0468350185878742,56.57698016874958,36.0757452879992,0
161.75584196680245,0.0468350185878742,56.57698016874958,36.0757452879992,0
161.75584196680245,0.0468350185878742,56.57698016874958,36.0757452879992,0
161.75584196680245,0.0468350185878742,56.57698016874958,36.0757452879992,0
161.75584196680245,0.0468350185878742,56.57698016874958,36.0757452879992,0
161.75584196680245,0.0468350185878742,56.57698016874958,36.0757452879992,0
161.75584196680245,0.0468350185878742,56.57698016874958,36.0757452879992,0
161.75584196680245,0.0468350185878742,56.57698016874958,36.0757452879992,0
161.75584196680245,0.0468350185878742,56.57698016874958,36.0757452879992,0
161.75584196680245,0.0468350185878742,56.57698016874958,36.0757452879992,0
161.75584196680245,0.0468350185878742,56.57698016874958,36.0757452879992,0
161.75584196680245,0.0468350185878742,56.57698016874958,36.0757452879992,0
161.75584196680245,0.0468350185878742,56.57698016874958,36.0757452879992,0
161.75584196680245,0.0468350185878742,56.57698016874958,36.0757452879992,0
161.75584196680245,0.0468350185878742,56.57698016874958,36.0757452879992,0
161.75584196680245,0.0468350185878742,56.57698016874958,36.0757452879992,0
161.75584196680245,0.0468350185878742,56.57698016874958,36.0757452879992,0
161.75584196680245,0.0468350185878742,56.57698016874958,36.0757452879992,0
161.75584196680245,0.0468350185878742,56.57698016874958,36.0757452879992,0
161.75584196680245,0.0468350185878742,56.57698016874958,36.0757452879992,0
161.75584196680245,0.0468350185878742,56.57698016874958,36.0757452879992,0
161.75584196680245,0.0468350185878742,56.57698016874958,36.0757452879992,0
161.75584196680245,0.0468350185878742,56.57698016874958,36.0757452879992,0
161.75584196680245,0.0468350185878742,56.57698016874958,36.0757452879992,0
161.75584196680245,0.0468350185878742,56.57698016874958,36.0757452879992,0
161.75584196680245,0.0468350185878742,56.57698016874958,36.0757452879992,0
161.75584196680245,0.0468350185878742,56.57698016874958,36.0757452879992,0
161.75584196680245,0.0468350185878742,56.57698016874958,36.0757452879992,0
161.75584196680245,0.0468350185878742,56.57698016874958,36.0757452879992,0
161.75584196680245,0.0468350185878742,56.57698016874958,36.0757452879992,0
161.75584196680245,0.0468350185878742,56.57698016874958,36.0757452879992,0
161.75584196680245,0.0468350185878742,56.57698016874958,36.0757452879992,0
161.75584196680245,0.0468350185878742,56.57698016874958,36.0757452879992,0
161.75584196680245,0.0468350185878742,56.57698016874958,36.0757452879992,0
161.75584196680245,0.0468350185878742,56.57698016874958,36.0757452879992,0
161.75584196680245,0.0468350185878742,56.57698016874958,36.0757452879992,0
161.75584196680245,0.0468350185878742,56.57698016874958,36.0757452879992,0
161.75584196680245,0.0468350185878742,56.57698016874958,36.0757452879992,0
161.75584196680245,0.0468350185878742,56.57698016874958,36.0757452879992,0
161.75584196680245,0.0468350185878742,56.57698016874958,36.0757452879992,0
161.75584196680245,0.0468350185878742,56.57698016874958,36.0757452879992,0
161.75584196680245,0.0468350185878742,56.57698016874958,36.0757452879992,0
161.75584196680245,0.0468350185878742,56.57698016874958,36.0757452879992,0
161.75584196680245,0.0468350185878742,56.57698016874958,36.0757452879992,0
161.75584196680245,0.0468350185878742,56.57698016874958,36.0757452879992,0
161.75584196680245,0.0468350185878742,56.57698016874958,36.0757452879992,0
161.75584196680245,0.0468350185878742,56.57698016874958,36.0757452879992,0
161.75584196680245,0.0468350185878742,56.57698016874958,36.0757452879992,0
161.75584196680245,0.0468350185878742,56.57698016874958,36.0757452879992,0
161.75584196680245,0.0468350185878742,56.57698016874958,36.0757452879992,0
161.75584196680245,0.0468350185878742,56.57698016874958,36.0757452879992,0
161.75584196680245,0.0468350185878742,56.57698016874958,36.0757452879992,0
161.75584196680245,0.0468350185878742,56.57698016874958,36.0757452879992,0
161.75584196680245,0.0468350185878742,56.57698016874958,36.0757452879992,0
161.75584196680245,0.0468350185878742,56.57698016874958,36.0757452879992,0
161.75584196680245,0.0468350185878742,56.57698016874958,36.0757452879992,0
161.75584196680245,0.0468350185878742,56.57698016874958,36.0757452879992,0
161.75584196680245,0.0468350185878742,56.57698016874958,36.0757452879992,0
161.75584196680245,0.0468350185878742,56.57698016874958,36.0757452879992,0
161.75584196680245,0.0468350185878742,56.57698016874958,36.0757452879992,0
161.75584196680245,0.0468350185878742,56.57698016874958,36.0757452879992,0
161.75584196680245,0.0468350185878742,56.57698016874958,36.0757452879992,0
161.75584196680245,0.0468350185878742,56.57698016874958,36.0757452879992,0
161.75584196680245,0.0468350185878742,56.57698016874958,36.0757452879992,0
161.75584196680245,0.0468350185878742,56.57698016874958,36.0757452879992,0
161.75584196680245,0.0468350185878742,56.57698016874958,36.0757452879992,0
161.75584196680245,0.0468350185878742,56.57698016874958,36.0757452879992,0
161.75584196680245,0.0468350185878742,56.57698016874958,36.0757452879992,0
161.75584196680245,0.0468350185878742,56.57698016874958,36.0757452879992,0
161.75584196680245,0.0468350185878742,56.57698016874958,36.0757452879992,0
161.75584196680245,0.0468350185878742,56.57698016874958,36.0757452879992,0
161.75584196680245,0.0468350185878742,56.57698016874958,36.0757452879992,0
161.75584196680245,0.0468350185878742,56.57698016874958,36.0757452879992,0
161.75584196680245,0.0468350185878742,56.57698016874958,36.0757452879992,0
161.75584196680245,0.0468350185878742,56.57698016874958,36.0757452879992,0
161.75584196680245,0.0468350185878742,56.57698016874958,36.0757452879992,0
161.75584196680245,0.0468350185878742,56.57698016874958,36.0757452879992,0
161.75584196680245,0.0468350185878742,56.57698016874958,36.0757452879992,0
161.75584196680245,0.0468350185878742,56.57698016874958,36.0757452879992,0
161.75584196680245,0.0468350185878742,56.57698016874958,36.0757452879992,0
161.75584196680245,0.0468350185878742,56.57698016874958,36.0757452879992,0
161.75584196680245,0.0468350185878742,56.57698016874958,36.0757452879992,0
161.75584196680245,0.0468350185878742,56.57698016874958,36.0757452879992,0
161.75584196680245,0.0468350185878742,56.57698016874958,36.0757452879992,0
161.75584196680245,0.0468350185878742,56.57698016874958,36.0757452879992,0
161.75584196680245,0.0468350185878742,56.57698016874958,36.0757452879992,0
161.75584196680245,0.0468350185878742,56.57698016874958,36.0757452879992,0
161.75584196680245,0.0468350185878742,56.57698016874958,36.0757452879992,0
161.75584196680245,0.0468350185878742,56.57698016874958,36.0757452879992,0
161.75584196680245,0.0468350185878742,56.57698016874958,36.0757452879992,0
161.75584196680245,0.0468350185878742,56.57698016874958,36.0757452879992,0
161.75584196680245,0.0468350185878742,56.57698016874958,36.0757452879992,0
161.75584196680245,0.0468350185878742,56.57698016874958,36.0757452879992,0
161.75584196680245,0.0468350185878742,56.57698016874958,36.0757452879992,0
161.75584196680245,0.0468350185878742,56.57698016874958,36.0757452879992,0
161.75584196680245,0.0468350185878742,56.57698016874958,36.0757452879992,0
161.75584196680245,0.0468350185878742,56.57698016874958,36.0757452879992,0
161.75584196680245,0.0468350185878742,56.57698016874958,36.0757452879992,0
161.75584196680245,0.0468350185878742,56.57698016874958,36.0757452879992,0
161.75584196680245,0.0468350185878742,56.57698016874958,36.0757452879992,0
161.75584196680245,0.0468350185878742,56.57698016874958,36.0757452879992,0
161.75584196680245,0.0468350185878742,56.57698016874958,36.0757452879992,0
161.75584196680245,0.0468350185878742,56.57698016874958,36.0757452879992,0
161.75584196680245,0.0468350185878742,56.57698016874958,36.0757452879992,0
161.75584196680245,0.0468350185878742,56.57698016874958,36.0757452879992,0
161.75584196680245,0.0468350185878742,56.57698016874958,36.0757452879992,0
161.75584196680245,0.0468350185878742,56.57698016874958,36.0757452879992,0
161.75584196680245,0.0468350185878742,56.57698016874958,36.0757452879992,0
161.75584196680245,0.0468350185878742,56.57698016874958,36.0757452879992,0
161.75584196680245,0.0468350185878742,56.57698016874958,36.0757452879992,0
161.75584196680245,0.0468350185878742,56.57698016874958,36.0757452879992,0
161.75584196680245,0.0468350185878742,56.57698016874958,36.0757452879992,0
161.75584196680245,0.0468350185878742,56.57698016874958,36.0757452879992,0
161.75584196680245,0.0468350185878742,56.57698016874958,36.0757452879992,0
161.75584196680245,0.0468350185878742,56.57698016874958,36.0757452879992,0
161.75584196680245,0.0468350185878742,56.57698016874958,36.0757452879992,0
161.75584196680245,0.0468350185878742,56.57698016874958,36.0757452879992,0
161.75584196680245,0.0468350185878742,56.57698016874958,36.0757452879992,0
161.75584196680245,0.0468350185878742,56.57698016874958,36.0757452879992,0
161.75584196680245,0.0468350185878742,56.57698016874958,36.0757452879992,0
161.75584196680245,0.0468350185878742,56.57698016874958,36.0757452879992,0
161.75584196680245,0.0468350185878742,56.57698016874958,36.0757452879992,0
161.75584196680245,0.0468350185878742,56.57698016874958,36.0757452879992,0
161.75584196680245,0.0468350185878742,56.57698016874958,36.0757452879992,0
161.75584196680245,0.0468350185878742,56.57698016874958,36.0757452879992,0
161.75584196680245,0.0468350185878742,56.57698016874958,36.0757452879992,0
161.75584196680245,0.0468350185878742,56.57698016874958,36.0757452879992,0
161.75584196680245,0.0468350185878742,56.57698016874958,36.0757452879992,0
161.75584196680245,0.0468350185878742,56.57698016874958,36.0757452879992,0
161.75584196680245,0.0468350185878742,56.57698016874958,36.0757452879992,0
161.75584196680245,0.0468350185878742,56.57698016874958,36.0757452879992,0
161.75584196680245,0.0468350185878742,56.57698016874958,36.0757452879992,0
161.75584196680245,0.0468350185878742,56.57698016874958,36.0757452879992,0
161.75584196680245,0.0468350185878742,56.57698016874958,36.0757452879992,0
161.75584196680245,0.0468350185878742,56.57698016874958,36.0757452879992,0
161.75584196680245,0.0468350185878742,56.57698016874958,36.0757452879992,0
161.75584196680245,0.0468350185878742,56.57698016874958,36.0757452879992,0
161.75584196680245,0.0468350185878742,56.57698016874958,36.0757452879992,0
161.75584196680245,0.0468350185878742,56.57698016874958,36.0757452879992,0
161.75584196680245,0.0468350185878742,56.57698016874958,36.0757452879992,0
161.75584196680245,0.0468350185878742,56.57698016874958,36.0757452879992,0
161.75584196680245,0.0468350185878742,56.57698016874958,36.0757452879992,0
161.75584196680245,0.0468350185878742,56.57698016874958,36.0757452879992,0
161.75584196680245,0.0468350185878742,56.57698016874958,36.0757452879992,0
161.75584196680245,0.0468350185878742,56.57698016874958,36.0757452879992,0
161.75584196680245,0.0468350185878742,56.57698016874958,36.0757452879992,0
161.75584196680245,0.0468350185878742,56.57698016874958,36.0757452879992,0
161.75584196680245,0.0468350185878742,56.57698016874958,36.0757452879992,0
161.75584196680245,0.0468350185878742,56.57698016874958,36.0757452879992,0
161.75584196680245,0.0468350185878742,56.57698016874958,36.0757452879992,0
161.75584196680245,0.0468350185878742,56.57698016874958,36.0757452879992,0
161.75584196680245,0.0468350185878742,56.57698016874958,36.0757452879992,0
161.75584196680245,0.0468350185878742,56.57698016874958,36.0757452879992,0
161.75584196680245,0.0468350185878742,56.57698016874958,36.0757452879992,0
161.75584196680245,0.0468350185878742,56.57698016874958,36.0757452879992,0
161.75584196680245,0.0468350185878742,56.57698016874958,36.0757452879992,0
161.75584196680245,0.0468350185878742,56.57698016874958,36.0757452879992,0
161.75584196680245,0.0468350185878742,56.57698016874958,36.0757452879992,0
161.75584196680245,0.0468350185878742,56.57698016874958,36.0757452879992,0
161.75584196680245,0.0468350185878742,56.57698016874958,36.0757452879992,0
161.75584196680245,0.0468350185878742,56.57698016874958,36.0757452879992,0
161.75584196680245,0.0468350185878742,56.57698016874958,36.0757452879992,0
161.75584196680245,0.0468350185878742,56.57698016874958,36.0757452879992,0
161.75584196680245,0.0468350185878742,56.57698016874958,36.0757452879992,0
161.75584196680245,0.0468350185878742,56.57698016874958,36.0757452879992,0
161.75584196680245,0.0468350185878742,56.57698016874958,36.0757452879992,0
161.75584196680245,0.0468350185878742,56.57698016874958,36.0757452879992,0
161.75584196680245,0.0468350185878742,56.57698016874958,36.0757452879992,0
161.75584196680245,0.0468350185878742,56.57698016874958,36.0757452879992,0
161.75584196680245,0.0468350185878742,56.57698016874958,36.0757452879992,0
161.75584196680245,0.0468350185878742,56.57698016874958,36.0757452879992,0
161.75584196680245,0.0468350185878742,56.57698016874958,36.0757452879992,0
161.75584196680245,0.0468350185878742,56.57698016874958,36.0757452879992,0
161.75584196680245,0.0468350185878742,56.57698016874958,36.0757452879992,0
161.75584196680245,0.0468350185878742,56.57698016874958,36.0757452879992,0
161.75584196680245,0.0468350185878742,56.57698016874958,36.0757452879992,0
161.75584196680245,0.0468350185878742,56.57698016874958,36.0757452879992,0
161.75584196680245,0.0468350185878742,56.57698016874958,36.0757452879992,0
161.75584196680245,0.0468350185878742,56.57698016874958,36.0757452879992,0
161.75584196680245,0.0468350185878742,56.57698016874958,36.0757452879992,0
161.75584196680245,0.0468350185878742,56.57698016874958,36.0757452879992,0
161.75584196680245,0.0468350185878742,56.57698016874958,36.0757452879992,0
161.75584196680245,0.0468350185878742,56.57698016874958,36.0757452879992,0
161.75584196680245,0.0468350185878742,56.57698016874958,36.0757452879992,0
161.75584196680245,0.0468350185878742,56.57698016874958,36.0757452879992,0
161.75584196680245,0.0468350185878742,56.57698016874958,36.0757452879992,0
161.75584196680245,0.0468350185878742,56.57698016874958,36.0757452879992,0
161.75584196680245,0.0468350185878742,56.57698016874958,36.0757452879992,0
161.75584196680245,0.0468350185878742,56.57698016874958,36.0757452879992,0
161.75584196680245,0.0468350185878742,56.57698016874958,36.0757452879992,0
161.75584196680245,0.0468350185878742,56.57698016874958,36.0757452879992,0
161.75584196680245,0.0468350185878742,56.57698016874958,36.0757452879992,0
161.75584196680245,0.0468350185878742,56.57698016874958,36.0757452879992,0
161.75584196680245,0.0468350185878742,56.57698016874958,36.0757452879992,0
161.75584196680245,0.0468350185878742,56.57698016874958,36.0757452879992,0
161.75584196680245,0.0468350185878742,56.57698016874958,36.0757452879992,0
161.75584196680245,0.0468350185878742,56.57698016874958,36.0757452879992,0
161.75584196680245,0.0468350185878742,56.57698016874958,36.0757452879992,0
161.75584196680245,0.0468350185878742,56.57698016874958,36.0757452879992,0
161.75584196680245,0.0468350185878742,56.57698016874958,36.0757452879992,0
161.75584196680245,0.0468350185878742,56.57698016874958,36.0757452879992,0
161.75584196680245,0.0468350185878742,56.57698016874958,36.0757452879992,0
161.75584196680245,0.0468350185878742,56.57698016874958,36.0757452879992,0
161.75584196680245,0.0468350185878742,56.57698016874958,36.0757452879992,0
161.75584196680245,0.0468350185878742,56.57698016874958,36.0757452879992,0
161.75584196680245,0.0468350185878742,56.57698016874958,36.0757452879992,0
161.75584196680245,0.0468350185878742,56.57698016874958,36.0757452879992,0
161.75584196680245,0.0468350185878742,56.57698016874958,36.0757452879992,0
161.75584196680245,0.0468350185878742,56.57698016874958,36.0757452879992,0
161.75584196680245,0.0468350185878742,56.57698016874958,36.0757452879992,0
161.75584196680245,0.0468350185878742,56.57698016874958,36.0757452879992,0
161.75584196680245,0.0468350185878742,56.57698016874958,36.0757452879992,0
161.75584196680245,0.0468350185878742,56.57698016874958,36.0757452879992,0
161.75584196680245,0.0468350185878742,56.57698016874958,36.0757452879992,0
161.75584196680245,0.0468350185878742,56.57698016874958,36.0757452879992,0
161.75584196680245,0.0468350185878742,56.57698016874958,36.0757452879992,0
161.75584196680245,0.0468350185878742,56.57698016874958,36.0757452879992,0
161.75584196680245,0.0468350185878742,56.57698016874958,36.0757452879992,0
161.75584196680245,0.0468350185878742,56.57698016874958,36.0757452879992,0
161.75584196680245,0.0468350185878742,56.57698016874958,36.0757452879992,0
161.75584196680245,0.0468350185878742,56.57698016874958,36.0757452879992,0
161.75584196680245,0.0468350185878742,56.57698016874958,36.0757452879992,0
161.75584196680245,0.0468350185878742,56.57698016874958,36.0757452879992,0
161.75584196680245,0.0468350185878742,56.57698016874958,36.0757452879992,0
161.75584196680245,0.0468350185878742,56.57698016874958,36.0757452879992,0
161.75584196680245,0.0468350185878742,56.57698016874958,36.0757452879992,0
161.75584196680245,0.0468350185878742,56.57698016874958,36.0757452879992,0
161.75584196680245,0.0468350185878742,56.57698016874958,36.0757452879992,0
161.75584196680245,0.0468350185878742,56.57698016874958,36.0757452879992,0
161.75584196680245,0.0468350185878742,56.57698016874958,36.0757452879992,0
161.75584196680245,0.0468350185878742,56.57698016874958,36.0757452879992,0
161.75584196680245,0.0468350185878742,56.57698016874958,36.0757452879992,0
161.75584196680245,0.0468350185878742,56.57698016874958,36.0757452879992,0
161.75584196680245,0.0468350185878742,56.57698016874958,36.0757452879992,0
161.75584196680245,0.0468350185878742,56.57698016874958,36.0757452879992,0
161.75584196680245,0.0468350185878742,56.57698016874958,36.0757452879992,0
161.75584196680245,0.0468350185878742,56.57698016874958,36.0757452879992,0
161.75584196680245,0.0468350185878742,56.57698016874958,36.0757452879992,0
161.75584196680245,0.0468350185878742,56.57698016874958,36.0757452879992,0
161.75584196680245,0.0468350185878742,56.57698016874958,36.0757452879992,0
161.75584196680245,0.0468350185878742,56.57698016874958,36.0757452879992,0
161.75584196680245,0.0468350185878742,56.57698016874958,36.0757452879992,0
161.75584196680245,0.0468350185878742,56.57698016874958,36.0757452879992,0
161.75584196680245,0.0468350185878742,56.57698016874958,36.0757452879992,0
161.75584196680245,0.0468350185878742,56.57698016874958,36.0757452879992,0
161.75584196680245,0.0468350185878742,56.57698016874958,36.0757452879992,0
161.75584196680245,0.0468350185878742,56.57698016874958,36.0757452879992,0
161.75584196680245,0.0468350185878742,56.57698016874958,36.0757452879992,0
161.75584196680245,0.0468350185878742,56.57698016874958,36.0757452879992,0
161.75584196680245,0.0468350185878742,56.57698016874958,36.0757452879992,0
161.75584196680245,0.0468350185878742,56.57698016874958,36.0757452879992,0
161.75584196680245,0.0468350185878742,56.57698016874958,36.0757452879992,0
161.75584196680245,0.0468350185878742,56.57698016874958,36.0757452879992,0
161.75584196680245,0.0468350185878742,56.57698016874958,36.0757452879992,0
161.75584196680245,0.0468350185878742,56.57698016874958,36.0757452879992,0
161.75584196680245,0.0468350185878742,56.57698016874958,36.0757452879992,0
161.75584196680245,0.0468350185878742,56.57698016874958,36.0757452879992,0
161.75584196680245,0.0468350185878742,56.57698016874958,36.0757452879992,0
161.75584196680245,0.0468350185878742,56.57698016874958,36.0757452879992,0
161.75584196680245,0.0468350185878742,56.57698016874958,36.0757452879992,0
161.75584196680245,0.0468350185878742,56.57698016874958,36.0757452879992,0
161.75584196680245,0.0468350185878742,56.57698016874958,36.0757452879992,0
161.75584196680245,0.0468350185878742,56.57698016874958,36.0757452879992,0
161.75584196680245,0.0468350185878742,56.57698016874958,36.0757452879992,0
161.75584196680245,0.0468350185878742,56.57698016874958,36.0757452879992,0
161.75584196680245,0.0468350185878742,56.57698016874958,36.0757452879992,0
161.75584196680245,0.0468350185878742,56.57698016874958,36.0757452879992,0
161.75584196680245,0.0468350185878742,56.57698016874958,36.0757452879992,0
161.75584196680245,0.0468350185878742,56.57698016874958,36.0757452879992,0
161.75584196680245,0.0468350185878742,56.57698016874958,36.0757452879992,0
161.75584196680245,0.0468350185878742,56.57698016874958,36.0757452879992,0
161.75584196680245,0.0468350185878742,56.57698016874958,36.0757452879992,0
161.75584196680245,0.0468350185878742,56.57698016874958,36.0757452879992,0
161.75584196680245,0.0468350185878742,56.57698016874958,36.0757452879992,0
161.75584196680245,0.0468350185878742,56.57698016874958,36.0757452879992,0
161.75584196680245,0.0468350185878742,56.57698016874958,36.0757452879992,0
161.75584196680245,0.0468350185878742,56.57698016874958,36.0757452879992,0
161.75584196680245,0.0468350185878742,56.57698016874958,36.0757452879992,0
161.75584196680245,0.0468350185878742,56.57698016874958,36.0757452879992,0
161.75584196680245,0.0468350185878742,56.57698016874958,36.0757452879992,0
161.75584196680245,0.0468350185878742,56.57698016874958,36.0757452879992,0
161.75584196680245,0.0468350185878742,56.57698016874958,36.0757452879992,0
161.75584196680245,0.0468350185878742,56.57698016874958,36.0757452879992,0
161.75584196680245,0.0468350185878742,56.57698016874958,36.0757452879992,0
161.75584196680245,0.0468350185878742,56.57698016874958,36.0757452879992,0
161.75584196680245,0.0468350185878742,56.57698016874958,36.0757452879992,0
161.75584196680245,0.0468350185878742,56.57698016874958,36.0757452879992,0
161.75584196680245,0.0468350185878742,56.57698016874958,36.0757452879992,0
161.75584196680245,0.0468350185878742,56.57698016874958,36.0757452879992,0
161.75584196680245,0.0468350185878742,56.57698016874958,36.0757452879992,0
161.75584196680245,0.0468350185878742,56.57698016874958,36.0757452879992,0
161.75584196680245,0.0468350185878742,56.57698016874958,36.0757452879992,0
161.75584196680245,0.0468350185878742,56.57698016874958,36.0757452879992,0
161.75584196680245,0.0468350185878742,56.57698016874958,36.0757452879992,0
161.75584196680245,0.0468350185878742,56.57698016874958,36.0757452879992,0
161.75584196680245,0.0468350185878742,56.57698016874958,36.0757452879992,0
161.75584196680245,0.0468350185878742,56.57698016874958,36.0757452879992,0
161.75584196680245,0.0468350185878742,56.57698016874958,36.0757452879992,0
161.75584196680245,0.0468350185878742,56.57698016874958,36.0757452879992,0
161.75584196680245,0.0468350185878742,56.57698016874958,36.0757452879992,0
161.75584196680245,0.0468350185878742,56.57698016874958,36.0757452879992,0
161.75584196680245,0.0468350185878742,56.57698016874958,36.0757452879992,0
161.75584196680245,0.0468350185878742,56.57698016874958,36.0757452879992,0
161.75584196680245,0.0468350185878742,56.57698016874958,36.0757452879992,0
161.75584196680245,0.0468350185878742,56.57698016874958,36.0757452879992,0
161.75584196680245,0.0468350185878742,56.57698016874958,36.0757452879992,0
161.75584196680245,0.0468350185878742,56.57698016874958,36.0757452879992,0
161.75584196680245,0.0468350185878742,56.57698016874958,36.0757452879992,0
161.75584196680245,0.0468350185878742,56.57698016874958,36.0757452879992,0
161.75584196680245,0.0468350185878742,56.57698016874958,36.0757452879992,0
161.75584196680245,0.0468350185878742,56.57698016874958,36.0757452879992,0
161.75584196680245,0.0468350185878742,56.57698016874958,36.0757452879992,0
161.75584196680245,0.0468350185878742,56.57698016874958,36.0757452879992,0
161.75584196680245,0.0468350185878742,56.57698016874958,36.0757452879992,0
161.75584196680245,0.0468350185878742,56.57698016874958,36.0757452879992,0
161.75584196680245,0.0468350185878742,56.57698016874958,36.0757452879992,0
161.75584196680245,0.0468350185878742,56.57698016874958,36.0757452879992,0
161.75584196680245,0.0468350185878742,56.57698016874958,36.0757452879992,0
161.75584196680245,0.0468350185878742,56.57698016874958,36.0757452879992,0
161.75584196680245,0.0468350185878742,56.57698016874958,36.0757452879992,0
161.75584196680245,0.0468350185878742,56.57698016874958,36.0757452879992,0
161.75584196680245,0.0468350185878742,56.57698016874958,36.0757452879992,0
161.75584196680245,0.0468350185878742,56.57698016874958,36.0757452879992,0
161.75584196680245,0.0468350185878742,56.57698016874958,36.0757452879992,0
161.75584196680245,0.0468350185878742,56.57698016874958,36.0757452879992,0
161.75584196680245,0.0468350185878742,56.57698016874958,36.0757452879992,0
161.75584196680245,0.0468350185878742,56.57698016874958,36.0757452879992,0
161.75584196680245,0.0468350185878742,56.57698016874958,36.0757452879992,0
161.75584196680245,0.0468350185878742,56.57698016874958,36.0757452879992,0
161.75584196680245,0.0468350185878742,56.57698016874958,36.0757452879992,0
161.75584196680245,0.0468350185878742,56.57698016874958,36.0757452879992,0
161.75584196680245,0.0468350185878742,56.57698016874958,36.0757452879992,0
161.75584196680245,0.0468350185878742,56.57698016874958,36.0757452879992,0
161.75584196680245,0.0468350185878742,56.57698016874958,36.0757452879992,0
161.75584196680245,0.0468350185878742,56.57698016874958,36.0757452879992,0
161.75584196680245,0.0468350185878742,56.57698016874958,36.0757452879992,0
161.75584196680245,0.0468350185878742,56.57698016874958,36.0757452879992,0
161.75584196680245,0.0468350185878742,56.57698016874958,36.0757452879992,0
161.75584196680245,0.0468350185878742,56.57698016874958,36.0757452879992,0
161.75584196680245,0.0468350185878742,56.57698016874958,36.0757452879992,0
161.75584196680245,0.0468350185878742,56.57698016874958,36.0757452879992,0
161.75584196680245,0.0468350185878742,56.57698016874958,36.0757452879992,0
161.75584196680245,0.0468350185878742,56.57698016874958,36.0757452879992,0
161.75584196680245,0.0468350185878742,56.57698016874958,36.0757452879992,0
161.75584196680245,0.0468350185878742,56.57698016874958,36.0757452879992,0
161.75584196680245,0.0468350185878742,56.57698016874958,36.0757452879992,0
161.75584196680245,0.0468350185878742,56.57698016874958,36.0757452879992,0
161.75584196680245,0.0468350185878742,56.57698016874958,36.0757452879992,0
161.75584196680245,0.0468350185878742,56.57698016874958,36.0757452879992,0
161.75584196680245,0.0468350185878742,56.57698016874958,36.0757452879992,0
161.75584196680245,0.0468350185878742,56.57698016874958,36.0757452879992,0
161.75584196680245,0.0468350185878742,56.57698016874958,36.0757452879992,0
161.75584196680245,0.0468350185878742,56.57698016874958,36.0757452879992,0
161.75584196680245,0.0468350185878742,56.57698016874958,36.0757452879992,0
161.75584196680245,0.0468350185878742,56.57698016874958,36.0757452879992,0
161.75584196680245,0.0468350185878742,56.57698016874958,36.0757452879992,0
161.75584196680245,0.0468350185878742,56.57698016874958,36.0757452879992,0
161.75584196680245,0.0468350185878742,56.57698016874958,36.0757452879992,0
161.75584196680245,0.0468350185878742,56.57698016874958,36.0757452879992,0
161.75584196680245,0.0468350185878742,56.57698016874958,36.0757452879992,0
161.75584196680245,0.0468350185878742,56.57698016874958,36.0757452879992,0
161.75584196680245,0.0468350185878742,56.57698016874958,36.0757452879992,0
161.75584196680245,0.0468350185878742,56.57698016874958,36.0757452879992,0
161.75584196680245,0.0468350185878742,56.57698016874958,36.0757452879992,0
161.75584196680245,0.0468350185878742,56.57698016874958,36.0757452879992,0
161.75584196680245,0.0468350185878742,56.57698016874958,36.0757452879992,0
161.75584196680245,0.0468350185878742,56.57698016874958,36.0757452879992,0
161.75584196680245,0.0468350185878742,56.57698016874958,36.0757452879992,0
161.75584196680245,0.0468350185878742,56.57698016874958,36.0757452879992,0
161.75584196680245,0.0468350185878742,56.57698016874958,36.0757452879992,0
161.75584196680245,0.0468350185878742,56.57698016874958,36.0757452879992,0
161.75584196680245,0.0468350185878742,56.57698016874958,36.0757452879992,0
161.75584196680245,0.0468350185878742,56.57698016874958,36.0757452879992,0
161.75584196680245,0.0468350185878742,56.57698016874958,36.0757452879992,0
161.75584196680245,0.0468350185878742,56.57698016874958,36.0757452879992,0
161.75584196680245,0.0468350185878742,56.57698016874958,36.0757452879992,0
161.75584196680245,0.0468350185878742,56.57698016874958,36.0757452879992,0
161.75584196680245,0.0468350185878742,56.57698016874958,36.0757452879992,0
161.75584196680245,0.0468350185878742,56.57698016874958,36.0757452879992,0
161.75584196680245,0.0468350185878742,56.57698016874958,36.0757452879992,0
161.75584196680245,0.0468350185878742,56.57698016874958,36.0757452879992,0
161.75584196680245,0.0468350185878742,56.57698016874958,36.0757452879992,0
161.75584196680245,0.0468350185878742,56.57698016874958,36.0757452879992,0
161.75584196680245,0.0468350185878742,56.57698016874958,36.0757452879992,0
161.75584196680245,0.0468350185878742,56.57698016874958,36.0757452879992,0
161.75584196680245,0.0468350185878742,56.57698016874958,36.0757452879992,0
161.75584196680245,0.0468350185878742,56.57698016874958,36.0757452879992,0
161.75584196680245,0.0468350185878742,56.57698016874958,36.0757452879992,0
161.75584196680245,0.0468350185878742,56.57698016874958,36.0757452879992,0
161.75584196680245,0.0468350185878742,56.57698016874958,36.0757452879992,0
161.75584196680245,0.0468350185878742,56.57698016874958,36.0757452879992,0
161.75584196680245,0.0468350185878742,56.57698016874958,36.0757452879992,0
161.75584196680245,0.0468350185878742,56.57698016874958,36.0757452879992,0
161.75584196680245,0.0468350185878742,56.57698016874958,36.0757452879992,0
161.75584196680245,0.0468350185878742,56.57698016874958,36.0757452879992,0
161.75584196680245,0.0468350185878742,56.57698016874958,36.0757452879992,0
161.75584196680245,0.0468350185878742,56.57698016874958,36.0757452879992,0
161.75584196680245,0.0468350185878742,56.57698016874958,36.0757452879992,0
161.75584196680245,0.0468350185878742,56.57698016874958,36.0757452879992,0
161.75584196680245,0.0468350185878742,56.57698016874958,36.0757452879992,0
161.75584196680245,0.0468350185878742,56.57698016874958,36.0757452879992,0
161.75584196680245,0.0468350185878742,56.57698016874958,36.0757452879992,0
161.75584196680245,0.0468350185878742,56.57698016874958,36.0757452879992,0
161.75584196680245,0.0468350185878742,56.57698016874958,36.0757452879992,0
161.75584196680245,0.0468350185878742,56.57698016874958,36.0757452879992,0
161.75584196680245,0.0468350185878742,56.57698016874958,36.0757452879992,0
161.75584196680245,0.0468350185878742,56.57698016874958,36.0757452879992,0
161.75584196680245,0.0468350185878742,56.57698016874958,36.0757452879992,0
161.75584196680245,0.0468350185878742,56.57698016874958,36.0757452879992,0
161.75584196680245,0.0468350185878742,56.57698016874958,36.0757452879992,0
161.75584196680245,0.0468350185878742,56.57698016874958,36.0757452879992,0
161.75584196680245,0.0468350185878742,56.57698016874958,36.0757452879992,0
161.75584196680245,0.0468350185878742,56.57698016874958,36.0757452879992,0
161.75584196680245,0.0468350185878742,56.57698016874958,36.0757452879992,0
161.75584196680245,0.0468350185878742,56.57698016874958,36.0757452879992,0
161.75584196680245,0.0468350185878742,56.57698016874958,36.0757452879992,0
161.75584196680245,0.0468350185878742,56.57698016874958,36.0757452879992,0
161.75584196680245,0.0468350185878742,56.57698016874958,36.0757452879992,0
161.75584196680245,0.0468350185878742,56.57698016874958,36.0757452879992,0
161.75584196680245,0.0468350185878742,56.57698016874958,36.0757452879992,0
161.75584196680245,0.0468350185878742,56.57698016874958,36.0757452879992,0
161.75584196680245,0.0468350185878742,56.57698016874958,36.0757452879992,0
161.75584196680245,0.0468350185878742,56.57698016874958,36.0757452879992,0
161.75584196680245,0.0468350185878742,56.57698016874958,36.0757452879992,0
161.75584196680245,0.0468350185878742,56.57698016874958,36.0757452879992,0
161.75584196680245,0.0468350185878742,56.57698016874958,36.0757452879992,0
161.75584196680245,0.0468350185878742,56.57698016874958,36.0757452879992,0
161.75584196680245,0.0468350185878742,56.57698016874958,36.0757452879992,0
161.75584196680245,0.0468350185878742,56.57698016874958,36.0757452879992,0
161.75584196680245,0.0468350185878742,56.57698016874958,36.0757452879992,0
161.75584196680245,0.0468350185878742,56.57698016874958,36.0757452879992,0
161.75584196680245,0.0468350185878742,56.57698016874958,36.0757452879992,0
161.75584196680245,0.0468350185878742,56.57698016874958,36.0757452879992,0
161.75584196680245,0.0468350185878742,56.57698016874958,36.0757452879992,0
161.75584196680245,0.0468350185878742,56.57698016874958,36.0757452879992,0
161.75584196680245,0.0468350185878742,56.57698016874958,36.0757452879992,0
161.75584196680245,0.0468350185878742,56.57698016874958,36.0757452879992,0
161.75584196680245,0.0468350185878742,56.57698016874958,36.0757452879992,0
161.75584196680245,0.0468350185878742,56.57698016874958,36.0757452879992,0
161.75584196680245,0.0468350185878742,56.57698016874958,36.0757452879992,0
161.75584196680245,0.0468350185878742,56.57698016874958,36.0757452879992,0
161.75584196680245,0.0468350185878742,56.57698016874958,36.0757452879992,0
161.75584196680245,0.0468350185878742,56.57698016874958,36.0757452879992,0
161.75584196680245,0.0468350185878742,56.57698016874958,36.0757452879992,0
161.75584196680245,0.0468350185878742,56.57698016874958,36.0757452879992,0
161.75584196680245,0.0468350185878742,56.57698016874958,36.0757452879992,0
161.75584196680245,0.0468350185878742,56.57698016874958,36.0757452879992,0
161.75584196680245,0.0468350185878742,56.57698016874958,36.0757452879992,0
161.75584196680245,0.0468350185878742,56.57698016874958,36.0757452879992,0
161.75584196680245,0.0468350185878742,56.57698016874958,36.0757452879992,0
161.75584196680245,0.0468350185878742,56.57698016874958,36.0757452879992,0
161.75584196680245,0.0468350185878742,56.57698016874958,36.0757452879992,0
161.75584196680245,0.0468350185878742,56.57698016874958,36.0757452879992,0
161.75584196680245,0.0468350185878742,56.57698016874958,36.0757452879992,0
161.75584196680245,0.0468350185878742,56.57698016874958,36.0757452879992,0
161.75584196680245,0.0468350185878742,56.57698016874958,36.0757452879992,0
161.75584196680245,0.0468350185878742,56.57698016874958,36.0757452879992,0
161.75584196680245,0.0468350185878742,56.57698016874958,36.0757452879992,0
161.75584196680245,0.0468350185878742,56.57698016874958,36.0757452879992,0
161.75584196680245,0.0468350185878742,56.57698016874958,36.0757452879992,0
161.75584196680245,0.0468350185878742,56.57698016874958,36.0757452879992,0
161.75584196680245,0.0468350185878742,56.57698016874958,36.0757452879992,0
161.75584196680245,0.0468350185878742,56.57698016874958,36.0757452879992,0
161.75584196680245,0.0468350185878742,56.57698016874958,36.0757452879992,0
161.75584196680245,0.0468350185878742,56.57698016874958,36.0757452879992,0
161.75584196680245,0.0468350185878742,56.57698016874958,36.0757452879992,0
161.75584196680245,0.0468350185878742,56.57698016874958,36.0757452879992,0
161.75584196680245,0.0468350185878742,56.57698016874958,36.0757452879992,0
161.75584196680245,0.0468350185878742,56.57698016874958,36.0757452879992,0
161.75584196680245,0.0468350185878742,56.57698016874958,36.0757452879992,0
161.75584196680245,0.0468350185878742,56.57698016874958,36.0757452879992,0
161.75584196680245,0.0468350185878742,56.57698016874958,36.0757452879992,0
161.75584196680245,0.0468350185878742,56.57698016874958,36.0757452879992,0
161.75584196680245,0.0468350185878742,56.57698016874958,36.0757452879992,0
161.75584196680245,0.0468350185878742,56.57698016874958,36.0757452879992,0
161.75584196680245,0.0468350185878742,56.57698016874958,36.0757452879992,0
161.75584196680245,0.0468350185878742,56.57698016874958,36.0757452879992,0
161.75584196680245,0.0468350185878742,56.57698016874958,36.0757452879992,0
161.75584196680245,0.0468350185878742,56.57698016874958,36.0757452879992,0
161.75584196680245,0.0468350185878742,56.57698016874958,36.0757452879992,0
161.75584196680245,0.0468350185878742,56.57698016874958,36.0757452879992,0
161.75584196680245,0.0468350185878742,56.57698016874958,36.0757452879992,0
161.75584196680245,0.0468350185878742,56.57698016874958,36.0757452879992,0
161.75584196680245,0.0468350185878742,56.57698016874958,36.0757452879992,0
161.75584196680245,0.0468350185878742,56.57698016874958,36.0757452879992,0
161.75584196680245,0.0468350185878742,56.57698016874958,36.0757452879992,0
161.75584196680245,0.0468350185878742,56.57698016874958,36.0757452879992,0
161.75584196680245,0.0468350185878742,56.57698016874958,36.0757452879992,0
161.75584196680245,0.0468350185878742,56.57698016874958,36.0757452879992,0
161.75584196680245,0.0468350185878742,56.57698016874958,36.0757452879992,0
161.75584196680245,0.0468350185878742,56.57698016874958,36.0757452879992,0
161.75584196680245,0.0468350185878742,56.57698016874958,36.0757452879992,0
161.75584196680245,0.0468350185878742,56.57698016874958,36.0757452879992,0
161.75584196680245,0.0468350185878742,56.57698016874958,36.0757452879992,0
161.75584196680245,0.0468350185878742,56.57698016874958,36.0757452879992,0
161.75584196680245,0.0468350185878742,56.57698016874958,36.0757452879992,0
161.75584196680245,0.0468350185878742,56.57698016874958,36.0757452879992,0
161.75584196680245,0.0468350185878742,56.57698016874958,36.0757452879992,0
161.75584196680245,0.0468350185878742,56.57698016874958,36.0757452879992,0
161.75584196680245,0.0468350185878742,56.57698016874958,36.0757452879992,0
161.75584196680245,0.0468350185878742,56.57698016874958,36.0757452879992,0
161.75584196680245,0.0468350185878742,56.57698016874958,36.0757452879992,0
161.75584196680245,0.0468350185878742,56.57698016874958,36.0757452879992,0
161.75584196680245,0.0468350185878742,56.57698016874958,36.0757452879992,0
161.75584196680245,0.0468350185878742,56.57698016874958,36.0757452879992,0
161.75584196680245,0.0468350185878742,56.57698016874958,36.0757452879992,0
161.75584196680245,0.0468350185878742,56.57698016874958,36.0757452879992,0
161.75584196680245,0.0468350185878742,56.57698016874958,36.0757452879992,0
161.75584196680245,0.0468350185878742,56.57698016874958,36.0757452879992,0
161.75584196680245,0.0468350185878742,56.57698016874958,36.0757452879992,0
161.75584196680245,0.0468350185878742,56.57698016874958,36.0757452879992,0
161.75584196680245,0.0468350185878742,56.57698016874958,36.0757452879992,0
161.75584196680245,0.0468350185878742,56.57698016874958,36.0757452879992,0
161.75584196680245,0.0468350185878742,56.57698016874958,36.0757452879992,0
161.75584196680245,0.0468350185878742,56.57698016874958,36.0757452879992,0
161.75584196680245,0.0468350185878742,56.57698016874958,36.0757452879992,0
161.75584196680245,0.0468350185878742,56.57698016874958,36.0757452879992,0
161.75584196680245,0.0468350185878742,56.57698016874958,36.0757452879992,0
161.75584196680245,0.0468350185878742,56.57698016874958,36.0757452879992,0
161.75584196680245,0.0468350185878742,56.57698016874958,36.0757452879992,0
161.75584196680245,0.0468350185878742,56.57698016874958,36.0757452879992,0
161.75584196680245,0.0468350185878742,56.57698016874958,36.0757452879992,0
161.75584196680245,0.0468350185878742,56.57698016874958,36.0757452879992,0
161.75584196680245,0.0468350185878742,56.57698016874958,36.0757452879992,0
161.75584196680245,0.0468350185878742,56.57698016874958,36.0757452879992,0
161.75584196680245,0.0468350185878742,56.57698016874958,36.0757452879992,0
161.75584196680245,0.0468350185878742,56.57698016874958,36.0757452879992,0
161.75584196680245,0.0468350185878742,56.57698016874958,36.0757452879992,0
161.75584196680245,0.0468350185878742,56.57698016874958,36.0757452879992,0
161.75584196680245,0.0468350185878742,56.57698016874958,36.0757452879992,0
161.75584196680245,0.0468350185878742,56.57698016874958,36.0757452879992,0
161.75584196680245,0.0468350185878742,56.57698016874958,36.0757452879992,0
161.75584196680245,0.0468350185878742,56.57698016874958,36.0757452879992,0
161.75584196680245,0.0468350185878742,56.57698016874958,36.0757452879992,0
161.75584196680245,0.0468350185878742,56.57698016874958,36.0757452879992,0
161.75584196680245,0.0468350185878742,56.57698016874958,36.0757452879992,0
161.75584196680245,0.0468350185878742,56.57698016874958,36.0757452879992,0
161.75584196680245,0.0468350185878742,56.57698016874958,36.0757452879992,0
161.75584196680245,0.0468350185878742,56.57698016874958,36.0757452879992,0
161.75584196680245,0.0468350185878742,56.57698016874958,36.0757452879992,0
161.75584196680245,0.0468350185878742,56.57698016874958,36.0757452879992,0
161.75584196680245,0.0468350185878742,56.57698016874958,36.0757452879992,0
161.75584196680245,0.0468350185878742,56.57698016874958,36.0757452879992,0
161.75584196680245,0.0468350185878742,56.57698016874958,36.0757452879992,0
161.75584196680245,0.0468350185878742,56.57698016874958,36.0757452879992,0
161.75584196680245,0.0468350185878742,56.57698016874958,36.0757452879992,0
161.75584196680245,0.0468350185878742,56.57698016874958,36.0757452879992,0
161.75584196680245,0.0468350185878742,56.57698016874958,36.0757452879992,0
161.75584196680245,0.0468350185878742,56.57698016874958,36.0757452879992,0
161.75584196680245,0.0468350185878742,56.57698016874958,36.0757452879992,0
161.75584196680245,0.0468350185878742,56.57698016874958,36.0757452879992,0
161.75584196680245,0.0468350185878742,56.57698016874958,36.0757452879992,0
161.75584196680245,0.0468350185878742,56.57698016874958,36.0757452879992,0
161.75584196680245,0.0468350185878742,56.57698016874958,36.0757452879992,0
161.75584196680245,0.0468350185878742,56.57698016874958,36.0757452879992,0
161.75584196680245,0.0468350185878742,56.57698016874958,36.0757452879992,0
161.75584196680245,0.0468350185878742,56.57698016874958,36.0757452879992,0
161.75584196680245,0.0468350185878742,56.57698016874958,36.0757452879992,0
161.75584196680245,0.0468350185878742,56.57698016874958,36.0757452879992,0
161.75584196680245,0.0468350185878742,56.57698016874958,36.0757452879992,0
161.75584196680245,0.0468350185878742,56.57698016874958,36.0757452879992,0
161.75584196680245,0.0468350185878742,56.57698016874958,36.0757452879992,0
161.75584196680245,0.0468350185878742,56.57698016874958,36.0757452879992,0
161.75584196680245,0.0468350185878742,56.57698016874958,36.0757452879992,0
161.75584196680245,0.0468350185878742,56.57698016874958,36.0757452879992,0
161.75584196680245,0.0468350185878742,56.57698016874958,36.0757452879992,0
161.75584196680245,0.0468350185878742,56.57698016874958,36.0757452879992,0
161.75584196680245,0.0468350185878742,56.57698016874958,36.0757452879992,0
161.75584196680245,0.0468350185878742,56.57698016874958,36.0757452879992,0
161.75584196680245,0.0468350185878742,56.57698016874958,36.0757452879992,0
161.75584196680245,0.0468350185878742,56.57698016874958,36.0757452879992,0
161.75584196680245,0.0468350185878742,56.57698016874958,36.0757452879992,0
161.75584196680245,0.0468350185878742,56.57698016874958,36.0757452879992,0
161.75584196680245,0.0468350185878742,56.57698016874958,36.0757452879992,0
161.75584196680245,0.0468350185878742,56.57698016874958,36.0757452879992,0
161.75584196680245,0.0468350185878742,56.57698016874958,36.0757452879992,0
161.75584196680245,0.0468350185878742,56.57698016874958,36.0757452879992,0
161.75584196680245,0.0468350185878742,56.57698016874958,36.0757452879992,0
161.75584196680245,0.0468350185878742,56.57698016874958,36.0757452879992,0
161.75584196680245,0.0468350185878742,56.57698016874958,36.0757452879992,0
161.75584196680245,0.0468350185878742,56.57698016874958,36.0757452879992,0
161.75584196680245,0.0468350185878742,56.57698016874958,36.0757452879992,0
161.75584196680245,0.0468350185878742,56.57698016874958,36.0757452879992,0
161.75584196680245,0.0468350185878742,56.57698016874958,36.0757452879992,0
161.75584196680245,0.0468350185878742,56.57698016874958,36.0757452879992,0
161.75584196680245,0.0468350185878742,56.57698016874958,36.0757452879992,0
161.75584196680245,0.0468350185878742,56.57698016874958,36.0757452879992,0
161.75584196680245,0.0468350185878742,56.57698016874958,36.0757452879992,0
161.75584196680245,0.0468350185878742,56.57698016874958,36.0757452879992,0
161.75584196680245,0.0468350185878742,56.57698016874958,36.0757452879992,0
161.75584196680245,0.0468350185878742,56.57698016874958,36.0757452879992,0
161.75584196680245,0.0468350185878742,56.57698016874958,36.0757452879992,0
161.75584196680245,0.0468350185878742,56.57698016874958,36.0757452879992,0
161.75584196680245,0.0468350185878742,56.57698016874958,36.0757452879992,0
161.75584196680245,0.0468350185878742,56.57698016874958,36.0757452879992,0
161.75584196680245,0.0468350185878742,56.57698016874958,36.0757452879992,0
161.75584196680245,0.0468350185878742,56.57698016874958,36.0757452879992,0
161.75584196680245,0.0468350185878742,56.57698016874958,36.0757452879992,0
161.75584196680245,0.0468350185878742,56.57698016874958,36.0757452879992,0
161.75584196680245,0.0468350185878742,56.57698016874958,36.0757452879992,0
161.75584196680245,0.0468350185878742,56.57698016874958,36.0757452879992,0
161.75584196680245,0.0468350185878742,56.57698016874958,36.0757452879992,0
161.75584196680245,0.0468350185878742,56.57698016874958,36.0757452879992,0
161.75584196680245,0.0468350185878742,56.57698016874958,36.0757452879992,0
161.75584196680245,0.0468350185878742,56.57698016874958,36.0757452879992,0
161.75584196680245,0.0468350185878742,56.57698016874958,36.0757452879992,0
161.75584196680245,0.0468350185878742,56.57698016874958,36.0757452879992,0
161.75584196680245,0.0468350185878742,56.57698016874958,36.0757452879992,0
161.75584196680245,0.0468350185878742,56.57698016874958,36.0757452879992,0
161.75584196680245,0.0468350185878742,56.57698016874958,36.0757452879992,0
161.75584196680245,0.0468350185878742,56.57698016874958,36.0757452879992,0
161.75584196680245,0.0468350185878742,56.57698016874958,36.0757452879992,0
161.75584196680245,0.0468350185878742,56.57698016874958,36.0757452879992,0
161.75584196680245,0.0468350185878742,56.57698016874958,36.0757452879992,0
161.75584196680245,0.0468350185878742,56.57698016874958,36.0757452879992,0
161.75584196680245,0.0468350185878742,56.57698016874958,36.0757452879992,0
161.75584196680245,0.0468350185878742,56.57698016874958,36.0757452879992,0
161.75584196680245,0.0468350185878742,56.57698016874958,36.0757452879992,0
161.75584196680245,0.0468350185878742,56.57698016874958,36.0757452879992,0
161.75584196680245,0.0468350185878742,56.57698016874958,36.0757452879992,0
161.75584196680245,0.0468350185878742,56.57698016874958,36.0757452879992,0
161.75584196680245,0.0468350185878742,56.57698016874958,36.0757452879992,0
161.75584196680245,0.0468350185878742,56.57698016874958,36.0757452879992,0
161.75584196680245,0.0468350185878742,56.57698016874958,36.0757452879992,0
161.75584196680245,0.0468350185878742,56.57698016874958,36.0757452879992,0
161.75584196680245,0.0468350185878742,56.57698016874958,36.0757452879992,0
161.75584196680245,0.0468350185878742,56.57698016874958,36.0757452879992,0
161.75584196680245,0.0468350185878742,56.57698016874958,36.0757452879992,0
161.75584196680245,0.0468350185878742,56.57698016874958,36.0757452879992,0
161.75584196680245,0.0468350185878742,56.57698016874958,36.0757452879992,0
161.75584196680245,0.0468350185878742,56.57698016874958,36.0757452879992,0
161.75584196680245,0.0468350185878742,56.57698016874958,36.0757452879992,0
161.75584196680245,0.0468350185878742,56.57698016874958,36.0757452879992,0
161.75584196680245,0.0468350185878742,56.57698016874958,36.0757452879992,0
161.75584196680245,0.0468350185878742,56.57698016874958,36.0757452879992,0
161.75584196680245,0.0468350185878742,56.57698016874958,36.0757452879992,0
161.75584196680245,0.0468350185878742,56.57698016874958,36.0757452879992,0
161.75584196680245,0.0468350185878742,56.57698016874958,36.0757452879992,0
161.75584196680245,0.0468350185878742,56.57698016874958,36.0757452879992,0
161.75584196680245,0.0468350185878742,56.57698016874958,36.0757452879992,0
161.75584196680245,0.0468350185878742,56.57698016874958,36.0757452879992,0
161.75584196680245,0.0468350185878742,56.57698016874958,36.0757452879992,0
161.75584196680245,0.0468350185878742,56.57698016874958,36.0757452879992,0
161.75584196680245,0.0468350185878742,56.57698016874958,36.0757452879992,0
161.75584196680245,0.0468350185878742,56.57698016874958,36.0757452879992,0
161.75584196680245,0.0468350185878742,56.57698016874958,36.0757452879992,0
161.75584196680245,0.0468350185878742,56.57698016874958,36.0757452879992,0
161.75584196680245,0.0468350185878742,56.57698016874958,36.0757452879992,0
161.75584196680245,0.0468350185878742,56.57698016874958,36.0757452879992,0
161.75584196680245,0.0468350185878742,56.57698016874958,36.0757452879992,0
161.75584196680245,0.0468350185878742,56.57698016874958,36.0757452879992,0
161.75584196680245,0.0468350185878742,56.57698016874958,36.0757452879992,0
161.75584196680245,0.0468350185878742,56.57698016874958,36.0757452879992,0
161.75584196680245,0.0468350185878742,56.57698016874958,36.0757452879992,0
161.75584196680245,0.0468350185878742,56.57698016874958,36.0757452879992,0
161.75584196680245,0.0468350185878742,56.57698016874958,36.0757452879992,0
161.75584196680245,0.0468350185878742,56.57698016874958,36.0757452879992,0
161.75584196680245,0.0468350185878742,56.57698016874958,36.0757452879992,0
161.75584196680245,0.0468350185878742,56.57698016874958,36.0757452879992,0
161.75584196680245,0.0468350185878742,56.57698016874958,36.0757452879992,0
161.75584196680245,0.0468350185878742,56.57698016874958,36.0757452879992,0
161.75584196680245,0.0468350185878742,56.57698016874958,36.0757452879992,0
161.75584196680245,0.0468350185878742,56.57698016874958,36.0757452879992,0
161.75584196680245,0.0468350185878742,56.57698016874958,36.0757452879992,0
161.75584196680245,0.0468350185878742,56.57698016874958,36.0757452879992,0
161.75584196680245,0.0468350185878742,56.57698016874958,36.0757452879992,0
161.75584196680245,0.0468350185878742,56.57698016874958,36.0757452879992,0
161.75584196680245,0.0468350185878742,56.57698016874958,36.0757452879992,0
161.75584196680245,0.0468350185878742,56.57698016874958,36.0757452879992,0
161.75584196680245,0.0468350185878742,56.57698016874958,36.0757452879992,0
161.75584196680245,0.0468350185878742,56.57698016874958,36.0757452879992,0
161.75584196680245,0.0468350185878742,56.57698016874958,36.0757452879992,0
161.75584196680245,0.0468350185878742,56.57698016874958,36.0757452879992,0
161.75584196680245,0.0468350185878742,56.57698016874958,36.0757452879992,0
161.75584196680245,0.0468350185878742,56.57698016874958,36.0757452879992,0
161.75584196680245,0.0468350185878742,56.57698016874958,36.0757452879992,0
161.75584196680245,0.0468350185878742,56.57698016874958,36.0757452879992,0
161.75584196680245,0.0468350185878742,56.57698016874958,36.0757452879992,0
161.75584196680245,0.0468350185878742,56.57698016874958,36.0757452879992,0
161.75584196680245,0.0468350185878742,56.57698016874958,36.0757452879992,0
161.75584196680245,0.0468350185878742,56.57698016874958,36.0757452879992,0
161.75584196680245,0.0468350185878742,56.57698016874958,36.0757452879992,0
161.75584196680245,0.0468350185878742,56.57698016874958,36.0757452879992,0
161.75584196680245,0.0468350185878742,56.57698016874958,36.0757452879992,0
161.75584196680245,0.0468350185878742,56.57698016874958,36.0757452879992,0
161.75584196680245,0.0468350185878742,56.57698016874958,36.0757452879992,0
161.75584196680245,0.0468350185878742,56.57698016874958,36.0757452879992,0
161.75584196680245,0.0468350185878742,56.57698016874958,36.0757452879992,0
161.75584196680245,0.0468350185878742,56.57698016874958,36.0757452879992,0
161.75584196680245,0.0468350185878742,56.57698016874958,36.0757452879992,0
161.75584196680245,0.0468350185878742,56.57698016874958,36.0757452879992,0
161.75584196680245,0.0468350185878742,56.57698016874958,36.0757452879992,0
161.75584196680245,0.0468350185878742,56.57698016874958,36.0757452879992,0
161.75584196680245,0.0468350185878742,56.57698016874958,36.0757452879992,0
161.75584196680245,0.0468350185878742,56.57698016874958,36.0757452879992,0
161.75584196680245,0.0468350185878742,56.57698016874958,36.0757452879992,0
161.75584196680245,0.0468350185878742,56.57698016874958,36.0757452879992,0
161.75584196680245,0.0468350185878742,56.57698016874958,36.0757452879992,0
161.75584196680245,0.0468350185878742,56.57698016874958,36.0757452879992,0
161.75584196680245,0.0468350185878742,56.57698016874958,36.0757452879992,0
161.75584196680245,0.0468350185878742,56.57698016874958,36.0757452879992,0
161.75584196680245,0.0468350185878742,56.57698016874958,36.0757452879992,0
161.75584196680245,0.0468350185878742,56.57698016874958,36.0757452879992,0
161.75584196680245,0.0468350185878742,56.57698016874958,36.0757452879992,0
161.75584196680245,0.0468350185878742,56.57698016874958,36.0757452879992,0
161.75584196680245,0.0468350185878742,56.57698016874958,36.0757452879992,0
161.75584196680245,0.0468350185878742,56.57698016874958,36.0757452879992,0
161.75584196680245,0.0468350185878742,56.57698016874958,36.0757452879992,0
161.75584196680245,0.0468350185878742,56.57698016874958,36.0757452879992,0
161.75584196680245,0.0468350185878742,56.57698016874958,36.0757452879992,0
161.75584196680245,0.0468350185878742,56.57698016874958,36.0757452879992,0
161.75584196680245,0.0468350185878742,56.57698016874958,36.0757452879992,0
161.75584196680245,0.0468350185878742,56.57698016874958,36.0757452879992,0
161.75584196680245,0.0468350185878742,56.57698016874958,36.0757452879992,0
161.75584196680245,0.0468350185878742,56.57698016874958,36.0757452879992,0
161.75584196680245,0.0468350185878742,56.57698016874958,36.0757452879992,0
161.75584196680245,0.0468350185878742,56.57698016874958,36.0757452879992,0
161.75584196680245,0.0468350185878742,56.57698016874958,36.0757452879992,0
161.75584196680245,0.0468350185878742,56.57698016874958,36.0757452879992,0
161.75584196680245,0.0468350185878742,56.57698016874958,36.0757452879992,0
161.75584196680245,0.0468350185878742,56.57698016874958,36.0757452879992,0
161.75584196680245,0.0468350185878742,56.57698016874958,36.0757452879992,0
161.75584196680245,0.0468350185878742,56.57698016874958,36.0757452879992,0
161.75584196680245,0.0468350185878742,56.57698016874958,36.0757452879992,0
161.75584196680245,0.0468350185878742,56.57698016874958,36.0757452879992,0
161.75584196680245,0.0468350185878742,56.57698016874958,36.0757452879992,0
161.75584196680245,0.0468350185878742,56.57698016874958,36.0757452879992,0
161.75584196680245,0.0468350185878742,56.57698016874958,36.0757452879992,0
161.75584196680245,0.0468350185878742,56.57698016874958,36.0757452879992,0
161.75584196680245,0.0468350185878742,56.57698016874958,36.0757452879992,0
161.75584196680245,0.0468350185878742,56.57698016874958,36.0757452879992,0
161.75584196680245,0.0468350185878742,56.57698016874958,36.0757452879992,0
161.75584196680245,0.0468350185878742,56.57698016874958,36.0757452879992,0
161.75584196680245,0.0468350185878742,56.57698016874958,36.0757452879992,0
161.75584196680245,0.0468350185878742,56.57698016874958,36.0757452879992,0
161.75584196680245,0.0468350185878742,56.57698016874958,36.0757452879992,0
161.75584196680245,0.0468350185878742,56.57698016874958,36.0757452879992,0
161.75584196680245,0.0468350185878742,56.57698016874958,36.0757452879992,0
161.75584196680245,0.0468350185878742,56.57698016874958,36.0757452879992,0
161.75584196680245,0.0468350185878742,56.57698016874958,36.0757452879992,0
161.75584196680245,0.0468350185878742,56.57698016874958,36.0757452879992,0
161.75584196680245,0.0468350185878742,56.57698016874958,36.0757452879992,0
161.75584196680245,0.0468350185878742,56.57698016874958,36.0757452879992,0
161.75584196680245,0.0468350185878742,56.57698016874958,36.0757452879992,0
161.75584196680245,0.0468350185878742,56.57698016874958,36.0757452879992,0
161.75584196680245,0.0468350185878742,56.57698016874958,36.0757452879992,0
161.75584196680245,0.0468350185878742,56.57698016874958,36.0757452879992,0
161.75584196680245,0.0468350185878742,56.57698016874958,36.0757452879992,0
161.75584196680245,0.0468350185878742,56.57698016874958,36.0757452879992,0
161.75584196680245,0.0468350185878742,56.57698016874958,36.0757452879992,0
161.75584196680245,0.0468350185878742,56.57698016874958,36.0757452879992,0
161.75584196680245,0.0468350185878742,56.57698016874958,36.0757452879992,0
161.75584196680245,0.0468350185878742,56.57698016874958,36.0757452879992,0
161.75584196680245,0.0468350185878742,56.57698016874958,36.0757452879992,0
161.75584196680245,0.0468350185878742,56.57698016874958,36.0757452879992,0
161.75584196680245,0.0468350185878742,56.57698016874958,36.0757452879992,0
161.75584196680245,0.0468350185878742,56.57698016874958,36.0757452879992,0
161.75584196680245,0.0468350185878742,56.57698016874958,36.0757452879992,0
161.75584196680245,0.0468350185878742,56.57698016874958,36.0757452879992,0
161.75584196680245,0.0468350185878742,56.57698016874958,36.0757452879992,0
161.75584196680245,0.0468350185878742,56.57698016874958,36.0757452879992,0
161.75584196680245,0.0468350185878742,56.57698016874958,36.0757452879992,0
161.75584196680245,0.0468350185878742,56.57698016874958,36.0757452879992,0
161.75584196680245,0.0468350185878742,56.57698016874958,36.0757452879992,0
161.75584196680245,0.0468350185878742,56.57698016874958,36.0757452879992,0
161.75584196680245,0.0468350185878742,56.57698016874958,36.0757452879992,0
161.75584196680245,0.0468350185878742,56.57698016874958,36.0757452879992,0
161.75584196680245,0.0468350185878742,56.57698016874958,36.0757452879992,0
161.75584196680245,0.0468350185878742,56.57698016874958,36.0757452879992,0
161.75584196680245,0.0468350185878742,56.57698016874958,36.0757452879992,0
161.75584196680245,0.0468350185878742,56.57698016874958,36.0757452879992,0
161.75584196680245,0.0468350185878742,56.57698016874958,36.0757452879992,0
161.75584196680245,0.0468350185878742,56.57698016874958,36.0757452879992,0
161.75584196680245,0.0468350185878742,56.57698016874958,36.0757452879992,0
161.75584196680245,0.0468350185878742,56.57698016874958,36.0757452879992,0
161.75584196680245,0.0468350185878742,56.57698016874958,36.0757452879992,0
161.75584196680245,0.0468350185878742,56.57698016874958,36.0757452879992,0
161.75584196680245,0.0468350185878742,56.57698016874958,36.0757452879992,0