worst,best,mean,median,limit
60.32195878368378,4.664789560546936,30.17614683055201,32.46139451856719,0.87
60.32195878368378,3.5471346331283176,24.178681105061806,23.182461730789576,0.87
48.199330838017175,3.5471346331283176,21.044161575899384,21.489938407138162,0.87
42.11335307098198,3.5471346331283176,20.04046748480297,21.359710074213247,0.87
36.18763928051193,2.4399987591195202,17.82908090179728,11.203111650730545,0.87
36.18763928051193,2.4399987591195202,16.89312263685304,19.842408445410896,0.87
36.18763928051193,2.4399987591195202,15.534735953659384,19.842408445410896,0.87
34.815768682306924,2.4399987591195202,14.365469126857775,11.203111650730545,0.87
34.815768682306924,1.1243378033867444,13.258722715149059,19.333210313092096,0.87
25.600311602566133,1.1243378033867444,12.675757327307815,19.223540031247545,0.87
24.888477838588834,1.1243378033867444,11.847537689762802,18.83544736625683,0.87
24.888477838588834,1.1243378033867444,11.345953704242323,11.050849741475751,0.87
23.477442097631737,1.1243378033867444,11.183195946045018,2.436495657966163,0.87
23.477442097631737,1.1243378033867444,10.717005602991073,21.78387819984536,0.87
23.477442097631737,1.1243378033867444,10.341768090283354,22.06780109238042,0.87
23.477442097631737,1.1243378033867444,9.58048287883747,3.1433817436461053,0.87
21.391852732692502,0.2751039172759935,9.339380560591206,3.1433817436461053,0.87
21.391852732692502,0.2751039172759935,9.140038856196618,3.5628253078235694,0.87
21.391852732692502,0.2751039172759935,9.033382333459345,3.5628253078235694,0.87
20.597005203828857,0.2751039172759935,8.890344312447404,3.760828431880973,0.87
20.597005203828857,0.2751039172759935,8.643022025700237,3.980064895879944,0.87
20.597005203828857,0.2751039172759935,8.609410133758372,3.980064895879944,0.87
20.597005203828857,0.2751039172759935,8.45560798295464,3.821832016739513,0.87
20.597005203828857,0.2751039172759935,8.416733624131346,3.821832016739513,0.87
20.597005203828857,0.2751039172759935,8.282314623563115,3.980064895879944,0.87
20.597005203828857,0.2751039172759935,7.9744922920537,4.1829742548835025,0.87
20.597005203828857,0.2751039172759935,7.77050311363476,4.1829742548835025,0.87
20.597005203828857,0.2751039172759935,7.723407728232803,4.1829742548835025,0.87
20.597005203828857,0.2751039172759935,7.659988625570947,4.1829742548835025,0.87
20.597005203828857,0.2751039172759935,7.3853827079451015,4.239451833533753,0.87
20.597005203828857,0.2751039172759935,7.295748801638212,4.311906463545961,0.87
20.597005203828857,0.2751039172759935,7.226198766533315,4.372147145992123,0.87
20.597005203828857,0.2751039172759935,7.186009332453377,4.372147145992123,0.87
20.597005203828857,0.2751039172759935,6.928536186665971,4.4612397787002624,0.87
20.597005203828857,0.2751039172759935,6.831048391820096,4.487920941267146,0.87
20.597005203828857,0.2751039172759935,6.750848103647237,4.5344813362079375,0.87
20.597005203828857,0.2751039172759935,6.703809289528887,4.487920941267146,0.87
20.597005203828857,0.2751039172759935,6.546453129701077,4.487920941267146,0.87
20.597005203828857,0.2751039172759935,6.363831993735022,4.408620111718736,0.87
20.597005203828857,0.2751039172759935,6.265209343865442,4.4612397787002624,0.87
20.597005203828857,0.2751039172759935,6.265209343865442,4.4612397787002624,0.87
19.255353916455455,0.2751039172759935,6.166908393108132,4.4612397787002624,0.87
19.255353916455455,0.2751039172759935,6.145237488588455,4.487920941267146,0.87
19.255353916455455,0.2751039172759935,6.1419803004169875,4.487920941267146,0.87
18.853127307426597,0.2751039172759935,6.108376778782259,4.5344813362079375,0.87
18.853127307426597,0.2751039172759935,6.07582430525296,4.620708798207902,0.87
18.853127307426597,0.2751039172759935,6.021912397857291,4.800256715200061,0.87
18.853127307426597,0.2751039172759935,5.963011523975626,4.620708798207902,0.87
18.853127307426597,0.2751039172759935,5.937544070503087,4.574689867420316,0.87
18.33935848664116,0.2751039172759935,5.921530711685524,4.574689867420316,0.87
18.33935848664116,0.2751039172759935,5.82508624262033,4.487920941267146,0.87
18.33935848664116,0.2751039172759935,5.70876702309947,4.487920941267146,0.87
18.33935848664116,0.2751039172759935,5.615851148450472,4.4612397787002624,0.87
18.33935848664116,0.2751039172759935,5.6088971470354485,4.4612397787002624,0.87
18.33935848664116,0.2751039172759935,5.572880064572048,4.4612397787002624,0.87
18.33935848664116,0.2751039172759935,5.52404449137577,4.437593922397862,0.87
18.33935848664116,0.2751039172759935,5.494040747114841,4.437593922397862,0.87
18.33935848664116,0.2751039172759935,5.43745125864233,4.408620111718736,0.87
18.33935848664116,0.2751039172759935,5.3247243461682885,4.365054763747893,0.87
18.33935848664116,0.2751039172759935,5.3247243461682885,4.365054763747893,0.87
18.33935848664116,0.2751039172759935,5.316082900950038,4.365054763747893,0.87
18.33935848664116,0.2751039172759935,5.316082900950038,4.365054763747893,0.87
18.33935848664116,0.2751039172759935,5.316082900950038,4.365054763747893,0.87
18.33935848664116,0.2751039172759935,5.316082900950038,4.365054763747893,0.87
18.33935848664116,0.2751039172759935,5.2536838807985715,4.290814971917051,0.87
18.33935848664116,0.2751039172759935,5.1923479296673225,4.365054763747893,0.87
18.33935848664116,0.2751039172759935,5.160098247810071,4.365054763747893,0.87
18.33935848664116,0.2751039172759935,5.121000324924108,4.290814971917051,0.87
18.33935848664116,0.2751039172759935,5.118989545276513,4.290814971917051,0.87
11.533657997439908,0.2751039172759935,5.016628268703475,4.365054763747893,0.87
11.533657997439908,0.2751039172759935,4.962837321107118,4.290814971917051,0.87
11.533657997439908,0.2751039172759935,4.904455923172781,4.092075523071131,0.87
11.533657997439908,0.2751039172759935,4.795443529797476,4.060452402362661,0.87
11.533657997439908,0.2587115596046665,4.633977990042607,4.029573926852083,0.87
11.533657997439908,0.2587115596046665,4.611025896674308,3.9138371948413564,0.87
11.533657997439908,0.2587115596046665,4.578250874974731,3.69882997368329,0.87
10.32397403809794,0.2587115596046665,4.516101519859527,3.9138371948413564,0.87
10.32397403809794,0.2587115596046665,4.45936112750494,3.69882997368329,0.87
10.32397403809794,0.2587115596046665,4.302462655534027,3.6311399893954754,0.87
10.32397403809794,0.2587115596046665,4.290845084101062,3.6311399893954754,0.87
10.308822077667086,0.2587115596046665,4.262353325584073,3.556138908394295,0.87
10.308822077667086,0.2587115596046665,4.256269758703627,3.5194775050878784,0.87
10.308822077667086,0.2587115596046665,4.210765074920948,3.5194775050878784,0.87
10.308822077667086,0.2587115596046665,4.210765074920948,3.5194775050878784,0.87
10.308822077667086,0.2587115596046665,4.142207356854981,3.4811047752703512,0.87
10.308822077667086,0.2587115596046665,4.142207356854981,3.4811047752703512,0.87
10.308822077667086,0.2587115596046665,4.132325785644913,3.4811047752703512,0.87
10.308822077667086,0.2587115596046665,4.075008096963369,3.4654670902446636,0.87
10.308822077667086,0.2587115596046665,4.057937752327556,3.4654670902446636,0.87
10.308822077667086,0.2587115596046665,4.039203271609828,3.4654670902446636,0.87
10.308822077667086,0.2587115596046665,3.998670149191957,3.4592503386161235,0.87
10.308822077667086,0.085731974625185,3.917711100503684,3.4521934727267993,0.87
10.308822077667086,0.085731974625185,3.8565517141383903,3.42514789419228,0.87
10.308822077667086,0.085731974625185,3.8565517141383903,3.42514789419228,0.87
10.308822077667086,0.085731974625185,3.8020263542015447,3.395979953321774,0.87
10.308822077667086,0.085731974625185,3.7843943972088026,3.376782825494403,0.87
10.308822077667086,0.085731974625185,3.750373149090697,3.34235110852344,0.87
10.308822077667086,0.085731974625185,3.750373149090697,3.34235110852344,0.87
10.308822077667086,0.085731974625185,3.718691176192751,3.2919505407555487,0.87
10.308822077667086,0.085731974625185,3.6680588167171453,3.258733143674375,0.87
10.308822077667086,0.085731974625185,3.6391935099922676,3.223231316633098,0.87
10.308822077667086,0.085731974625185,3.6314916956304533,3.223231316633098,0.87
10.308822077667086,0.085731974625185,3.6314916956304533,3.223231316633098,0.87
10.308822077667086,0.085731974625185,3.6314916956304533,3.223231316633098,0.87
10.308822077667086,0.085731974625185,3.6252174383743183,3.223231316633098,0.87
10.308822077667086,0.085731974625185,3.6237417259016924,3.223231316633098,0.87
10.308822077667086,0.085731974625185,3.6237417259016924,3.223231316633098,0.87
10.308822077667086,0.085731974625185,3.5805628429957337,3.0974387271640653,0.87
10.308822077667086,0.085731974625185,3.5805628429957337,3.0974387271640653,0.87
9.810775180136911,0.085731974625185,3.5547779881618156,3.1832242784533036,0.87
9.810775180136911,0.085731974625185,3.526083674300723,2.99088062496047,0.87
9.810775180136911,0.085731974625185,3.4471724440193316,2.9265542388420975,0.87
9.810775180136911,0.085731974625185,3.4173317474069496,2.873956507006519,0.87
9.810775180136911,0.085731974625185,3.4036435280550617,2.873956507006519,0.87
9.810775180136911,0.085731974625185,3.387938586522428,2.8278305284441396,0.87
9.810775180136911,0.085731974625185,3.387938586522428,2.8278305284441396,0.87
9.810775180136911,0.085731974625185,3.387938586522428,2.8278305284441396,0.87
9.810775180136911,0.085731974625185,3.3669236010018797,2.8050433026762907,0.87
9.810775180136911,0.085731974625185,3.359803882374706,2.8050433026762907,0.87
9.810775180136911,0.085731974625185,3.359803882374706,2.8050433026762907,0.87
9.810775180136911,0.085731974625185,3.359803882374706,2.8050433026762907,0.87
9.810775180136911,0.085731974625185,3.3430473489654213,2.7835721389339216,0.87
9.810775180136911,0.085731974625185,3.3255171701488395,2.7835721389339216,0.87
9.810775180136911,0.085731974625185,3.3109391102836128,2.7835721389339216,0.87
9.810775180136911,0.085731974625185,3.3109391102836128,2.7835721389339216,0.87
9.810775180136911,0.085731974625185,3.305976221755227,2.7835721389339216,0.87
9.810775180136911,0.085731974625185,3.299658719703666,2.7835721389339216,0.87
9.810775180136911,0.085731974625185,3.2953140412833606,2.7835721389339216,0.87
9.810775180136911,0.085731974625185,3.2929462394162514,2.7835721389339216,0.87
9.810775180136911,0.085731974625185,3.2929462394162514,2.7835721389339216,0.87
9.810775180136911,0.085731974625185,3.27643620457892,2.7835721389339216,0.87
9.810775180136911,0.085731974625185,3.27643620457892,2.7835721389339216,0.87
9.810775180136911,0.085731974625185,3.27643620457892,2.7835721389339216,0.87
9.810775180136911,0.085731974625185,3.274045132220063,2.7835721389339216,0.87
9.810775180136911,0.085731974625185,3.2677643168898287,2.7835721389339216,0.87
9.810775180136911,0.085731974625185,3.2582680795357715,2.733833450155055,0.87
9.810775180136911,0.085731974625185,3.25679334732213,2.733833450155055,0.87
9.810775180136911,0.085731974625185,3.2566315239279415,2.733833450155055,0.87
9.810775180136911,0.085731974625185,3.2496311556092934,2.733833450155055,0.87
9.810775180136911,0.085731974625185,3.2496311556092934,2.733833450155055,0.87
9.810775180136911,0.085731974625185,3.2496311556092934,2.733833450155055,0.87
8.262138919277222,0.085731974625185,3.181327492122183,2.733833450155055,0.87
8.262138919277222,0.085731974625185,3.181327492122183,2.733833450155055,0.87
8.262138919277222,0.085731974625185,3.1454053711861114,2.705360541846251,0.87
8.262138919277222,0.085731974625185,3.1454053711861114,2.705360541846251,0.87
8.262138919277222,0.085731974625185,3.1370607100276193,2.691347755981453,0.87
8.262138919277222,0.085731974625185,3.136672252986344,2.691347755981453,0.87
8.262138919277222,0.085731974625185,3.136672252986344,2.691347755981453,0.87
8.262138919277222,0.085731974625185,3.115186375931356,2.691347755981453,0.87
8.262138919277222,0.085731974625185,3.115186375931356,2.691347755981453,0.87
8.262138919277222,0.085731974625185,3.115186375931356,2.691347755981453,0.87
8.262138919277222,0.085731974625185,3.115186375931356,2.691347755981453,0.87
8.262138919277222,0.085731974625185,3.115186375931356,2.691347755981453,0.87
8.262138919277222,0.085731974625185,3.077288707133078,2.660032945801917,0.87
8.262138919277222,0.085731974625185,3.0613128760227584,2.660032945801917,0.87
8.262138919277222,0.0648312638590145,3.0183217423067834,2.623884726160422,0.87
8.262138919277222,0.0648312638590145,2.9832811943076547,2.6090942070594254,0.87
8.262138919277222,0.0648312638590145,2.979802921719374,2.6090942070594254,0.87
8.262138919277222,0.0648312638590145,2.9651819025359107,2.583973867142534,0.87
8.262138919277222,0.0648312638590145,2.9576149294509078,2.5552870076166014,0.87
8.262138919277222,0.0648312638590145,2.9576149294509078,2.5552870076166014,0.87
8.262138919277222,0.0648312638590145,2.9576149294509078,2.5552870076166014,0.87
8.262138919277222,0.0648312638590145,2.95117111909744,2.540302617177928,0.87
8.262138919277222,0.0648312638590145,2.9314376952171255,2.5258847898753247,0.87
8.262138919277222,0.0648312638590145,2.9314376952171255,2.5258847898753247,0.87
8.262138919277222,0.0648312638590145,2.9224643264471637,2.5258847898753247,0.87
8.262138919277222,0.0648312638590145,2.9224643264471637,2.5258847898753247,0.87
8.262138919277222,0.0648312638590145,2.902677688453831,2.5258847898753247,0.87
8.262138919277222,0.0648312638590145,2.902677688453831,2.5258847898753247,0.87
8.262138919277222,0.0648312638590145,2.902677688453831,2.5258847898753247,0.87
8.262138919277222,0.0648312638590145,2.901547645409142,2.5258847898753247,0.87
8.262138919277222,0.0648312638590145,2.901547645409142,2.5258847898753247,0.87
8.262138919277222,0.0648312638590145,2.8736509541611923,2.5258847898753247,0.87
8.262138919277222,0.0648312638590145,2.8736509541611923,2.5258847898753247,0.87
8.262138919277222,0.0648312638590145,2.850195798893038,2.5258847898753247,0.87
8.262138919277222,0.0648312638590145,2.842830508202115,2.5258847898753247,0.87
8.262138919277222,0.0648312638590145,2.842830508202115,2.5258847898753247,0.87
8.262138919277222,0.0648312638590145,2.839923351863251,2.5258847898753247,0.87
8.262138919277222,0.0648312638590145,2.830404605289149,2.5258847898753247,0.87
8.262138919277222,0.0648312638590145,2.830404605289149,2.5258847898753247,0.87
8.262138919277222,0.0648312638590145,2.8103340457960506,2.5258847898753247,0.87
8.262138919277222,0.0648312638590145,2.8103340457960506,2.5258847898753247,0.87
8.262138919277222,0.0648312638590145,2.8103340457960506,2.5258847898753247,0.87
8.262138919277222,0.0648312638590145,2.8103340457960506,2.5258847898753247,0.87
8.262138919277222,0.0648312638590145,2.808785442189149,2.5258847898753247,0.87
8.262138919277222,0.0648312638590145,2.808785442189149,2.5258847898753247,0.87
8.262138919277222,0.0648312638590145,2.808785442189149,2.5258847898753247,0.87
8.262138919277222,0.0648312638590145,2.808785442189149,2.5258847898753247,0.87
8.262138919277222,0.0648312638590145,2.808785442189149,2.5258847898753247,0.87
8.262138919277222,0.0648312638590145,2.808785442189149,2.5258847898753247,0.87
7.48694880754617,0.0648312638590145,2.7770316381277014,2.5258847898753247,0.87
7.48694880754617,0.0648312638590145,2.7428821410414086,2.5258847898753247,0.87
7.48694880754617,0.0032180586026111513,2.65427537143988,2.430064587416238,0.87
7.48694880754617,0.0032180586026111513,2.65427537143988,2.430064587416238,0.87
7.48694880754617,0.0032180586026111513,2.65427537143988,2.430064587416238,0.87
7.48694880754617,0.0032180586026111513,2.65427537143988,2.430064587416238,0.87
7.48694880754617,0.0032180586026111513,2.65427537143988,2.430064587416238,0.87
7.48694880754617,0.0032180586026111513,2.65427537143988,2.430064587416238,0.87
7.48694880754617,0.0032180586026111513,2.65427537143988,2.430064587416238,0.87
7.48694880754617,0.0032180586026111513,2.65427537143988,2.430064587416238,0.87
7.48694880754617,0.0032180586026111513,2.645023762843456,2.3808843110011395,0.87
7.48694880754617,0.0032180586026111513,2.622294703258027,2.3808843110011395,0.87
7.48694880754617,0.0032180586026111513,2.622294703258027,2.3808843110011395,0.87
7.48694880754617,0.0032180586026111513,2.622294703258027,2.3808843110011395,0.87
7.48694880754617,0.0032180586026111513,2.5823310965408877,2.292592415979742,0.87
7.48694880754617,0.0032180586026111513,2.5823310965408877,2.292592415979742,0.87
7.48694880754617,0.0032180586026111513,2.5823310965408877,2.292592415979742,0.87
7.48694880754617,0.0032180586026111513,2.5823310965408877,2.292592415979742,0.87
7.48694880754617,0.0032180586026111513,2.5823310965408877,2.292592415979742,0.87
7.48694880754617,0.0032180586026111513,2.5578579626833986,2.2418938485179245,0.87
7.48694880754617,0.0032180586026111513,2.5578579626833986,2.2418938485179245,0.87
7.48694880754617,0.0032180586026111513,2.5578579626833986,2.2418938485179245,0.87
7.48694880754617,0.0032180586026111513,2.5578579626833986,2.2418938485179245,0.87
7.48694880754617,0.0032180586026111513,2.5553603245290226,2.2418938485179245,0.87
7.48694880754617,0.0032180586026111513,2.5553603245290226,2.2418938485179245,0.87
7.48694880754617,0.0032180586026111513,2.5404302590490424,2.224668952147721,0.87
7.48694880754617,0.0032180586026111513,2.520840037541554,2.209165580843921,0.87
7.48694880754617,0.0032180586026111513,2.51349973593794,2.209165580843921,0.87
7.48694880754617,0.0032180586026111513,2.51349973593794,2.209165580843921,0.87
7.48694880754617,0.0032180586026111513,2.51349973593794,2.209165580843921,0.87
7.48694880754617,0.0032180586026111513,2.49834437424276,2.1955099753304417,0.87
7.48694880754617,0.0032180586026111513,2.481132856130977,2.1955099753304417,0.87
7.48694880754617,0.0032180586026111513,2.481132856130977,2.1955099753304417,0.87
7.48694880754617,0.0032180586026111513,2.478071673357289,2.189230404839865,0.87
7.48694880754617,0.0032180586026111513,2.478071673357289,2.189230404839865,0.87
7.48694880754617,0.0032180586026111513,2.478071673357289,2.189230404839865,0.87
7.48694880754617,0.0032180586026111513,2.478071673357289,2.189230404839865,0.87
7.48694880754617,0.0032180586026111513,2.470128975508599,2.189230404839865,0.87
7.48694880754617,0.0032180586026111513,2.4635335571999577,2.189230404839865,0.87
7.48694880754617,0.0032180586026111513,2.4635335571999577,2.189230404839865,0.87
7.48694880754617,0.0032180586026111513,2.4635335571999577,2.189230404839865,0.87
7.48694880754617,0.0032180586026111513,2.4635335571999577,2.189230404839865,0.87
7.48694880754617,0.0032180586026111513,2.4635335571999577,2.189230404839865,0.87
7.48694880754617,0.0032180586026111513,2.451276063125416,2.189230404839865,0.87
7.48694880754617,0.0032180586026111513,2.436849734766177,2.189230404839865,0.87
7.48694880754617,0.0032180586026111513,2.436849734766177,2.189230404839865,0.87
7.48694880754617,0.0032180586026111513,2.436849734766177,2.189230404839865,0.87
7.48694880754617,0.0032180586026111513,2.436849734766177,2.189230404839865,0.87
7.48694880754617,0.0032180586026111513,2.4306216543888044,2.189230404839865,0.87
7.48694880754617,0.0032180586026111513,2.4306216543888044,2.189230404839865,0.87
7.48694880754617,0.0032180586026111513,2.4075336169018695,2.189230404839865,0.87
7.48694880754617,0.0032180586026111513,2.4075336169018695,2.189230404839865,0.87
7.48694880754617,0.0032180586026111513,2.4075336169018695,2.189230404839865,0.87
7.48694880754617,0.0032180586026111513,2.4075336169018695,2.189230404839865,0.87
7.48694880754617,0.0032180586026111513,2.4055405615088317,2.189230404839865,0.87
7.48694880754617,0.0032180586026111513,2.363173243983994,2.1637555731454006,0.87
7.48694880754617,0.0032180586026111513,2.363173243983994,2.1637555731454006,0.87
7.48694880754617,0.0032180586026111513,2.341662765174988,2.135477813932768,0.87
7.48694880754617,0.0032180586026111513,2.332198163225033,2.135477813932768,0.87
7.48694880754617,0.0032180586026111513,2.332198163225033,2.135477813932768,0.87
7.48694880754617,0.0032180586026111513,2.332198163225033,2.135477813932768,0.87
7.48694880754617,0.0032180586026111513,2.332198163225033,2.135477813932768,0.87
7.48694880754617,0.0032180586026111513,2.332198163225033,2.135477813932768,0.87
7.48694880754617,0.0032180586026111513,2.332198163225033,2.135477813932768,0.87
7.48694880754617,0.0032180586026111513,2.332198163225033,2.135477813932768,0.87
7.48694880754617,0.0032180586026111513,2.319982495454924,2.135477813932768,0.87
7.48694880754617,0.0032180586026111513,2.319982495454924,2.135477813932768,0.87
6.193327103076545,0.0032180586026111513,2.27945971934983,2.135477813932768,0.87
6.193327103076545,0.0032180586026111513,2.275613530629783,2.125145410873487,0.87
6.193327103076545,0.0032180586026111513,2.269364847956668,2.125145410873487,0.87
6.193327103076545,0.0032180586026111513,2.2355142279437934,2.122230244402611,0.87
6.193327103076545,0.0032180586026111513,2.2355142279437934,2.122230244402611,0.87
6.193327103076545,0.0032180586026111513,2.2355142279437934,2.122230244402611,0.87
6.193327103076545,0.0032180586026111513,2.226952491523091,2.122230244402611,0.87
6.193327103076545,0.0032180586026111513,2.226952491523091,2.122230244402611,0.87
6.193327103076545,0.0032180586026111513,2.226952491523091,2.122230244402611,0.87
6.193327103076545,0.0032180586026111513,2.226952491523091,2.122230244402611,0.87
6.193327103076545,0.0032180586026111513,2.226952491523091,2.122230244402611,0.87
6.193327103076545,0.0032180586026111513,2.2214086947413656,2.122230244402611,0.87
6.193327103076545,0.0032180586026111513,2.193590090121093,2.1209941676727437,0.87
6.193327103076545,0.0032180586026111513,2.193590090121093,2.1209941676727437,0.87
6.193327103076545,0.0032180586026111513,2.193590090121093,2.1209941676727437,0.87
6.193327103076545,0.0032180586026111513,2.193590090121093,2.1209941676727437,0.87
6.193327103076545,0.0032180586026111513,2.193590090121093,2.1209941676727437,0.87
6.193327103076545,0.0032180586026111513,2.185685026001753,2.1209941676727437,0.87
6.193327103076545,0.0032180586026111513,2.185685026001753,2.1209941676727437,0.87
6.193327103076545,0.0032180586026111513,2.185685026001753,2.1209941676727437,0.87
6.193327103076545,0.0032180586026111513,2.185685026001753,2.1209941676727437,0.87
6.193327103076545,0.0032180586026111513,2.1820460654260017,2.1209941676727437,0.87
6.193327103076545,0.0032180586026111513,2.168839929642481,2.1132856812555314,0.87
6.193327103076545,0.0032180586026111513,2.168839929642481,2.1132856812555314,0.87
6.193327103076545,0.0032180586026111513,2.1547325056314004,2.0863907758539693,0.87
6.193327103076545,0.0032180586026111513,2.1547325056314004,2.0863907758539693,0.87
6.193327103076545,0.0032180586026111513,2.1547325056314004,2.0863907758539693,0.87
6.193327103076545,0.0032180586026111513,2.1547325056314004,2.0863907758539693,0.87
6.193327103076545,0.0032180586026111513,2.1510525924665758,2.0863907758539693,0.87
6.193327103076545,0.0032180586026111513,2.1510525924665758,2.0863907758539693,0.87
6.193327103076545,0.0032180586026111513,2.148886628091211,2.0863907758539693,0.87
6.193327103076545,0.0032180586026111513,2.148886628091211,2.0863907758539693,0.87
6.193327103076545,0.0032180586026111513,2.148886628091211,2.0863907758539693,0.87
6.193327103076545,0.0032180586026111513,2.148886628091211,2.0863907758539693,0.87
6.193327103076545,0.0032180586026111513,2.148886628091211,2.0863907758539693,0.87
6.193327103076545,0.0032180586026111513,2.146342176815224,2.0863907758539693,0.87
6.193327103076545,0.0032180586026111513,2.146342176815224,2.0863907758539693,0.87
6.193327103076545,0.0032180586026111513,2.146342176815224,2.0863907758539693,0.87
6.193327103076545,0.0032180586026111513,2.13272934370153,2.061871527942505,0.87
6.193327103076545,0.0032180586026111513,2.1087141591497063,2.02838444955092,0.87
6.193327103076545,0.0032180586026111513,2.1087141591497063,2.02838444955092,0.87
6.193327103076545,0.0032180586026111513,2.1087141591497063,2.02838444955092,0.87
6.193327103076545,0.0032180586026111513,2.1087141591497063,2.02838444955092,0.87
6.193327103076545,0.0032180586026111513,2.1087141591497063,2.02838444955092,0.87
6.193327103076545,0.0032180586026111513,2.1087141591497063,2.02838444955092,0.87
6.193327103076545,0.0032180586026111513,2.1006810122880055,2.02838444955092,0.87
6.193327103076545,0.0032180586026111513,2.087394944668299,1.9848717410008785,0.87
6.193327103076545,0.0032180586026111513,2.087394944668299,1.9848717410008785,0.87
6.193327103076545,0.0032180586026111513,2.058315914281901,1.9848717410008785,0.87
6.193327103076545,0.0032180586026111513,2.0580245039787752,1.9848717410008785,0.87
6.193327103076545,0.0032180586026111513,2.048820402531249,1.9563318605778184,0.87
6.193327103076545,0.0032180586026111513,2.048820402531249,1.9563318605778184,0.87
6.193327103076545,0.0032180586026111513,2.048820402531249,1.9563318605778184,0.87
6.193327103076545,0.0032180586026111513,2.048820402531249,1.9563318605778184,0.87
6.193327103076545,0.0032180586026111513,2.048820402531249,1.9563318605778184,0.87
6.193327103076545,0.0032180586026111513,2.048820402531249,1.9563318605778184,0.87
6.193327103076545,0.0032180586026111513,2.048820402531249,1.9563318605778184,0.87
6.193327103076545,0.0032180586026111513,2.048820402531249,1.9563318605778184,0.87
6.193327103076545,0.0032180586026111513,2.048820402531249,1.9563318605778184,0.87
6.193327103076545,0.0032180586026111513,2.048820402531249,1.9563318605778184,0.87
6.193327103076545,0.0032180586026111513,2.048820402531249,1.9563318605778184,0.87
6.193327103076545,0.0032180586026111513,2.048820402531249,1.9563318605778184,0.87
6.193327103076545,0.0032180586026111513,2.048820402531249,1.9563318605778184,0.87
6.193327103076545,0.0032180586026111513,2.0468370452717624,1.9563318605778184,0.87
6.193327103076545,0.0032180586026111513,2.026513688900632,1.9284129158864998,0.87
6.193327103076545,0.0032180586026111513,2.026513688900632,1.9284129158864998,0.87
6.193327103076545,0.0032180586026111513,2.026513688900632,1.9284129158864998,0.87
6.193327103076545,0.0032180586026111513,2.014967553719968,1.9284129158864998,0.87
6.193327103076545,0.0032180586026111513,2.014967553719968,1.9284129158864998,0.87
6.193327103076545,0.0032180586026111513,2.014967553719968,1.9284129158864998,0.87
6.193327103076545,0.0032180586026111513,2.0119483429881195,1.9284129158864998,0.87
6.193327103076545,0.0032180586026111513,2.0119483429881195,1.9284129158864998,0.87
6.193327103076545,0.0032180586026111513,2.0119483429881195,1.9284129158864998,0.87
6.193327103076545,0.0032180586026111513,2.0119483429881195,1.9284129158864998,0.87
6.193327103076545,0.0032180586026111513,2.0119483429881195,1.9284129158864998,0.87
6.193327103076545,0.0032180586026111513,2.0119483429881195,1.9284129158864998,0.87
6.193327103076545,0.0032180586026111513,2.0119483429881195,1.9284129158864998,0.87
6.193327103076545,0.0032180586026111513,1.9958772381310856,1.9088904048099922,0.87
6.193327103076545,0.0032180586026111513,1.9958772381310856,1.9088904048099922,0.87
6.193327103076545,0.0032180586026111513,1.9958772381310856,1.9088904048099922,0.87
6.193327103076545,0.0032180586026111513,1.9783908155738223,1.8465840610306374,0.87
6.193327103076545,0.0032180586026111513,1.948628151826059,1.8465840610306374,0.87
6.193327103076545,0.0032180586026111513,1.948628151826059,1.8465840610306374,0.87
6.193327103076545,0.0032180586026111513,1.948628151826059,1.8465840610306374,0.87
6.193327103076545,0.0032180586026111513,1.948628151826059,1.8465840610306374,0.87
6.193327103076545,0.0032180586026111513,1.948628151826059,1.8465840610306374,0.87
6.193327103076545,0.0032180586026111513,1.948628151826059,1.8465840610306374,0.87
6.193327103076545,0.0032180586026111513,1.948628151826059,1.8465840610306374,0.87
6.193327103076545,0.0032180586026111513,1.948628151826059,1.8465840610306374,0.87
6.193327103076545,0.0032180586026111513,1.948628151826059,1.8465840610306374,0.87
6.193327103076545,0.0032180586026111513,1.948628151826059,1.8465840610306374,0.87
6.193327103076545,0.0032180586026111513,1.948628151826059,1.8465840610306374,0.87
6.193327103076545,0.0032180586026111513,1.948628151826059,1.8465840610306374,0.87
6.193327103076545,0.0032180586026111513,1.948628151826059,1.8465840610306374,0.87
6.193327103076545,0.0032180586026111513,1.9432626456732414,1.8465840610306374,0.87
6.193327103076545,0.0032180586026111513,1.9432626456732414,1.8465840610306374,0.87
6.193327103076545,0.0032180586026111513,1.9432626456732414,1.8465840610306374,0.87
6.193327103076545,0.0032180586026111513,1.934490660331935,1.769145746718638,0.87
6.193327103076545,0.0032180586026111513,1.934490660331935,1.769145746718638,0.87
6.193327103076545,0.0032180586026111513,1.9172351928176823,1.7278891233927363,0.87
6.193327103076545,0.0032180586026111513,1.9124526982838026,1.7160614967989085,0.87
6.193327103076545,0.0032180586026111513,1.9124526982838026,1.7160614967989085,0.87
6.193327103076545,0.0032180586026111513,1.9124526982838026,1.7160614967989085,0.87
6.193327103076545,0.0032180586026111513,1.9124526982838026,1.7160614967989085,0.87
6.193327103076545,0.0032180586026111513,1.9124526982838026,1.7160614967989085,0.87
6.193327103076545,0.0032180586026111513,1.9124526982838026,1.7160614967989085,0.87
6.193327103076545,0.0032180586026111513,1.9124526982838026,1.7160614967989085,0.87
6.193327103076545,0.0032180586026111513,1.9124526982838026,1.7160614967989085,0.87
6.193327103076545,0.0032180586026111513,1.9071534354066337,1.6960868835790741,0.87
6.193327103076545,0.0032180586026111513,1.889468248447078,1.6813417935821144,0.87
6.193327103076545,0.0032180586026111513,1.889468248447078,1.6813417935821144,0.87
6.193327103076545,0.0032180586026111513,1.889468248447078,1.6813417935821144,0.87
6.193327103076545,0.0032180586026111513,1.8818570630156284,1.669511647371646,0.87
6.193327103076545,0.0032180586026111513,1.8818570630156284,1.669511647371646,0.87
6.193327103076545,0.0032180586026111513,1.8818570630156284,1.669511647371646,0.87
6.193327103076545,0.0032180586026111513,1.865365499698559,1.6537797696129415,0.87
6.193327103076545,0.0032180586026111513,1.865365499698559,1.6537797696129415,0.87
6.193327103076545,0.0032180586026111513,1.8455902547070964,1.6429179514039394,0.87
6.193327103076545,0.0032180586026111513,1.8455902547070964,1.6429179514039394,0.87
6.193327103076545,0.0032180586026111513,1.8110224972568372,1.6429179514039394,0.87
6.193327103076545,0.0032180586026111513,1.8110224972568372,1.6429179514039394,0.87
6.193327103076545,0.0032180586026111513,1.8110224972568372,1.6429179514039394,0.87
6.193327103076545,0.0032180586026111513,1.8110224972568372,1.6429179514039394,0.87
6.193327103076545,0.0032180586026111513,1.8110224972568372,1.6429179514039394,0.87
6.193327103076545,0.0032180586026111513,1.8110224972568372,1.6429179514039394,0.87
6.193327103076545,0.0032180586026111513,1.8110224972568372,1.6429179514039394,0.87
6.193327103076545,0.0032180586026111513,1.8110224972568372,1.6429179514039394,0.87
6.193327103076545,0.0032180586026111513,1.8110224972568372,1.6429179514039394,0.87
6.193327103076545,0.0032180586026111513,1.8110224972568372,1.6429179514039394,0.87
6.193327103076545,0.0032180586026111513,1.8110224972568372,1.6429179514039394,0.87
6.193327103076545,0.0032180586026111513,1.8110224972568372,1.6429179514039394,0.87
6.193327103076545,0.0032180586026111513,1.8110224972568372,1.6429179514039394,0.87
6.193327103076545,0.0032180586026111513,1.8009463272452557,1.6429179514039394,0.87
6.193327103076545,0.0032180586026111513,1.8009463272452557,1.6429179514039394,0.87
6.193327103076545,0.0032180586026111513,1.8009463272452557,1.6429179514039394,0.87
6.193327103076545,0.0032180586026111513,1.7914783965964298,1.6288937802044101,0.87
6.193327103076545,0.0032180586026111513,1.7914783965964298,1.6288937802044101,0.87
6.193327103076545,0.0032180586026111513,1.7914783965964298,1.6288937802044101,0.87
6.193327103076545,0.0032180586026111513,1.7914783965964298,1.6288937802044101,0.87
6.193327103076545,0.0032180586026111513,1.7914783965964298,1.6288937802044101,0.87
6.193327103076545,0.0032180586026111513,1.7914783965964298,1.6288937802044101,0.87
6.193327103076545,0.0032180586026111513,1.7914783965964298,1.6288937802044101,0.87
6.193327103076545,0.0032180586026111513,1.7914783965964298,1.6288937802044101,0.87
6.193327103076545,0.0032180586026111513,1.7914783965964298,1.6288937802044101,0.87
6.193327103076545,0.0032180586026111513,1.7814600057326087,1.6288937802044101,0.87
6.193327103076545,0.0032180586026111513,1.7814600057326087,1.6288937802044101,0.87
6.193327103076545,0.0032180586026111513,1.7814600057326087,1.6288937802044101,0.87
6.193327103076545,0.0032180586026111513,1.7796780497736768,1.6288937802044101,0.87
6.193327103076545,0.0032180586026111513,1.7796780497736768,1.6288937802044101,0.87
6.193327103076545,0.0032180586026111513,1.7796780497736768,1.6288937802044101,0.87
6.193327103076545,0.0032180586026111513,1.7796780497736768,1.6288937802044101,0.87
6.193327103076545,0.0032180586026111513,1.7796780497736768,1.6288937802044101,0.87
6.193327103076545,0.0032180586026111513,1.7796780497736768,1.6288937802044101,0.87
6.193327103076545,0.0032180586026111513,1.7573201338041402,1.5787610003310295,0.87
6.193327103076545,0.0032180586026111513,1.7573201338041402,1.5787610003310295,0.87
6.193327103076545,0.0032180586026111513,1.7573201338041402,1.5787610003310295,0.87
6.193327103076545,0.0032180586026111513,1.7573201338041402,1.5787610003310295,0.87
6.193327103076545,0.0032180586026111513,1.7573201338041402,1.5787610003310295,0.87
6.193327103076545,0.0032180586026111513,1.7573201338041402,1.5787610003310295,0.87
6.193327103076545,0.0032180586026111513,1.7573201338041402,1.5787610003310295,0.87
6.193327103076545,0.0032180586026111513,1.7573201338041402,1.5787610003310295,0.87
6.193327103076545,0.0032180586026111513,1.7573201338041402,1.5787610003310295,0.87
6.193327103076545,0.0032180586026111513,1.7573201338041402,1.5787610003310295,0.87
6.193327103076545,0.0032180586026111513,1.7573201338041402,1.5787610003310295,0.87
6.193327103076545,0.0032180586026111513,1.7573201338041402,1.5787610003310295,0.87
6.193327103076545,0.0032180586026111513,1.7573201338041402,1.5787610003310295,0.87
6.193327103076545,0.0032180586026111513,1.7507331793932988,1.5787610003310295,0.87
6.193327103076545,0.0032180586026111513,1.725161297821374,1.5787610003310295,0.87
6.193327103076545,0.0032180586026111513,1.725161297821374,1.5787610003310295,0.87
6.193327103076545,0.0032180586026111513,1.725161297821374,1.5787610003310295,0.87
6.193327103076545,0.0032180586026111513,1.725161297821374,1.5787610003310295,0.87
6.193327103076545,0.0032180586026111513,1.725161297821374,1.5787610003310295,0.87
6.193327103076545,0.0032180586026111513,1.725161297821374,1.5787610003310295,0.87
6.193327103076545,0.0032180586026111513,1.7225975976723682,1.5391614436079202,0.87
6.193327103076545,0.0032180586026111513,1.7225975976723682,1.5391614436079202,0.87
6.193327103076545,0.0032180586026111513,1.7225975976723682,1.5391614436079202,0.87
6.193327103076545,0.0032180586026111513,1.7225975976723682,1.5391614436079202,0.87
6.193327103076545,0.0032180586026111513,1.7225975976723682,1.5391614436079202,0.87
6.193327103076545,0.0032180586026111513,1.7225975976723682,1.5391614436079202,0.87
6.193327103076545,0.0032180586026111513,1.7225975976723682,1.5391614436079202,0.87
6.193327103076545,0.0032180586026111513,1.7225975976723682,1.5391614436079202,0.87
6.193327103076545,0.0032180586026111513,1.7225975976723682,1.5391614436079202,0.87
6.193327103076545,0.0032180586026111513,1.7225975976723682,1.5391614436079202,0.87
6.193327103076545,0.0032180586026111513,1.7225975976723682,1.5391614436079202,0.87
6.193327103076545,0.0032180586026111513,1.7225975976723682,1.5391614436079202,0.87
6.193327103076545,0.0032180586026111513,1.7225975976723682,1.5391614436079202,0.87
6.193327103076545,0.0032180586026111513,1.7225975976723682,1.5391614436079202,0.87
6.193327103076545,0.0032180586026111513,1.7225975976723682,1.5391614436079202,0.87
6.193327103076545,0.0032180586026111513,1.7225975976723682,1.5391614436079202,0.87
6.193327103076545,0.0032180586026111513,1.7225975976723682,1.5391614436079202,0.87
6.193327103076545,0.0032180586026111513,1.7225975976723682,1.5391614436079202,0.87
6.193327103076545,0.0032180586026111513,1.7225975976723682,1.5391614436079202,0.87
6.193327103076545,0.0032180586026111513,1.7225975976723682,1.5391614436079202,0.87
6.193327103076545,0.0032180586026111513,1.7225975976723682,1.5391614436079202,0.87
6.193327103076545,0.0032180586026111513,1.7145827050247593,1.5391614436079202,0.87
6.193327103076545,0.0032180586026111513,1.7145827050247593,1.5391614436079202,0.87
6.193327103076545,0.0032180586026111513,1.7018062340178333,1.5196352321030107,0.87
6.193327103076545,0.0032180586026111513,1.7018062340178333,1.5196352321030107,0.87
6.193327103076545,0.0032180586026111513,1.6989499171969666,1.5196352321030107,0.87
6.193327103076545,0.0032180586026111513,1.6989499171969666,1.5196352321030107,0.87
6.193327103076545,0.0032180586026111513,1.6989499171969666,1.5196352321030107,0.87
6.193327103076545,0.0032180586026111513,1.6989499171969666,1.5196352321030107,0.87
6.193327103076545,0.0032180586026111513,1.6989499171969666,1.5196352321030107,0.87
6.193327103076545,0.0032180586026111513,1.6989499171969666,1.5196352321030107,0.87
4.874251477086398,0.0032180586026111513,1.6588832939881504,1.5196352321030107,0.87
4.874251477086398,0.0032180586026111513,1.6588832939881504,1.5196352321030107,0.87
4.874251477086398,0.0032180586026111513,1.6588832939881504,1.5196352321030107,0.87
4.874251477086398,0.0032180586026111513,1.6588832939881504,1.5196352321030107,0.87
4.874251477086398,0.0032180586026111513,1.647997669089971,1.4945462212024259,0.87
4.874251477086398,0.0032180586026111513,1.647997669089971,1.4945462212024259,0.87
4.874251477086398,0.0032180586026111513,1.647997669089971,1.4945462212024259,0.87
4.874251477086398,0.0032180586026111513,1.647997669089971,1.4945462212024259,0.87
4.874251477086398,0.0032180586026111513,1.6396764659224363,1.4945462212024259,0.87
4.874251477086398,0.0032180586026111513,1.6268247202103794,1.4945462212024259,0.87
4.874251477086398,0.0032180586026111513,1.6268247202103794,1.4945462212024259,0.87
4.874251477086398,0.0032180586026111513,1.6268247202103794,1.4945462212024259,0.87
4.874251477086398,0.0032180586026111513,1.6268247202103794,1.4945462212024259,0.87
4.874251477086398,0.0032180586026111513,1.6205075430294564,1.4945462212024259,0.87
4.874251477086398,0.0032180586026111513,1.6205075430294564,1.4945462212024259,0.87
4.874251477086398,0.0032180586026111513,1.6205075430294564,1.4945462212024259,0.87
4.874251477086398,0.0032180586026111513,1.6205075430294564,1.4945462212024259,0.87
4.874251477086398,0.0032180586026111513,1.6205075430294564,1.4945462212024259,0.87
4.874251477086398,0.0032180586026111513,1.6205075430294564,1.4945462212024259,0.87
4.874251477086398,0.0032180586026111513,1.6205075430294564,1.4945462212024259,0.87
4.874251477086398,0.0032180586026111513,1.6205075430294564,1.4945462212024259,0.87
4.874251477086398,0.0032180586026111513,1.6205075430294564,1.4945462212024259,0.87
4.874251477086398,0.0032180586026111513,1.6205075430294564,1.4945462212024259,0.87
4.874251477086398,0.0032180586026111513,1.6205075430294564,1.4945462212024259,0.87
4.874251477086398,0.0032180586026111513,1.6205075430294564,1.4945462212024259,0.87
4.874251477086398,0.0032180586026111513,1.6158008851077639,1.4941180762952007,0.87
4.874251477086398,0.0032180586026111513,1.6158008851077639,1.4941180762952007,0.87
4.874251477086398,0.0032180586026111513,1.6158008851077639,1.4941180762952007,0.87
4.874251477086398,0.0032180586026111513,1.6158008851077639,1.4941180762952007,0.87
4.874251477086398,0.0032180586026111513,1.6158008851077639,1.4941180762952007,0.87
4.874251477086398,0.0032180586026111513,1.6158008851077639,1.4941180762952007,0.87
4.874251477086398,0.0032180586026111513,1.6158008851077639,1.4941180762952007,0.87
4.874251477086398,0.0032180586026111513,1.6158008851077639,1.4941180762952007,0.87
4.874251477086398,0.0032180586026111513,1.6158008851077639,1.4941180762952007,0.87
4.874251477086398,0.0032180586026111513,1.6158008851077639,1.4941180762952007,0.87
4.874251477086398,0.0032180586026111513,1.6158008851077639,1.4941180762952007,0.87
4.874251477086398,0.0032180586026111513,1.6158008851077639,1.4941180762952007,0.87
4.874251477086398,0.0032180586026111513,1.6158008851077639,1.4941180762952007,0.87
4.874251477086398,0.0032180586026111513,1.6158008851077639,1.4941180762952007,0.87
4.874251477086398,0.0032180586026111513,1.6158008851077639,1.4941180762952007,0.87
4.874251477086398,0.0032180586026111513,1.6158008851077639,1.4941180762952007,0.87
4.874251477086398,0.0032180586026111513,1.6158008851077639,1.4941180762952007,0.87
4.874251477086398,0.0032180586026111513,1.6158008851077639,1.4941180762952007,0.87
4.874251477086398,0.0032180586026111513,1.6158008851077639,1.4941180762952007,0.87
4.874251477086398,0.0032180586026111513,1.6158008851077639,1.4941180762952007,0.87
4.874251477086398,0.0032180586026111513,1.6158008851077639,1.4941180762952007,0.87
4.874251477086398,0.0032180586026111513,1.6158008851077639,1.4941180762952007,0.87
4.874251477086398,0.0032180586026111513,1.6158008851077639,1.4941180762952007,0.87
4.874251477086398,0.0032180586026111513,1.6158008851077639,1.4941180762952007,0.87
4.874251477086398,0.0032180586026111513,1.6158008851077639,1.4941180762952007,0.87
4.874251477086398,0.0032180586026111513,1.6158008851077639,1.4941180762952007,0.87
4.874251477086398,0.0032180586026111513,1.6158008851077639,1.4941180762952007,0.87
4.874251477086398,0.0032180586026111513,1.6115645707045858,1.4941180762952007,0.87
4.874251477086398,0.0032180586026111513,1.608419932157517,1.4941180762952007,0.87
4.874251477086398,0.0032180586026111513,1.608419932157517,1.4941180762952007,0.87
4.874251477086398,0.0032180586026111513,1.5982652015207444,1.4941180762952007,0.87
4.874251477086398,0.0032180586026111513,1.5982652015207444,1.4941180762952007,0.87
4.874251477086398,0.0032180586026111513,1.5797332422567947,1.486013903116639,0.87
4.874251477086398,0.0032180586026111513,1.5797332422567947,1.486013903116639,0.87
4.874251477086398,0.0032180586026111513,1.5797332422567947,1.486013903116639,0.87
4.874251477086398,0.0032180586026111513,1.5797332422567947,1.486013903116639,0.87
4.874251477086398,0.0032180586026111513,1.5797332422567947,1.486013903116639,0.87
4.874251477086398,0.0032180586026111513,1.5797332422567947,1.486013903116639,0.87
4.874251477086398,0.0032180586026111513,1.5797332422567947,1.486013903116639,0.87
4.874251477086398,0.0032180586026111513,1.5675007853381593,1.486013903116639,0.87
4.874251477086398,0.0032180586026111513,1.5675007853381593,1.486013903116639,0.87
4.874251477086398,0.0032180586026111513,1.5675007853381593,1.486013903116639,0.87
4.874251477086398,0.0032180586026111513,1.5675007853381593,1.486013903116639,0.87
4.874251477086398,0.0032180586026111513,1.5675007853381593,1.486013903116639,0.87
4.874251477086398,0.0032180586026111513,1.5599961227468198,1.486013903116639,0.87
4.874251477086398,0.0032180586026111513,1.5581593691498474,1.486013903116639,0.87
4.874251477086398,0.0032180586026111513,1.5581593691498474,1.486013903116639,0.87
4.874251477086398,0.0032180586026111513,1.5581593691498474,1.486013903116639,0.87
4.874251477086398,0.0032180586026111513,1.5581593691498474,1.486013903116639,0.87
4.874251477086398,0.0032180586026111513,1.5581593691498474,1.486013903116639,0.87
4.874251477086398,0.0032180586026111513,1.5581593691498474,1.486013903116639,0.87
4.874251477086398,0.0032180586026111513,1.5581593691498474,1.486013903116639,0.87
4.874251477086398,0.0032180586026111513,1.5581593691498474,1.486013903116639,0.87
4.874251477086398,0.0032180586026111513,1.5581593691498474,1.486013903116639,0.87
4.874251477086398,0.0032180586026111513,1.5302103603422743,1.481981565571675,0.87
4.874251477086398,0.0032180586026111513,1.5302103603422743,1.481981565571675,0.87
4.874251477086398,0.0032180586026111513,1.5302103603422743,1.481981565571675,0.87
4.874251477086398,0.0032180586026111513,1.5302103603422743,1.481981565571675,0.87
4.874251477086398,0.0032180586026111513,1.5302103603422743,1.481981565571675,0.87
4.874251477086398,0.0032180586026111513,1.5302103603422743,1.481981565571675,0.87
4.874251477086398,0.0032180586026111513,1.5302103603422743,1.481981565571675,0.87
4.874251477086398,0.0032180586026111513,1.5302103603422743,1.481981565571675,0.87
4.874251477086398,0.0032180586026111513,1.5302103603422743,1.481981565571675,0.87
4.874251477086398,0.0032180586026111513,1.5302103603422743,1.481981565571675,0.87
4.874251477086398,0.0032180586026111513,1.528700044686547,1.481981565571675,0.87
4.874251477086398,0.0032180586026111513,1.528700044686547,1.481981565571675,0.87
4.874251477086398,0.0032180586026111513,1.528700044686547,1.481981565571675,0.87
4.874251477086398,0.0032180586026111513,1.528700044686547,1.481981565571675,0.87
4.874251477086398,0.0032180586026111513,1.528700044686547,1.481981565571675,0.87
4.874251477086398,0.0032180586026111513,1.528700044686547,1.481981565571675,0.87
4.874251477086398,0.0032180586026111513,1.5217843141876717,1.481981565571675,0.87
4.874251477086398,0.0032180586026111513,1.5217843141876717,1.481981565571675,0.87
4.874251477086398,0.0032180586026111513,1.5217843141876717,1.481981565571675,0.87
4.874251477086398,0.0032180586026111513,1.5217843141876717,1.481981565571675,0.87
4.874251477086398,0.0032180586026111513,1.5217843141876717,1.481981565571675,0.87
4.874251477086398,0.0032180586026111513,1.5217843141876717,1.481981565571675,0.87
4.874251477086398,0.0032180586026111513,1.5217843141876717,1.481981565571675,0.87
4.874251477086398,0.0032180586026111513,1.5217843141876717,1.481981565571675,0.87
4.874251477086398,0.0032180586026111513,1.5217843141876717,1.481981565571675,0.87
4.874251477086398,0.0032180586026111513,1.5217843141876717,1.481981565571675,0.87
4.874251477086398,0.0032180586026111513,1.5217843141876717,1.481981565571675,0.87
4.874251477086398,0.0032180586026111513,1.51613711952942,1.481981565571675,0.87
4.874251477086398,0.0032180586026111513,1.51613711952942,1.481981565571675,0.87
4.874251477086398,0.0032180586026111513,1.51613711952942,1.481981565571675,0.87
4.874251477086398,0.0032180586026111513,1.51613711952942,1.481981565571675,0.87
4.874251477086398,0.0032180586026111513,1.513897637247369,1.481981565571675,0.87
4.874251477086398,0.0032180586026111513,1.513897637247369,1.481981565571675,0.87
4.874251477086398,0.0032180586026111513,1.513897637247369,1.481981565571675,0.87
4.874251477086398,0.0032180586026111513,1.513897637247369,1.481981565571675,0.87
4.874251477086398,0.0032180586026111513,1.5029195990416166,1.4749655348593036,0.87
4.874251477086398,0.0032180586026111513,1.5029195990416166,1.4749655348593036,0.87
4.874251477086398,0.0032180586026111513,1.5029195990416166,1.4749655348593036,0.87
4.874251477086398,0.0032180586026111513,1.5029195990416166,1.4749655348593036,0.87
4.874251477086398,0.0032180586026111513,1.4775329438134113,1.4499684306856429,0.87
4.874251477086398,0.0032180586026111513,1.4775329438134113,1.4499684306856429,0.87
4.874251477086398,0.0032180586026111513,1.4658369871766734,1.4094277295866293,0.87
4.874251477086398,0.0032180586026111513,1.4658369871766734,1.4094277295866293,0.87
4.874251477086398,0.0032180586026111513,1.4658369871766734,1.4094277295866293,0.87
4.874251477086398,0.0032180586026111513,1.4658369871766734,1.4094277295866293,0.87
4.874251477086398,0.0032180586026111513,1.4658369871766734,1.4094277295866293,0.87
4.874251477086398,0.0032180586026111513,1.4658369871766734,1.4094277295866293,0.87
4.874251477086398,0.0032180586026111513,1.459700791385778,1.374217178158668,0.87
4.874251477086398,0.0032180586026111513,1.459700791385778,1.374217178158668,0.87
4.874251477086398,0.0032180586026111513,1.459700791385778,1.374217178158668,0.87
4.874251477086398,0.0032180586026111513,1.459700791385778,1.374217178158668,0.87
4.874251477086398,0.0032180586026111513,1.459700791385778,1.374217178158668,0.87
4.874251477086398,0.0032180586026111513,1.459700791385778,1.374217178158668,0.87
4.874251477086398,0.0032180586026111513,1.459700791385778,1.374217178158668,0.87
4.874251477086398,0.0032180586026111513,1.4543791398015264,1.374217178158668,0.87
4.874251477086398,0.0032180586026111513,1.4446617496863627,1.374217178158668,0.87
4.874251477086398,0.0032180586026111513,1.4446617496863627,1.374217178158668,0.87
4.874251477086398,0.0032180586026111513,1.4446617496863627,1.374217178158668,0.87
4.874251477086398,0.0032180586026111513,1.4446617496863627,1.374217178158668,0.87
4.874251477086398,0.0032180586026111513,1.4446617496863627,1.374217178158668,0.87
4.874251477086398,0.0032180586026111513,1.4446617496863627,1.374217178158668,0.87
4.874251477086398,0.0032180586026111513,1.4446617496863627,1.374217178158668,0.87
4.874251477086398,0.0032180586026111513,1.4446617496863627,1.374217178158668,0.87
4.874251477086398,0.0032180586026111513,1.4446617496863627,1.374217178158668,0.87
4.874251477086398,0.0032180586026111513,1.4446617496863627,1.374217178158668,0.87
4.874251477086398,0.0032180586026111513,1.4446617496863627,1.374217178158668,0.87
4.874251477086398,0.0032180586026111513,1.4407474499071833,1.374217178158668,0.87
4.874251477086398,0.0032180586026111513,1.4407474499071833,1.374217178158668,0.87
4.874251477086398,0.0032180586026111513,1.4407474499071833,1.374217178158668,0.87
4.874251477086398,0.0032180586026111513,1.4407474499071833,1.374217178158668,0.87
4.874251477086398,0.0032180586026111513,1.4407474499071833,1.374217178158668,0.87
4.874251477086398,0.0032180586026111513,1.4407474499071833,1.374217178158668,0.87
4.874251477086398,0.0032180586026111513,1.4407474499071833,1.374217178158668,0.87
4.874251477086398,0.0032180586026111513,1.4362854362265818,1.374217178158668,0.87
4.874251477086398,0.0032180586026111513,1.4360868659102872,1.374217178158668,0.87
4.874251477086398,0.0032180586026111513,1.422853774241112,1.374217178158668,0.87
4.874251477086398,0.0032180586026111513,1.422853774241112,1.374217178158668,0.87
4.874251477086398,0.0032180586026111513,1.422853774241112,1.374217178158668,0.87
4.874251477086398,0.0032180586026111513,1.422853774241112,1.374217178158668,0.87
4.874251477086398,0.0032180586026111513,1.4178022646508857,1.374217178158668,0.87
4.874251477086398,0.0032180586026111513,1.4178022646508857,1.374217178158668,0.87
4.874251477086398,0.0032180586026111513,1.4178022646508857,1.374217178158668,0.87
4.874251477086398,0.0032180586026111513,1.4178022646508857,1.374217178158668,0.87
4.874251477086398,0.0032180586026111513,1.4178022646508857,1.374217178158668,0.87
4.874251477086398,0.0032180586026111513,1.4088344997692674,1.3491787803506794,0.87
4.874251477086398,0.0032180586026111513,1.4088344997692674,1.3491787803506794,0.87
4.874251477086398,0.0032180586026111513,1.4088344997692674,1.3491787803506794,0.87
4.874251477086398,0.0032180586026111513,1.4088344997692674,1.3491787803506794,0.87
4.874251477086398,0.0032180586026111513,1.4088344997692674,1.3491787803506794,0.87
4.874251477086398,0.0032180586026111513,1.4088344997692674,1.3491787803506794,0.87
4.874251477086398,0.0032180586026111513,1.4088344997692674,1.3491787803506794,0.87
4.874251477086398,0.0032180586026111513,1.4088344997692674,1.3491787803506794,0.87
4.874251477086398,0.0032180586026111513,1.4088344997692674,1.3491787803506794,0.87
4.874251477086398,0.0032180586026111513,1.394731639766863,1.3329635919325629,0.87
4.874251477086398,0.0032180586026111513,1.394731639766863,1.3329635919325629,0.87
4.874251477086398,0.0032180586026111513,1.394731639766863,1.3329635919325629,0.87
4.874251477086398,0.0032180586026111513,1.3744060938691047,1.3261984914073581,0.87
4.874251477086398,0.0032180586026111513,1.3744060938691047,1.3261984914073581,0.87
4.874251477086398,0.0032180586026111513,1.3744060938691047,1.3261984914073581,0.87
4.874251477086398,0.0032180586026111513,1.3744060938691047,1.3261984914073581,0.87
4.874251477086398,0.0032180586026111513,1.3744060938691047,1.3261984914073581,0.87
4.874251477086398,0.0032180586026111513,1.3744060938691047,1.3261984914073581,0.87
4.874251477086398,0.0032180586026111513,1.3744060938691047,1.3261984914073581,0.87
4.874251477086398,0.0032180586026111513,1.3744060938691047,1.3261984914073581,0.87
4.874251477086398,0.0032180586026111513,1.3744060938691047,1.3261984914073581,0.87
4.874251477086398,0.0032180586026111513,1.3744060938691047,1.3261984914073581,0.87
4.874251477086398,0.0032180586026111513,1.3744060938691047,1.3261984914073581,0.87
4.874251477086398,0.0032180586026111513,1.3744060938691047,1.3261984914073581,0.87
4.874251477086398,0.0032180586026111513,1.3744060938691047,1.3261984914073581,0.87
4.874251477086398,0.0032180586026111513,1.3744060938691047,1.3261984914073581,0.87
4.874251477086398,0.0032180586026111513,1.3744060938691047,1.3261984914073581,0.87
4.874251477086398,0.0032180586026111513,1.3744060938691047,1.3261984914073581,0.87
4.874251477086398,0.0032180586026111513,1.3744060938691047,1.3261984914073581,0.87
4.874251477086398,0.0032180586026111513,1.3744060938691047,1.3261984914073581,0.87
4.874251477086398,0.0032180586026111513,1.3744060938691047,1.3261984914073581,0.87
4.874251477086398,0.0032180586026111513,1.3744060938691047,1.3261984914073581,0.87
4.874251477086398,0.0032180586026111513,1.3744060938691047,1.3261984914073581,0.87
4.874251477086398,0.0032180586026111513,1.3744060938691047,1.3261984914073581,0.87
4.874251477086398,0.0032180586026111513,1.3744060938691047,1.3261984914073581,0.87
4.874251477086398,0.0032180586026111513,1.3744060938691047,1.3261984914073581,0.87
4.874251477086398,0.0032180586026111513,1.3744060938691047,1.3261984914073581,0.87
4.874251477086398,0.0032180586026111513,1.3744060938691047,1.3261984914073581,0.87
4.874251477086398,0.0032180586026111513,1.3744060938691047,1.3261984914073581,0.87
4.874251477086398,0.0032180586026111513,1.3744060938691047,1.3261984914073581,0.87
4.874251477086398,0.0032180586026111513,1.3744060938691047,1.3261984914073581,0.87
4.874251477086398,0.0032180586026111513,1.3675642351635693,1.3261984914073581,0.87
4.874251477086398,0.0032180586026111513,1.3675642351635693,1.3261984914073581,0.87
4.874251477086398,0.0032180586026111513,1.3675642351635693,1.3261984914073581,0.87
4.874251477086398,0.0032180586026111513,1.3675642351635693,1.3261984914073581,0.87
4.874251477086398,0.0032180586026111513,1.3675642351635693,1.3261984914073581,0.87
4.874251477086398,0.0032180586026111513,1.3675642351635693,1.3261984914073581,0.87
4.874251477086398,0.0032180586026111513,1.3675642351635693,1.3261984914073581,0.87
4.874251477086398,0.0032180586026111513,1.3675642351635693,1.3261984914073581,0.87
4.874251477086398,0.0032180586026111513,1.3675642351635693,1.3261984914073581,0.87
4.874251477086398,0.0032180586026111513,1.3675642351635693,1.3261984914073581,0.87
4.874251477086398,0.0032180586026111513,1.3675642351635693,1.3261984914073581,0.87
4.874251477086398,0.0032180586026111513,1.3675642351635693,1.3261984914073581,0.87
4.874251477086398,0.0032180586026111513,1.3675642351635693,1.3261984914073581,0.87
4.874251477086398,0.0032180586026111513,1.3675642351635693,1.3261984914073581,0.87
4.874251477086398,0.0032180586026111513,1.362549233479926,1.3261984914073581,0.87
4.874251477086398,0.0032180586026111513,1.362549233479926,1.3261984914073581,0.87
4.874251477086398,0.0032180586026111513,1.362549233479926,1.3261984914073581,0.87
4.874251477086398,0.0032180586026111513,1.362549233479926,1.3261984914073581,0.87
4.874251477086398,0.0032180586026111513,1.362549233479926,1.3261984914073581,0.87
4.874251477086398,0.0032180586026111513,1.362549233479926,1.3261984914073581,0.87
4.874251477086398,0.0032180586026111513,1.362549233479926,1.3261984914073581,0.87
4.874251477086398,0.0032180586026111513,1.362549233479926,1.3261984914073581,0.87
4.874251477086398,0.0032180586026111513,1.362549233479926,1.3261984914073581,0.87
4.874251477086398,0.0032180586026111513,1.362549233479926,1.3261984914073581,0.87
4.874251477086398,0.0032180586026111513,1.362549233479926,1.3261984914073581,0.87
4.874251477086398,0.0032180586026111513,1.362549233479926,1.3261984914073581,0.87
4.874251477086398,0.0032180586026111513,1.362549233479926,1.3261984914073581,0.87
4.874251477086398,0.0032180586026111513,1.362549233479926,1.3261984914073581,0.87
4.874251477086398,0.0032180586026111513,1.362549233479926,1.3261984914073581,0.87
4.874251477086398,0.0032180586026111513,1.362549233479926,1.3261984914073581,0.87
4.261821685666796,0.0032180586026111513,1.33412702331472,1.3261984914073581,0.87
4.261821685666796,0.0032180586026111513,1.33412702331472,1.3261984914073581,0.87
4.261821685666796,0.0032180586026111513,1.33412702331472,1.3261984914073581,0.87
4.261821685666796,0.0032180586026111513,1.3303411676419779,1.3261984914073581,0.87
4.261821685666796,0.0032180586026111513,1.3303411676419779,1.3261984914073581,0.87
4.261821685666796,0.0032180586026111513,1.3303411676419779,1.3261984914073581,0.87
4.261821685666796,0.0032180586026111513,1.3303411676419779,1.3261984914073581,0.87
4.261821685666796,0.0032180586026111513,1.3303411676419779,1.3261984914073581,0.87
4.261821685666796,0.0032180586026111513,1.3303411676419779,1.3261984914073581,0.87
4.261821685666796,0.0032180586026111513,1.3303411676419779,1.3261984914073581,0.87
4.261821685666796,0.0032180586026111513,1.3303411676419779,1.3261984914073581,0.87
4.261821685666796,0.0032180586026111513,1.3303411676419779,1.3261984914073581,0.87
4.261821685666796,0.0032180586026111513,1.3303411676419779,1.3261984914073581,0.87
4.261821685666796,0.0032180586026111513,1.3303411676419779,1.3261984914073581,0.87
4.261821685666796,0.0032180586026111513,1.3303411676419779,1.3261984914073581,0.87
4.261821685666796,0.0032180586026111513,1.3303411676419779,1.3261984914073581,0.87
4.261821685666796,0.0032180586026111513,1.3303411676419779,1.3261984914073581,0.87
4.261821685666796,0.0032180586026111513,1.3303411676419779,1.3261984914073581,0.87
4.261821685666796,0.0032180586026111513,1.3303411676419779,1.3261984914073581,0.87
4.261821685666796,0.0032180586026111513,1.3303411676419779,1.3261984914073581,0.87
4.261821685666796,0.0032180586026111513,1.3303411676419779,1.3261984914073581,0.87
4.261821685666796,0.0032180586026111513,1.3303411676419779,1.3261984914073581,0.87
4.261821685666796,0.0032180586026111513,1.3303411676419779,1.3261984914073581,0.87
4.261821685666796,0.0032180586026111513,1.3303411676419779,1.3261984914073581,0.87
4.261821685666796,0.0032180586026111513,1.3303411676419779,1.3261984914073581,0.87
4.261821685666796,0.0032180586026111513,1.3303411676419779,1.3261984914073581,0.87
4.261821685666796,0.0032180586026111513,1.3303411676419779,1.3261984914073581,0.87
4.261821685666796,0.0032180586026111513,1.3303411676419779,1.3261984914073581,0.87
4.261821685666796,0.0032180586026111513,1.3303411676419779,1.3261984914073581,0.87
4.261821685666796,0.0032180586026111513,1.32683829188347,1.3261984914073581,0.87
4.261821685666796,0.0032180586026111513,1.32683829188347,1.3261984914073581,0.87
4.261821685666796,0.0032180586026111513,1.3161789036797567,1.3160978782418482,0.87
4.261821685666796,0.0032180586026111513,1.3161789036797567,1.3160978782418482,0.87
4.261821685666796,0.0032180586026111513,1.3161789036797567,1.3160978782418482,0.87
4.261821685666796,0.0032180586026111513,1.3161789036797567,1.3160978782418482,0.87
4.261821685666796,0.0032180586026111513,1.3161789036797567,1.3160978782418482,0.87
4.261821685666796,0.0032180586026111513,1.3161789036797567,1.3160978782418482,0.87
4.261821685666796,0.0032180586026111513,1.3161789036797567,1.3160978782418482,0.87
4.261821685666796,0.0032180586026111513,1.3161789036797567,1.3160978782418482,0.87
4.261821685666796,0.0032180586026111513,1.3161789036797567,1.3160978782418482,0.87
4.261821685666796,0.0032180586026111513,1.3161789036797567,1.3160978782418482,0.87
4.261821685666796,0.0032180586026111513,1.3161789036797567,1.3160978782418482,0.87
4.261821685666796,0.0032180586026111513,1.3161789036797567,1.3160978782418482,0.87
4.261821685666796,0.0032180586026111513,1.3161789036797567,1.3160978782418482,0.87
4.261821685666796,0.0032180586026111513,1.3161789036797567,1.3160978782418482,0.87
4.261821685666796,0.0032180586026111513,1.3161789036797567,1.3160978782418482,0.87
4.261821685666796,0.0032180586026111513,1.3161789036797567,1.3160978782418482,0.87
4.261821685666796,0.0032180586026111513,1.3161789036797567,1.3160978782418482,0.87
4.261821685666796,0.0032180586026111513,1.3161789036797567,1.3160978782418482,0.87
4.261821685666796,0.0032180586026111513,1.3161789036797567,1.3160978782418482,0.87
4.261821685666796,0.0032180586026111513,1.3161789036797567,1.3160978782418482,0.87
4.261821685666796,0.0032180586026111513,1.3126249521344613,1.3160978782418482,0.87
4.261821685666796,0.0032180586026111513,1.3126249521344613,1.3160978782418482,0.87
4.261821685666796,0.0032180586026111513,1.3126249521344613,1.3160978782418482,0.87
4.261821685666796,0.0032180586026111513,1.3126249521344613,1.3160978782418482,0.87
4.261821685666796,0.0032180586026111513,1.3126249521344613,1.3160978782418482,0.87
4.261821685666796,0.0032180586026111513,1.3126249521344613,1.3160978782418482,0.87
4.261821685666796,0.0032180586026111513,1.3126249521344613,1.3160978782418482,0.87
4.261821685666796,0.0032180586026111513,1.3126249521344613,1.3160978782418482,0.87
4.261821685666796,0.0032180586026111513,1.3126249521344613,1.3160978782418482,0.87
4.261821685666796,0.0032180586026111513,1.3126249521344613,1.3160978782418482,0.87
4.261821685666796,0.0032180586026111513,1.293449886270058,1.303367807040397,0.87
4.261821685666796,0.0032180586026111513,1.293449886270058,1.303367807040397,0.87
4.261821685666796,0.0032180586026111513,1.293449886270058,1.303367807040397,0.87
4.261821685666796,0.0032180586026111513,1.293449886270058,1.303367807040397,0.87
4.261821685666796,0.0032180586026111513,1.293449886270058,1.303367807040397,0.87
4.261821685666796,0.0032180586026111513,1.293449886270058,1.303367807040397,0.87
4.261821685666796,0.0032180586026111513,1.293449886270058,1.303367807040397,0.87
4.261821685666796,0.0032180586026111513,1.293449886270058,1.303367807040397,0.87
4.261821685666796,0.0032180586026111513,1.293449886270058,1.303367807040397,0.87
4.261821685666796,0.0032180586026111513,1.293449886270058,1.303367807040397,0.87
4.261821685666796,0.0032180586026111513,1.293449886270058,1.303367807040397,0.87
4.261821685666796,0.0032180586026111513,1.293449886270058,1.303367807040397,0.87
4.261821685666796,0.0032180586026111513,1.293449886270058,1.303367807040397,0.87
4.261821685666796,0.0032180586026111513,1.293449886270058,1.303367807040397,0.87
4.261821685666796,0.0032180586026111513,1.293449886270058,1.303367807040397,0.87
4.261821685666796,0.0032180586026111513,1.293449886270058,1.303367807040397,0.87
4.261821685666796,0.0032180586026111513,1.293449886270058,1.303367807040397,0.87
4.261821685666796,0.0032180586026111513,1.293449886270058,1.303367807040397,0.87
4.261821685666796,0.0032180586026111513,1.293449886270058,1.303367807040397,0.87
4.261821685666796,0.0032180586026111513,1.293449886270058,1.303367807040397,0.87
4.261821685666796,0.0032180586026111513,1.293449886270058,1.303367807040397,0.87
4.261821685666796,0.0032180586026111513,1.293449886270058,1.303367807040397,0.87
4.261821685666796,0.0032180586026111513,1.293449886270058,1.303367807040397,0.87
4.261821685666796,0.0032180586026111513,1.293449886270058,1.303367807040397,0.87
4.261821685666796,0.0032180586026111513,1.293449886270058,1.303367807040397,0.87
4.261821685666796,0.0032180586026111513,1.293449886270058,1.303367807040397,0.87
4.261821685666796,0.0032180586026111513,1.293449886270058,1.303367807040397,0.87
4.261821685666796,0.0032180586026111513,1.293449886270058,1.303367807040397,0.87
4.261821685666796,0.0032180586026111513,1.293449886270058,1.303367807040397,0.87
4.261821685666796,0.0032180586026111513,1.293449886270058,1.303367807040397,0.87
4.261821685666796,0.0032180586026111513,1.293449886270058,1.303367807040397,0.87
4.261821685666796,0.0032180586026111513,1.2879100573509876,1.303367807040397,0.87
4.261821685666796,0.0032180586026111513,1.2879100573509876,1.303367807040397,0.87
4.261821685666796,0.0032180586026111513,1.2879100573509876,1.303367807040397,0.87
4.261821685666796,0.0032180586026111513,1.2879100573509876,1.303367807040397,0.87
4.261821685666796,0.0032180586026111513,1.2879100573509876,1.303367807040397,0.87
4.261821685666796,0.0032180586026111513,1.2879100573509876,1.303367807040397,0.87
4.261821685666796,0.0032180586026111513,1.2879100573509876,1.303367807040397,0.87
4.261821685666796,0.0032180586026111513,1.2879100573509876,1.303367807040397,0.87
4.261821685666796,0.0032180586026111513,1.2879100573509876,1.303367807040397,0.87
4.261821685666796,0.0032180586026111513,1.2879100573509876,1.303367807040397,0.87
4.261821685666796,0.0032180586026111513,1.2879100573509876,1.303367807040397,0.87
4.261821685666796,0.0032180586026111513,1.2728296127247034,1.2968395778913315,0.87
4.261821685666796,0.0032180586026111513,1.2728296127247034,1.2968395778913315,0.87
4.261821685666796,0.0032180586026111513,1.2728296127247034,1.2968395778913315,0.87
4.261821685666796,0.0032180586026111513,1.2728296127247034,1.2968395778913315,0.87
3.342185223720591,0.0032180586026111513,1.2636332481052415,1.2968395778913315,0.87
3.342185223720591,0.0032180586026111513,1.2636332481052415,1.2968395778913315,0.87
3.342185223720591,0.0032180586026111513,1.2636332481052415,1.2968395778913315,0.87
3.342185223720591,0.0032180586026111513,1.2636332481052415,1.2968395778913315,0.87
3.342185223720591,0.0032180586026111513,1.2636332481052415,1.2968395778913315,0.87
3.342185223720591,0.0032180586026111513,1.2636332481052415,1.2968395778913315,0.87
3.342185223720591,0.0032180586026111513,1.25187832880415,1.291114599484703,0.87
3.342185223720591,0.0032180586026111513,1.25187832880415,1.291114599484703,0.87
3.342185223720591,0.0032180586026111513,1.25187832880415,1.291114599484703,0.87
3.342185223720591,0.0032180586026111513,1.25187832880415,1.291114599484703,0.87
3.342185223720591,0.0032180586026111513,1.25187832880415,1.291114599484703,0.87
3.342185223720591,0.0032180586026111513,1.2504478051571981,1.291114599484703,0.87
3.342185223720591,0.0032180586026111513,1.2504478051571981,1.291114599484703,0.87
3.342185223720591,0.0032180586026111513,1.2504478051571981,1.291114599484703,0.87
3.342185223720591,0.0032180586026111513,1.2504478051571981,1.291114599484703,0.87
3.0403231561022395,0.0032180586026111513,1.23967693588097,1.291114599484703,0.87
3.0403231561022395,0.0032180586026111513,1.238556202281595,1.291114599484703,0.87
3.0403231561022395,0.0032180586026111513,1.238556202281595,1.291114599484703,0.87
3.0403231561022395,0.0032180586026111513,1.238556202281595,1.291114599484703,0.87
3.0403231561022395,0.0032180586026111513,1.238556202281595,1.291114599484703,0.87
3.0403231561022395,0.0032180586026111513,1.238556202281595,1.291114599484703,0.87
3.0403231561022395,0.0032180586026111513,1.238556202281595,1.291114599484703,0.87
3.0403231561022395,0.0032180586026111513,1.238556202281595,1.291114599484703,0.87
3.0403231561022395,0.0032180586026111513,1.238556202281595,1.291114599484703,0.87
3.0403231561022395,0.0032180586026111513,1.238556202281595,1.291114599484703,0.87
3.0403231561022395,0.0032180586026111513,1.238556202281595,1.291114599484703,0.87
3.0403231561022395,0.0032180586026111513,1.238556202281595,1.291114599484703,0.87
3.0403231561022395,0.0032180586026111513,1.2308176069555123,1.291114599484703,0.87
3.0403231561022395,0.0032180586026111513,1.2306618079209357,1.291114599484703,0.87
3.0403231561022395,0.0032180586026111513,1.2306618079209357,1.291114599484703,0.87
3.0403231561022395,0.0032180586026111513,1.2306618079209357,1.291114599484703,0.87
3.0403231561022395,0.0032180586026111513,1.2306618079209357,1.291114599484703,0.87
3.0403231561022395,0.0032180586026111513,1.2306618079209357,1.291114599484703,0.87
3.0403231561022395,0.0032180586026111513,1.2306618079209357,1.291114599484703,0.87
3.0403231561022395,0.0032180586026111513,1.2306618079209357,1.291114599484703,0.87
3.0403231561022395,0.0032180586026111513,1.2306618079209357,1.291114599484703,0.87
3.0403231561022395,0.0032180586026111513,1.2306618079209357,1.291114599484703,0.87
3.0403231561022395,0.0032180586026111513,1.2306618079209357,1.291114599484703,0.87
3.0403231561022395,0.0032180586026111513,1.2306618079209357,1.291114599484703,0.87
3.0403231561022395,0.0032180586026111513,1.2306618079209357,1.291114599484703,0.87
3.0403231561022395,0.0032180586026111513,1.2306618079209357,1.291114599484703,0.87
3.0403231561022395,0.0032180586026111513,1.2306618079209357,1.291114599484703,0.87
3.0403231561022395,0.0032180586026111513,1.2306618079209357,1.291114599484703,0.87
3.0403231561022395,0.0032180586026111513,1.2306618079209357,1.291114599484703,0.87
3.0403231561022395,0.0032180586026111513,1.2306618079209357,1.291114599484703,0.87
3.0403231561022395,0.0032180586026111513,1.2306618079209357,1.291114599484703,0.87
3.0403231561022395,0.0032180586026111513,1.2306618079209357,1.291114599484703,0.87
3.0403231561022395,0.0032180586026111513,1.2306618079209357,1.291114599484703,0.87
3.0403231561022395,0.0032180586026111513,1.229175296828091,1.291114599484703,0.87
3.0403231561022395,0.0032180586026111513,1.229175296828091,1.291114599484703,0.87
3.0403231561022395,0.0032180586026111513,1.227990857369821,1.291114599484703,0.87
3.0403231561022395,0.0032180586026111513,1.227990857369821,1.291114599484703,0.87
3.0403231561022395,0.0032180586026111513,1.227990857369821,1.291114599484703,0.87
3.0403231561022395,0.0032180586026111513,1.227990857369821,1.291114599484703,0.87
3.0403231561022395,0.0032180586026111513,1.227990857369821,1.291114599484703,0.87
3.0403231561022395,0.0032180586026111513,1.227990857369821,1.291114599484703,0.87
3.0403231561022395,0.0032180586026111513,1.227990857369821,1.291114599484703,0.87
3.0403231561022395,0.0032180586026111513,1.227990857369821,1.291114599484703,0.87
3.0403231561022395,0.0032180586026111513,1.227990857369821,1.291114599484703,0.87
3.0403231561022395,0.0032180586026111513,1.227990857369821,1.291114599484703,0.87
3.0403231561022395,0.0032180586026111513,1.227990857369821,1.291114599484703,0.87
3.0403231561022395,0.0032180586026111513,1.2188872078203143,1.2819119469021958,0.87
3.0403231561022395,0.0032180586026111513,1.2188872078203143,1.2819119469021958,0.87
3.0403231561022395,0.0032180586026111513,1.2188872078203143,1.2819119469021958,0.87
3.0403231561022395,0.0032180586026111513,1.2188872078203143,1.2819119469021958,0.87
3.0403231561022395,0.0032180586026111513,1.2046442896872855,1.2739679494470586,0.87
3.0403231561022395,0.0032180586026111513,1.2046442896872855,1.2739679494470586,0.87
3.0403231561022395,0.0032180586026111513,1.2046442896872855,1.2739679494470586,0.87
3.0403231561022395,0.0032180586026111513,1.2046442896872855,1.2739679494470586,0.87
3.0403231561022395,0.0032180586026111513,1.2046442896872855,1.2739679494470586,0.87
3.0403231561022395,0.0032180586026111513,1.2046442896872855,1.2739679494470586,0.87
3.0403231561022395,0.0032180586026111513,1.2046442896872855,1.2739679494470586,0.87
3.0403231561022395,0.0032180586026111513,1.2046442896872855,1.2739679494470586,0.87
3.0403231561022395,0.0032180586026111513,1.2046442896872855,1.2739679494470586,0.87
3.0403231561022395,0.0032180586026111513,1.2046442896872855,1.2739679494470586,0.87
3.0403231561022395,0.0032180586026111513,1.2046442896872855,1.2739679494470586,0.87
3.0403231561022395,0.0032180586026111513,1.2046442896872855,1.2739679494470586,0.87
3.0403231561022395,0.0032180586026111513,1.2046442896872855,1.2739679494470586,0.87
3.0403231561022395,0.0032180586026111513,1.2046442896872855,1.2739679494470586,0.87
3.0403231561022395,0.0032180586026111513,1.2046442896872855,1.2739679494470586,0.87
3.0403231561022395,0.0032180586026111513,1.2046442896872855,1.2739679494470586,0.87
3.0403231561022395,0.0032180586026111513,1.2046442896872855,1.2739679494470586,0.87
3.0403231561022395,0.0032180586026111513,1.2046442896872855,1.2739679494470586,0.87
3.0403231561022395,0.0032180586026111513,1.2046442896872855,1.2739679494470586,0.87
3.0403231561022395,0.0032180586026111513,1.2046442896872855,1.2739679494470586,0.87
3.0403231561022395,0.0032180586026111513,1.2046442896872855,1.2739679494470586,0.87
3.0403231561022395,0.0032180586026111513,1.2046442896872855,1.2739679494470586,0.87
3.0403231561022395,0.0032180586026111513,1.2046442896872855,1.2739679494470586,0.87
3.0403231561022395,0.0032180586026111513,1.2046442896872855,1.2739679494470586,0.87
3.0403231561022395,0.0032180586026111513,1.2046442896872855,1.2739679494470586,0.87
3.0403231561022395,0.0032180586026111513,1.2046442896872855,1.2739679494470586,0.87
3.0403231561022395,0.0032180586026111513,1.2046442896872855,1.2739679494470586,0.87
3.0403231561022395,0.0032180586026111513,1.2046442896872855,1.2739679494470586,0.87
3.0403231561022395,0.0032180586026111513,1.2046442896872855,1.2739679494470586,0.87
3.0403231561022395,0.0032180586026111513,1.2046442896872855,1.2739679494470586,0.87
3.0403231561022395,0.0032180586026111513,1.2046442896872855,1.2739679494470586,0.87
3.0403231561022395,0.0032180586026111513,1.2046442896872855,1.2739679494470586,0.87
3.0403231561022395,0.0032180586026111513,1.2046442896872855,1.2739679494470586,0.87
3.0403231561022395,0.0032180586026111513,1.2046442896872855,1.2739679494470586,0.87
3.0403231561022395,0.0032180586026111513,1.2046442896872855,1.2739679494470586,0.87
3.0403231561022395,0.0032180586026111513,1.2046442896872855,1.2739679494470586,0.87
3.0403231561022395,0.0032180586026111513,1.2046442896872855,1.2739679494470586,0.87
3.0403231561022395,0.0032180586026111513,1.2046442896872855,1.2739679494470586,0.87
3.0403231561022395,0.0032180586026111513,1.2046442896872855,1.2739679494470586,0.87
3.0403231561022395,0.0032180586026111513,1.2046442896872855,1.2739679494470586,0.87
3.0403231561022395,0.0032180586026111513,1.2046442896872855,1.2739679494470586,0.87
3.0403231561022395,0.0032180586026111513,1.2046442896872855,1.2739679494470586,0.87
3.0403231561022395,0.0032180586026111513,1.2046442896872855,1.2739679494470586,0.87
3.0403231561022395,0.0032180586026111513,1.2046442896872855,1.2739679494470586,0.87
3.0403231561022395,0.0032180586026111513,1.2046442896872855,1.2739679494470586,0.87
3.0403231561022395,0.0032180586026111513,1.2046442896872855,1.2739679494470586,0.87
3.0403231561022395,0.0032180586026111513,1.2046442896872855,1.2739679494470586,0.87
3.0403231561022395,0.0032180586026111513,1.2046442896872855,1.2739679494470586,0.87
3.0403231561022395,0.0032180586026111513,1.2046442896872855,1.2739679494470586,0.87
3.0403231561022395,0.0032180586026111513,1.2046442896872855,1.2739679494470586,0.87
3.0403231561022395,0.0032180586026111513,1.2046442896872855,1.2739679494470586,0.87
3.0403231561022395,0.0032180586026111513,1.2046442896872855,1.2739679494470586,0.87
3.0403231561022395,0.0032180586026111513,1.2046442896872855,1.2739679494470586,0.87
3.0403231561022395,0.0032180586026111513,1.2046442896872855,1.2739679494470586,0.87
3.0403231561022395,0.0032180586026111513,1.2046442896872855,1.2739679494470586,0.87
3.0403231561022395,0.0032180586026111513,1.2045607521890358,1.2739679494470586,0.87
3.0403231561022395,0.0032180586026111513,1.2045607521890358,1.2739679494470586,0.87
3.0403231561022395,0.0032180586026111513,1.2045607521890358,1.2739679494470586,0.87
3.0403231561022395,0.0032180586026111513,1.2045607521890358,1.2739679494470586,0.87
3.0403231561022395,0.0032180586026111513,1.2045607521890358,1.2739679494470586,0.87
3.0403231561022395,0.0032180586026111513,1.2045607521890358,1.2739679494470586,0.87
3.0403231561022395,0.0032180586026111513,1.2045607521890358,1.2739679494470586,0.87
3.0403231561022395,0.0032180586026111513,1.2045607521890358,1.2739679494470586,0.87
3.0403231561022395,0.0032180586026111513,1.2045607521890358,1.2739679494470586,0.87
3.0403231561022395,0.0032180586026111513,1.2045607521890358,1.2739679494470586,0.87
3.0403231561022395,0.0032180586026111513,1.2045607521890358,1.2739679494470586,0.87
3.0403231561022395,0.0032180586026111513,1.2045607521890358,1.2739679494470586,0.87
3.0403231561022395,0.0032180586026111513,1.2045607521890358,1.2739679494470586,0.87
3.0403231561022395,0.0032180586026111513,1.2045607521890358,1.2739679494470586,0.87
3.0403231561022395,0.0032180586026111513,1.2045607521890358,1.2739679494470586,0.87
3.0403231561022395,0.0032180586026111513,1.2045607521890358,1.2739679494470586,0.87
3.0403231561022395,0.0032180586026111513,1.2045607521890358,1.2739679494470586,0.87
3.0403231561022395,0.0032180586026111513,1.2045607521890358,1.2739679494470586,0.87
3.0403231561022395,0.0032180586026111513,1.2045607521890358,1.2739679494470586,0.87
3.0403231561022395,0.0032180586026111513,1.2045607521890358,1.2739679494470586,0.87
3.0403231561022395,0.0032180586026111513,1.2045607521890358,1.2739679494470586,0.87
3.0403231561022395,0.0032180586026111513,1.2045607521890358,1.2739679494470586,0.87
3.0403231561022395,0.0032180586026111513,1.2045607521890358,1.2739679494470586,0.87
3.0403231561022395,0.0032180586026111513,1.2045607521890358,1.2739679494470586,0.87
3.0403231561022395,0.0032180586026111513,1.1823055548090367,1.2261931175368774,0.87
3.0403231561022395,0.0032180586026111513,1.1823055548090367,1.2261931175368774,0.87
3.0403231561022395,0.0032180586026111513,1.1823055548090367,1.2261931175368774,0.87
3.0403231561022395,0.0032180586026111513,1.1823055548090367,1.2261931175368774,0.87
3.0403231561022395,0.0032180586026111513,1.1823055548090367,1.2261931175368774,0.87
3.0403231561022395,0.0032180586026111513,1.1823055548090367,1.2261931175368774,0.87
3.0403231561022395,0.0032180586026111513,1.1823055548090367,1.2261931175368774,0.87
3.0403231561022395,0.0032180586026111513,1.1823055548090367,1.2261931175368774,0.87
3.0403231561022395,0.0032180586026111513,1.1815527826614085,1.2261931175368774,0.87
3.0403231561022395,0.0032180586026111513,1.1815527826614085,1.2261931175368774,0.87
3.0403231561022395,0.0032180586026111513,1.1815527826614085,1.2261931175368774,0.87
3.0403231561022395,0.0032180586026111513,1.1815527826614085,1.2261931175368774,0.87
3.0403231561022395,0.0032180586026111513,1.1815527826614085,1.2261931175368774,0.87
3.0403231561022395,0.0032180586026111513,1.1815527826614085,1.2261931175368774,0.87
3.0403231561022395,0.0032180586026111513,1.1815527826614085,1.2261931175368774,0.87
3.0403231561022395,0.0032180586026111513,1.1815527826614085,1.2261931175368774,0.87
3.0403231561022395,0.0032180586026111513,1.1815527826614085,1.2261931175368774,0.87
3.0403231561022395,0.0032180586026111513,1.1743252550046492,1.2261931175368774,0.87
3.0403231561022395,0.0032180586026111513,1.1743252550046492,1.2261931175368774,0.87
3.0403231561022395,0.0032180586026111513,1.1743252550046492,1.2261931175368774,0.87
3.0403231561022395,0.0032180586026111513,1.1743252550046492,1.2261931175368774,0.87
3.0403231561022395,0.0032180586026111513,1.1743252550046492,1.2261931175368774,0.87
3.0403231561022395,0.0032180586026111513,1.1743252550046492,1.2261931175368774,0.87
3.0403231561022395,0.0032180586026111513,1.1701771919237447,1.2261931175368774,0.87
3.0403231561022395,0.0032180586026111513,1.1701771919237447,1.2261931175368774,0.87
3.0403231561022395,0.0032180586026111513,1.1701771919237447,1.2261931175368774,0.87
3.0403231561022395,0.0032180586026111513,1.1701771919237447,1.2261931175368774,0.87
3.0403231561022395,0.0032180586026111513,1.1701771919237447,1.2261931175368774,0.87
3.0403231561022395,0.0032180586026111513,1.1701771919237447,1.2261931175368774,0.87
3.0403231561022395,0.0032180586026111513,1.1701771919237447,1.2261931175368774,0.87
3.0403231561022395,0.0032180586026111513,1.1701771919237447,1.2261931175368774,0.87
3.0403231561022395,0.0032180586026111513,1.1701771919237447,1.2261931175368774,0.87
3.0403231561022395,0.0032180586026111513,1.1701771919237447,1.2261931175368774,0.87
3.0403231561022395,0.0032180586026111513,1.1701771919237447,1.2261931175368774,0.87
3.0403231561022395,0.0032180586026111513,1.1664577112671495,1.2096219049551795,0.87
3.0403231561022395,0.0032180586026111513,1.1664577112671495,1.2096219049551795,0.87
3.0403231561022395,0.0032180586026111513,1.1664577112671495,1.2096219049551795,0.87
3.0403231561022395,0.0032180586026111513,1.1664577112671495,1.2096219049551795,0.87
3.0403231561022395,0.0032180586026111513,1.1664577112671495,1.2096219049551795,0.87
3.0403231561022395,0.0032180586026111513,1.1664577112671495,1.2096219049551795,0.87
3.0403231561022395,0.0032180586026111513,1.1664577112671495,1.2096219049551795,0.87
3.0403231561022395,0.0032180586026111513,1.1664577112671495,1.2096219049551795,0.87
3.0403231561022395,0.0032180586026111513,1.1664577112671495,1.2096219049551795,0.87
3.0403231561022395,0.0032180586026111513,1.1664577112671495,1.2096219049551795,0.87
3.0403231561022395,0.0032180586026111513,1.1664577112671495,1.2096219049551795,0.87
3.0403231561022395,0.0032180586026111513,1.1664577112671495,1.2096219049551795,0.87
3.0403231561022395,0.0032180586026111513,1.1664577112671495,1.2096219049551795,0.87
3.0403231561022395,0.0032180586026111513,1.1664577112671495,1.2096219049551795,0.87
3.0403231561022395,0.0032180586026111513,1.1664577112671495,1.2096219049551795,0.87
3.0403231561022395,0.0032180586026111513,1.1664577112671495,1.2096219049551795,0.87
3.0403231561022395,0.0032180586026111513,1.1664577112671495,1.2096219049551795,0.87
3.0403231561022395,0.0032180586026111513,1.1664577112671495,1.2096219049551795,0.87
3.0403231561022395,0.0032180586026111513,1.1664577112671495,1.2096219049551795,0.87
3.0403231561022395,0.0032180586026111513,1.1664577112671495,1.2096219049551795,0.87