worst,best,mean,median,limit
1488.8101206997446,307.10874012028853,817.8768283286176,615.9729229890045,0.01
1477.4934567090222,306.2862544625384,807.6633893544805,607.2605181254869,0.01
1463.763512014089,305.3904150370256,795.7211691064155,613.5048102535962,0.01
1448.3852433440866,304.50656775937944,782.9077101503622,609.4896497310312,0.01
1431.7373930305848,295.5812343322807,769.6646964666137,601.6649498396641,0.01
1414.0126568150565,272.2591651520372,756.2257185296959,597.9086602333327,0.01
1395.3152163818697,250.11231180515472,743.8206258387796,603.2760156839765,0.01
1375.70902415473,229.2584889757038,730.2085043968128,608.7734717405381,0.01
1355.2418326889394,209.73814940759019,717.7788006103219,624.4420814386899,0.01
1333.9570754978386,191.54839112511945,704.951338942222,618.3726667945763,0.01
1311.8995644964887,174.66097814557008,692.0289522871251,614.6086153998442,0.01
1289.117970074603,159.03226293439297,679.5268971617434,607.7987277317922,0.01
1265.6655714970198,144.60896716320485,667.161949867193,604.6008049669722,0.01
1255.379781017137,131.33179897155242,654.9674473613937,591.4062933538091,0.01
1261.3592476948281,119.1378944015313,648.968735263802,575.2231326547494,0.01
1255.4213864552744,107.96257736773794,637.4421145043069,549.9819590577692,0.01
1254.4154815545949,97.74068845762736,632.1214076643909,541.3978692219093,0.01
1254.0773148744993,88.4076131024209,624.7729303231495,541.484191428318,0.01
1253.7412604308433,79.90008146248545,615.7752135184796,539.8878226249931,0.01
1253.4113080428972,72.15678432135576,611.7000074233657,533.2066911352176,0.01
1253.0897335436016,65.11883574132071,604.4590805171458,519.6770547342135,0.01
1252.7772392917518,58.730106488338606,595.7287132555334,519.0387815621478,0.01
1252.473199775636,52.93744854226338,587.2552472400257,507.41250091916277,0.01
1252.175944974127,47.690828603685986,581.1321279785697,493.0124197610379,0.01
1251.8830334830714,42.94338659811979,573.4026630058069,497.1295734604465,0.01
1251.5914872390274,38.65143343793068,565.8501348127537,489.24233037709064,0.01
1251.2979757784135,34.77440062593632,558.4949166676471,485.37812221261834,0.01
1250.9989489933819,31.274752659107094,551.3443024335562,481.09251128134076,0.01
1250.6907236697914,28.117871637103804,544.3993840896059,478.6392173543628,0.01
1250.3695318591285,25.2719220257527,537.6582431463229,474.53474306958094,0.01
1250.0315395934,22.707702192371244,531.1175241141813,478.8139081611955,0.01
1249.6728436344783,20.39848813216031,524.7732477790122,464.0365207261053,0.01
1249.2894525841152,18.319873748279747,520.4085377818981,459.4060144431137,0.01
1248.8772572137739,16.449611131388338,514.6845125764078,454.64651437702935,0.01
1248.4319935394815,14.76745350091403,509.1313813975921,451.27110118014207,0.01
1247.9492010628933,13.255002810192309,503.7469347982507,447.72077161014045,0.01
1247.4241777424224,11.895563469032595,498.5290762775541,439.18751349339533,0.01
1246.851932624368,10.674003187517428,493.47526433302636,437.73037554845354,0.01
1246.2271366149264,9.576621581218433,494.38944945367723,441.0867170827081,0.01
1245.544071569331,8.591026888270903,489.91185956205766,438.4156789566637,0.01
1244.7965776784567,7.706020921674394,485.5537991082752,436.003724142598,0.01
1243.9779990171646,6.9114922054934596,481.3264665644508,434.6975514115446,0.01
1243.0811270607055,1.907519489431479,474.8876074189449,433.6399310254975,0.01
1242.0981419601094,2.11189038513362,471.1633551737339,432.6887794316773,0.01
1241.0205513842113,2.2166997126878414,467.56327803671775,428.5067977995722,0.01
1239.8391267783522,2.1826649081012874,464.0834321000804,427.0748256277194,0.01
1238.5438369544586,2.0634661642790206,462.4597982719778,435.1803898192993,0.01
1237.1237790130454,1.9054119369884575,459.3648189931267,426.1706242146163,0.01
1235.56710670533,1.736239428984618,456.38767965277106,423.58887067488865,0.01
1233.8609564751064,1.5703409957368422,454.8968528845401,422.654402445125,0.01
1231.9913715781922,1.4143828878285376,452.36661402233045,421.81530823276455,0.01
1229.9432248659482,1.270944310536379,449.9120492370894,421.0620841542033,0.01
1227.7001410427208,1.140561163527309,451.67263598546873,418.3613543297687,0.01
1225.2444194697432,1.0228040152303493,449.6186625948838,417.95905871429346,0.01
1222.5569588945896,0.9168269534236515,447.5723743358531,417.59883000452606,0.01
1219.6171858401376,0.8216395599727093,445.55360057337487,417.2763479126228,0.01
1216.4029887938223,0.7362375417325211,443.5686285587038,416.98771865750484,0.01
1212.890660799249,0.6596623563998492,441.6180404100866,416.7294365230957,0.01
1209.05485356869,0.5910256729612229,439.700007708872,416.4983481018696,0.01
1204.8685468043136,0.5295167303011112,437.8118020820054,416.2916192101494,0.01
1200.3030370325232,0.47440162672762654,435.9505256562823,416.10670441352187,0.01
1195.3279509082263,0.4250190217121599,434.1134744171899,415.9413190659243,0.01
1189.9112886168834,0.38077444885323075,432.29832022668154,415.7934137418818,0.01
1184.0195036658652,0.3411342992740174,430.50319940394337,415.66115092590087,0.01
1177.617625977237,0.3056199680111149,428.7267505034774,415.54288381429853,0.01
1170.6694357242022,0.2738023761307886,426.9681222028297,415.4371370812297,0.01
1163.1376957322334,0.24529694474222197,425.2269616718962,415.6771157090688,0.01
1154.9844504186926,0.2197590318182847,423.5033887353511,415.5578057604312,0.01
1146.1713990822518,0.19687981288586798,421.79795880747145,415.45104757047176,0.01
1136.6603507734937,0.17638257418900594,420.1116166086735,415.1680970934939,0.01
1126.4137668689266,0.15801938296363005,418.44564237207595,414.9847603109713,0.01
1115.3953957163533,0.1415680994698505,416.8015922548718,414.96446492519965,0.01
1103.5710012095337,0.12682969726699866,417.1781588184736,414.72437282626294,0.01
1090.9091837913004,0.11362586074938008,415.7368529400457,414.70560810381573,0.01
1077.3822881181145,0.10179683169621967,414.3298068809142,414.68880759322616,0.01
1062.9673864408014,0.091199479277293,412.9514062383675,414.67376566964896,0.01
1047.6473207376525,0.08170557046616977,411.59955440611185,414.6602982298895,0.01
1031.4117799478336,0.07320022014505412,410.2739749936743,414.648240441948,0.01
1014.2583815843004,0.06558050228841239,408.97528940126983,414.63744472928227,0.01
996.1937199763252,0.05875420552342803,407.7045243037027,414.7309569086128,0.01
977.2343369536575,0.05263871808995191,406.46284545605124,414.7112640809138,0.01
957.4075656027094,0.04716002876205039,405.251410144084,414.69365884209935,0.01
936.7521945397807,0.04225183169126012,404.07128329095906,414.67791976366124,0.01
915.3188997082243,0.037854724370731674,402.92338938984335,414.6638489100271,0.01
893.1703936906798,0.03391548904608044,401.8084860481706,414.5926663173147,0.01
870.381249429651,0.030386448895342255,400.72715163508497,414.58768695253525,0.01
847.0373662774814,0.027224891207197288,399.6797827756579,414.5832286594092,0.01
823.2350612728128,0.02439255058834533,398.66659899769076,414.57923689639074,0.01
810.0204973681872,0.02185514595771565,397.68765260017676,412.5191067251648,0.01
810.0105869549994,0.01958196573070836,396.74284222052165,409.01108244725697,0.01
810.0018620599424,0.017545496183402065,395.8319288440936,405.79398693821463,0.01
809.994180684924,0.015721088501095437,394.9545532191034,404.7493477181881,0.01
809.9874178501212,0.0140866604861003,394.11025384505615,404.7465500088123,0.01
809.9814635573875,0.012622429320686024,393.29848489657786,414.5626783253435,0.01
830.4111246225955,0.011310672149647871,394.2895066835632,414.56083680457346,0.01
823.27481330521,0.010135511589396629,393.70266588451153,412.77730643919614,0.01
817.8422813880261,0.009082723568440088,393.15764428185867,409.4155898710434,0.01
813.3580835397325,0.008139565173905794,392.64523274626373,406.30083243898633,0.01
809.9608099902881,0.007294620423294873,392.1601747137364,404.7349294811728,0.01
809.9580347970615,0.0065376620940469365,391.69921536998845,404.7336351220298,0.01
809.9555909213117,0.0058595279397195554,391.2601554122989,404.7324757106667,0.01
809.9534387517447,0.005252009793821344,390.84138864587635,404.7314371755497,0.01
809.9515434209977,0.004707754223318261,390.44167308344686,397.34117084706764,0.01
809.9498742364711,0.004220173523094672,390.0600145692011,394.9027124955023,0.01
809.9484041795411,0.0037833659815760257,389.6956039544384,394.90242474585875,0.01
809.9471094649385,0.0033920444465138644,389.34777903743526,394.90216700100166,0.01
809.9459691530666,0.0030414723307785607,389.0159973899257,394.9019361316704,0.01
809.9449648088892,0.0027274062799733656,388.6998136356142,394.9017293350224,0.01
809.9440802017916,0.0024460448125864787,388.39885847850906,394.9015441005775,0.01
809.9433010414839,0.002193982305357167,388.1128186357562,394.90137817971583,0.01
809.9426147456105,0.001968167772702145,387.84141771907923,394.9012295583585,0.01
809.9420102352533,0.0017658679372516417,387.58439848655644,394.90109643249946,0.01
809.9414777549728,0.001584634145046948,387.3415069864835,394.90097718628994,0.01
809.9410087144348,0.0014222727281776315,387.1124790631661,394.9008703724097,0.01
809.9405955490308,0.0012768184519700299,386.8970295628508,394.9007746944867,0.01
809.9402315972047,0.0011465107268122665,386.6948444116881,394.9006889913512,0.01
809.9399109924822,0.0010297722997165693,386.50557556665467,394.9017874368436,0.01
809.9396285684336,0.0009251901601601276,386.3288386851359,394.9015962932804,0.01
809.9393797750197,0.0008314984404478309,386.16421323251257,394.90142506250265,0.01
809.9391606049517,0.0007475630895896757,386.0112446566005,394.9012716698538,0.01
809.9389675288654,0.0006723681501625833,385.86944820509785,394.90113425685684,0.01
809.9387974382512,0.0006050034583040542,385.73831394511615,394.9010111586843,0.01
809.9386475952102,0.0005446536292765813,385.6173125572961,199.8616446458649,0.01
809.9385155882189,0.0004905881855847838,385.5059015141276,199.61340321410879,0.01
809.9383992931811,0.00044215271714165283,385.40353130541297,394.9007136002922,0.01
809.9382968391345,0.00039876095945601264,385.3096514361249,394.90063432246757,0.01
809.9382065780558,0.0003598876971864229,385.22371598695315,394.9005633029184,0.01
809.9381270582702,0.0003250624074553343,385.14518859054004,394.900499681327,0.01
809.9380570010387,0.00029386356368377164,385.07354673323243,394.90044268700854,0.01
809.9379952799391,0.0002659135348039854,385.00828534088777,394.90039162957225,0.01
809.9379409027083,0.0002408740131158993,384.9489196468149,394.9003458905543,0.01
809.9378929952529,0.00021844191951458924,384.8949873702467,394.9003049159237,0.01
809.9378507875653,0.0001983457359528984,384.84605025540475,394.90006588992173,0.01
809.9378136013213,0.00018034221852758492,384.80169503522404,394.9000540739,0.01
809.9377808389576,0.00016421345185335667,384.761533891462,394.9000434893681,0.01
809.9377519740495,0.00014976421334722545,384.7252044854444,394.90003400796274,0.01
809.9377265428383,0.00013681960990652442,384.6923696323993,394.9000255147019,0.01
809.9377041367668,0.0001252229596957477,384.6627166883141,394.9000179065899,0.01
809.9376843959062,0.00011483389721433923,384.6359567124078,394.900011091368,0.01
809.9376670031645,0.00010552667299634777,384.61182346151475,394.90000498639506,0.01
809.9376516791868,0.00009718863270791189,384.59007226540484,394.8999995176441,0.01
809.9376381778619,0.00008971885279152048,384.5704788248636,394.89999461880495,0.01
809.9376262823648,0.00008302691912831506,384.55283796745834,394.89999023047926,0.01
809.9376158016706,0.00007703183257490309,384.5369623895547,394.89998629946035,0.01
809.9376065674833,0.00007166102909650363,384.5226814074391,394.8999827780874,0.01
809.9375984315307,0.00006684949994451017,384.50983973536466,394.9000280677475,0.01
809.9375912631809,0.00006253900698993675,384.4982963040074,394.90002019771464,0.01
809.9375849473436,0.00005867737581866095,384.4879231291434,394.90001314738424,0.01
809.93757938262,0.000055217865792656085,384.4786042372982,394.900006831377,0.01
809.9375744796739,0.00005211860252529732,384.4702346526062,394.9000011732071,0.01
809.9375701597961,0.00004934207277074165,384.46271944710287,394.89999610435547,0.01
809.9375663536404,0.00004685466990395071,384.45597285506284,394.8999915634406,0.01
809.9375630001091,0.000044626286126003833,384.44991745076834,394.8999874954741,0.01
809.9375600453719,0.00004262994912096474,384.44448338814107,394.89996375038857,0.01
809.9375574420015,0.00004084149554728356,384.4396076999976,394.89996257869956,0.01
809.9375551482115,0.00003923927761206869,384.43523365419287,394.8999615290959,0.01
809.9375531271853,0.00003780390238716791,384.43131016360644,394.8999605888557,0.01
809.9375513464855,0.00003651799647741427,384.4277912467446,394.8999597465828,0.01
809.9375497775322,0.000035365994790481636,384.424635535637,394.89995899206895,0.01
809.937548395145,0.000034333953635723446,384.42180582771806,394.8999583161693,0.01
809.9375471771376,0.0000334093815581582,384.41926867843426,394.89995771069226,0.01
809.9375461039627,0.00003258108699810691,384.41699403141865,394.8999571683,0.01
809.9375451583976,0.00003183904482284561,384.41495488321044,394.8999566824191,0.01
809.9375443252676,0.00003117427331744693,384.41312697965316,394.8999562471612,0.01
809.9375435912027,0.000030578725954910624,384.41148854125873,394.8999558572517,0.01
809.9375429444231,0.000030045194307604106,384.4100200150201,394.8999555079654,0.01
809.9375423745493,0.000029567220622084278,384.4087038503052,394.89995519506965,0.01
809.9375418724364,0.000029139019488866325,384.4075242966542,394.8999549147728,0.01
809.9375414300274,0.00002875540781133168,384.4064672214616,394.89995466367844,0.01
809.9375410402226,0.000028411742505340953,384.4055199456923,394.8999544387438,0.01
809.9375406967672,0.00002810386399687559,384.40467109592646,394.8999542372432,0.01
809.9375403941498,0.000027828045517708233,384.40391047117475,394.89995405673534,0.01
809.9375401275145,0.00002758094865384919,384.4032289230527,394.8999538950327,0.01
809.9375398925829,0.000027359582304598007,384.4026182480045,394.89995375017634,0.01
809.9375396855852,0.000027161267780684284,384.40207109041216,394.89995362041094,0.01
809.9375395031998,0.000026983603902408504,384.4015808555123,394.8999535041643,0.01
809.9375393425004,0.000026824440624295676,384.4011416311546,394.8999534000278,0.01
809.9375392009084,0.00002668185140919377,384.40074811752163,394.89995330674003,0.01
809.9375390761518,0.00002655411049090617,384.40039556401643,394.8999532231706,0.01
809.9375389662289,0.00002643967138737935,384.40007971259786,394.89995314830685,0.01
809.9375388693758,0.00002633714893818251,384.3997967469199,394.8999530812422,0.01
809.9375387840386,0.000026245302706229268,384.39954324668076,394.89995302116375,0.01
809.937538708848,0.000026163020493186195,384.39931614666443,394.899952967344,0.01
809.9375386425976,0.00002608930640235485,384.39911269998925,394.8999529191308,0.01
809.9375385842243,0.00002602326844680647,384.398930445142,394.89995287593996,0.01
809.9375385327915,0.000025964107180698193,384.39876717640885,394.89995283724846,0.01
809.9375384874741,0.000025911106490639213,384.39862091735614,394.89995280258734,0.01
809.9375384475449,0.000025863624841804267,384.3984898970487,394.89995277153696,0.01
809.9375384123632,0.00002582108754722867,384.3983725287269,394.899952743721,0.01
809.9375383813646,0.000025782979832911224,384.39826739068684,394.89995271880275,0.01
809.9375383540516,0.00002574884035766445,384.39817320914227,394.89995269648006,0.01
809.9375383299862,0.00002571825575614639,384.3980888428566,394.8999526764827,0.01
809.9375383087821,0.00002569085631876078,384.3980132693715,394.89995265856845,0.01
809.937538290099,0.000025666309738880955,384.39794557265986,394.89995264252013,0.01
809.9375382736375,0.000025644319293860462,384.39788493206123,394.8999526281436,0.01
809.9375382591331,0.000025624618956499035,384.3978306123634,394.8999526152646,0.01
809.9375382463534,0.00002560696975706378,384.39778195491635,394.8999526037271,0.01
809.937538235093,0.00002559115864642081,384.39773836966515,394.8999525933914,0.01
809.9375382251716,0.00002557699394856172,384.3976993280139,394.8999525841324,0.01
809.9375382164297,0.00002556430445110891,384.39766435642844,394.8999525758377,0.01
809.9375382087272,0.000025552935994710424,384.39763303070583,394.899952568407,0.01
809.9375382019406,0.00002554275147303997,384.39760497083853,394.8999525617504,0.01
809.9375381959609,0.00002553362764956546,384.3975798364128,394.8999525557871,0.01
809.9375381906921,0.000025525453679620114,384.39755732248557,394.89995255044505,0.01
809.9375381860498,0.000025518130996715627,384.39753715589103,394.8999525456593,0.01
809.9375381819594,0.0000255115706977449,384.3975190919305,394.89995254137204,0.01
809.9375381783553,0.00002550569377035572,384.39750291140774,394.89995253753136,0.01
809.9375381751798,0.00002550042859184032,384.397488417971,394.89995253409074,0.01
809.9375381723819,0.000025495711952316924,384.39747543573446,394.89995253100847,0.01
809.9375381699166,0.00002549148621255881,384.3974638071458,394.89995252824735,0.01
809.9375381677445,0.000025487700668236357,384.39745339107486,394.89995252577376,0.01
809.9375381658306,0.000025484309276180284,384.3974440611031,394.8999525235578,0.01
809.9375381641443,0.000025481270995442173,384.39743570399037,394.8999525215726,0.01
809.9375381626584,0.000025478549105173443,384.39742821830185,394.8999525197942,0.01
809.9375381613492,0.00002547611074987799,384.39742151317694,394.899952518201,0.01
809.9375381601957,0.00002547392614360433,384.39741550722835,394.89995251677385,0.01
809.9375381591793,0.000025471969365753466,384.3974101275528,394.8999525154953,0.01
809.9375381582837,0.000025470215973655286,384.397405308849,394.8999525143498,0.01
809.9375381574947,0.000025468645276305324,384.3974009926226,394.8999525133238,0.01
809.9375381567994,0.000025467238174314843,384.3973971264794,394.89995251240464,0.01
809.9375381561869,0.000025465977614658186,384.3973936634876,394.89995251158103,0.01
809.9375381556472,0.000025464848363299097,384.39739056160863,394.89995251084326,0.01
809.9375381551715,0.000025463836436756537,384.3973877831873,394.8999525101824,0.01
809.9375381547526,0.00002546293012528622,384.3973852944949,394.89995250959043,0.01
809.9375381543833,0.000025462118173891213,384.39738306531893,394.89995250906003,0.01
809.9375381540581,0.00002546139080550347,384.39738106859835,394.89995250858493,0.01
809.9375381537714,0.00002546073915254965,384.3973792800931,394.89995250815923,0.01
809.9375381535189,0.00002546015525695111,384.39737767809044,394.8999525077778,0.01
809.9375381532964,0.000025459632183810754,384.3973762431426,394.8999525074363,0.01
809.9375381531003,0.000025459163680352503,384.39737495782947,394.89995250713037,0.01
809.9375381529275,0.000025458743948547635,384.39737380654674,394.89995250685604,0.01
809.9375381527752,0.000025458367758801614,384.3973727753183,394.8999525066106,0.01
809.9375381526412,0.000025458030904701445,384.39737185162477,394.89995250639055,0.01
809.937538152523,0.000025457729066147294,384.3973710242522,394.8999525061935,0.01
809.9375381524189,0.000025457458605160355,384.3973702831569,394.8999525060168,0.01
809.9375381523272,0.000025457216565882845,384.3973696193415,394.89995250585866,0.01
809.9375381522464,0.000025456999537709635,384.3973690247473,394.8999525057169,0.01
809.9375381521751,0.00002545680513321713,384.39736849215603,394.89995250559,0.01
809.9375381521123,0.00002545663096498174,384.39736801510185,394.8999525054762,0.01
809.9375381520571,0.00002545647487295355,384.3973675877938,394.89995250537436,0.01
809.9375381520083,0.00002545633515182999,384.39736720504413,394.899952505283,0.01
809.9375381519654,0.00002545620986893482,384.3973668622062,394.8999525052013,0.01
809.9375381519276,0.000025456097773712827,384.3973665551181,394.89995250512806,0.01
809.9375381518943,0.00002545599727454828,384.3973662800521,394.89995250506246,0.01
809.9375381518648,0.00002545590700719913,384.39736603366856,394.89995250500357,0.01
809.937538151839,0.000025455826516918023,384.397365812977,394.899952504951,0.01
809.9375381518162,0.000025455754212089232,384.3973656152981,394.8999525049037,0.01
809.9375381517962,0.00002545568941059173,384.39736543823193,394.8999525048615,0.01
809.9375381517784,0.00002545563154399133,384.39736527962935,394.89995250482366,0.01
809.9375381517629,0.000025455579589106492,384.39736513756475,394.8999525047897,0.01
809.9375381517491,0.000025455532863816188,384.3973650103141,394.8999525047594,0.01
809.937538151737,0.00002545549136812042,384.3973648963321,394.89995250473214,0.01
809.9375381517264,0.00002545545396515081,384.3973647942355,394.89995250470764,0.01
809.9375381517169,0.00002545542042753368,384.3973647027846,394.8999525046859,0.01
809.9375381517086,0.00002545539052789536,384.39736462086955,394.8999525046662,0.01
809.9375381517013,0.00002545536358411482,384.3973645474957,394.8999525046488,0.01
809.937538151695,0.0000254553397098789,384.39736448177297,394.8999525046331,0.01
809.9375381516893,0.000025455317882006057,384.397364422903,394.8999525046189,0.01
809.9375381516843,0.00002545529878261732,384.3973643701718,394.8999525046064,0.01
809.9375381516799,0.000025455281388531148,384.3973643229386,394.89995250459503,0.01
809.937538151676,0.000025455265927121218,384.39736428063026,394.8999525045849,0.01
809.9375381516726,0.000025455251943640178,384.39736424273354,394.89995250457594,0.01
809.9375381516696,0.000025455239665461704,384.3973642087883,394.89995250456775,0.01
809.9375381516669,0.00002545522841046477,384.39736417838265,394.8999525045606,0.01
809.9375381516646,0.000025455218519709888,384.397364151147,394.8999525045539,0.01
809.9375381516626,0.00002545520942476287,384.3973641267514,394.8999525045481,0.01
809.9375381516608,0.00002545520146668423,384.39736410489945,394.89995250454297,0.01
809.9375381516592,0.00002545519441810029,384.3973640853257,394.89995250453825,0.01
809.9375381516577,0.000025455187824263703,384.39736406779303,394.899952504534,0.01
809.9375381516564,0.00002545518202623498,384.3973640520884,394.8999525045303,0.01
809.9375381516554,0.000025455176910327282,384.3973640380211,394.8999525045269,0.01
809.9375381516544,0.000025455172135480097,384.39736402542076,394.89995250452387,0.01
809.9375381516536,0.00002545516804275394,384.39736401413387,394.89995250452114,0.01
809.9375381516528,0.000025455164404775132,384.39736400402415,394.8999525045187,0.01
809.9375381516521,0.000025455161221543676,384.3973639949683,394.8999525045166,0.01
809.9375381516516,0.000025455158265685895,384.39736398685653,394.89995250451466,0.01
809.9375381516511,0.00002545515553720179,384.3973639795906,394.8999525045129,0.01
809.9375381516506,0.00002545515303609136,384.39736397308224,394.89995250451125,0.01
809.9375381516502,0.00002545515098972828,384.3973639672528,394.89995250450994,0.01
809.9375381516498,0.00002545514905705204,384.39736396203074,394.89995250450863,0.01
809.9375381516496,0.000025455147351749474,384.39736395735315,394.8999525045076,0.01
809.9375381516493,0.000025455145760133746,384.39736395316356,394.8999525045066,0.01
809.937538151649,0.000025455144282204856,384.3973639494106,394.8999525045057,0.01
809.9375381516488,0.00002545514303164964,384.3973639460489,394.8999525045049,0.01
809.9375381516487,0.0000254551420084681,384.3973639430375,394.89995250450414,0.01
809.9375381516485,0.000025455141212660237,384.3973639403403,394.8999525045035,0.01
809.9375381516484,0.000025455140189478698,384.3973639379243,394.89995250450295,0.01
809.9375381516483,0.000025455139393670834,384.39736393576015,394.89995250450244,0.01
809.9375381516481,0.000025455138711549807,384.39736393382157,394.8999525045019,0.01
809.937538151648,0.00002545513802942878,384.39736393208506,394.8999525045016,0.01
809.9375381516479,0.000025455137460994592,384.3973639305297,394.89995250450113,0.01
809.9375381516479,0.000025455136892560404,384.3973639291365,394.8999525045008,0.01
809.9375381516478,0.000025455136437813053,384.3973639278884,394.89995250450045,0.01
809.9375381516477,0.000025455136210439377,384.3973639267705,394.8999525045002,0.01
809.9375381516477,0.00002545513552831835,384.3973639257694,394.8999525045,0.01
809.9375381516476,0.000025455135300944676,384.39736392487254,394.89995250449977,0.01
809.9375381516476,0.000025455135073571,384.39736392406894,394.89995250449954,0.01
809.9375381516476,0.000025455134846197325,384.3973639233495,394.89995250449937,0.01
809.9375381516476,0.000025455134391449974,384.3973639227046,394.8999525044993,0.01
809.9375381516475,0.000025455134391449974,384.39736392212717,394.89995250449914,0.01
809.9375381516475,0.0000254551341640763,384.39736392160995,394.89995250449897,0.01
809.9375381516475,0.000025455133936702623,384.3973639211467,394.89995250449886,0.01
809.9375381516475,0.000025455133936702623,384.3973639207316,394.89995250449874,0.01
809.9375381516475,0.000025455133709328948,384.3973639203599,394.89995250449863,0.01
809.9375381516473,0.000025455133481955272,384.397363920027,394.89995250449863,0.01
809.9375381516473,0.000025455133481955272,384.3973639197286,394.89995250449846,0.01
809.9375381516473,0.000025455133368268434,384.3973639194615,394.8999525044985,0.01
809.9375381516473,0.000025455133254581597,384.3973639192224,394.8999525044984,0.01
809.9375381516473,0.000025455133254581597,384.3973639190079,394.8999525044984,0.01
809.9375381516473,0.00002545513302720792,384.39736391881576,394.8999525044983,0.01
809.9375381516473,0.00002545513302720792,384.3973639186437,394.89995250449823,0.01
809.9375381516473,0.00002545513302720792,384.3973639184896,394.8999525044983,0.01
809.9375381516473,0.000025455132913521084,384.39736391835146,394.8999525044982,0.01
809.9375381516473,0.000025455132799834246,384.3973639182279,394.89995250449823,0.01
809.9375381516473,0.000025455132799834246,384.39736391811726,394.8999525044981,0.01
809.9375381516473,0.000025455132799834246,384.3973639180181,394.8999525044982,0.01
809.9375381516473,0.000025455132686147408,384.39736391792917,394.89995250449806,0.01
809.9375381516473,0.000025455132799834246,384.3973639178497,394.8999525044981,0.01
809.9375381516473,0.000025455132799834246,384.39736391777825,394.89995250449806,0.01
809.9375381516473,0.000025455132686147408,384.3973639177144,394.89995250449806,0.01
809.9375381516473,0.00002545513257246057,384.3973639176573,394.89995250449806,0.01
809.9375381516473,0.000025455132686147408,384.39736391760607,394.89995250449806,0.01
809.9375381516473,0.000025455132686147408,384.3973639175602,394.89995250449795,0.01
809.9375381516473,0.00002545513257246057,384.3973639175189,394.899952504498,0.01
809.9375381516473,0.000025455132686147408,384.3973639174821,394.89995250449806,0.01
809.9375381516473,0.00002545513257246057,384.397363917449,394.89995250449806,0.01
809.9375381516473,0.00002545513257246057,384.39736391741957,394.89995250449806,0.01
809.9375381516473,0.00002545513257246057,384.39736391739325,394.899952504498,0.01
809.9375381516473,0.00002545513257246057,384.3973639173694,394.899952504498,0.01
809.9375381516472,0.000025455132458773733,384.3973639173481,394.899952504498,0.01
809.9375381516473,0.00002545513257246057,384.39736391732913,394.89995250449795,0.01
809.9375381516472,0.00002545513257246057,384.3973639173122,394.89995250449795,0.01
809.9375381516472,0.00002545513257246057,384.3973639172969,394.89995250449795,0.01
809.9375381516472,0.000025455132458773733,384.3973639172831,394.899952504498,0.01
809.9375381516473,0.00002545513257246057,384.39736391727087,394.899952504498,0.01
809.9375381516473,0.00002545513257246057,384.3973639172597,394.89995250449795,0.01
809.9375381516472,0.00002545513257246057,384.39736391725006,394.89995250449795,0.01
809.9375381516472,0.00002545513257246057,384.39736391724114,394.89995250449795,0.01
809.9375381516473,0.00002545513257246057,384.3973639172334,394.89995250449795,0.01
809.9375381516473,0.00002545513257246057,384.3973639172262,394.89995250449795,0.01
809.9375381516473,0.00002545513257246057,384.39736391722005,394.899952504498,0.01
809.9375381516473,0.00002545513257246057,384.3973639172143,394.89995250449795,0.01
809.9375381516473,0.000025455132458773733,384.39736391720925,394.89995250449795,0.01
809.9375381516472,0.00002545513257246057,384.3973639172047,394.89995250449795,0.01
809.9375381516473,0.000025455132458773733,384.39736391720055,394.89995250449795,0.01
809.9375381516473,0.00002545513257246057,384.3973639171969,394.89995250449795,0.01
809.9375381516472,0.00002545513257246057,384.39736391719373,394.89995250449795,0.01
809.9375381516472,0.000025455132345086895,384.3973639171907,394.8999525044979,0.01
809.9375381516473,0.000025455132345086895,384.3973639171881,394.89995250449795,0.01
809.9375381516473,0.000025455132458773733,384.3973639171857,394.89995250449795,0.01
809.9375381516472,0.00002545513257246057,384.39736391718367,394.89995250449795,0.01
809.9375381516472,0.000025455132458773733,384.3973639171818,394.89995250449795,0.01
809.9375381516473,0.00002545513257246057,384.39736391718014,394.89995250449795,0.01
809.9375381516472,0.00002545513257246057,384.3973639171785,394.89995250449795,0.01
809.9375381516472,0.000025455132458773733,384.3973639171772,394.89995250449795,0.01
809.9375381516473,0.000025455132458773733,384.39736391717605,394.89995250449795,0.01
809.9375381516472,0.00002545513257246057,384.39736391717497,394.89995250449795,0.01
809.9375381516472,0.000025455132345086895,384.39736391717383,394.89995250449795,0.01
809.9375381516472,0.000025455132345086895,384.39736391717315,394.89995250449795,0.01
809.9375381516472,0.000025455132458773733,384.39736391717236,394.89995250449795,0.01
809.9375381516473,0.00002545513257246057,384.3973639171716,394.89995250449795,0.01
809.9375381516472,0.000025455132458773733,384.39736391717094,394.89995250449795,0.01
809.9375381516472,0.000025455132458773733,384.39736391717037,394.899952504498,0.01
809.9375381516472,0.000025455132458773733,384.3973639171699,394.89995250449795,0.01
809.9375381516472,0.000025455132458773733,384.3973639171695,394.89995250449795,0.01
809.9375381516472,0.000025455132458773733,384.39736391716906,394.8999525044979,0.01
809.9375381516473,0.000025455132458773733,384.3973639171687,394.89995250449795,0.01
809.9375381516472,0.00002545513257246057,384.3973639171683,394.8999525044979,0.01
809.9375381516473,0.00002545513257246057,384.39736391716804,394.89995250449795,0.01
809.9375381516473,0.000025455132458773733,384.3973639171678,394.89995250449795,0.01
809.9375381516472,0.00002545513257246057,384.3973639171676,394.89995250449795,0.01
809.9375381516472,0.000025455132458773733,384.3973639171674,394.89995250449795,0.01
809.9375381516472,0.000025455132345086895,384.3973639171672,394.89995250449795,0.01
809.9375381516473,0.000025455132458773733,384.397363917167,394.8999525044979,0.01
809.9375381516472,0.000025455132458773733,384.3973639171669,394.89995250449795,0.01
809.9375381516473,0.000025455132345086895,384.39736391716673,394.89995250449795,0.01
809.9375381516472,0.000025455132345086895,384.39736391716656,394.89995250449795,0.01
809.9375381516472,0.00002545513257246057,384.3973639171665,394.89995250449795,0.01
809.9375381516473,0.00002545513257246057,384.3973639171664,394.89995250449795,0.01
809.9375381516472,0.000025455132458773733,384.3973639171663,394.89995250449795,0.01
809.9375381516472,0.000025455132458773733,384.3973639171662,394.89995250449795,0.01
809.9375381516472,0.00002545513257246057,384.39736391716616,394.8999525044979,0.01
809.9375381516472,0.000025455132458773733,384.3973639171661,394.89995250449795,0.01
809.9375381516472,0.000025455132458773733,384.3973639171661,394.89995250449795,0.01
809.9375381516472,0.000025455132345086895,384.397363917166,394.89995250449795,0.01
809.9375381516473,0.00002545513257246057,384.39736391716593,394.899952504498,0.01
809.9375381516472,0.00002545513257246057,384.39736391716593,394.89995250449795,0.01
809.9375381516472,0.000025455132345086895,384.3973639171659,394.89995250449795,0.01
809.9375381516472,0.00002545513257246057,384.3973639171659,394.89995250449795,0.01
809.9375381516472,0.00002545513257246057,384.3973639171659,394.89995250449795,0.01
809.9375381516473,0.000025455132345086895,384.39736391716576,394.89995250449795,0.01
809.9375381516472,0.000025455132345086895,384.39736391716576,394.89995250449795,0.01
809.9375381516472,0.00002545513257246057,384.39736391716576,394.89995250449795,0.01
809.9375381516472,0.00002545513257246057,384.3973639171657,394.89995250449795,0.01
809.9375381516472,0.000025455132458773733,384.3973639171657,394.89995250449795,0.01
809.9375381516472,0.000025455132458773733,384.3973639171657,394.89995250449795,0.01
809.9375381516472,0.000025455132458773733,384.3973639171657,394.89995250449795,0.01
809.9375381516472,0.000025455132458773733,384.39736391716565,394.89995250449795,0.01
809.9375381516472,0.000025455132458773733,384.39736391716565,394.899952504498,0.01
809.9375381516473,0.00002545513257246057,384.3973639171657,394.89995250449795,0.01
809.9375381516472,0.000025455132458773733,384.39736391716565,394.89995250449795,0.01
809.9375381516472,0.00002545513257246057,384.39736391716565,394.89995250449795,0.01
809.9375381516472,0.000025455132458773733,384.39736391716565,394.89995250449795,0.01
809.9375381516472,0.00002545513257246057,384.39736391716565,394.89995250449795,0.01
809.9375381516472,0.000025455132345086895,384.39736391716565,394.89995250449795,0.01
809.9375381516473,0.000025455132458773733,384.39736391716565,394.89995250449795,0.01
809.9375381516473,0.000025455132458773733,384.39736391716565,394.89995250449795,0.01
809.9375381516473,0.000025455132345086895,384.39736391716565,394.89995250449795,0.01
809.9375381516472,0.000025455132458773733,384.39736391716565,394.89995250449795,0.01
809.9375381516473,0.00002545513257246057,384.39736391716565,394.89995250449795,0.01
809.9375381516472,0.00002545513257246057,384.39736391716565,394.89995250449795,0.01
809.9375381516472,0.000025455132345086895,384.3973639171656,394.899952504498,0.01
809.9375381516472,0.000025455132458773733,384.39736391716565,394.89995250449795,0.01
809.9375381516472,0.000025455132458773733,384.39736391716565,394.89995250449795,0.01
809.9375381516472,0.00002545513257246057,384.39736391716565,394.89995250449795,0.01
809.9375381516472,0.000025455132458773733,384.39736391716565,394.89995250449795,0.01
809.9375381516473,0.000025455132345086895,384.3973639171656,394.89995250449795,0.01
809.9375381516473,0.00002545513257246057,384.3973639171656,394.89995250449795,0.01
809.9375381516472,0.000025455132458773733,384.3973639171656,394.8999525044979,0.01
809.9375381516472,0.00002545513257246057,384.3973639171656,394.89995250449795,0.01
809.9375381516472,0.000025455132458773733,384.3973639171656,394.89995250449795,0.01
809.9375381516472,0.000025455132345086895,384.3973639171656,394.89995250449795,0.01
809.9375381516472,0.000025455132458773733,384.39736391716565,394.89995250449795,0.01
809.9375381516472,0.000025455132458773733,384.39736391716565,394.8999525044979,0.01
809.9375381516473,0.000025455132458773733,384.3973639171656,394.89995250449795,0.01
809.9375381516472,0.00002545513257246057,384.39736391716565,394.899952504498,0.01
809.9375381516473,0.000025455132458773733,384.3973639171656,394.89995250449795,0.01
809.9375381516473,0.000025455132345086895,384.3973639171656,394.89995250449795,0.01
809.9375381516473,0.000025455132458773733,384.3973639171656,394.89995250449795,0.01
809.9375381516472,0.000025455132458773733,384.3973639171656,394.89995250449795,0.01
809.9375381516473,0.000025455132458773733,384.3973639171656,394.8999525044979,0.01
809.9375381516472,0.000025455132458773733,384.3973639171656,394.89995250449795,0.01
809.9375381516472,0.00002545513257246057,384.3973639171656,394.89995250449795,0.01
809.9375381516472,0.000025455132458773733,384.3973639171656,394.89995250449795,0.01
809.9375381516473,0.000025455132458773733,384.3973639171656,394.89995250449795,0.01
809.9375381516472,0.000025455132458773733,384.3973639171656,394.89995250449795,0.01
809.9375381516472,0.000025455132458773733,384.3973639171656,394.89995250449795,0.01
809.9375381516472,0.00002545513257246057,384.3973639171656,394.89995250449795,0.01
809.9375381516473,0.000025455132345086895,384.3973639171656,394.89995250449795,0.01
809.9375381516472,0.000025455132458773733,384.3973639171656,394.89995250449795,0.01
809.9375381516472,0.000025455132458773733,384.3973639171656,394.89995250449795,0.01
809.9375381516472,0.000025455132458773733,384.3973639171656,394.89995250449795,0.01
809.9375381516473,0.000025455132458773733,384.3973639171656,394.89995250449795,0.01
809.9375381516472,0.000025455132458773733,384.3973639171656,394.899952504498,0.01
809.9375381516472,0.00002545513257246057,384.3973639171656,394.89995250449795,0.01
809.9375381516472,0.000025455132345086895,384.3973639171656,394.89995250449795,0.01
809.9375381516472,0.000025455132458773733,384.3973639171656,394.89995250449795,0.01
809.9375381516472,0.000025455132458773733,384.3973639171656,394.89995250449795,0.01
809.9375381516472,0.000025455132458773733,384.3973639171656,394.89995250449795,0.01
809.9375381516472,0.00002545513257246057,384.3973639171656,394.89995250449795,0.01
809.9375381516472,0.00002545513257246057,384.3973639171656,394.89995250449795,0.01
809.9375381516472,0.000025455132458773733,384.3973639171656,394.8999525044979,0.01
809.9375381516472,0.000025455132458773733,384.3973639171656,394.8999525044979,0.01
809.9375381516473,0.000025455132345086895,384.3973639171656,394.8999525044979,0.01
809.9375381516472,0.000025455132458773733,384.3973639171656,394.89995250449795,0.01
809.9375381516472,0.000025455132345086895,384.3973639171656,394.89995250449795,0.01
809.9375381516473,0.000025455132458773733,384.3973639171656,394.89995250449795,0.01
809.9375381516472,0.000025455132458773733,384.3973639171656,394.899952504498,0.01
809.9375381516472,0.000025455132458773733,384.3973639171656,394.89995250449795,0.01
809.9375381516473,0.000025455132458773733,384.3973639171656,394.89995250449795,0.01
809.9375381516472,0.00002545513257246057,384.3973639171656,394.89995250449795,0.01
809.9375381516472,0.00002545513257246057,384.3973639171656,394.89995250449795,0.01
809.9375381516472,0.000025455132345086895,384.3973639171656,394.89995250449795,0.01
809.9375381516472,0.000025455132458773733,384.3973639171656,394.89995250449795,0.01
809.9375381516472,0.000025455132458773733,384.3973639171656,394.89995250449795,0.01
809.9375381516473,0.00002545513257246057,384.3973639171656,394.89995250449795,0.01
809.9375381516472,0.00002545513257246057,384.3973639171656,394.89995250449795,0.01
809.9375381516472,0.00002545513257246057,384.3973639171656,394.89995250449795,0.01
809.9375381516472,0.000025455132458773733,384.3973639171656,394.89995250449795,0.01
809.9375381516472,0.000025455132458773733,384.3973639171656,394.899952504498,0.01
809.9375381516472,0.000025455132458773733,384.3973639171656,394.89995250449795,0.01
809.9375381516473,0.000025455132458773733,384.39736391716565,394.89995250449795,0.01
809.9375381516472,0.00002545513257246057,384.3973639171656,394.89995250449795,0.01
809.9375381516473,0.000025455132458773733,384.3973639171656,394.8999525044979,0.01
809.9375381516472,0.000025455132345086895,384.3973639171656,394.89995250449795,0.01
809.9375381516472,0.000025455132458773733,384.3973639171656,394.89995250449795,0.01
809.9375381516472,0.000025455132345086895,384.3973639171656,394.89995250449795,0.01
809.9375381516472,0.000025455132345086895,384.3973639171656,394.89995250449795,0.01
809.9375381516472,0.000025455132345086895,384.3973639171656,394.899952504498,0.01
809.9375381516472,0.000025455132345086895,384.3973639171656,394.89995250449795,0.01
809.9375381516472,0.000025455132345086895,384.3973639171656,394.89995250449795,0.01
809.9375381516472,0.000025455132458773733,384.3973639171656,394.89995250449795,0.01
809.9375381516472,0.000025455132458773733,384.3973639171656,394.89995250449795,0.01
809.9375381516472,0.000025455132345086895,384.3973639171656,394.89995250449795,0.01
809.9375381516472,0.000025455132458773733,384.3973639171656,394.89995250449795,0.01
809.9375381516473,0.000025455132458773733,384.3973639171656,394.89995250449795,0.01
809.9375381516472,0.000025455132345086895,384.3973639171656,394.89995250449795,0.01
809.9375381516472,0.000025455132458773733,384.3973639171656,394.89995250449795,0.01
809.9375381516472,0.000025455132458773733,384.3973639171656,394.8999525044979,0.01
809.9375381516472,0.000025455132345086895,384.3973639171656,394.89995250449795,0.01
809.9375381516472,0.000025455132458773733,384.3973639171656,394.89995250449795,0.01
809.9375381516473,0.000025455132458773733,384.3973639171656,394.89995250449795,0.01
809.9375381516472,0.000025455132345086895,384.3973639171656,394.8999525044979,0.01
809.9375381516472,0.000025455132458773733,384.3973639171656,394.89995250449795,0.01
809.9375381516472,0.000025455132458773733,384.3973639171656,394.89995250449795,0.01
809.9375381516472,0.000025455132458773733,384.3973639171656,394.89995250449795,0.01
809.9375381516472,0.000025455132458773733,384.3973639171656,394.89995250449795,0.01
809.9375381516472,0.000025455132345086895,384.3973639171656,394.89995250449795,0.01
809.9375381516472,0.000025455132458773733,384.3973639171656,394.8999525044979,0.01
809.9375381516472,0.000025455132345086895,384.3973639171656,394.89995250449795,0.01
809.9375381516472,0.00002545513257246057,384.3973639171656,394.89995250449795,0.01
809.9375381516473,0.000025455132345086895,384.3973639171656,394.89995250449795,0.01
809.9375381516472,0.000025455132345086895,384.3973639171656,394.89995250449795,0.01
809.9375381516472,0.000025455132458773733,384.3973639171656,394.89995250449795,0.01
809.9375381516472,0.000025455132458773733,384.3973639171656,394.8999525044979,0.01
809.9375381516472,0.000025455132345086895,384.3973639171656,394.89995250449795,0.01
809.9375381516472,0.000025455132458773733,384.3973639171656,394.89995250449795,0.01
809.9375381516472,0.000025455132345086895,384.3973639171656,394.89995250449795,0.01
809.9375381516472,0.000025455132458773733,384.3973639171656,394.89995250449795,0.01
809.9375381516473,0.000025455132458773733,384.3973639171656,394.89995250449795,0.01
809.9375381516472,0.000025455132345086895,384.3973639171656,394.89995250449795,0.01
809.9375381516472,0.000025455132345086895,384.3973639171656,394.89995250449795,0.01
809.9375381516472,0.000025455132458773733,384.3973639171656,394.89995250449795,0.01
809.9375381516472,0.00002545513257246057,384.3973639171656,394.89995250449795,0.01
809.9375381516473,0.000025455132345086895,384.3973639171656,394.89995250449795,0.01
809.9375381516473,0.000025455132458773733,384.3973639171656,394.89995250449795,0.01
809.9375381516472,0.000025455132458773733,384.3973639171656,394.89995250449795,0.01
809.9375381516473,0.000025455132458773733,384.3973639171656,394.89995250449795,0.01
809.9375381516472,0.000025455132345086895,384.3973639171656,394.89995250449795,0.01
809.9375381516472,0.000025455132458773733,384.39736391716565,394.89995250449795,0.01
809.9375381516472,0.000025455132458773733,384.3973639171656,394.89995250449795,0.01
809.9375381516472,0.000025455132345086895,384.3973639171656,394.89995250449795,0.01
809.9375381516472,0.000025455132345086895,384.3973639171656,394.89995250449795,0.01
809.9375381516472,0.00002545513257246057,384.3973639171656,394.89995250449795,0.01
809.9375381516472,0.000025455132458773733,384.3973639171656,394.8999525044979,0.01
809.9375381516472,0.000025455132345086895,384.3973639171656,394.89995250449795,0.01
809.9375381516472,0.000025455132345086895,384.3973639171656,394.89995250449795,0.01
809.9375381516472,0.000025455132345086895,384.3973639171656,394.89995250449795,0.01
809.9375381516473,0.000025455132458773733,384.39736391716565,394.89995250449795,0.01
809.9375381516472,0.000025455132345086895,384.3973639171656,394.89995250449795,0.01
809.9375381516472,0.000025455132458773733,384.3973639171656,394.89995250449795,0.01
809.9375381516472,0.000025455132458773733,384.3973639171656,394.89995250449795,0.01
809.9375381516472,0.00002545513257246057,384.3973639171656,394.89995250449795,0.01
809.9375381516473,0.000025455132458773733,384.3973639171656,394.89995250449795,0.01
809.9375381516472,0.000025455132345086895,384.3973639171655,394.89995250449795,0.01
809.9375381516472,0.00002545513257246057,384.3973639171656,394.89995250449795,0.01
809.9375381516473,0.000025455132345086895,384.3973639171656,394.899952504498,0.01
809.9375381516472,0.000025455132345086895,384.3973639171656,394.89995250449795,0.01
809.9375381516472,0.000025455132345086895,384.3973639171656,394.89995250449795,0.01
809.9375381516472,0.000025455132458773733,384.3973639171656,394.8999525044979,0.01
809.9375381516472,0.000025455132345086895,384.3973639171656,394.89995250449795,0.01
809.9375381516472,0.000025455132458773733,384.3973639171656,394.89995250449795,0.01
809.9375381516473,0.000025455132345086895,384.3973639171656,394.8999525044979,0.01
809.9375381516472,0.000025455132458773733,384.3973639171656,394.89995250449795,0.01
809.9375381516473,0.000025455132345086895,384.3973639171656,394.89995250449795,0.01
809.9375381516472,0.000025455132345086895,384.3973639171656,394.89995250449795,0.01
809.9375381516472,0.000025455132345086895,384.3973639171656,394.89995250449795,0.01
809.9375381516472,0.000025455132458773733,384.3973639171656,394.8999525044979,0.01
809.9375381516472,0.000025455132458773733,384.3973639171656,394.89995250449795,0.01
809.9375381516472,0.000025455132345086895,384.3973639171656,394.89995250449795,0.01
809.9375381516472,0.000025455132345086895,384.3973639171656,394.89995250449795,0.01
809.9375381516472,0.000025455132458773733,384.3973639171656,394.89995250449795,0.01
809.9375381516473,0.000025455132345086895,384.3973639171656,394.89995250449795,0.01
809.9375381516472,0.000025455132458773733,384.3973639171656,394.89995250449795,0.01
809.9375381516472,0.000025455132458773733,384.3973639171656,394.89995250449795,0.01
809.9375381516472,0.000025455132458773733,384.3973639171656,394.89995250449795,0.01
809.9375381516473,0.00002545513257246057,384.3973639171656,394.89995250449795,0.01
809.9375381516472,0.000025455132458773733,384.3973639171656,394.89995250449795,0.01
809.9375381516472,0.000025455132458773733,384.3973639171656,394.89995250449795,0.01
809.9375381516472,0.00002545513257246057,384.3973639171656,394.89995250449795,0.01
809.9375381516472,0.000025455132458773733,384.3973639171656,394.89995250449795,0.01
809.9375381516472,0.00002545513257246057,384.3973639171656,394.89995250449795,0.01
809.9375381516472,0.000025455132458773733,384.3973639171656,394.899952504498,0.01
809.9375381516472,0.000025455132458773733,384.3973639171656,394.89995250449795,0.01
809.9375381516472,0.000025455132458773733,384.39736391716565,394.8999525044979,0.01
809.9375381516472,0.000025455132458773733,384.3973639171656,394.89995250449795,0.01
809.9375381516472,0.000025455132458773733,384.3973639171656,394.89995250449795,0.01
809.9375381516472,0.000025455132458773733,384.3973639171656,394.89995250449795,0.01
809.9375381516472,0.000025455132458773733,384.3973639171656,394.89995250449795,0.01
809.9375381516472,0.000025455132345086895,384.3973639171656,394.8999525044979,0.01
809.9375381516472,0.000025455132345086895,384.3973639171656,394.89995250449795,0.01
809.9375381516472,0.000025455132458773733,384.3973639171656,394.89995250449795,0.01
809.9375381516472,0.000025455132458773733,384.3973639171656,394.89995250449795,0.01
809.9375381516472,0.000025455132458773733,384.3973639171656,394.89995250449795,0.01
809.9375381516472,0.000025455132458773733,384.3973639171656,394.89995250449795,0.01
809.9375381516472,0.000025455132458773733,384.3973639171656,394.89995250449795,0.01
809.9375381516472,0.000025455132458773733,384.3973639171656,394.89995250449795,0.01
809.9375381516472,0.000025455132345086895,384.3973639171656,394.89995250449795,0.01
809.9375381516472,0.000025455132458773733,384.3973639171656,394.89995250449795,0.01
809.9375381516472,0.000025455132345086895,384.3973639171656,394.89995250449795,0.01
809.9375381516472,0.000025455132458773733,384.3973639171656,394.89995250449795,0.01
809.9375381516472,0.000025455132345086895,384.3973639171656,394.89995250449795,0.01
809.9375381516472,0.000025455132345086895,384.3973639171656,394.89995250449795,0.01
809.9375381516472,0.000025455132458773733,384.3973639171656,394.89995250449795,0.01
809.9375381516472,0.000025455132345086895,384.3973639171656,394.89995250449795,0.01
809.9375381516472,0.000025455132458773733,384.3973639171656,394.89995250449795,0.01
809.9375381516472,0.000025455132345086895,384.3973639171656,394.89995250449795,0.01
809.9375381516472,0.000025455132458773733,384.3973639171656,394.89995250449795,0.01
809.9375381516472,0.000025455132458773733,384.3973639171656,394.89995250449795,0.01
809.9375381516472,0.000025455132458773733,384.3973639171656,394.89995250449795,0.01
809.9375381516472,0.000025455132458773733,384.3973639171656,394.89995250449795,0.01
809.9375381516472,0.000025455132345086895,384.3973639171656,394.89995250449795,0.01
809.9375381516472,0.000025455132458773733,384.3973639171656,394.89995250449795,0.01
809.9375381516472,0.000025455132458773733,384.3973639171656,394.89995250449795,0.01
809.9375381516472,0.000025455132345086895,384.3973639171656,394.89995250449795,0.01
809.9375381516472,0.000025455132458773733,384.3973639171656,394.89995250449795,0.01
809.9375381516472,0.000025455132458773733,384.3973639171656,394.89995250449795,0.01
809.9375381516472,0.000025455132458773733,384.3973639171656,394.89995250449795,0.01
809.9375381516472,0.000025455132458773733,384.3973639171656,394.89995250449795,0.01
809.9375381516472,0.000025455132458773733,384.3973639171656,394.89995250449795,0.01
809.9375381516472,0.000025455132458773733,384.3973639171656,394.89995250449795,0.01
809.9375381516472,0.000025455132458773733,384.3973639171656,394.89995250449795,0.01
809.9375381516472,0.000025455132458773733,384.3973639171656,394.89995250449795,0.01
809.9375381516472,0.000025455132458773733,384.3973639171656,394.89995250449795,0.01
809.9375381516472,0.000025455132458773733,384.3973639171656,394.89995250449795,0.01
809.9375381516472,0.000025455132458773733,384.3973639171656,394.89995250449795,0.01
809.9375381516472,0.000025455132458773733,384.3973639171656,394.89995250449795,0.01
809.9375381516472,0.000025455132458773733,384.3973639171656,394.89995250449795,0.01
809.9375381516472,0.000025455132458773733,384.3973639171656,394.89995250449795,0.01
809.9375381516472,0.000025455132458773733,384.3973639171656,394.89995250449795,0.01
809.9375381516472,0.000025455132458773733,384.3973639171656,394.89995250449795,0.01
809.9375381516472,0.000025455132458773733,384.3973639171656,394.89995250449795,0.01
809.9375381516472,0.000025455132458773733,384.3973639171656,394.89995250449795,0.01
809.9375381516472,0.000025455132458773733,384.3973639171656,394.89995250449795,0.01
809.9375381516472,0.000025455132458773733,384.3973639171656,394.89995250449795,0.01
809.9375381516472,0.000025455132458773733,384.3973639171656,394.89995250449795,0.01
809.9375381516472,0.000025455132458773733,384.3973639171656,394.89995250449795,0.01
809.9375381516472,0.000025455132458773733,384.3973639171656,394.89995250449795,0.01
809.9375381516472,0.000025455132458773733,384.3973639171656,394.89995250449795,0.01
809.9375381516472,0.000025455132458773733,384.3973639171656,394.89995250449795,0.01
809.9375381516472,0.000025455132458773733,384.3973639171656,394.89995250449795,0.01
809.9375381516472,0.000025455132458773733,384.3973639171656,394.89995250449795,0.01
809.9375381516472,0.000025455132458773733,384.3973639171656,394.89995250449795,0.01
809.9375381516472,0.000025455132345086895,384.3973639171656,394.89995250449795,0.01
809.9375381516472,0.000025455132458773733,384.3973639171656,394.89995250449795,0.01
809.9375381516472,0.000025455132458773733,384.3973639171656,394.89995250449795,0.01
809.9375381516472,0.000025455132458773733,384.3973639171656,394.89995250449795,0.01
809.9375381516472,0.000025455132345086895,384.3973639171656,394.89995250449795,0.01
809.9375381516472,0.000025455132345086895,384.3973639171656,394.89995250449795,0.01
809.9375381516472,0.000025455132458773733,384.3973639171656,394.89995250449795,0.01
809.9375381516472,0.000025455132458773733,384.3973639171656,394.89995250449795,0.01
809.9375381516472,0.000025455132458773733,384.3973639171656,394.89995250449795,0.01
809.9375381516472,0.000025455132345086895,384.3973639171656,394.89995250449795,0.01
809.9375381516472,0.000025455132458773733,384.3973639171656,394.89995250449795,0.01
809.9375381516472,0.000025455132458773733,384.3973639171656,394.89995250449795,0.01
809.9375381516472,0.000025455132458773733,384.3973639171656,394.89995250449795,0.01
809.9375381516472,0.000025455132458773733,384.3973639171656,394.89995250449795,0.01
809.9375381516472,0.000025455132458773733,384.3973639171656,394.89995250449795,0.01
809.9375381516472,0.000025455132458773733,384.3973639171656,394.89995250449795,0.01
809.9375381516472,0.000025455132458773733,384.3973639171656,394.89995250449795,0.01
809.9375381516472,0.000025455132458773733,384.3973639171656,394.89995250449795,0.01
809.9375381516472,0.000025455132458773733,384.3973639171656,394.89995250449795,0.01
809.9375381516472,0.000025455132458773733,384.3973639171656,394.89995250449795,0.01
809.9375381516472,0.000025455132458773733,384.3973639171656,394.89995250449795,0.01
809.9375381516472,0.000025455132458773733,384.3973639171656,394.89995250449795,0.01
809.9375381516472,0.000025455132458773733,384.3973639171656,394.89995250449795,0.01
809.9375381516472,0.000025455132458773733,384.3973639171656,394.89995250449795,0.01
809.9375381516472,0.000025455132458773733,384.3973639171656,394.89995250449795,0.01
809.9375381516472,0.000025455132458773733,384.3973639171656,394.89995250449795,0.01
809.9375381516472,0.000025455132458773733,384.3973639171656,394.89995250449795,0.01
809.9375381516472,0.000025455132458773733,384.3973639171656,394.89995250449795,0.01
809.9375381516472,0.000025455132458773733,384.3973639171656,394.89995250449795,0.01
809.9375381516472,0.000025455132458773733,384.3973639171656,394.89995250449795,0.01
809.9375381516472,0.000025455132458773733,384.3973639171656,394.89995250449795,0.01
809.9375381516472,0.000025455132458773733,384.3973639171656,394.89995250449795,0.01
809.9375381516472,0.000025455132458773733,384.3973639171656,394.89995250449795,0.01
809.9375381516472,0.000025455132345086895,384.3973639171656,394.89995250449795,0.01
809.9375381516472,0.000025455132458773733,384.3973639171656,394.89995250449795,0.01
809.9375381516472,0.000025455132458773733,384.3973639171656,394.89995250449795,0.01
809.9375381516472,0.000025455132458773733,384.3973639171656,394.89995250449795,0.01
809.9375381516472,0.000025455132458773733,384.3973639171656,394.89995250449795,0.01
809.9375381516472,0.000025455132458773733,384.3973639171656,394.89995250449795,0.01
809.9375381516472,0.000025455132458773733,384.3973639171656,394.89995250449795,0.01
809.9375381516472,0.000025455132458773733,384.3973639171656,394.89995250449795,0.01
809.9375381516472,0.000025455132458773733,384.3973639171656,394.89995250449795,0.01
809.9375381516472,0.000025455132458773733,384.3973639171656,394.89995250449795,0.01
809.9375381516472,0.000025455132458773733,384.3973639171656,394.89995250449795,0.01
809.9375381516472,0.000025455132458773733,384.3973639171656,394.89995250449795,0.01
809.9375381516472,0.000025455132458773733,384.3973639171656,394.89995250449795,0.01
809.9375381516472,0.000025455132458773733,384.3973639171656,394.89995250449795,0.01
809.9375381516472,0.000025455132458773733,384.3973639171656,394.89995250449795,0.01
809.9375381516472,0.000025455132458773733,384.3973639171656,394.89995250449795,0.01
809.9375381516472,0.000025455132458773733,384.3973639171656,394.89995250449795,0.01
809.9375381516472,0.000025455132458773733,384.3973639171656,394.89995250449795,0.01
809.9375381516472,0.000025455132458773733,384.3973639171656,394.89995250449795,0.01
809.9375381516472,0.000025455132458773733,384.3973639171656,394.89995250449795,0.01
809.9375381516472,0.000025455132458773733,384.3973639171656,394.89995250449795,0.01
809.9375381516472,0.000025455132458773733,384.3973639171656,394.89995250449795,0.01
809.9375381516472,0.000025455132458773733,384.3973639171656,394.89995250449795,0.01
809.9375381516472,0.000025455132458773733,384.3973639171656,394.89995250449795,0.01
809.9375381516472,0.000025455132458773733,384.3973639171656,394.89995250449795,0.01
809.9375381516472,0.000025455132458773733,384.3973639171656,394.89995250449795,0.01
809.9375381516472,0.000025455132458773733,384.3973639171656,394.89995250449795,0.01
809.9375381516472,0.000025455132458773733,384.3973639171656,394.89995250449795,0.01
809.9375381516472,0.000025455132458773733,384.3973639171656,394.89995250449795,0.01
809.9375381516472,0.000025455132458773733,384.3973639171656,394.89995250449795,0.01
809.9375381516472,0.000025455132458773733,384.3973639171656,394.89995250449795,0.01
809.9375381516472,0.000025455132458773733,384.3973639171656,394.89995250449795,0.01
809.9375381516472,0.000025455132458773733,384.3973639171656,394.89995250449795,0.01
809.9375381516472,0.000025455132458773733,384.3973639171656,394.89995250449795,0.01
809.9375381516472,0.000025455132458773733,384.3973639171656,394.89995250449795,0.01
809.9375381516472,0.000025455132458773733,384.3973639171656,394.89995250449795,0.01
809.9375381516472,0.000025455132458773733,384.3973639171656,394.89995250449795,0.01
809.9375381516472,0.000025455132458773733,384.3973639171656,394.89995250449795,0.01
809.9375381516472,0.000025455132458773733,384.3973639171656,394.89995250449795,0.01
809.9375381516472,0.000025455132458773733,384.3973639171656,394.89995250449795,0.01
809.9375381516472,0.000025455132458773733,384.3973639171656,394.89995250449795,0.01
809.9375381516472,0.000025455132458773733,384.3973639171656,394.89995250449795,0.01
809.9375381516472,0.000025455132458773733,384.3973639171656,394.89995250449795,0.01
809.9375381516472,0.000025455132458773733,384.3973639171656,394.89995250449795,0.01
809.9375381516472,0.000025455132458773733,384.3973639171656,394.89995250449795,0.01
809.9375381516472,0.000025455132458773733,384.3973639171656,394.89995250449795,0.01
809.9375381516472,0.000025455132458773733,384.3973639171656,394.89995250449795,0.01
809.9375381516472,0.000025455132458773733,384.3973639171656,394.89995250449795,0.01
809.9375381516472,0.000025455132458773733,384.3973639171656,394.89995250449795,0.01
809.9375381516472,0.000025455132458773733,384.3973639171656,394.89995250449795,0.01
809.9375381516472,0.000025455132458773733,384.3973639171656,394.89995250449795,0.01
809.9375381516472,0.000025455132458773733,384.3973639171656,394.89995250449795,0.01
809.9375381516472,0.000025455132458773733,384.3973639171656,394.89995250449795,0.01
809.9375381516472,0.000025455132458773733,384.3973639171656,394.89995250449795,0.01
809.9375381516472,0.000025455132458773733,384.3973639171656,394.89995250449795,0.01
809.9375381516472,0.000025455132458773733,384.3973639171656,394.89995250449795,0.01
809.9375381516472,0.000025455132458773733,384.3973639171656,394.89995250449795,0.01
809.9375381516472,0.000025455132458773733,384.3973639171656,394.89995250449795,0.01
809.9375381516472,0.000025455132458773733,384.3973639171656,394.89995250449795,0.01
809.9375381516472,0.000025455132458773733,384.3973639171656,394.89995250449795,0.01
809.9375381516472,0.000025455132458773733,384.3973639171656,394.89995250449795,0.01
809.9375381516472,0.000025455132458773733,384.3973639171656,394.89995250449795,0.01
809.9375381516472,0.000025455132458773733,384.3973639171656,394.89995250449795,0.01
809.9375381516472,0.000025455132458773733,384.3973639171656,394.89995250449795,0.01
809.9375381516472,0.000025455132458773733,384.3973639171656,394.89995250449795,0.01
809.9375381516472,0.000025455132458773733,384.3973639171656,394.89995250449795,0.01
809.9375381516472,0.000025455132458773733,384.3973639171656,394.89995250449795,0.01
809.9375381516472,0.000025455132458773733,384.3973639171656,394.89995250449795,0.01
809.9375381516472,0.000025455132458773733,384.3973639171656,394.89995250449795,0.01
809.9375381516472,0.000025455132458773733,384.3973639171656,394.89995250449795,0.01
809.9375381516472,0.000025455132458773733,384.3973639171656,394.89995250449795,0.01
809.9375381516472,0.000025455132458773733,384.3973639171656,394.89995250449795,0.01
809.9375381516472,0.000025455132458773733,384.3973639171656,394.89995250449795,0.01
809.9375381516472,0.000025455132458773733,384.3973639171656,394.89995250449795,0.01
809.9375381516472,0.000025455132458773733,384.3973639171656,394.89995250449795,0.01
809.9375381516472,0.000025455132458773733,384.3973639171656,394.89995250449795,0.01
809.9375381516472,0.000025455132458773733,384.3973639171656,394.89995250449795,0.01
809.9375381516472,0.000025455132458773733,384.3973639171656,394.89995250449795,0.01
809.9375381516472,0.000025455132458773733,384.3973639171656,394.89995250449795,0.01
809.9375381516472,0.000025455132458773733,384.3973639171656,394.89995250449795,0.01
809.9375381516472,0.000025455132458773733,384.3973639171656,394.89995250449795,0.01
809.9375381516472,0.000025455132458773733,384.3973639171656,394.89995250449795,0.01
809.9375381516472,0.000025455132458773733,384.3973639171656,394.89995250449795,0.01
809.9375381516472,0.000025455132458773733,384.3973639171656,394.89995250449795,0.01
809.9375381516472,0.000025455132458773733,384.3973639171656,394.89995250449795,0.01
809.9375381516472,0.000025455132458773733,384.3973639171656,394.89995250449795,0.01
809.9375381516472,0.000025455132458773733,384.3973639171656,394.89995250449795,0.01
809.9375381516472,0.000025455132458773733,384.3973639171656,394.89995250449795,0.01
809.9375381516472,0.000025455132458773733,384.3973639171656,394.89995250449795,0.01
809.9375381516472,0.000025455132458773733,384.3973639171656,394.89995250449795,0.01
809.9375381516472,0.000025455132458773733,384.3973639171656,394.89995250449795,0.01
809.9375381516472,0.000025455132458773733,384.3973639171656,394.89995250449795,0.01
809.9375381516472,0.000025455132458773733,384.3973639171656,394.89995250449795,0.01
809.9375381516472,0.000025455132458773733,384.3973639171656,394.89995250449795,0.01
809.9375381516472,0.000025455132458773733,384.3973639171656,394.89995250449795,0.01
809.9375381516472,0.000025455132458773733,384.3973639171656,394.89995250449795,0.01
809.9375381516472,0.000025455132458773733,384.3973639171656,394.89995250449795,0.01
809.9375381516472,0.000025455132458773733,384.3973639171656,394.89995250449795,0.01
809.9375381516472,0.000025455132458773733,384.3973639171656,394.89995250449795,0.01
809.9375381516472,0.000025455132458773733,384.3973639171656,394.89995250449795,0.01
809.9375381516472,0.000025455132458773733,384.3973639171656,394.89995250449795,0.01
809.9375381516472,0.000025455132458773733,384.3973639171656,394.89995250449795,0.01
809.9375381516472,0.000025455132458773733,384.3973639171656,394.89995250449795,0.01
809.9375381516472,0.000025455132458773733,384.3973639171656,394.89995250449795,0.01
809.9375381516472,0.000025455132458773733,384.3973639171656,394.89995250449795,0.01
809.9375381516472,0.000025455132458773733,384.3973639171656,394.89995250449795,0.01
809.9375381516472,0.000025455132458773733,384.3973639171656,394.89995250449795,0.01
809.9375381516472,0.000025455132458773733,384.3973639171656,394.89995250449795,0.01
809.9375381516472,0.000025455132458773733,384.3973639171656,394.89995250449795,0.01
809.9375381516472,0.000025455132458773733,384.3973639171656,394.89995250449795,0.01
809.9375381516472,0.000025455132458773733,384.3973639171656,394.89995250449795,0.01
809.9375381516472,0.000025455132458773733,384.3973639171656,394.89995250449795,0.01
809.9375381516472,0.000025455132458773733,384.3973639171656,394.89995250449795,0.01
809.9375381516472,0.000025455132458773733,384.3973639171656,394.89995250449795,0.01
809.9375381516472,0.000025455132458773733,384.3973639171656,394.89995250449795,0.01
809.9375381516472,0.000025455132458773733,384.3973639171656,394.89995250449795,0.01
809.9375381516472,0.000025455132458773733,384.3973639171656,394.89995250449795,0.01
809.9375381516472,0.000025455132458773733,384.3973639171656,394.89995250449795,0.01
809.9375381516472,0.000025455132458773733,384.3973639171656,394.89995250449795,0.01
809.9375381516472,0.000025455132458773733,384.3973639171656,394.89995250449795,0.01
809.9375381516472,0.000025455132458773733,384.3973639171656,394.89995250449795,0.01
809.9375381516472,0.000025455132458773733,384.3973639171656,394.89995250449795,0.01
809.9375381516472,0.000025455132458773733,384.3973639171656,394.89995250449795,0.01
809.9375381516472,0.000025455132458773733,384.3973639171656,394.89995250449795,0.01
809.9375381516472,0.000025455132458773733,384.3973639171656,394.89995250449795,0.01
809.9375381516472,0.000025455132458773733,384.3973639171656,394.89995250449795,0.01
809.9375381516472,0.000025455132458773733,384.3973639171656,394.89995250449795,0.01
809.9375381516472,0.000025455132458773733,384.3973639171656,394.89995250449795,0.01
809.9375381516472,0.000025455132458773733,384.3973639171656,394.89995250449795,0.01
809.9375381516472,0.000025455132458773733,384.3973639171656,394.89995250449795,0.01
809.9375381516472,0.000025455132458773733,384.3973639171656,394.89995250449795,0.01
809.9375381516472,0.000025455132458773733,384.3973639171656,394.89995250449795,0.01
809.9375381516472,0.000025455132458773733,384.3973639171656,394.89995250449795,0.01
809.9375381516472,0.000025455132458773733,384.3973639171656,394.89995250449795,0.01
809.9375381516472,0.000025455132458773733,384.3973639171656,394.89995250449795,0.01
809.9375381516472,0.000025455132458773733,384.3973639171656,394.89995250449795,0.01
809.9375381516472,0.000025455132458773733,384.3973639171656,394.89995250449795,0.01
809.9375381516472,0.000025455132458773733,384.3973639171656,394.89995250449795,0.01
809.9375381516472,0.000025455132458773733,384.3973639171656,394.89995250449795,0.01
809.9375381516472,0.000025455132458773733,384.3973639171656,394.89995250449795,0.01
809.9375381516472,0.000025455132458773733,384.3973639171656,394.89995250449795,0.01
809.9375381516472,0.000025455132458773733,384.3973639171656,394.89995250449795,0.01
809.9375381516472,0.000025455132458773733,384.3973639171656,394.89995250449795,0.01
809.9375381516472,0.000025455132458773733,384.3973639171656,394.89995250449795,0.01
809.9375381516472,0.000025455132458773733,384.3973639171656,394.89995250449795,0.01
809.9375381516472,0.000025455132458773733,384.3973639171656,394.89995250449795,0.01
809.9375381516472,0.000025455132458773733,384.3973639171656,394.89995250449795,0.01
809.9375381516472,0.000025455132458773733,384.3973639171656,394.89995250449795,0.01
809.9375381516472,0.000025455132458773733,384.3973639171656,394.89995250449795,0.01
809.9375381516472,0.000025455132458773733,384.3973639171656,394.89995250449795,0.01
809.9375381516472,0.000025455132458773733,384.3973639171656,394.89995250449795,0.01
809.9375381516472,0.000025455132458773733,384.3973639171656,394.89995250449795,0.01
809.9375381516472,0.000025455132458773733,384.3973639171656,394.89995250449795,0.01
809.9375381516472,0.000025455132458773733,384.3973639171656,394.89995250449795,0.01
809.9375381516472,0.000025455132458773733,384.3973639171656,394.89995250449795,0.01
809.9375381516472,0.000025455132458773733,384.3973639171656,394.89995250449795,0.01
809.9375381516472,0.000025455132458773733,384.3973639171656,394.89995250449795,0.01
809.9375381516472,0.000025455132458773733,384.3973639171656,394.89995250449795,0.01
809.9375381516472,0.000025455132458773733,384.3973639171656,394.89995250449795,0.01
809.9375381516472,0.000025455132458773733,384.3973639171656,394.89995250449795,0.01
809.9375381516472,0.000025455132458773733,384.3973639171656,394.89995250449795,0.01
809.9375381516472,0.000025455132458773733,384.3973639171656,394.89995250449795,0.01
809.9375381516472,0.000025455132458773733,384.3973639171656,394.89995250449795,0.01
809.9375381516472,0.000025455132458773733,384.3973639171656,394.89995250449795,0.01
809.9375381516472,0.000025455132458773733,384.3973639171656,394.89995250449795,0.01
809.9375381516472,0.000025455132458773733,384.3973639171656,394.89995250449795,0.01
809.9375381516472,0.000025455132458773733,384.3973639171656,394.89995250449795,0.01
809.9375381516472,0.000025455132458773733,384.3973639171656,394.89995250449795,0.01
809.9375381516472,0.000025455132458773733,384.3973639171656,394.89995250449795,0.01
809.9375381516472,0.000025455132458773733,384.3973639171656,394.89995250449795,0.01
809.9375381516472,0.000025455132458773733,384.3973639171656,394.89995250449795,0.01
809.9375381516472,0.000025455132458773733,384.3973639171656,394.89995250449795,0.01
809.9375381516472,0.000025455132458773733,384.3973639171656,394.89995250449795,0.01
809.9375381516472,0.000025455132458773733,384.3973639171656,394.89995250449795,0.01
809.9375381516472,0.000025455132458773733,384.3973639171656,394.89995250449795,0.01
809.9375381516472,0.000025455132458773733,384.3973639171656,394.89995250449795,0.01
809.9375381516472,0.000025455132458773733,384.3973639171656,394.89995250449795,0.01
809.9375381516472,0.000025455132458773733,384.3973639171656,394.89995250449795,0.01
809.9375381516472,0.000025455132458773733,384.3973639171656,394.89995250449795,0.01
809.9375381516472,0.000025455132458773733,384.3973639171656,394.89995250449795,0.01
809.9375381516472,0.000025455132458773733,384.3973639171656,394.89995250449795,0.01
809.9375381516472,0.000025455132458773733,384.3973639171656,394.89995250449795,0.01
809.9375381516472,0.000025455132458773733,384.3973639171656,394.89995250449795,0.01
809.9375381516472,0.000025455132458773733,384.3973639171656,394.89995250449795,0.01
809.9375381516472,0.000025455132458773733,384.3973639171656,394.89995250449795,0.01
809.9375381516472,0.000025455132458773733,384.3973639171656,394.89995250449795,0.01
809.9375381516472,0.000025455132458773733,384.3973639171656,394.89995250449795,0.01
809.9375381516472,0.000025455132458773733,384.3973639171656,394.89995250449795,0.01
809.9375381516472,0.000025455132458773733,384.3973639171656,394.89995250449795,0.01
809.9375381516472,0.000025455132458773733,384.3973639171656,394.89995250449795,0.01
809.9375381516472,0.000025455132458773733,384.3973639171656,394.89995250449795,0.01
809.9375381516472,0.000025455132458773733,384.3973639171656,394.89995250449795,0.01
809.9375381516472,0.000025455132458773733,384.3973639171656,394.89995250449795,0.01
809.9375381516472,0.000025455132458773733,384.3973639171656,394.89995250449795,0.01
809.9375381516472,0.000025455132458773733,384.3973639171656,394.89995250449795,0.01
809.9375381516472,0.000025455132458773733,384.3973639171656,394.89995250449795,0.01
809.9375381516472,0.000025455132458773733,384.3973639171656,394.89995250449795,0.01
809.9375381516472,0.000025455132458773733,384.3973639171656,394.89995250449795,0.01
809.9375381516472,0.000025455132458773733,384.3973639171656,394.89995250449795,0.01
809.9375381516472,0.000025455132458773733,384.3973639171656,394.89995250449795,0.01
809.9375381516472,0.000025455132458773733,384.3973639171656,394.89995250449795,0.01
809.9375381516472,0.000025455132458773733,384.3973639171656,394.89995250449795,0.01
809.9375381516472,0.000025455132458773733,384.3973639171656,394.89995250449795,0.01
809.9375381516472,0.000025455132458773733,384.3973639171656,394.89995250449795,0.01
809.9375381516472,0.000025455132458773733,384.3973639171656,394.89995250449795,0.01
809.9375381516472,0.000025455132458773733,384.3973639171656,394.89995250449795,0.01
809.9375381516472,0.000025455132458773733,384.3973639171656,394.89995250449795,0.01
809.9375381516472,0.000025455132458773733,384.3973639171656,394.89995250449795,0.01
809.9375381516472,0.000025455132458773733,384.3973639171656,394.89995250449795,0.01
809.9375381516472,0.000025455132458773733,384.3973639171656,394.89995250449795,0.01
809.9375381516472,0.000025455132458773733,384.3973639171656,394.89995250449795,0.01
809.9375381516472,0.000025455132458773733,384.3973639171656,394.89995250449795,0.01
809.9375381516472,0.000025455132458773733,384.3973639171656,394.89995250449795,0.01
809.9375381516472,0.000025455132458773733,384.3973639171656,394.89995250449795,0.01
809.9375381516472,0.000025455132458773733,384.3973639171656,394.89995250449795,0.01
809.9375381516472,0.000025455132458773733,384.3973639171656,394.89995250449795,0.01
809.9375381516472,0.000025455132458773733,384.3973639171656,394.89995250449795,0.01
809.9375381516472,0.000025455132458773733,384.3973639171656,394.89995250449795,0.01
809.9375381516472,0.000025455132458773733,384.3973639171656,394.89995250449795,0.01
809.9375381516472,0.000025455132458773733,384.3973639171656,394.89995250449795,0.01
809.9375381516472,0.000025455132458773733,384.3973639171656,394.89995250449795,0.01
809.9375381516472,0.000025455132458773733,384.3973639171656,394.89995250449795,0.01
809.9375381516472,0.000025455132458773733,384.3973639171656,394.89995250449795,0.01
809.9375381516472,0.000025455132458773733,384.3973639171656,394.89995250449795,0.01
809.9375381516472,0.000025455132458773733,384.3973639171656,394.89995250449795,0.01
809.9375381516472,0.000025455132458773733,384.3973639171656,394.89995250449795,0.01
809.9375381516472,0.000025455132458773733,384.3973639171656,394.89995250449795,0.01
809.9375381516472,0.000025455132458773733,384.3973639171656,394.89995250449795,0.01
809.9375381516472,0.000025455132458773733,384.3973639171656,394.89995250449795,0.01
809.9375381516472,0.000025455132458773733,384.3973639171656,394.89995250449795,0.01
809.9375381516472,0.000025455132458773733,384.3973639171656,394.89995250449795,0.01
809.9375381516472,0.000025455132458773733,384.3973639171656,394.89995250449795,0.01
809.9375381516472,0.000025455132458773733,384.3973639171656,394.89995250449795,0.01
809.9375381516472,0.000025455132458773733,384.3973639171656,394.89995250449795,0.01
809.9375381516472,0.000025455132458773733,384.3973639171656,394.89995250449795,0.01
809.9375381516472,0.000025455132458773733,384.3973639171656,394.89995250449795,0.01
809.9375381516472,0.000025455132458773733,384.3973639171656,394.89995250449795,0.01
809.9375381516472,0.000025455132458773733,384.3973639171656,394.89995250449795,0.01
809.9375381516472,0.000025455132458773733,384.3973639171656,394.89995250449795,0.01
809.9375381516472,0.000025455132458773733,384.3973639171656,394.89995250449795,0.01
809.9375381516472,0.000025455132458773733,384.3973639171656,394.89995250449795,0.01
809.9375381516472,0.000025455132458773733,384.3973639171656,394.89995250449795,0.01
809.9375381516472,0.000025455132458773733,384.3973639171656,394.89995250449795,0.01
809.9375381516472,0.000025455132458773733,384.3973639171656,394.89995250449795,0.01
809.9375381516472,0.000025455132458773733,384.3973639171656,394.89995250449795,0.01
809.9375381516472,0.000025455132458773733,384.3973639171656,394.89995250449795,0.01
809.9375381516472,0.000025455132458773733,384.3973639171656,394.89995250449795,0.01
809.9375381516472,0.000025455132458773733,384.3973639171656,394.89995250449795,0.01
809.9375381516472,0.000025455132458773733,384.3973639171656,394.89995250449795,0.01
809.9375381516472,0.000025455132458773733,384.3973639171656,394.89995250449795,0.01
809.9375381516472,0.000025455132458773733,384.3973639171656,394.89995250449795,0.01
809.9375381516472,0.000025455132458773733,384.3973639171656,394.89995250449795,0.01
809.9375381516472,0.000025455132458773733,384.3973639171656,394.89995250449795,0.01
809.9375381516472,0.000025455132458773733,384.3973639171656,394.89995250449795,0.01
809.9375381516472,0.000025455132458773733,384.3973639171656,394.89995250449795,0.01
809.9375381516472,0.000025455132458773733,384.3973639171656,394.89995250449795,0.01
809.9375381516472,0.000025455132458773733,384.3973639171656,394.89995250449795,0.01
809.9375381516472,0.000025455132458773733,384.3973639171656,394.89995250449795,0.01
809.9375381516472,0.000025455132458773733,384.3973639171656,394.89995250449795,0.01
809.9375381516472,0.000025455132458773733,384.3973639171656,394.89995250449795,0.01
809.9375381516472,0.000025455132458773733,384.3973639171656,394.89995250449795,0.01
809.9375381516472,0.000025455132458773733,384.3973639171656,394.89995250449795,0.01
809.9375381516472,0.000025455132458773733,384.3973639171656,394.89995250449795,0.01
809.9375381516472,0.000025455132458773733,384.3973639171656,394.89995250449795,0.01
809.9375381516472,0.000025455132458773733,384.3973639171656,394.89995250449795,0.01
809.9375381516472,0.000025455132458773733,384.3973639171656,394.89995250449795,0.01
809.9375381516472,0.000025455132458773733,384.3973639171656,394.89995250449795,0.01
809.9375381516472,0.000025455132458773733,384.3973639171656,394.89995250449795,0.01
809.9375381516472,0.000025455132458773733,384.3973639171656,394.89995250449795,0.01
809.9375381516472,0.000025455132458773733,384.3973639171656,394.89995250449795,0.01
809.9375381516472,0.000025455132458773733,384.3973639171656,394.89995250449795,0.01
809.9375381516472,0.000025455132458773733,384.3973639171656,394.89995250449795,0.01
809.9375381516472,0.000025455132458773733,384.3973639171656,394.89995250449795,0.01
809.9375381516472,0.000025455132458773733,384.3973639171656,394.89995250449795,0.01
809.9375381516472,0.000025455132458773733,384.3973639171656,394.89995250449795,0.01
809.9375381516472,0.000025455132458773733,384.3973639171656,394.89995250449795,0.01
809.9375381516472,0.000025455132458773733,384.3973639171656,394.89995250449795,0.01
809.9375381516472,0.000025455132458773733,384.3973639171656,394.89995250449795,0.01
809.9375381516472,0.000025455132458773733,384.3973639171656,394.89995250449795,0.01
809.9375381516472,0.000025455132458773733,384.3973639171656,394.89995250449795,0.01
809.9375381516472,0.000025455132458773733,384.3973639171656,394.89995250449795,0.01
809.9375381516472,0.000025455132458773733,384.3973639171656,394.89995250449795,0.01
809.9375381516472,0.000025455132458773733,384.3973639171656,394.89995250449795,0.01
809.9375381516472,0.000025455132458773733,384.3973639171656,394.89995250449795,0.01
809.9375381516472,0.000025455132458773733,384.3973639171656,394.89995250449795,0.01
809.9375381516472,0.000025455132458773733,384.3973639171656,394.89995250449795,0.01
809.9375381516472,0.000025455132458773733,384.3973639171656,394.89995250449795,0.01
809.9375381516472,0.000025455132458773733,384.3973639171656,394.89995250449795,0.01
809.9375381516472,0.000025455132458773733,384.3973639171656,394.89995250449795,0.01
809.9375381516472,0.000025455132458773733,384.3973639171656,394.89995250449795,0.01
809.9375381516472,0.000025455132458773733,384.3973639171656,394.89995250449795,0.01
809.9375381516472,0.000025455132458773733,384.3973639171656,394.89995250449795,0.01
809.9375381516472,0.000025455132458773733,384.3973639171656,394.89995250449795,0.01
809.9375381516472,0.000025455132458773733,384.3973639171656,394.89995250449795,0.01
809.9375381516472,0.000025455132458773733,384.3973639171656,394.89995250449795,0.01
809.9375381516472,0.000025455132458773733,384.3973639171656,394.89995250449795,0.01
809.9375381516472,0.000025455132458773733,384.3973639171656,394.89995250449795,0.01
809.9375381516472,0.000025455132458773733,384.3973639171656,394.89995250449795,0.01
809.9375381516472,0.000025455132458773733,384.3973639171656,394.89995250449795,0.01
809.9375381516472,0.000025455132458773733,384.3973639171656,394.89995250449795,0.01
809.9375381516472,0.000025455132458773733,384.3973639171656,394.89995250449795,0.01
809.9375381516472,0.000025455132458773733,384.3973639171656,394.89995250449795,0.01
809.9375381516472,0.000025455132458773733,384.3973639171656,394.89995250449795,0.01
809.9375381516472,0.000025455132458773733,384.3973639171656,394.89995250449795,0.01
809.9375381516472,0.000025455132458773733,384.3973639171656,394.89995250449795,0.01
809.9375381516472,0.000025455132458773733,384.3973639171656,394.89995250449795,0.01
809.9375381516472,0.000025455132458773733,384.3973639171656,394.89995250449795,0.01
809.9375381516472,0.000025455132458773733,384.3973639171656,394.89995250449795,0.01
809.9375381516472,0.000025455132458773733,384.3973639171656,394.89995250449795,0.01
809.9375381516472,0.000025455132458773733,384.3973639171656,394.89995250449795,0.01
809.9375381516472,0.000025455132458773733,384.3973639171656,394.89995250449795,0.01
809.9375381516472,0.000025455132458773733,384.3973639171656,394.89995250449795,0.01
809.9375381516472,0.000025455132458773733,384.3973639171656,394.89995250449795,0.01
809.9375381516472,0.000025455132458773733,384.3973639171656,394.89995250449795,0.01
809.9375381516472,0.000025455132458773733,384.3973639171656,394.89995250449795,0.01
809.9375381516472,0.000025455132458773733,384.3973639171656,394.89995250449795,0.01
809.9375381516472,0.000025455132458773733,384.3973639171656,394.89995250449795,0.01
809.9375381516472,0.000025455132458773733,384.3973639171656,394.89995250449795,0.01
809.9375381516472,0.000025455132458773733,384.3973639171656,394.89995250449795,0.01
809.9375381516472,0.000025455132458773733,384.3973639171656,394.89995250449795,0.01
809.9375381516472,0.000025455132458773733,384.3973639171656,394.89995250449795,0.01
809.9375381516472,0.000025455132458773733,384.3973639171656,394.89995250449795,0.01
809.9375381516472,0.000025455132458773733,384.3973639171656,394.89995250449795,0.01
809.9375381516472,0.000025455132458773733,384.3973639171656,394.89995250449795,0.01
809.9375381516472,0.000025455132458773733,384.3973639171656,394.89995250449795,0.01
809.9375381516472,0.000025455132458773733,384.3973639171656,394.89995250449795,0.01
809.9375381516472,0.000025455132458773733,384.3973639171656,394.89995250449795,0.01
809.9375381516472,0.000025455132458773733,384.3973639171656,394.89995250449795,0.01
809.9375381516472,0.000025455132458773733,384.3973639171656,394.89995250449795,0.01
809.9375381516472,0.000025455132458773733,384.3973639171656,394.89995250449795,0.01
809.9375381516472,0.000025455132458773733,384.3973639171656,394.89995250449795,0.01
809.9375381516472,0.000025455132458773733,384.3973639171656,394.89995250449795,0.01
809.9375381516472,0.000025455132458773733,384.3973639171656,394.89995250449795,0.01
809.9375381516472,0.000025455132458773733,384.3973639171656,394.89995250449795,0.01
809.9375381516472,0.000025455132458773733,384.3973639171656,394.89995250449795,0.01
809.9375381516472,0.000025455132458773733,384.3973639171656,394.89995250449795,0.01
809.9375381516472,0.000025455132458773733,384.3973639171656,394.89995250449795,0.01
809.9375381516472,0.000025455132458773733,384.3973639171656,394.89995250449795,0.01
809.9375381516472,0.000025455132458773733,384.3973639171656,394.89995250449795,0.01
809.9375381516472,0.000025455132458773733,384.3973639171656,394.89995250449795,0.01
809.9375381516472,0.000025455132458773733,384.3973639171656,394.89995250449795,0.01
809.9375381516472,0.000025455132458773733,384.3973639171656,394.89995250449795,0.01
809.9375381516472,0.000025455132458773733,384.3973639171656,394.89995250449795,0.01
809.9375381516472,0.000025455132458773733,384.3973639171656,394.89995250449795,0.01