worst,best,mean,median,limit
1462.7821573664296,74.02121378559264,816.0700038658645,542.0710210280056,0
1552.0240756262758,1.0199955932463354,815.5302254171544,530.8274525010609,0
1557.4931103820682,0.00003653432361261366,815.6733776204624,540.4684588386449,0
1557.4932399304294,0.000025455132458773733,815.4141775666893,535.4368031018289,0
1557.4932399304294,0.00002545513257246057,815.7880441893665,541.8590862414821,0
1557.4932399304294,0.000025455132458773733,816.1904384177864,541.859086241482,0
1557.4932399304294,0.00002545513257246057,816.5147828702975,541.8590862414821,0
1557.4932399304294,0.000025455132458773733,816.5810970701996,541.859086241482,0
1557.4932399304294,0.00002545513257246057,816.5811304474072,541.8590862414821,0
1557.4932399304294,0.000025455132458773733,816.5811304474104,541.859086241482,0
1557.4932399304294,0.00002545513257246057,816.5811304474104,541.8590862414821,0
1557.4932399304294,0.000025455132458773733,816.5811304474104,541.859086241482,0
1557.4932399304294,0.00002545513257246057,816.5811304474104,541.8590862414821,0
1557.4932399304294,0.000025455132458773733,816.5811304474104,541.859086241482,0
1557.4932399304294,0.00002545513257246057,816.5811304474104,541.8590862414821,0
1557.4932399304294,0.000025455132458773733,816.5811304474104,541.859086241482,0
1557.4932399304294,0.00002545513257246057,816.5811304474104,541.8590862414821,0
1557.4932399304294,0.000025455132458773733,816.5811304474104,541.859086241482,0
1557.4932399304294,0.00002545513257246057,816.5811304474104,541.8590862414821,0
1557.4932399304294,0.000025455132458773733,816.5811304474104,541.859086241482,0
1557.4932399304294,0.00002545513257246057,816.5811304474104,541.8590862414821,0
1557.4932399304294,0.000025455132458773733,816.5811304474104,541.859086241482,0
1557.4932399304294,0.00002545513257246057,816.5811304474104,541.8590862414821,0
1557.4932399304294,0.000025455132458773733,816.5811304474104,541.859086241482,0
1557.4932399304294,0.00002545513257246057,816.5811304474104,541.8590862414821,0
1557.4932399304294,0.000025455132458773733,816.5811304474104,541.859086241482,0
1557.4932399304294,0.00002545513257246057,816.5811304474104,541.8590862414821,0
1557.4932399304294,0.000025455132458773733,816.5811304474104,541.859086241482,0
1557.4932399304294,0.00002545513257246057,816.5811304474104,541.8590862414821,0
1557.4932399304294,0.000025455132458773733,816.5811304474104,541.859086241482,0
1557.4932399304294,0.00002545513257246057,816.5811304474104,541.8590862414821,0
1557.4932399304294,0.000025455132458773733,816.5811304474104,541.859086241482,0
1557.4932399304294,0.00002545513257246057,816.5811304474104,541.8590862414821,0
1557.4932399304294,0.000025455132458773733,816.5811304474104,541.859086241482,0
1557.4932399304294,0.00002545513257246057,816.5811304474104,541.8590862414821,0
1557.4932399304294,0.000025455132458773733,816.5811304474104,541.859086241482,0
1557.4932399304294,0.00002545513257246057,816.5811304474104,541.8590862414821,0
1557.4932399304294,0.000025455132458773733,816.5811304474104,541.859086241482,0
1557.4932399304294,0.00002545513257246057,816.5811304474104,541.8590862414821,0
1557.4932399304294,0.000025455132458773733,816.5811304474104,541.859086241482,0
1557.4932399304294,0.00002545513257246057,816.5811304474104,541.8590862414821,0
1557.4932399304294,0.000025455132458773733,816.5811304474104,541.859086241482,0
1557.4932399304294,0.00002545513257246057,816.5811304474104,541.8590862414821,0
1557.4932399304294,0.000025455132458773733,816.5811304474104,541.859086241482,0
1557.4932399304294,0.00002545513257246057,816.5811304474104,541.8590862414821,0
1557.4932399304294,0.000025455132458773733,816.5811304474104,541.859086241482,0
1557.4932399304294,0.00002545513257246057,816.5811304474104,541.8590862414821,0
1557.4932399304294,0.000025455132458773733,816.5811304474104,541.859086241482,0
1557.4932399304294,0.00002545513257246057,816.5811304474104,541.8590862414821,0
1557.4932399304294,0.000025455132458773733,816.5811304474104,541.859086241482,0
1557.4932399304294,0.00002545513257246057,816.5811304474104,541.8590862414821,0
1557.4932399304294,0.000025455132458773733,816.5811304474104,541.859086241482,0
1557.4932399304294,0.00002545513257246057,816.5811304474104,541.8590862414821,0
1557.4932399304294,0.000025455132458773733,816.5811304474104,541.859086241482,0
1557.4932399304294,0.00002545513257246057,816.5811304474104,541.8590862414821,0
1557.4932399304294,0.000025455132458773733,816.5811304474104,541.859086241482,0
1557.4932399304294,0.00002545513257246057,816.5811304474104,541.8590862414821,0
1557.4932399304294,0.000025455132458773733,816.5811304474104,541.859086241482,0
1557.4932399304294,0.00002545513257246057,816.5811304474104,541.8590862414821,0
1557.4932399304294,0.000025455132458773733,816.5811304474104,541.859086241482,0
1557.4932399304294,0.00002545513257246057,816.5811304474104,541.8590862414821,0
1557.4932399304294,0.000025455132458773733,816.5811304474104,541.859086241482,0
1557.4932399304294,0.00002545513257246057,816.5811304474104,541.8590862414821,0
1557.4932399304294,0.000025455132458773733,816.5811304474104,541.859086241482,0
1557.4932399304294,0.00002545513257246057,816.5811304474104,541.8590862414821,0
1557.4932399304294,0.000025455132458773733,816.5811304474104,541.859086241482,0
1557.4932399304294,0.00002545513257246057,816.5811304474104,541.8590862414821,0
1557.4932399304294,0.000025455132458773733,816.5811304474104,541.859086241482,0
1557.4932399304294,0.00002545513257246057,816.5811304474104,541.8590862414821,0
1557.4932399304294,0.000025455132458773733,816.5811304474104,541.859086241482,0
1557.4932399304294,0.00002545513257246057,816.5811304474104,541.8590862414821,0
1557.4932399304294,0.000025455132458773733,816.5811304474104,541.859086241482,0
1557.4932399304294,0.00002545513257246057,816.5811304474104,541.8590862414821,0
1557.4932399304294,0.000025455132458773733,816.5811304474104,541.859086241482,0
1557.4932399304294,0.00002545513257246057,816.5811304474104,541.8590862414821,0
1557.4932399304294,0.000025455132458773733,816.5811304474104,541.859086241482,0
1557.4932399304294,0.00002545513257246057,816.5811304474104,541.8590862414821,0
1557.4932399304294,0.000025455132458773733,816.5811304474104,541.859086241482,0
1557.4932399304294,0.00002545513257246057,816.5811304474104,541.8590862414821,0
1557.4932399304294,0.000025455132458773733,816.5811304474104,541.859086241482,0
1557.4932399304294,0.00002545513257246057,816.5811304474104,541.8590862414821,0
1557.4932399304294,0.000025455132458773733,816.5811304474104,541.859086241482,0
1557.4932399304294,0.00002545513257246057,816.5811304474104,541.8590862414821,0
1557.4932399304294,0.000025455132458773733,816.5811304474104,541.859086241482,0
1557.4932399304294,0.00002545513257246057,816.5811304474104,541.8590862414821,0
1557.4932399304294,0.000025455132458773733,816.5811304474104,541.859086241482,0
1557.4932399304294,0.00002545513257246057,816.5811304474104,541.8590862414821,0
1557.4932399304294,0.000025455132458773733,816.5811304474104,541.859086241482,0
1557.4932399304294,0.00002545513257246057,816.5811304474104,541.8590862414821,0
1557.4932399304294,0.000025455132458773733,816.5811304474104,541.859086241482,0
1557.4932399304294,0.00002545513257246057,816.5811304474104,541.8590862414821,0
1557.4932399304294,0.000025455132458773733,816.5811304474104,541.859086241482,0
1557.4932399304294,0.00002545513257246057,816.5811304474104,541.8590862414821,0
1557.4932399304294,0.000025455132458773733,816.5811304474104,541.859086241482,0
1557.4932399304294,0.00002545513257246057,816.5811304474104,541.8590862414821,0
1557.4932399304294,0.000025455132458773733,816.5811304474104,541.859086241482,0
1557.4932399304294,0.00002545513257246057,816.5811304474104,541.8590862414821,0
1557.4932399304294,0.000025455132458773733,816.5811304474104,541.859086241482,0
1557.4932399304294,0.00002545513257246057,816.5811304474104,541.8590862414821,0
1557.4932399304294,0.000025455132458773733,816.5811304474104,541.859086241482,0
1557.4932399304294,0.00002545513257246057,816.5811304474104,541.8590862414821,0
1557.4932399304294,0.000025455132458773733,816.5811304474104,541.859086241482,0
1557.4932399304294,0.00002545513257246057,816.5811304474104,541.8590862414821,0
1557.4932399304294,0.000025455132458773733,816.5811304474104,541.859086241482,0
1557.4932399304294,0.00002545513257246057,816.5811304474104,541.8590862414821,0
1557.4932399304294,0.000025455132458773733,816.5811304474104,541.859086241482,0
1557.4932399304294,0.00002545513257246057,816.5811304474104,541.8590862414821,0
1557.4932399304294,0.000025455132458773733,816.5811304474104,541.859086241482,0
1557.4932399304294,0.00002545513257246057,816.5811304474104,541.8590862414821,0
1557.4932399304294,0.000025455132458773733,816.5811304474104,541.859086241482,0
1557.4932399304294,0.00002545513257246057,816.5811304474104,541.8590862414821,0
1557.4932399304294,0.000025455132458773733,816.5811304474104,541.859086241482,0
1557.4932399304294,0.00002545513257246057,816.5811304474104,541.8590862414821,0
1557.4932399304294,0.000025455132458773733,816.5811304474104,541.859086241482,0
1557.4932399304294,0.00002545513257246057,816.5811304474104,541.8590862414821,0
1557.4932399304294,0.000025455132458773733,816.5811304474104,541.859086241482,0
1557.4932399304294,0.00002545513257246057,816.5811304474104,541.8590862414821,0
1557.4932399304294,0.000025455132458773733,816.5811304474104,541.859086241482,0
1557.4932399304294,0.00002545513257246057,816.5811304474104,541.8590862414821,0
1557.4932399304294,0.000025455132458773733,816.5811304474104,541.859086241482,0
1557.4932399304294,0.00002545513257246057,816.5811304474104,541.8590862414821,0
1557.4932399304294,0.000025455132458773733,816.5811304474104,541.859086241482,0
1557.4932399304294,0.00002545513257246057,816.5811304474104,541.8590862414821,0
1557.4932399304294,0.000025455132458773733,816.5811304474104,541.859086241482,0
1557.4932399304294,0.00002545513257246057,816.5811304474104,541.8590862414821,0
1557.4932399304294,0.000025455132458773733,816.5811304474104,541.859086241482,0
1557.4932399304294,0.00002545513257246057,816.5811304474104,541.8590862414821,0
1557.4932399304294,0.000025455132458773733,816.5811304474104,541.859086241482,0
1557.4932399304294,0.00002545513257246057,816.5811304474104,541.8590862414821,0
1557.4932399304294,0.000025455132458773733,816.5811304474104,541.859086241482,0
1557.4932399304294,0.00002545513257246057,816.5811304474104,541.8590862414821,0
1557.4932399304294,0.000025455132458773733,816.5811304474104,541.859086241482,0
1557.4932399304294,0.00002545513257246057,816.5811304474104,541.8590862414821,0
1557.4932399304294,0.000025455132458773733,816.5811304474104,541.859086241482,0
1557.4932399304294,0.00002545513257246057,816.5811304474104,541.8590862414821,0
1557.4932399304294,0.000025455132458773733,816.5811304474104,541.859086241482,0
1557.4932399304294,0.00002545513257246057,816.5811304474104,541.8590862414821,0
1557.4932399304294,0.000025455132458773733,816.5811304474104,541.859086241482,0
1557.4932399304294,0.00002545513257246057,816.5811304474104,541.8590862414821,0
1557.4932399304294,0.000025455132458773733,816.5811304474104,541.859086241482,0
1557.4932399304294,0.00002545513257246057,816.5811304474104,541.8590862414821,0
1557.4932399304294,0.000025455132458773733,816.5811304474104,541.859086241482,0
1557.4932399304294,0.00002545513257246057,816.5811304474104,541.8590862414821,0
1557.4932399304294,0.000025455132458773733,816.5811304474104,541.859086241482,0
1557.4932399304294,0.00002545513257246057,816.5811304474104,541.8590862414821,0
1557.4932399304294,0.000025455132458773733,816.5811304474104,541.859086241482,0
1557.4932399304294,0.00002545513257246057,816.5811304474104,541.8590862414821,0
1557.4932399304294,0.000025455132458773733,816.5811304474104,541.859086241482,0
1557.4932399304294,0.00002545513257246057,816.5811304474104,541.8590862414821,0
1557.4932399304294,0.000025455132458773733,816.5811304474104,541.859086241482,0
1557.4932399304294,0.00002545513257246057,816.5811304474104,541.8590862414821,0
1557.4932399304294,0.000025455132458773733,816.5811304474104,541.859086241482,0
1557.4932399304294,0.00002545513257246057,816.5811304474104,541.8590862414821,0
1557.4932399304294,0.000025455132458773733,816.5811304474104,541.859086241482,0
1557.4932399304294,0.00002545513257246057,816.5811304474104,541.8590862414821,0
1557.4932399304294,0.000025455132458773733,816.5811304474104,541.859086241482,0
1557.4932399304294,0.00002545513257246057,816.5811304474104,541.8590862414821,0
1557.4932399304294,0.000025455132458773733,816.5811304474104,541.859086241482,0
1557.4932399304294,0.00002545513257246057,816.5811304474104,541.8590862414821,0
1557.4932399304294,0.000025455132458773733,816.5811304474104,541.859086241482,0
1557.4932399304294,0.00002545513257246057,816.5811304474104,541.8590862414821,0
1557.4932399304294,0.000025455132458773733,816.5811304474104,541.859086241482,0
1557.4932399304294,0.00002545513257246057,816.5811304474104,541.8590862414821,0
1557.4932399304294,0.000025455132458773733,816.5811304474104,541.859086241482,0
1557.4932399304294,0.00002545513257246057,816.5811304474104,541.8590862414821,0
1557.4932399304294,0.000025455132458773733,816.5811304474104,541.859086241482,0
1557.4932399304294,0.00002545513257246057,816.5811304474104,541.8590862414821,0
1557.4932399304294,0.000025455132458773733,816.5811304474104,541.859086241482,0
1557.4932399304294,0.00002545513257246057,816.5811304474104,541.8590862414821,0
1557.4932399304294,0.000025455132458773733,816.5811304474104,541.859086241482,0
1557.4932399304294,0.00002545513257246057,816.5811304474104,541.8590862414821,0
1557.4932399304294,0.000025455132458773733,816.5811304474104,541.859086241482,0
1557.4932399304294,0.00002545513257246057,816.5811304474104,541.8590862414821,0
1557.4932399304294,0.000025455132458773733,816.5811304474104,541.859086241482,0
1557.4932399304294,0.00002545513257246057,816.5811304474104,541.8590862414821,0
1557.4932399304294,0.000025455132458773733,816.5811304474104,541.859086241482,0
1557.4932399304294,0.00002545513257246057,816.5811304474104,541.8590862414821,0
1557.4932399304294,0.000025455132458773733,816.5811304474104,541.859086241482,0
1557.4932399304294,0.00002545513257246057,816.5811304474104,541.8590862414821,0
1557.4932399304294,0.000025455132458773733,816.5811304474104,541.859086241482,0
1557.4932399304294,0.00002545513257246057,816.5811304474104,541.8590862414821,0
1557.4932399304294,0.000025455132458773733,816.5811304474104,541.859086241482,0
1557.4932399304294,0.00002545513257246057,816.5811304474104,541.8590862414821,0
1557.4932399304294,0.000025455132458773733,816.5811304474104,541.859086241482,0
1557.4932399304294,0.00002545513257246057,816.5811304474104,541.8590862414821,0
1557.4932399304294,0.000025455132458773733,816.5811304474104,541.859086241482,0
1557.4932399304294,0.00002545513257246057,816.5811304474104,541.8590862414821,0
1557.4932399304294,0.000025455132458773733,816.5811304474104,541.859086241482,0
1557.4932399304294,0.00002545513257246057,816.5811304474104,541.8590862414821,0
1557.4932399304294,0.000025455132458773733,816.5811304474104,541.859086241482,0
1557.4932399304294,0.00002545513257246057,816.5811304474104,541.8590862414821,0
1557.4932399304294,0.000025455132458773733,816.5811304474104,541.859086241482,0
1557.4932399304294,0.00002545513257246057,816.5811304474104,541.8590862414821,0
1557.4932399304294,0.000025455132458773733,816.5811304474104,541.859086241482,0
1557.4932399304294,0.00002545513257246057,816.5811304474104,541.8590862414821,0
1557.4932399304294,0.000025455132458773733,816.5811304474104,541.859086241482,0
1557.4932399304294,0.00002545513257246057,816.5811304474104,541.8590862414821,0
1557.4932399304294,0.000025455132458773733,816.5811304474104,541.859086241482,0
1557.4932399304294,0.00002545513257246057,816.5811304474104,541.8590862414821,0
1557.4932399304294,0.000025455132458773733,816.5811304474104,541.859086241482,0
1557.4932399304294,0.00002545513257246057,816.5811304474104,541.8590862414821,0
1557.4932399304294,0.000025455132458773733,816.5811304474104,541.859086241482,0
1557.4932399304294,0.00002545513257246057,816.5811304474104,541.8590862414821,0
1557.4932399304294,0.000025455132458773733,816.5811304474104,541.859086241482,0
1557.4932399304294,0.00002545513257246057,816.5811304474104,541.8590862414821,0
1557.4932399304294,0.000025455132458773733,816.5811304474104,541.859086241482,0
1557.4932399304294,0.00002545513257246057,816.5811304474104,541.8590862414821,0
1557.4932399304294,0.000025455132458773733,816.5811304474104,541.859086241482,0
1557.4932399304294,0.00002545513257246057,816.5811304474104,541.8590862414821,0
1557.4932399304294,0.000025455132458773733,816.5811304474104,541.859086241482,0
1557.4932399304294,0.00002545513257246057,816.5811304474104,541.8590862414821,0
1557.4932399304294,0.000025455132458773733,816.5811304474104,541.859086241482,0
1557.4932399304294,0.00002545513257246057,816.5811304474104,541.8590862414821,0
1557.4932399304294,0.000025455132458773733,816.5811304474104,541.859086241482,0
1557.4932399304294,0.00002545513257246057,816.5811304474104,541.8590862414821,0
1557.4932399304294,0.000025455132458773733,816.5811304474104,541.859086241482,0
1557.4932399304294,0.00002545513257246057,816.5811304474104,541.8590862414821,0
1557.4932399304294,0.000025455132458773733,816.5811304474104,541.859086241482,0
1557.4932399304294,0.00002545513257246057,816.5811304474104,541.8590862414821,0
1557.4932399304294,0.000025455132458773733,816.5811304474104,541.859086241482,0
1557.4932399304294,0.00002545513257246057,816.5811304474104,541.8590862414821,0
1557.4932399304294,0.000025455132458773733,816.5811304474104,541.859086241482,0
1557.4932399304294,0.00002545513257246057,816.5811304474104,541.8590862414821,0
1557.4932399304294,0.000025455132458773733,816.5811304474104,541.859086241482,0
1557.4932399304294,0.00002545513257246057,816.5811304474104,541.8590862414821,0
1557.4932399304294,0.000025455132458773733,816.5811304474104,541.859086241482,0
1557.4932399304294,0.00002545513257246057,816.5811304474104,541.8590862414821,0
1557.4932399304294,0.000025455132458773733,816.5811304474104,541.859086241482,0
1557.4932399304294,0.00002545513257246057,816.5811304474104,541.8590862414821,0
1557.4932399304294,0.000025455132458773733,816.5811304474104,541.859086241482,0
1557.4932399304294,0.00002545513257246057,816.5811304474104,541.8590862414821,0
1557.4932399304294,0.000025455132458773733,816.5811304474104,541.859086241482,0
1557.4932399304294,0.00002545513257246057,816.5811304474104,541.8590862414821,0
1557.4932399304294,0.000025455132458773733,816.5811304474104,541.859086241482,0
1557.4932399304294,0.00002545513257246057,816.5811304474104,541.8590862414821,0
1557.4932399304294,0.000025455132458773733,816.5811304474104,541.859086241482,0
1557.4932399304294,0.00002545513257246057,816.5811304474104,541.8590862414821,0
1557.4932399304294,0.000025455132458773733,816.5811304474104,541.859086241482,0
1557.4932399304294,0.00002545513257246057,816.5811304474104,541.8590862414821,0
1557.4932399304294,0.000025455132458773733,816.5811304474104,541.859086241482,0
1557.4932399304294,0.00002545513257246057,816.5811304474104,541.8590862414821,0
1557.4932399304294,0.000025455132458773733,816.5811304474104,541.859086241482,0
1557.4932399304294,0.00002545513257246057,816.5811304474104,541.8590862414821,0
1557.4932399304294,0.000025455132458773733,816.5811304474104,541.859086241482,0
1557.4932399304294,0.00002545513257246057,816.5811304474104,541.8590862414821,0
1557.4932399304294,0.000025455132458773733,816.5811304474104,541.859086241482,0
1557.4932399304294,0.00002545513257246057,816.5811304474104,541.8590862414821,0
1557.4932399304294,0.000025455132458773733,816.5811304474104,541.859086241482,0
1557.4932399304294,0.00002545513257246057,816.5811304474104,541.8590862414821,0
1557.4932399304294,0.000025455132458773733,816.5811304474104,541.859086241482,0
1557.4932399304294,0.00002545513257246057,816.5811304474104,541.8590862414821,0
1557.4932399304294,0.000025455132458773733,816.5811304474104,541.859086241482,0
1557.4932399304294,0.00002545513257246057,816.5811304474104,541.8590862414821,0
1557.4932399304294,0.000025455132458773733,816.5811304474104,541.859086241482,0
1557.4932399304294,0.00002545513257246057,816.5811304474104,541.8590862414821,0
1557.4932399304294,0.000025455132458773733,816.5811304474104,541.859086241482,0
1557.4932399304294,0.00002545513257246057,816.5811304474104,541.8590862414821,0
1557.4932399304294,0.000025455132458773733,816.5811304474104,541.859086241482,0
1557.4932399304294,0.00002545513257246057,816.5811304474104,541.8590862414821,0
1557.4932399304294,0.000025455132458773733,816.5811304474104,541.859086241482,0
1557.4932399304294,0.00002545513257246057,816.5811304474104,541.8590862414821,0
1557.4932399304294,0.000025455132458773733,816.5811304474104,541.859086241482,0
1557.4932399304294,0.00002545513257246057,816.5811304474104,541.8590862414821,0
1557.4932399304294,0.000025455132458773733,816.5811304474104,541.859086241482,0
1557.4932399304294,0.00002545513257246057,816.5811304474104,541.8590862414821,0
1557.4932399304294,0.000025455132458773733,816.5811304474104,541.859086241482,0
1557.4932399304294,0.00002545513257246057,816.5811304474104,541.8590862414821,0
1557.4932399304294,0.000025455132458773733,816.5811304474104,541.859086241482,0
1557.4932399304294,0.00002545513257246057,816.5811304474104,541.8590862414821,0
1557.4932399304294,0.000025455132458773733,816.5811304474104,541.859086241482,0
1557.4932399304294,0.00002545513257246057,816.5811304474104,541.8590862414821,0
1557.4932399304294,0.000025455132458773733,816.5811304474104,541.859086241482,0
1557.4932399304294,0.00002545513257246057,816.5811304474104,541.8590862414821,0
1557.4932399304294,0.000025455132458773733,816.5811304474104,541.859086241482,0
1557.4932399304294,0.00002545513257246057,816.5811304474104,541.8590862414821,0
1557.4932399304294,0.000025455132458773733,816.5811304474104,541.859086241482,0
1557.4932399304294,0.00002545513257246057,816.5811304474104,541.8590862414821,0
1557.4932399304294,0.000025455132458773733,816.5811304474104,541.859086241482,0
1557.4932399304294,0.00002545513257246057,816.5811304474104,541.8590862414821,0
1557.4932399304294,0.000025455132458773733,816.5811304474104,541.859086241482,0
1557.4932399304294,0.00002545513257246057,816.5811304474104,541.8590862414821,0
1557.4932399304294,0.000025455132458773733,816.5811304474104,541.859086241482,0
1557.4932399304294,0.00002545513257246057,816.5811304474104,541.8590862414821,0
1557.4932399304294,0.000025455132458773733,816.5811304474104,541.859086241482,0
1557.4932399304294,0.00002545513257246057,816.5811304474104,541.8590862414821,0
1557.4932399304294,0.000025455132458773733,816.5811304474104,541.859086241482,0
1557.4932399304294,0.00002545513257246057,816.5811304474104,541.8590862414821,0
1557.4932399304294,0.000025455132458773733,816.5811304474104,541.859086241482,0
1557.4932399304294,0.00002545513257246057,816.5811304474104,541.8590862414821,0
1557.4932399304294,0.000025455132458773733,816.5811304474104,541.859086241482,0
1557.4932399304294,0.00002545513257246057,816.5811304474104,541.8590862414821,0
1557.4932399304294,0.000025455132458773733,816.5811304474104,541.859086241482,0
1557.4932399304294,0.00002545513257246057,816.5811304474104,541.8590862414821,0
1557.4932399304294,0.000025455132458773733,816.5811304474104,541.859086241482,0
1557.4932399304294,0.00002545513257246057,816.5811304474104,541.8590862414821,0
1557.4932399304294,0.000025455132458773733,816.5811304474104,541.859086241482,0
1557.4932399304294,0.00002545513257246057,816.5811304474104,541.8590862414821,0
1557.4932399304294,0.000025455132458773733,816.5811304474104,541.859086241482,0
1557.4932399304294,0.00002545513257246057,816.5811304474104,541.8590862414821,0
1557.4932399304294,0.000025455132458773733,816.5811304474104,541.859086241482,0
1557.4932399304294,0.00002545513257246057,816.5811304474104,541.8590862414821,0
1557.4932399304294,0.000025455132458773733,816.5811304474104,541.859086241482,0
1557.4932399304294,0.00002545513257246057,816.5811304474104,541.8590862414821,0
1557.4932399304294,0.000025455132458773733,816.5811304474104,541.859086241482,0
1557.4932399304294,0.00002545513257246057,816.5811304474104,541.8590862414821,0
1557.4932399304294,0.000025455132458773733,816.5811304474104,541.859086241482,0
1557.4932399304294,0.00002545513257246057,816.5811304474104,541.8590862414821,0
1557.4932399304294,0.000025455132458773733,816.5811304474104,541.859086241482,0
1557.4932399304294,0.00002545513257246057,816.5811304474104,541.8590862414821,0
1557.4932399304294,0.000025455132458773733,816.5811304474104,541.859086241482,0
1557.4932399304294,0.00002545513257246057,816.5811304474104,541.8590862414821,0
1557.4932399304294,0.000025455132458773733,816.5811304474104,541.859086241482,0
1557.4932399304294,0.00002545513257246057,816.5811304474104,541.8590862414821,0
1557.4932399304294,0.000025455132458773733,816.5811304474104,541.859086241482,0
1557.4932399304294,0.00002545513257246057,816.5811304474104,541.8590862414821,0
1557.4932399304294,0.000025455132458773733,816.5811304474104,541.859086241482,0
1557.4932399304294,0.00002545513257246057,816.5811304474104,541.8590862414821,0
1557.4932399304294,0.000025455132458773733,816.5811304474104,541.859086241482,0
1557.4932399304294,0.00002545513257246057,816.5811304474104,541.8590862414821,0
1557.4932399304294,0.000025455132458773733,816.5811304474104,541.859086241482,0
1557.4932399304294,0.00002545513257246057,816.5811304474104,541.8590862414821,0
1557.4932399304294,0.000025455132458773733,816.5811304474104,541.859086241482,0
1557.4932399304294,0.00002545513257246057,816.5811304474104,541.8590862414821,0
1557.4932399304294,0.000025455132458773733,816.5811304474104,541.859086241482,0
1557.4932399304294,0.00002545513257246057,816.5811304474104,541.8590862414821,0
1557.4932399304294,0.000025455132458773733,816.5811304474104,541.859086241482,0
1557.4932399304294,0.00002545513257246057,816.5811304474104,541.8590862414821,0
1557.4932399304294,0.000025455132458773733,816.5811304474104,541.859086241482,0
1557.4932399304294,0.00002545513257246057,816.5811304474104,541.8590862414821,0
1557.4932399304294,0.000025455132458773733,816.5811304474104,541.859086241482,0
1557.4932399304294,0.00002545513257246057,816.5811304474104,541.8590862414821,0
1557.4932399304294,0.000025455132458773733,816.5811304474104,541.859086241482,0
1557.4932399304294,0.00002545513257246057,816.5811304474104,541.8590862414821,0
1557.4932399304294,0.000025455132458773733,816.5811304474104,541.859086241482,0
1557.4932399304294,0.00002545513257246057,816.5811304474104,541.8590862414821,0
1557.4932399304294,0.000025455132458773733,816.5811304474104,541.859086241482,0
1557.4932399304294,0.00002545513257246057,816.5811304474104,541.8590862414821,0
1557.4932399304294,0.000025455132458773733,816.5811304474104,541.859086241482,0
1557.4932399304294,0.00002545513257246057,816.5811304474104,541.8590862414821,0
1557.4932399304294,0.000025455132458773733,816.5811304474104,541.859086241482,0
1557.4932399304294,0.00002545513257246057,816.5811304474104,541.8590862414821,0
1557.4932399304294,0.000025455132458773733,816.5811304474104,541.859086241482,0
1557.4932399304294,0.00002545513257246057,816.5811304474104,541.8590862414821,0
1557.4932399304294,0.000025455132458773733,816.5811304474104,541.859086241482,0
1557.4932399304294,0.00002545513257246057,816.5811304474104,541.8590862414821,0
1557.4932399304294,0.000025455132458773733,816.5811304474104,541.859086241482,0
1557.4932399304294,0.00002545513257246057,816.5811304474104,541.8590862414821,0
1557.4932399304294,0.000025455132458773733,816.5811304474104,541.859086241482,0
1557.4932399304294,0.00002545513257246057,816.5811304474104,541.8590862414821,0
1557.4932399304294,0.000025455132458773733,816.5811304474104,541.859086241482,0
1557.4932399304294,0.00002545513257246057,816.5811304474104,541.8590862414821,0
1557.4932399304294,0.000025455132458773733,816.5811304474104,541.859086241482,0
1557.4932399304294,0.00002545513257246057,816.5811304474104,541.8590862414821,0
1557.4932399304294,0.000025455132458773733,816.5811304474104,541.859086241482,0
1557.4932399304294,0.00002545513257246057,816.5811304474104,541.8590862414821,0
1557.4932399304294,0.000025455132458773733,816.5811304474104,541.859086241482,0
1557.4932399304294,0.00002545513257246057,816.5811304474104,541.8590862414821,0
1557.4932399304294,0.000025455132458773733,816.5811304474104,541.859086241482,0
1557.4932399304294,0.00002545513257246057,816.5811304474104,541.8590862414821,0
1557.4932399304294,0.000025455132458773733,816.5811304474104,541.859086241482,0
1557.4932399304294,0.00002545513257246057,816.5811304474104,541.8590862414821,0
1557.4932399304294,0.000025455132458773733,816.5811304474104,541.859086241482,0
1557.4932399304294,0.00002545513257246057,816.5811304474104,541.8590862414821,0
1557.4932399304294,0.000025455132458773733,816.5811304474104,541.859086241482,0
1557.4932399304294,0.00002545513257246057,816.5811304474104,541.8590862414821,0
1557.4932399304294,0.000025455132458773733,816.5811304474104,541.859086241482,0
1557.4932399304294,0.00002545513257246057,816.5811304474104,541.8590862414821,0
1557.4932399304294,0.000025455132458773733,816.5811304474104,541.859086241482,0
1557.4932399304294,0.00002545513257246057,816.5811304474104,541.8590862414821,0
1557.4932399304294,0.000025455132458773733,816.5811304474104,541.859086241482,0
1557.4932399304294,0.00002545513257246057,816.5811304474104,541.8590862414821,0
1557.4932399304294,0.000025455132458773733,816.5811304474104,541.859086241482,0
1557.4932399304294,0.00002545513257246057,816.5811304474104,541.8590862414821,0
1557.4932399304294,0.000025455132458773733,816.5811304474104,541.859086241482,0
1557.4932399304294,0.00002545513257246057,816.5811304474104,541.8590862414821,0
1557.4932399304294,0.000025455132458773733,816.5811304474104,541.859086241482,0
1557.4932399304294,0.00002545513257246057,816.5811304474104,541.8590862414821,0
1557.4932399304294,0.000025455132458773733,816.5811304474104,541.859086241482,0
1557.4932399304294,0.00002545513257246057,816.5811304474104,541.8590862414821,0
1557.4932399304294,0.000025455132458773733,816.5811304474104,541.859086241482,0
1557.4932399304294,0.00002545513257246057,816.5811304474104,541.8590862414821,0
1557.4932399304294,0.000025455132458773733,816.5811304474104,541.859086241482,0
1557.4932399304294,0.00002545513257246057,816.5811304474104,541.8590862414821,0
1557.4932399304294,0.000025455132458773733,816.5811304474104,541.859086241482,0
1557.4932399304294,0.00002545513257246057,816.5811304474104,541.8590862414821,0
1557.4932399304294,0.000025455132458773733,816.5811304474104,541.859086241482,0
1557.4932399304294,0.00002545513257246057,816.5811304474104,541.8590862414821,0
1557.4932399304294,0.000025455132458773733,816.5811304474104,541.859086241482,0
1557.4932399304294,0.00002545513257246057,816.5811304474104,541.8590862414821,0
1557.4932399304294,0.000025455132458773733,816.5811304474104,541.859086241482,0
1557.4932399304294,0.00002545513257246057,816.5811304474104,541.8590862414821,0
1557.4932399304294,0.000025455132458773733,816.5811304474104,541.859086241482,0
1557.4932399304294,0.00002545513257246057,816.5811304474104,541.8590862414821,0
1557.4932399304294,0.000025455132458773733,816.5811304474104,541.859086241482,0
1557.4932399304294,0.00002545513257246057,816.5811304474104,541.8590862414821,0
1557.4932399304294,0.000025455132458773733,816.5811304474104,541.859086241482,0
1557.4932399304294,0.00002545513257246057,816.5811304474104,541.8590862414821,0
1557.4932399304294,0.000025455132458773733,816.5811304474104,541.859086241482,0
1557.4932399304294,0.00002545513257246057,816.5811304474104,541.8590862414821,0
1557.4932399304294,0.000025455132458773733,816.5811304474104,541.859086241482,0
1557.4932399304294,0.00002545513257246057,816.5811304474104,541.8590862414821,0
1557.4932399304294,0.000025455132458773733,816.5811304474104,541.859086241482,0
1557.4932399304294,0.00002545513257246057,816.5811304474104,541.8590862414821,0
1557.4932399304294,0.000025455132458773733,816.5811304474104,541.859086241482,0
1557.4932399304294,0.00002545513257246057,816.5811304474104,541.8590862414821,0
1557.4932399304294,0.000025455132458773733,816.5811304474104,541.859086241482,0
1557.4932399304294,0.00002545513257246057,816.5811304474104,541.8590862414821,0
1557.4932399304294,0.000025455132458773733,816.5811304474104,541.859086241482,0
1557.4932399304294,0.00002545513257246057,816.5811304474104,541.8590862414821,0
1557.4932399304294,0.000025455132458773733,816.5811304474104,541.859086241482,0
1557.4932399304294,0.00002545513257246057,816.5811304474104,541.8590862414821,0
1557.4932399304294,0.000025455132458773733,816.5811304474104,541.859086241482,0
1557.4932399304294,0.00002545513257246057,816.5811304474104,541.8590862414821,0
1557.4932399304294,0.000025455132458773733,816.5811304474104,541.859086241482,0
1557.4932399304294,0.00002545513257246057,816.5811304474104,541.8590862414821,0
1557.4932399304294,0.000025455132458773733,816.5811304474104,541.859086241482,0
1557.4932399304294,0.00002545513257246057,816.5811304474104,541.8590862414821,0
1557.4932399304294,0.000025455132458773733,816.5811304474104,541.859086241482,0
1557.4932399304294,0.00002545513257246057,816.5811304474104,541.8590862414821,0
1557.4932399304294,0.000025455132458773733,816.5811304474104,541.859086241482,0
1557.4932399304294,0.00002545513257246057,816.5811304474104,541.8590862414821,0
1557.4932399304294,0.000025455132458773733,816.5811304474104,541.859086241482,0
1557.4932399304294,0.00002545513257246057,816.5811304474104,541.8590862414821,0
1557.4932399304294,0.000025455132458773733,816.5811304474104,541.859086241482,0
1557.4932399304294,0.00002545513257246057,816.5811304474104,541.8590862414821,0
1557.4932399304294,0.000025455132458773733,816.5811304474104,541.859086241482,0
1557.4932399304294,0.00002545513257246057,816.5811304474104,541.8590862414821,0
1557.4932399304294,0.000025455132458773733,816.5811304474104,541.859086241482,0
1557.4932399304294,0.00002545513257246057,816.5811304474104,541.8590862414821,0
1557.4932399304294,0.000025455132458773733,816.5811304474104,541.859086241482,0
1557.4932399304294,0.00002545513257246057,816.5811304474104,541.8590862414821,0
1557.4932399304294,0.000025455132458773733,816.5811304474104,541.859086241482,0
1557.4932399304294,0.00002545513257246057,816.5811304474104,541.8590862414821,0
1557.4932399304294,0.000025455132458773733,816.5811304474104,541.859086241482,0
1557.4932399304294,0.00002545513257246057,816.5811304474104,541.8590862414821,0
1557.4932399304294,0.000025455132458773733,816.5811304474104,541.859086241482,0
1557.4932399304294,0.00002545513257246057,816.5811304474104,541.8590862414821,0
1557.4932399304294,0.000025455132458773733,816.5811304474104,541.859086241482,0
1557.4932399304294,0.00002545513257246057,816.5811304474104,541.8590862414821,0
1557.4932399304294,0.000025455132458773733,816.5811304474104,541.859086241482,0
1557.4932399304294,0.00002545513257246057,816.5811304474104,541.8590862414821,0
1557.4932399304294,0.000025455132458773733,816.5811304474104,541.859086241482,0
1557.4932399304294,0.00002545513257246057,816.5811304474104,541.8590862414821,0
1557.4932399304294,0.000025455132458773733,816.5811304474104,541.859086241482,0
1557.4932399304294,0.00002545513257246057,816.5811304474104,541.8590862414821,0
1557.4932399304294,0.000025455132458773733,816.5811304474104,541.859086241482,0
1557.4932399304294,0.00002545513257246057,816.5811304474104,541.8590862414821,0
1557.4932399304294,0.000025455132458773733,816.5811304474104,541.859086241482,0
1557.4932399304294,0.00002545513257246057,816.5811304474104,541.8590862414821,0
1557.4932399304294,0.000025455132458773733,816.5811304474104,541.859086241482,0
1557.4932399304294,0.00002545513257246057,816.5811304474104,541.8590862414821,0
1557.4932399304294,0.000025455132458773733,816.5811304474104,541.859086241482,0
1557.4932399304294,0.00002545513257246057,816.5811304474104,541.8590862414821,0
1557.4932399304294,0.000025455132458773733,816.5811304474104,541.859086241482,0
1557.4932399304294,0.00002545513257246057,816.5811304474104,541.8590862414821,0
1557.4932399304294,0.000025455132458773733,816.5811304474104,541.859086241482,0
1557.4932399304294,0.00002545513257246057,816.5811304474104,541.8590862414821,0
1557.4932399304294,0.000025455132458773733,816.5811304474104,541.859086241482,0
1557.4932399304294,0.00002545513257246057,816.5811304474104,541.8590862414821,0
1557.4932399304294,0.000025455132458773733,816.5811304474104,541.859086241482,0
1557.4932399304294,0.00002545513257246057,816.5811304474104,541.8590862414821,0
1557.4932399304294,0.000025455132458773733,816.5811304474104,541.859086241482,0
1557.4932399304294,0.00002545513257246057,816.5811304474104,541.8590862414821,0
1557.4932399304294,0.000025455132458773733,816.5811304474104,541.859086241482,0
1557.4932399304294,0.00002545513257246057,816.5811304474104,541.8590862414821,0
1557.4932399304294,0.000025455132458773733,816.5811304474104,541.859086241482,0
1557.4932399304294,0.00002545513257246057,816.5811304474104,541.8590862414821,0
1557.4932399304294,0.000025455132458773733,816.5811304474104,541.859086241482,0
1557.4932399304294,0.00002545513257246057,816.5811304474104,541.8590862414821,0
1557.4932399304294,0.000025455132458773733,816.5811304474104,541.859086241482,0
1557.4932399304294,0.00002545513257246057,816.5811304474104,541.8590862414821,0
1557.4932399304294,0.000025455132458773733,816.5811304474104,541.859086241482,0
1557.4932399304294,0.00002545513257246057,816.5811304474104,541.8590862414821,0
1557.4932399304294,0.000025455132458773733,816.5811304474104,541.859086241482,0
1557.4932399304294,0.00002545513257246057,816.5811304474104,541.8590862414821,0
1557.4932399304294,0.000025455132458773733,816.5811304474104,541.859086241482,0
1557.4932399304294,0.00002545513257246057,816.5811304474104,541.8590862414821,0
1557.4932399304294,0.000025455132458773733,816.5811304474104,541.859086241482,0
1557.4932399304294,0.00002545513257246057,816.5811304474104,541.8590862414821,0
1557.4932399304294,0.000025455132458773733,816.5811304474104,541.859086241482,0
1557.4932399304294,0.00002545513257246057,816.5811304474104,541.8590862414821,0
1557.4932399304294,0.000025455132458773733,816.5811304474104,541.859086241482,0
1557.4932399304294,0.00002545513257246057,816.5811304474104,541.8590862414821,0
1557.4932399304294,0.000025455132458773733,816.5811304474104,541.859086241482,0
1557.4932399304294,0.00002545513257246057,816.5811304474104,541.8590862414821,0
1557.4932399304294,0.000025455132458773733,816.5811304474104,541.859086241482,0
1557.4932399304294,0.00002545513257246057,816.5811304474104,541.8590862414821,0
1557.4932399304294,0.000025455132458773733,816.5811304474104,541.859086241482,0
1557.4932399304294,0.00002545513257246057,816.5811304474104,541.8590862414821,0
1557.4932399304294,0.000025455132458773733,816.5811304474104,541.859086241482,0
1557.4932399304294,0.00002545513257246057,816.5811304474104,541.8590862414821,0
1557.4932399304294,0.000025455132458773733,816.5811304474104,541.859086241482,0
1557.4932399304294,0.00002545513257246057,816.5811304474104,541.8590862414821,0
1557.4932399304294,0.000025455132458773733,816.5811304474104,541.859086241482,0
1557.4932399304294,0.00002545513257246057,816.5811304474104,541.8590862414821,0
1557.4932399304294,0.000025455132458773733,816.5811304474104,541.859086241482,0
1557.4932399304294,0.00002545513257246057,816.5811304474104,541.8590862414821,0
1557.4932399304294,0.000025455132458773733,816.5811304474104,541.859086241482,0
1557.4932399304294,0.00002545513257246057,816.5811304474104,541.8590862414821,0
1557.4932399304294,0.000025455132458773733,816.5811304474104,541.859086241482,0
1557.4932399304294,0.00002545513257246057,816.5811304474104,541.8590862414821,0
1557.4932399304294,0.000025455132458773733,816.5811304474104,541.859086241482,0
1557.4932399304294,0.00002545513257246057,816.5811304474104,541.8590862414821,0
1557.4932399304294,0.000025455132458773733,816.5811304474104,541.859086241482,0
1557.4932399304294,0.00002545513257246057,816.5811304474104,541.8590862414821,0
1557.4932399304294,0.000025455132458773733,816.5811304474104,541.859086241482,0
1557.4932399304294,0.00002545513257246057,816.5811304474104,541.8590862414821,0
1557.4932399304294,0.000025455132458773733,816.5811304474104,541.859086241482,0
1557.4932399304294,0.00002545513257246057,816.5811304474104,541.8590862414821,0
1557.4932399304294,0.000025455132458773733,816.5811304474104,541.859086241482,0
1557.4932399304294,0.00002545513257246057,816.5811304474104,541.8590862414821,0
1557.4932399304294,0.000025455132458773733,816.5811304474104,541.859086241482,0
1557.4932399304294,0.00002545513257246057,816.5811304474104,541.8590862414821,0
1557.4932399304294,0.000025455132458773733,816.5811304474104,541.859086241482,0
1557.4932399304294,0.00002545513257246057,816.5811304474104,541.8590862414821,0
1557.4932399304294,0.000025455132458773733,816.5811304474104,541.859086241482,0
1557.4932399304294,0.00002545513257246057,816.5811304474104,541.8590862414821,0
1557.4932399304294,0.000025455132458773733,816.5811304474104,541.859086241482,0
1557.4932399304294,0.00002545513257246057,816.5811304474104,541.8590862414821,0
1557.4932399304294,0.000025455132458773733,816.5811304474104,541.859086241482,0
1557.4932399304294,0.00002545513257246057,816.5811304474104,541.8590862414821,0
1557.4932399304294,0.000025455132458773733,816.5811304474104,541.859086241482,0
1557.4932399304294,0.00002545513257246057,816.5811304474104,541.8590862414821,0
1557.4932399304294,0.000025455132458773733,816.5811304474104,541.859086241482,0
1557.4932399304294,0.00002545513257246057,816.5811304474104,541.8590862414821,0
1557.4932399304294,0.000025455132458773733,816.5811304474104,541.859086241482,0
1557.4932399304294,0.00002545513257246057,816.5811304474104,541.8590862414821,0
1557.4932399304294,0.000025455132458773733,816.5811304474104,541.859086241482,0
1557.4932399304294,0.00002545513257246057,816.5811304474104,541.8590862414821,0
1557.4932399304294,0.000025455132458773733,816.5811304474104,541.859086241482,0
1557.4932399304294,0.00002545513257246057,816.5811304474104,541.8590862414821,0
1557.4932399304294,0.000025455132458773733,816.5811304474104,541.859086241482,0
1557.4932399304294,0.00002545513257246057,816.5811304474104,541.8590862414821,0
1557.4932399304294,0.000025455132458773733,816.5811304474104,541.859086241482,0
1557.4932399304294,0.00002545513257246057,816.5811304474104,541.8590862414821,0
1557.4932399304294,0.000025455132458773733,816.5811304474104,541.859086241482,0
1557.4932399304294,0.00002545513257246057,816.5811304474104,541.8590862414821,0
1557.4932399304294,0.000025455132458773733,816.5811304474104,541.859086241482,0
1557.4932399304294,0.00002545513257246057,816.5811304474104,541.8590862414821,0
1557.4932399304294,0.000025455132458773733,816.5811304474104,541.859086241482,0
1557.4932399304294,0.00002545513257246057,816.5811304474104,541.8590862414821,0
1557.4932399304294,0.000025455132458773733,816.5811304474104,541.859086241482,0
1557.4932399304294,0.00002545513257246057,816.5811304474104,541.8590862414821,0
1557.4932399304294,0.000025455132458773733,816.5811304474104,541.859086241482,0
1557.4932399304294,0.00002545513257246057,816.5811304474104,541.8590862414821,0
1557.4932399304294,0.000025455132458773733,816.5811304474104,541.859086241482,0
1557.4932399304294,0.00002545513257246057,816.5811304474104,541.8590862414821,0
1557.4932399304294,0.000025455132458773733,816.5811304474104,541.859086241482,0
1557.4932399304294,0.00002545513257246057,816.5811304474104,541.8590862414821,0
1557.4932399304294,0.000025455132458773733,816.5811304474104,541.859086241482,0
1557.4932399304294,0.00002545513257246057,816.5811304474104,541.8590862414821,0
1557.4932399304294,0.000025455132458773733,816.5811304474104,541.859086241482,0
1557.4932399304294,0.00002545513257246057,816.5811304474104,541.8590862414821,0
1557.4932399304294,0.000025455132458773733,816.5811304474104,541.859086241482,0
1557.4932399304294,0.00002545513257246057,816.5811304474104,541.8590862414821,0
1557.4932399304294,0.000025455132458773733,816.5811304474104,541.859086241482,0
1557.4932399304294,0.00002545513257246057,816.5811304474104,541.8590862414821,0
1557.4932399304294,0.000025455132458773733,816.5811304474104,541.859086241482,0
1557.4932399304294,0.00002545513257246057,816.5811304474104,541.8590862414821,0
1557.4932399304294,0.000025455132458773733,816.5811304474104,541.859086241482,0
1557.4932399304294,0.00002545513257246057,816.5811304474104,541.8590862414821,0
1557.4932399304294,0.000025455132458773733,816.5811304474104,541.859086241482,0
1557.4932399304294,0.00002545513257246057,816.5811304474104,541.8590862414821,0
1557.4932399304294,0.000025455132458773733,816.5811304474104,541.859086241482,0
1557.4932399304294,0.00002545513257246057,816.5811304474104,541.8590862414821,0
1557.4932399304294,0.000025455132458773733,816.5811304474104,541.859086241482,0
1557.4932399304294,0.00002545513257246057,816.5811304474104,541.8590862414821,0
1557.4932399304294,0.000025455132458773733,816.5811304474104,541.859086241482,0
1557.4932399304294,0.00002545513257246057,816.5811304474104,541.8590862414821,0
1557.4932399304294,0.000025455132458773733,816.5811304474104,541.859086241482,0
1557.4932399304294,0.00002545513257246057,816.5811304474104,541.8590862414821,0
1557.4932399304294,0.000025455132458773733,816.5811304474104,541.859086241482,0
1557.4932399304294,0.00002545513257246057,816.5811304474104,541.8590862414821,0
1557.4932399304294,0.000025455132458773733,816.5811304474104,541.859086241482,0
1557.4932399304294,0.00002545513257246057,816.5811304474104,541.8590862414821,0
1557.4932399304294,0.000025455132458773733,816.5811304474104,541.859086241482,0
1557.4932399304294,0.00002545513257246057,816.5811304474104,541.8590862414821,0
1557.4932399304294,0.000025455132458773733,816.5811304474104,541.859086241482,0
1557.4932399304294,0.00002545513257246057,816.5811304474104,541.8590862414821,0
1557.4932399304294,0.000025455132458773733,816.5811304474104,541.859086241482,0
1557.4932399304294,0.00002545513257246057,816.5811304474104,541.8590862414821,0
1557.4932399304294,0.000025455132458773733,816.5811304474104,541.859086241482,0
1557.4932399304294,0.00002545513257246057,816.5811304474104,541.8590862414821,0
1557.4932399304294,0.000025455132458773733,816.5811304474104,541.859086241482,0
1557.4932399304294,0.00002545513257246057,816.5811304474104,541.8590862414821,0
1557.4932399304294,0.000025455132458773733,816.5811304474104,541.859086241482,0
1557.4932399304294,0.00002545513257246057,816.5811304474104,541.8590862414821,0
1557.4932399304294,0.000025455132458773733,816.5811304474104,541.859086241482,0
1557.4932399304294,0.00002545513257246057,816.5811304474104,541.8590862414821,0
1557.4932399304294,0.000025455132458773733,816.5811304474104,541.859086241482,0
1557.4932399304294,0.00002545513257246057,816.5811304474104,541.8590862414821,0
1557.4932399304294,0.000025455132458773733,816.5811304474104,541.859086241482,0
1557.4932399304294,0.00002545513257246057,816.5811304474104,541.8590862414821,0
1557.4932399304294,0.000025455132458773733,816.5811304474104,541.859086241482,0
1557.4932399304294,0.00002545513257246057,816.5811304474104,541.8590862414821,0
1557.4932399304294,0.000025455132458773733,816.5811304474104,541.859086241482,0
1557.4932399304294,0.00002545513257246057,816.5811304474104,541.8590862414821,0
1557.4932399304294,0.000025455132458773733,816.5811304474104,541.859086241482,0
1557.4932399304294,0.00002545513257246057,816.5811304474104,541.8590862414821,0
1557.4932399304294,0.000025455132458773733,816.5811304474104,541.859086241482,0
1557.4932399304294,0.00002545513257246057,816.5811304474104,541.8590862414821,0
1557.4932399304294,0.000025455132458773733,816.5811304474104,541.859086241482,0
1557.4932399304294,0.00002545513257246057,816.5811304474104,541.8590862414821,0
1557.4932399304294,0.000025455132458773733,816.5811304474104,541.859086241482,0
1557.4932399304294,0.00002545513257246057,816.5811304474104,541.8590862414821,0
1557.4932399304294,0.000025455132458773733,816.5811304474104,541.859086241482,0
1557.4932399304294,0.00002545513257246057,816.5811304474104,541.8590862414821,0
1557.4932399304294,0.000025455132458773733,816.5811304474104,541.859086241482,0
1557.4932399304294,0.00002545513257246057,816.5811304474104,541.8590862414821,0
1557.4932399304294,0.000025455132458773733,816.5811304474104,541.859086241482,0
1557.4932399304294,0.00002545513257246057,816.5811304474104,541.8590862414821,0
1557.4932399304294,0.000025455132458773733,816.5811304474104,541.859086241482,0
1557.4932399304294,0.00002545513257246057,816.5811304474104,541.8590862414821,0
1557.4932399304294,0.000025455132458773733,816.5811304474104,541.859086241482,0
1557.4932399304294,0.00002545513257246057,816.5811304474104,541.8590862414821,0
1557.4932399304294,0.000025455132458773733,816.5811304474104,541.859086241482,0
1557.4932399304294,0.00002545513257246057,816.5811304474104,541.8590862414821,0
1557.4932399304294,0.000025455132458773733,816.5811304474104,541.859086241482,0
1557.4932399304294,0.00002545513257246057,816.5811304474104,541.8590862414821,0
1557.4932399304294,0.000025455132458773733,816.5811304474104,541.859086241482,0
1557.4932399304294,0.00002545513257246057,816.5811304474104,541.8590862414821,0
1557.4932399304294,0.000025455132458773733,816.5811304474104,541.859086241482,0
1557.4932399304294,0.00002545513257246057,816.5811304474104,541.8590862414821,0
1557.4932399304294,0.000025455132458773733,816.5811304474104,541.859086241482,0
1557.4932399304294,0.00002545513257246057,816.5811304474104,541.8590862414821,0
1557.4932399304294,0.000025455132458773733,816.5811304474104,541.859086241482,0
1557.4932399304294,0.00002545513257246057,816.5811304474104,541.8590862414821,0
1557.4932399304294,0.000025455132458773733,816.5811304474104,541.859086241482,0
1557.4932399304294,0.00002545513257246057,816.5811304474104,541.8590862414821,0
1557.4932399304294,0.000025455132458773733,816.5811304474104,541.859086241482,0
1557.4932399304294,0.00002545513257246057,816.5811304474104,541.8590862414821,0
1557.4932399304294,0.000025455132458773733,816.5811304474104,541.859086241482,0
1557.4932399304294,0.00002545513257246057,816.5811304474104,541.8590862414821,0
1557.4932399304294,0.000025455132458773733,816.5811304474104,541.859086241482,0
1557.4932399304294,0.00002545513257246057,816.5811304474104,541.8590862414821,0
1557.4932399304294,0.000025455132458773733,816.5811304474104,541.859086241482,0
1557.4932399304294,0.00002545513257246057,816.5811304474104,541.8590862414821,0
1557.4932399304294,0.000025455132458773733,816.5811304474104,541.859086241482,0
1557.4932399304294,0.00002545513257246057,816.5811304474104,541.8590862414821,0
1557.4932399304294,0.000025455132458773733,816.5811304474104,541.859086241482,0
1557.4932399304294,0.00002545513257246057,816.5811304474104,541.8590862414821,0
1557.4932399304294,0.000025455132458773733,816.5811304474104,541.859086241482,0
1557.4932399304294,0.00002545513257246057,816.5811304474104,541.8590862414821,0
1557.4932399304294,0.000025455132458773733,816.5811304474104,541.859086241482,0
1557.4932399304294,0.00002545513257246057,816.5811304474104,541.8590862414821,0
1557.4932399304294,0.000025455132458773733,816.5811304474104,541.859086241482,0
1557.4932399304294,0.00002545513257246057,816.5811304474104,541.8590862414821,0
1557.4932399304294,0.000025455132458773733,816.5811304474104,541.859086241482,0
1557.4932399304294,0.00002545513257246057,816.5811304474104,541.8590862414821,0
1557.4932399304294,0.000025455132458773733,816.5811304474104,541.859086241482,0
1557.4932399304294,0.00002545513257246057,816.5811304474104,541.8590862414821,0
1557.4932399304294,0.000025455132458773733,816.5811304474104,541.859086241482,0
1557.4932399304294,0.00002545513257246057,816.5811304474104,541.8590862414821,0
1557.4932399304294,0.000025455132458773733,816.5811304474104,541.859086241482,0
1557.4932399304294,0.00002545513257246057,816.5811304474104,541.8590862414821,0
1557.4932399304294,0.000025455132458773733,816.5811304474104,541.859086241482,0
1557.4932399304294,0.00002545513257246057,816.5811304474104,541.8590862414821,0
1557.4932399304294,0.000025455132458773733,816.5811304474104,541.859086241482,0
1557.4932399304294,0.00002545513257246057,816.5811304474104,541.8590862414821,0
1557.4932399304294,0.000025455132458773733,816.5811304474104,541.859086241482,0
1557.4932399304294,0.00002545513257246057,816.5811304474104,541.8590862414821,0
1557.4932399304294,0.000025455132458773733,816.5811304474104,541.859086241482,0
1557.4932399304294,0.00002545513257246057,816.5811304474104,541.8590862414821,0
1557.4932399304294,0.000025455132458773733,816.5811304474104,541.859086241482,0
1557.4932399304294,0.00002545513257246057,816.5811304474104,541.8590862414821,0
1557.4932399304294,0.000025455132458773733,816.5811304474104,541.859086241482,0
1557.4932399304294,0.00002545513257246057,816.5811304474104,541.8590862414821,0
1557.4932399304294,0.000025455132458773733,816.5811304474104,541.859086241482,0
1557.4932399304294,0.00002545513257246057,816.5811304474104,541.8590862414821,0
1557.4932399304294,0.000025455132458773733,816.5811304474104,541.859086241482,0
1557.4932399304294,0.00002545513257246057,816.5811304474104,541.8590862414821,0
1557.4932399304294,0.000025455132458773733,816.5811304474104,541.859086241482,0
1557.4932399304294,0.00002545513257246057,816.5811304474104,541.8590862414821,0
1557.4932399304294,0.000025455132458773733,816.5811304474104,541.859086241482,0
1557.4932399304294,0.00002545513257246057,816.5811304474104,541.8590862414821,0
1557.4932399304294,0.000025455132458773733,816.5811304474104,541.859086241482,0
1557.4932399304294,0.00002545513257246057,816.5811304474104,541.8590862414821,0
1557.4932399304294,0.000025455132458773733,816.5811304474104,541.859086241482,0
1557.4932399304294,0.00002545513257246057,816.5811304474104,541.8590862414821,0
1557.4932399304294,0.000025455132458773733,816.5811304474104,541.859086241482,0
1557.4932399304294,0.00002545513257246057,816.5811304474104,541.8590862414821,0
1557.4932399304294,0.000025455132458773733,816.5811304474104,541.859086241482,0
1557.4932399304294,0.00002545513257246057,816.5811304474104,541.8590862414821,0
1557.4932399304294,0.000025455132458773733,816.5811304474104,541.859086241482,0
1557.4932399304294,0.00002545513257246057,816.5811304474104,541.8590862414821,0
1557.4932399304294,0.000025455132458773733,816.5811304474104,541.859086241482,0
1557.4932399304294,0.00002545513257246057,816.5811304474104,541.8590862414821,0
1557.4932399304294,0.000025455132458773733,816.5811304474104,541.859086241482,0
1557.4932399304294,0.00002545513257246057,816.5811304474104,541.8590862414821,0
1557.4932399304294,0.000025455132458773733,816.5811304474104,541.859086241482,0
1557.4932399304294,0.00002545513257246057,816.5811304474104,541.8590862414821,0
1557.4932399304294,0.000025455132458773733,816.5811304474104,541.859086241482,0
1557.4932399304294,0.00002545513257246057,816.5811304474104,541.8590862414821,0
1557.4932399304294,0.000025455132458773733,816.5811304474104,541.859086241482,0
1557.4932399304294,0.00002545513257246057,816.5811304474104,541.8590862414821,0
1557.4932399304294,0.000025455132458773733,816.5811304474104,541.859086241482,0
1557.4932399304294,0.00002545513257246057,816.5811304474104,541.8590862414821,0
1557.4932399304294,0.000025455132458773733,816.5811304474104,541.859086241482,0
1557.4932399304294,0.00002545513257246057,816.5811304474104,541.8590862414821,0
1557.4932399304294,0.000025455132458773733,816.5811304474104,541.859086241482,0
1557.4932399304294,0.00002545513257246057,816.5811304474104,541.8590862414821,0
1557.4932399304294,0.000025455132458773733,816.5811304474104,541.859086241482,0
1557.4932399304294,0.00002545513257246057,816.5811304474104,541.8590862414821,0
1557.4932399304294,0.000025455132458773733,816.5811304474104,541.859086241482,0
1557.4932399304294,0.00002545513257246057,816.5811304474104,541.8590862414821,0
1557.4932399304294,0.000025455132458773733,816.5811304474104,541.859086241482,0
1557.4932399304294,0.00002545513257246057,816.5811304474104,541.8590862414821,0
1557.4932399304294,0.000025455132458773733,816.5811304474104,541.859086241482,0
1557.4932399304294,0.00002545513257246057,816.5811304474104,541.8590862414821,0
1557.4932399304294,0.000025455132458773733,816.5811304474104,541.859086241482,0
1557.4932399304294,0.00002545513257246057,816.5811304474104,541.8590862414821,0
1557.4932399304294,0.000025455132458773733,816.5811304474104,541.859086241482,0
1557.4932399304294,0.00002545513257246057,816.5811304474104,541.8590862414821,0
1557.4932399304294,0.000025455132458773733,816.5811304474104,541.859086241482,0
1557.4932399304294,0.00002545513257246057,816.5811304474104,541.8590862414821,0
1557.4932399304294,0.000025455132458773733,816.5811304474104,541.859086241482,0
1557.4932399304294,0.00002545513257246057,816.5811304474104,541.8590862414821,0
1557.4932399304294,0.000025455132458773733,816.5811304474104,541.859086241482,0
1557.4932399304294,0.00002545513257246057,816.5811304474104,541.8590862414821,0
1557.4932399304294,0.000025455132458773733,816.5811304474104,541.859086241482,0
1557.4932399304294,0.00002545513257246057,816.5811304474104,541.8590862414821,0
1557.4932399304294,0.000025455132458773733,816.5811304474104,541.859086241482,0
1557.4932399304294,0.00002545513257246057,816.5811304474104,541.8590862414821,0
1557.4932399304294,0.000025455132458773733,816.5811304474104,541.859086241482,0
1557.4932399304294,0.00002545513257246057,816.5811304474104,541.8590862414821,0
1557.4932399304294,0.000025455132458773733,816.5811304474104,541.859086241482,0
1557.4932399304294,0.00002545513257246057,816.5811304474104,541.8590862414821,0
1557.4932399304294,0.000025455132458773733,816.5811304474104,541.859086241482,0
1557.4932399304294,0.00002545513257246057,816.5811304474104,541.8590862414821,0
1557.4932399304294,0.000025455132458773733,816.5811304474104,541.859086241482,0
1557.4932399304294,0.00002545513257246057,816.5811304474104,541.8590862414821,0
1557.4932399304294,0.000025455132458773733,816.5811304474104,541.859086241482,0
1557.4932399304294,0.00002545513257246057,816.5811304474104,541.8590862414821,0
1557.4932399304294,0.000025455132458773733,816.5811304474104,541.859086241482,0
1557.4932399304294,0.00002545513257246057,816.5811304474104,541.8590862414821,0
1557.4932399304294,0.000025455132458773733,816.5811304474104,541.859086241482,0
1557.4932399304294,0.00002545513257246057,816.5811304474104,541.8590862414821,0
1557.4932399304294,0.000025455132458773733,816.5811304474104,541.859086241482,0
1557.4932399304294,0.00002545513257246057,816.5811304474104,541.8590862414821,0
1557.4932399304294,0.000025455132458773733,816.5811304474104,541.859086241482,0
1557.4932399304294,0.00002545513257246057,816.5811304474104,541.8590862414821,0
1557.4932399304294,0.000025455132458773733,816.5811304474104,541.859086241482,0
1557.4932399304294,0.00002545513257246057,816.5811304474104,541.8590862414821,0
1557.4932399304294,0.000025455132458773733,816.5811304474104,541.859086241482,0
1557.4932399304294,0.00002545513257246057,816.5811304474104,541.8590862414821,0
1557.4932399304294,0.000025455132458773733,816.5811304474104,541.859086241482,0
1557.4932399304294,0.00002545513257246057,816.5811304474104,541.8590862414821,0
1557.4932399304294,0.000025455132458773733,816.5811304474104,541.859086241482,0
1557.4932399304294,0.00002545513257246057,816.5811304474104,541.8590862414821,0
1557.4932399304294,0.000025455132458773733,816.5811304474104,541.859086241482,0
1557.4932399304294,0.00002545513257246057,816.5811304474104,541.8590862414821,0
1557.4932399304294,0.000025455132458773733,816.5811304474104,541.859086241482,0
1557.4932399304294,0.00002545513257246057,816.5811304474104,541.8590862414821,0
1557.4932399304294,0.000025455132458773733,816.5811304474104,541.859086241482,0
1557.4932399304294,0.00002545513257246057,816.5811304474104,541.8590862414821,0
1557.4932399304294,0.000025455132458773733,816.5811304474104,541.859086241482,0
1557.4932399304294,0.00002545513257246057,816.5811304474104,541.8590862414821,0
1557.4932399304294,0.000025455132458773733,816.5811304474104,541.859086241482,0
1557.4932399304294,0.00002545513257246057,816.5811304474104,541.8590862414821,0
1557.4932399304294,0.000025455132458773733,816.5811304474104,541.859086241482,0
1557.4932399304294,0.00002545513257246057,816.5811304474104,541.8590862414821,0
1557.4932399304294,0.000025455132458773733,816.5811304474104,541.859086241482,0
1557.4932399304294,0.00002545513257246057,816.5811304474104,541.8590862414821,0
1557.4932399304294,0.000025455132458773733,816.5811304474104,541.859086241482,0
1557.4932399304294,0.00002545513257246057,816.5811304474104,541.8590862414821,0
1557.4932399304294,0.000025455132458773733,816.5811304474104,541.859086241482,0
1557.4932399304294,0.00002545513257246057,816.5811304474104,541.8590862414821,0
1557.4932399304294,0.000025455132458773733,816.5811304474104,541.859086241482,0
1557.4932399304294,0.00002545513257246057,816.5811304474104,541.8590862414821,0
1557.4932399304294,0.000025455132458773733,816.5811304474104,541.859086241482,0
1557.4932399304294,0.00002545513257246057,816.5811304474104,541.8590862414821,0
1557.4932399304294,0.000025455132458773733,816.5811304474104,541.859086241482,0
1557.4932399304294,0.00002545513257246057,816.5811304474104,541.8590862414821,0
1557.4932399304294,0.000025455132458773733,816.5811304474104,541.859086241482,0
1557.4932399304294,0.00002545513257246057,816.5811304474104,541.8590862414821,0
1557.4932399304294,0.000025455132458773733,816.5811304474104,541.859086241482,0
1557.4932399304294,0.00002545513257246057,816.5811304474104,541.8590862414821,0
1557.4932399304294,0.000025455132458773733,816.5811304474104,541.859086241482,0
1557.4932399304294,0.00002545513257246057,816.5811304474104,541.8590862414821,0
1557.4932399304294,0.000025455132458773733,816.5811304474104,541.859086241482,0
1557.4932399304294,0.00002545513257246057,816.5811304474104,541.8590862414821,0
1557.4932399304294,0.000025455132458773733,816.5811304474104,541.859086241482,0
1557.4932399304294,0.00002545513257246057,816.5811304474104,541.8590862414821,0
1557.4932399304294,0.000025455132458773733,816.5811304474104,541.859086241482,0
1557.4932399304294,0.00002545513257246057,816.5811304474104,541.8590862414821,0
1557.4932399304294,0.000025455132458773733,816.5811304474104,541.859086241482,0
1557.4932399304294,0.00002545513257246057,816.5811304474104,541.8590862414821,0
1557.4932399304294,0.000025455132458773733,816.5811304474104,541.859086241482,0
1557.4932399304294,0.00002545513257246057,816.5811304474104,541.8590862414821,0
1557.4932399304294,0.000025455132458773733,816.5811304474104,541.859086241482,0
1557.4932399304294,0.00002545513257246057,816.5811304474104,541.8590862414821,0
1557.4932399304294,0.000025455132458773733,816.5811304474104,541.859086241482,0
1557.4932399304294,0.00002545513257246057,816.5811304474104,541.8590862414821,0
1557.4932399304294,0.000025455132458773733,816.5811304474104,541.859086241482,0
1557.4932399304294,0.00002545513257246057,816.5811304474104,541.8590862414821,0
1557.4932399304294,0.000025455132458773733,816.5811304474104,541.859086241482,0
1557.4932399304294,0.00002545513257246057,816.5811304474104,541.8590862414821,0
1557.4932399304294,0.000025455132458773733,816.5811304474104,541.859086241482,0
1557.4932399304294,0.00002545513257246057,816.5811304474104,541.8590862414821,0
1557.4932399304294,0.000025455132458773733,816.5811304474104,541.859086241482,0
1557.4932399304294,0.00002545513257246057,816.5811304474104,541.8590862414821,0
1557.4932399304294,0.000025455132458773733,816.5811304474104,541.859086241482,0
1557.4932399304294,0.00002545513257246057,816.5811304474104,541.8590862414821,0
1557.4932399304294,0.000025455132458773733,816.5811304474104,541.859086241482,0
1557.4932399304294,0.00002545513257246057,816.5811304474104,541.8590862414821,0
1557.4932399304294,0.000025455132458773733,816.5811304474104,541.859086241482,0
1557.4932399304294,0.00002545513257246057,816.5811304474104,541.8590862414821,0
1557.4932399304294,0.000025455132458773733,816.5811304474104,541.859086241482,0
1557.4932399304294,0.00002545513257246057,816.5811304474104,541.8590862414821,0
1557.4932399304294,0.000025455132458773733,816.5811304474104,541.859086241482,0
1557.4932399304294,0.00002545513257246057,816.5811304474104,541.8590862414821,0
1557.4932399304294,0.000025455132458773733,816.5811304474104,541.859086241482,0
1557.4932399304294,0.00002545513257246057,816.5811304474104,541.8590862414821,0
1557.4932399304294,0.000025455132458773733,816.5811304474104,541.859086241482,0
1557.4932399304294,0.00002545513257246057,816.5811304474104,541.8590862414821,0
1557.4932399304294,0.000025455132458773733,816.5811304474104,541.859086241482,0
1557.4932399304294,0.00002545513257246057,816.5811304474104,541.8590862414821,0
1557.4932399304294,0.000025455132458773733,816.5811304474104,541.859086241482,0
1557.4932399304294,0.00002545513257246057,816.5811304474104,541.8590862414821,0
1557.4932399304294,0.000025455132458773733,816.5811304474104,541.859086241482,0
1557.4932399304294,0.00002545513257246057,816.5811304474104,541.8590862414821,0
1557.4932399304294,0.000025455132458773733,816.5811304474104,541.859086241482,0
1557.4932399304294,0.00002545513257246057,816.5811304474104,541.8590862414821,0
1557.4932399304294,0.000025455132458773733,816.5811304474104,541.859086241482,0
1557.4932399304294,0.00002545513257246057,816.5811304474104,541.8590862414821,0
1557.4932399304294,0.000025455132458773733,816.5811304474104,541.859086241482,0
1557.4932399304294,0.00002545513257246057,816.5811304474104,541.8590862414821,0
1557.4932399304294,0.000025455132458773733,816.5811304474104,541.859086241482,0
1557.4932399304294,0.00002545513257246057,816.5811304474104,541.8590862414821,0
1557.4932399304294,0.000025455132458773733,816.5811304474104,541.859086241482,0
1557.4932399304294,0.00002545513257246057,816.5811304474104,541.8590862414821,0
1557.4932399304294,0.000025455132458773733,816.5811304474104,541.859086241482,0
1557.4932399304294,0.00002545513257246057,816.5811304474104,541.8590862414821,0
1557.4932399304294,0.000025455132458773733,816.5811304474104,541.859086241482,0
1557.4932399304294,0.00002545513257246057,816.5811304474104,541.8590862414821,0
1557.4932399304294,0.000025455132458773733,816.5811304474104,541.859086241482,0
1557.4932399304294,0.00002545513257246057,816.5811304474104,541.8590862414821,0
1557.4932399304294,0.000025455132458773733,816.5811304474104,541.859086241482,0
1557.4932399304294,0.00002545513257246057,816.5811304474104,541.8590862414821,0
1557.4932399304294,0.000025455132458773733,816.5811304474104,541.859086241482,0
1557.4932399304294,0.00002545513257246057,816.5811304474104,541.8590862414821,0
1557.4932399304294,0.000025455132458773733,816.5811304474104,541.859086241482,0
1557.4932399304294,0.00002545513257246057,816.5811304474104,541.8590862414821,0
1557.4932399304294,0.000025455132458773733,816.5811304474104,541.859086241482,0
1557.4932399304294,0.00002545513257246057,816.5811304474104,541.8590862414821,0
1557.4932399304294,0.000025455132458773733,816.5811304474104,541.859086241482,0
1557.4932399304294,0.00002545513257246057,816.5811304474104,541.8590862414821,0
1557.4932399304294,0.000025455132458773733,816.5811304474104,541.859086241482,0
1557.4932399304294,0.00002545513257246057,816.5811304474104,541.8590862414821,0
1557.4932399304294,0.000025455132458773733,816.5811304474104,541.859086241482,0
1557.4932399304294,0.00002545513257246057,816.5811304474104,541.8590862414821,0
1557.4932399304294,0.000025455132458773733,816.5811304474104,541.859086241482,0
1557.4932399304294,0.00002545513257246057,816.5811304474104,541.8590862414821,0
1557.4932399304294,0.000025455132458773733,816.5811304474104,541.859086241482,0
1557.4932399304294,0.00002545513257246057,816.5811304474104,541.8590862414821,0
1557.4932399304294,0.000025455132458773733,816.5811304474104,541.859086241482,0
1557.4932399304294,0.00002545513257246057,816.5811304474104,541.8590862414821,0
1557.4932399304294,0.000025455132458773733,816.5811304474104,541.859086241482,0
1557.4932399304294,0.00002545513257246057,816.5811304474104,541.8590862414821,0
1557.4932399304294,0.000025455132458773733,816.5811304474104,541.859086241482,0
1557.4932399304294,0.00002545513257246057,816.5811304474104,541.8590862414821,0
1557.4932399304294,0.000025455132458773733,816.5811304474104,541.859086241482,0
1557.4932399304294,0.00002545513257246057,816.5811304474104,541.8590862414821,0
1557.4932399304294,0.000025455132458773733,816.5811304474104,541.859086241482,0
1557.4932399304294,0.00002545513257246057,816.5811304474104,541.8590862414821,0
1557.4932399304294,0.000025455132458773733,816.5811304474104,541.859086241482,0
1557.4932399304294,0.00002545513257246057,816.5811304474104,541.8590862414821,0
1557.4932399304294,0.000025455132458773733,816.5811304474104,541.859086241482,0
1557.4932399304294,0.00002545513257246057,816.5811304474104,541.8590862414821,0
1557.4932399304294,0.000025455132458773733,816.5811304474104,541.859086241482,0
1557.4932399304294,0.00002545513257246057,816.5811304474104,541.8590862414821,0
1557.4932399304294,0.000025455132458773733,816.5811304474104,541.859086241482,0
1557.4932399304294,0.00002545513257246057,816.5811304474104,541.8590862414821,0
1557.4932399304294,0.000025455132458773733,816.5811304474104,541.859086241482,0
1557.4932399304294,0.00002545513257246057,816.5811304474104,541.8590862414821,0
1557.4932399304294,0.000025455132458773733,816.5811304474104,541.859086241482,0
1557.4932399304294,0.00002545513257246057,816.5811304474104,541.8590862414821,0
1557.4932399304294,0.000025455132458773733,816.5811304474104,541.859086241482,0
1557.4932399304294,0.00002545513257246057,816.5811304474104,541.8590862414821,0
1557.4932399304294,0.000025455132458773733,816.5811304474104,541.859086241482,0
1557.4932399304294,0.00002545513257246057,816.5811304474104,541.8590862414821,0
1557.4932399304294,0.000025455132458773733,816.5811304474104,541.859086241482,0
1557.4932399304294,0.00002545513257246057,816.5811304474104,541.8590862414821,0
1557.4932399304294,0.000025455132458773733,816.5811304474104,541.859086241482,0
1557.4932399304294,0.00002545513257246057,816.5811304474104,541.8590862414821,0
1557.4932399304294,0.000025455132458773733,816.5811304474104,541.859086241482,0
1557.4932399304294,0.00002545513257246057,816.5811304474104,541.8590862414821,0
1557.4932399304294,0.000025455132458773733,816.5811304474104,541.859086241482,0
1557.4932399304294,0.00002545513257246057,816.5811304474104,541.8590862414821,0
1557.4932399304294,0.000025455132458773733,816.5811304474104,541.859086241482,0
1557.4932399304294,0.00002545513257246057,816.5811304474104,541.8590862414821,0
1557.4932399304294,0.000025455132458773733,816.5811304474104,541.859086241482,0
1557.4932399304294,0.00002545513257246057,816.5811304474104,541.8590862414821,0
1557.4932399304294,0.000025455132458773733,816.5811304474104,541.859086241482,0
1557.4932399304294,0.00002545513257246057,816.5811304474104,541.8590862414821,0
1557.4932399304294,0.000025455132458773733,816.5811304474104,541.859086241482,0
1557.4932399304294,0.00002545513257246057,816.5811304474104,541.8590862414821,0
1557.4932399304294,0.000025455132458773733,816.5811304474104,541.859086241482,0
1557.4932399304294,0.00002545513257246057,816.5811304474104,541.8590862414821,0
1557.4932399304294,0.000025455132458773733,816.5811304474104,541.859086241482,0
1557.4932399304294,0.00002545513257246057,816.5811304474104,541.8590862414821,0
1557.4932399304294,0.000025455132458773733,816.5811304474104,541.859086241482,0
1557.4932399304294,0.00002545513257246057,816.5811304474104,541.8590862414821,0
1557.4932399304294,0.000025455132458773733,816.5811304474104,541.859086241482,0
1557.4932399304294,0.00002545513257246057,816.5811304474104,541.8590862414821,0
1557.4932399304294,0.000025455132458773733,816.5811304474104,541.859086241482,0
1557.4932399304294,0.00002545513257246057,816.5811304474104,541.8590862414821,0
1557.4932399304294,0.000025455132458773733,816.5811304474104,541.859086241482,0
1557.4932399304294,0.00002545513257246057,816.5811304474104,541.8590862414821,0
1557.4932399304294,0.000025455132458773733,816.5811304474104,541.859086241482,0
1557.4932399304294,0.00002545513257246057,816.5811304474104,541.8590862414821,0
1557.4932399304294,0.000025455132458773733,816.5811304474104,541.859086241482,0
1557.4932399304294,0.00002545513257246057,816.5811304474104,541.8590862414821,0
1557.4932399304294,0.000025455132458773733,816.5811304474104,541.859086241482,0
1557.4932399304294,0.00002545513257246057,816.5811304474104,541.8590862414821,0
1557.4932399304294,0.000025455132458773733,816.5811304474104,541.859086241482,0
1557.4932399304294,0.00002545513257246057,816.5811304474104,541.8590862414821,0
1557.4932399304294,0.000025455132458773733,816.5811304474104,541.859086241482,0
1557.4932399304294,0.00002545513257246057,816.5811304474104,541.8590862414821,0
1557.4932399304294,0.000025455132458773733,816.5811304474104,541.859086241482,0
1557.4932399304294,0.00002545513257246057,816.5811304474104,541.8590862414821,0
1557.4932399304294,0.000025455132458773733,816.5811304474104,541.859086241482,0
1557.4932399304294,0.00002545513257246057,816.5811304474104,541.8590862414821,0
1557.4932399304294,0.000025455132458773733,816.5811304474104,541.859086241482,0
1557.4932399304294,0.00002545513257246057,816.5811304474104,541.8590862414821,0
1557.4932399304294,0.000025455132458773733,816.5811304474104,541.859086241482,0
1557.4932399304294,0.00002545513257246057,816.5811304474104,541.8590862414821,0
1557.4932399304294,0.000025455132458773733,816.5811304474104,541.859086241482,0
1557.4932399304294,0.00002545513257246057,816.5811304474104,541.8590862414821,0
1557.4932399304294,0.000025455132458773733,816.5811304474104,541.859086241482,0
1557.4932399304294,0.00002545513257246057,816.5811304474104,541.8590862414821,0
1557.4932399304294,0.000025455132458773733,816.5811304474104,541.859086241482,0
1557.4932399304294,0.00002545513257246057,816.5811304474104,541.8590862414821,0
1557.4932399304294,0.000025455132458773733,816.5811304474104,541.859086241482,0
1557.4932399304294,0.00002545513257246057,816.5811304474104,541.8590862414821,0
1557.4932399304294,0.000025455132458773733,816.5811304474104,541.859086241482,0
1557.4932399304294,0.00002545513257246057,816.5811304474104,541.8590862414821,0
1557.4932399304294,0.000025455132458773733,816.5811304474104,541.859086241482,0
1557.4932399304294,0.00002545513257246057,816.5811304474104,541.8590862414821,0
1557.4932399304294,0.000025455132458773733,816.5811304474104,541.859086241482,0
1557.4932399304294,0.00002545513257246057,816.5811304474104,541.8590862414821,0
1557.4932399304294,0.000025455132458773733,816.5811304474104,541.859086241482,0
1557.4932399304294,0.00002545513257246057,816.5811304474104,541.8590862414821,0
1557.4932399304294,0.000025455132458773733,816.5811304474104,541.859086241482,0
1557.4932399304294,0.00002545513257246057,816.5811304474104,541.8590862414821,0
1557.4932399304294,0.000025455132458773733,816.5811304474104,541.859086241482,0
1557.4932399304294,0.00002545513257246057,816.5811304474104,541.8590862414821,0
1557.4932399304294,0.000025455132458773733,816.5811304474104,541.859086241482,0
1557.4932399304294,0.00002545513257246057,816.5811304474104,541.8590862414821,0
1557.4932399304294,0.000025455132458773733,816.5811304474104,541.859086241482,0
1557.4932399304294,0.00002545513257246057,816.5811304474104,541.8590862414821,0
1557.4932399304294,0.000025455132458773733,816.5811304474104,541.859086241482,0
1557.4932399304294,0.00002545513257246057,816.5811304474104,541.8590862414821,0
1557.4932399304294,0.000025455132458773733,816.5811304474104,541.859086241482,0
1557.4932399304294,0.00002545513257246057,816.5811304474104,541.8590862414821,0
1557.4932399304294,0.000025455132458773733,816.5811304474104,541.859086241482,0
1557.4932399304294,0.00002545513257246057,816.5811304474104,541.8590862414821,0
1557.4932399304294,0.000025455132458773733,816.5811304474104,541.859086241482,0
1557.4932399304294,0.00002545513257246057,816.5811304474104,541.8590862414821,0
1557.4932399304294,0.000025455132458773733,816.5811304474104,541.859086241482,0
1557.4932399304294,0.00002545513257246057,816.5811304474104,541.8590862414821,0
1557.4932399304294,0.000025455132458773733,816.5811304474104,541.859086241482,0
1557.4932399304294,0.00002545513257246057,816.5811304474104,541.8590862414821,0
1557.4932399304294,0.000025455132458773733,816.5811304474104,541.859086241482,0
1557.4932399304294,0.00002545513257246057,816.5811304474104,541.8590862414821,0
1557.4932399304294,0.000025455132458773733,816.5811304474104,541.859086241482,0
1557.4932399304294,0.00002545513257246057,816.5811304474104,541.8590862414821,0
1557.4932399304294,0.000025455132458773733,816.5811304474104,541.859086241482,0
1557.4932399304294,0.00002545513257246057,816.5811304474104,541.8590862414821,0
1557.4932399304294,0.000025455132458773733,816.5811304474104,541.859086241482,0
1557.4932399304294,0.00002545513257246057,816.5811304474104,541.8590862414821,0
1557.4932399304294,0.000025455132458773733,816.5811304474104,541.859086241482,0
1557.4932399304294,0.00002545513257246057,816.5811304474104,541.8590862414821,0
1557.4932399304294,0.000025455132458773733,816.5811304474104,541.859086241482,0
1557.4932399304294,0.00002545513257246057,816.5811304474104,541.8590862414821,0
1557.4932399304294,0.000025455132458773733,816.5811304474104,541.859086241482,0
1557.4932399304294,0.00002545513257246057,816.5811304474104,541.8590862414821,0
1557.4932399304294,0.000025455132458773733,816.5811304474104,541.859086241482,0
1557.4932399304294,0.00002545513257246057,816.5811304474104,541.8590862414821,0
1557.4932399304294,0.000025455132458773733,816.5811304474104,541.859086241482,0
1557.4932399304294,0.00002545513257246057,816.5811304474104,541.8590862414821,0
1557.4932399304294,0.000025455132458773733,816.5811304474104,541.859086241482,0
1557.4932399304294,0.00002545513257246057,816.5811304474104,541.8590862414821,0
1557.4932399304294,0.000025455132458773733,816.5811304474104,541.859086241482,0
1557.4932399304294,0.00002545513257246057,816.5811304474104,541.8590862414821,0
1557.4932399304294,0.000025455132458773733,816.5811304474104,541.859086241482,0
1557.4932399304294,0.00002545513257246057,816.5811304474104,541.8590862414821,0
1557.4932399304294,0.000025455132458773733,816.5811304474104,541.859086241482,0
1557.4932399304294,0.00002545513257246057,816.5811304474104,541.8590862414821,0
1557.4932399304294,0.000025455132458773733,816.5811304474104,541.859086241482,0
1557.4932399304294,0.00002545513257246057,816.5811304474104,541.8590862414821,0
1557.4932399304294,0.000025455132458773733,816.5811304474104,541.859086241482,0
1557.4932399304294,0.00002545513257246057,816.5811304474104,541.8590862414821,0
1557.4932399304294,0.000025455132458773733,816.5811304474104,541.859086241482,0
1557.4932399304294,0.00002545513257246057,816.5811304474104,541.8590862414821,0
1557.4932399304294,0.000025455132458773733,816.5811304474104,541.859086241482,0
1557.4932399304294,0.00002545513257246057,816.5811304474104,541.8590862414821,0
1557.4932399304294,0.000025455132458773733,816.5811304474104,541.859086241482,0
1557.4932399304294,0.00002545513257246057,816.5811304474104,541.8590862414821,0
1557.4932399304294,0.000025455132458773733,816.5811304474104,541.859086241482,0