worst,best,mean,median,limit
1277.1626364347471,129.04664152386067,776.7115558752525,737.4131639461327,9.05
1235.8709563908315,129.04664152386067,692.4258676111052,649.0029089554246,9.05
1235.8709563908315,129.04664152386067,649.5635231008915,610.3339787511273,9.05
1208.0449498813782,129.04664152386067,609.1936693590656,608.3810887442671,9.05
1184.080473574715,129.04664152386067,569.8204969495573,571.8099601955907,9.05
1184.080473574715,19.182927262337216,525.7349345099674,512.3020999256619,9.05
1179.2555037380973,19.182927262337216,498.0091306052542,497.12332226924093,9.05
1121.7021364289374,19.182927262337216,473.80467019796225,469.0444226752442,9.05
1121.7021364289374,19.182927262337216,453.3137854767348,445.8350483151072,9.05
1121.7021364289374,19.182927262337216,440.6670473948227,438.0663098078584,9.05
801.3711767922729,19.182927262337216,416.10912180736864,424.39741928080844,9.05
801.3711767922729,19.182927262337216,401.00342307859427,421.9571263609858,9.05
697.2911104681001,19.182927262337216,371.87573373613486,396.91793639622114,9.05
697.2911104681001,19.182927262337216,354.9027189320207,379.8419207830942,9.05
682.6994155322445,19.182927262337216,348.96058851620853,350.00742887311503,9.05
666.244418354534,19.182927262337216,333.17142501965003,337.1620830003546,9.05
629.7761086330007,19.182927262337216,321.48562874368673,333.2917663017105,9.05
629.7761086330007,19.182927262337216,305.0831937649982,187.00837410945172,9.05
584.8066755200593,19.182927262337216,298.0335011147567,337.05951869417555,9.05
561.5302230733837,19.182927262337216,283.1918133957651,323.05758383405,9.05
561.5302230733837,19.182927262337216,273.81598897005847,319.0355785904591,9.05
561.5302230733837,7.411959794881227,266.0073947606073,304.5359274488151,9.05
561.5302230733837,7.367489743767919,256.667245628482,301.3042918143598,9.05
561.5302230733837,7.367489743767919,249.84054299938467,292.6041528250879,9.05
561.5302230733837,7.367489743767919,245.80422042099977,292.6041528250879,9.05
516.962150138791,7.367489743767919,241.14557353742276,284.3700573034504,9.05
516.962150138791,7.367489743767919,237.7194189180249,284.2150685483824,9.05
516.962150138791,7.367489743767919,234.0949148578164,282.8238002744888,9.05
516.962150138791,7.367489743767919,227.84853579931726,282.73238827197076,9.05
516.962150138791,7.367489743767919,222.3372285449381,155.58267535695512,9.05
516.962150138791,7.367489743767919,218.83835289940075,154.12520775204985,9.05
516.962147513166,7.367489743767919,216.56209677011506,155.58267516239187,9.05
516.962147513166,7.367489743767919,213.78482610873016,274.87708737445195,9.05
516.962147513166,7.367489743767919,205.9967012450158,264.1757136373423,9.05
516.962147513166,7.296987621054313,204.14526046870168,279.206082483269,9.05
516.962147513166,7.296987621054313,197.03287214571677,264.1757136373423,9.05
516.962147513166,7.296987621054313,192.7470128794301,257.9014460747755,9.05
516.962147513166,7.296987621054313,189.52573927006245,255.66437286650086,9.05
466.5533252136348,1.784202321848852,185.65190583084353,249.5265574572494,9.05
466.5533252136348,1.784202321848852,184.01760108890127,246.63365067376571,9.05
466.5533252136348,1.784202321848852,180.7445059149004,240.278312204538,9.05
466.54262597487434,1.784202321848852,178.37164665589196,231.52335762310798,9.05
466.54262597487434,1.2452774647595106,174.40387576346447,228.82774308198293,9.05
466.54262597487434,1.2452774647595106,173.47255260007896,233.45763664851762,9.05
399.52899144884833,1.2452774647595106,168.54014851301028,238.72702548212266,9.05
399.52899144884833,1.2452774647595106,165.82851477564947,241.2643407722495,9.05
399.52899144884833,1.2452774647595106,164.56813239436,242.8481848218113,9.05
399.52899144884833,1.2452774647595106,163.76965684928555,242.8481848218113,9.05
399.52899144884833,1.2452774647595106,160.59849635134395,242.8481848218113,9.05
389.16500537730263,1.2452774647595106,158.4614322287326,240.49971849113751,9.05
389.16500537730263,1.245277463056368,157.40045209316264,237.96240320101066,9.05
389.16500537730263,1.245277463056368,153.45793913893866,243.11895216156472,9.05
389.16500537730263,1.245277463056368,152.9420705033657,243.11895216156472,9.05
389.16500537730263,1.245277463056368,151.091721450198,240.5004318647231,9.05
389.16500537730263,1.245277463056368,150.19428567607127,240.5004318647231,9.05
384.50769529212556,1.245277463056368,147.71453597175446,240.5004318647231,9.05
384.50769529212556,1.245277463056368,145.41062635536636,239.49586732323127,9.05
384.5052727183343,1.2445690626491341,142.65208260419243,237.72245291452242,9.05
384.5052727183343,1.2445690626491341,142.2846394709227,237.72245291452242,9.05
384.5052727183343,1.2445690626491341,139.90251380314356,235.46880633383455,9.05
384.5052727183343,0.46058670779257227,135.51920566639967,232.34860825430582,9.05
384.5052727183343,0.46058670779257227,133.9795112980505,240.5004318647231,9.05
384.5052727183343,0.46058670779257227,132.7821793138198,237.92664954613474,9.05
384.5052690067606,0.46058539172577184,128.6809507822223,232.34860825430582,9.05
384.50102494030244,0.46058539172577184,127.86917117943015,232.34860825430582,9.05
384.50102494030244,0.46058539172577184,124.40606862163389,237.6409711622743,9.05
384.50102494030244,0.46058539172577184,121.12429143340836,235.04435074013588,9.05
384.50102494030244,0.46058539172577184,119.21461708215094,235.04435074013588,9.05
384.50102494030244,0.4601423959210251,117.1406575006068,235.04433933571528,9.05
384.50102494030244,0.22728926834588492,116.2269892850253,227.1555359491732,9.05
384.50102494030244,0.22728926834588492,114.73739563845876,221.29577556548458,9.05
384.50102494030244,0.22728926834588492,114.15982046897169,217.32433565795884,9.05
384.50102494030244,0.22728926834588492,114.09014506737209,217.32433565795884,9.05
364.97961759785795,0.22728926834588492,112.56157094303795,218.0949805964458,9.05
364.97961759785795,0.22728926834588492,110.17513318905037,214.75997003817167,9.05
364.97961759785795,0.22728926834588492,109.83295703326581,214.75997003817167,9.05
364.97961759785795,0.22728926834588492,108.39910945100614,214.36100217020407,9.05
364.97961759785795,0.22728926834588492,107.8527257322455,214.36100217020407,9.05
364.97961738464164,0.22728926834588492,104.77060514631046,212.5792032726347,9.05
364.97961738464164,0.22728926834588492,102.71239447745238,214.30264594088413,9.05
364.97961738464164,0.22728926834588492,100.40742890892476,215.99776775402296,9.05
364.959601827782,0.22728926834588492,100.31418966272997,215.99776775402296,9.05
364.959601827782,0.22728926834588492,98.47183316371311,214.30264594088413,9.05
364.959601827782,0.22728926834588492,97.1410919562898,212.24835443907352,9.05
360.58076033235835,0.22728926834588492,96.06821892535596,212.24835443907352,9.05
314.42244545692427,0.22728926834588492,94.23387899506437,214.30264594088413,9.05
314.42244545692427,0.22728926834588492,93.82160355481565,212.24835443907352,9.05
314.42244545692427,0.22728926834588492,93.03383115656715,209.6371400941432,9.05
314.39906647046485,0.22728926834588492,92.21376355225053,212.24835443907352,9.05
314.39906647046485,0.22728926834588492,92.17110978761033,212.0817914378797,9.05
314.2906702481923,0.22728926834588492,91.44878154512011,212.0817914378797,9.05
314.2906645281005,0.22728926834588492,90.49245226153276,212.0817914378797,9.05
314.2906645281005,0.22728926834588492,88.9382314847757,214.13366464652552,9.05
314.2889646855929,0.22728926834588492,88.47075267169252,214.13366464652552,9.05
314.2889646855929,0.22728926834588492,88.43056068076054,217.66426717864147,9.05
275.42054477936836,0.22719371641483121,86.31903673255391,121.06258305176925,9.05
275.42054477936836,0.22719371641483121,85.98055513659092,121.06258305176925,9.05
275.42054477936836,0.22719371641483121,82.8006322070873,217.6619765238661,9.05
275.42054477936836,0.22719371641483121,82.71303041887727,214.91069404525206,9.05
275.42054477936836,0.22719371641483121,80.98116967427126,120.9323036664191,9.05
275.42054477936836,0.22719371641483121,77.7208619579154,122.89845902090065,9.05
275.42054477936836,0.22719371641483121,75.459123944187,225.5232337834908,9.05
275.42054477936836,0.22719371641483121,74.46446145403597,22.245841673691302,9.05
275.42054477936836,0.11742492646681058,74.15484638587371,22.115185760684085,9.05
275.42054477936836,0.11742492646681058,72.26256815169769,22.243548672543625,9.05
275.42054477936836,0.11742492646681058,70.91204609919659,118.17127618036375,9.05
275.42054477936836,0.11742492646681058,70.23430004680365,211.97999947868936,9.05
275.42053223588914,0.11742492646681058,70.15328375694136,211.97999947868936,9.05
275.42053223588914,0.11742492646681058,67.87581483857764,110.07407103667157,9.05
248.463457248768,0.11742492646681058,66.58224954137475,11.293819707709076,9.05
248.463457248768,0.11740122940739184,66.38647530795423,11.293819707709076,9.05
248.46302498943373,0.11740122940739184,66.21363570036014,110.07407103667157,9.05
248.46302498943373,0.11740122940739184,65.56561664294128,11.293819707709076,9.05
248.46302498943373,0.11740122940739184,64.71252116053856,2.2768674238031963,9.05
248.46302498943373,0.11740122940739184,64.51379592750202,2.2768674238031963,9.05
248.46301525059334,0.11740122940739184,63.8671273792287,11.293819707709076,9.05
248.46301525059334,0.11740122940739184,62.137228137685746,110.07407102933519,9.05
248.25537315264603,0.11740122940739184,60.60746443321461,110.82589755824097,9.05
248.25537315264603,0.11740122940739184,60.518116116992445,110.8257361059733,9.05
247.64658047099078,0.11740122940739184,59.29650349628697,116.66632269912691,9.05
237.028261734667,0.10078963349860715,57.55971017694494,110.8257300841297,9.05
237.028261734667,0.10070151992465526,57.50121281178368,116.6663166772833,9.05
237.028261734667,0.0020226157125762256,56.39699980401103,116.6663166772833,9.05
237.028261734667,0.0020226157125762256,55.62565365079421,200.16446294249835,9.05
237.028261734667,0.0020226157125762256,54.5149135055867,110.8257300841297,9.05
236.9586252760147,0.0020226157125762256,53.64787491945728,110.07377914450814,9.05
236.9586252760147,0.0020226157125762256,52.924942842552916,110.8257300841297,9.05
236.9586252760147,0.0020226157125762256,52.11086880862431,110.8257300841297,9.05
236.9586252760147,0.0020226157125762256,51.3868525744271,116.94913726743931,9.05
236.9586252760147,0.0020226157125762256,51.286301919550205,116.94913726743931,9.05
236.9586252760147,0.0020226157125762256,51.21346941299285,116.6663166772833,9.05
236.9586252760147,0.0020226157125762256,51.18584366214473,116.6663166772833,9.05
211.7275611489357,0.0020226157125762256,50.2686743124669,110.76961934310526,9.05
211.72579375747068,0.0020099269875117898,50.23302476396777,110.76961934310526,9.05
211.72518819722666,0.0020099269875117898,49.666214324510854,110.82184675768104,9.05
211.72518819722666,0.0020099269875117898,48.061956986459734,116.66124687498012,9.05
211.72518819722666,0.0020099269875117898,47.623718680870134,116.66124687498012,9.05
211.72518819722666,0.0020099269875117898,46.336843164784476,119.0218858398461,9.05
211.72518819722666,0.0020099269875117898,46.17079036642615,116.6302941737028,9.05
211.72518819722666,0.0020099269875117898,45.60760623473415,110.07040913537423,9.05
211.72518819722666,0.0020099269875117898,45.56947475148329,110.07026129935451,9.05
211.72518819722666,0.0020099269875117898,43.61834302980856,110.78934906112767,9.05
211.72518819722666,0.0020099269875117898,42.37126329362506,110.78934906112767,9.05
211.72518819722666,0.0020099269875117898,41.84804501076757,11.323767430884345,9.05
211.72501211445365,0.0020099269875117898,40.56979958444897,2.7637858451666375,9.05
211.72501211445365,0.0020099269875117898,40.55741481608513,2.7637858451666375,9.05
211.72501211445365,0.0020099269875117898,39.48118316739828,2.763784740474648,9.05
211.72501211445365,0.0020099269875117898,39.43628184744412,2.763784740474648,9.05
211.71556695391928,0.0020099269875117898,38.60175194193121,11.54029467819521,9.05
211.71556695391928,0.0020099269875117898,37.851508977306324,2.305734743043672,9.05
211.71556003980936,0.0007208274990944119,37.807258330247194,2.305734743043672,9.05
211.71556003980936,0.0007208274990944119,37.261676696667635,2.305734723639489,9.05
211.71556003980936,0.0007208274990944119,37.172554910666214,2.761302438589553,9.05
168.30688961148394,0.0007208274990944119,36.5392570322188,2.761302438589553,9.05
168.30688961148394,0.0007208274990944119,36.318120981170196,2.761302438589553,9.05
168.30688961148394,0.0007208274990944119,33.845467401045,11.540292007297296,9.05
168.30688961148394,0.0007208274990944119,33.76236920637928,20.816293180070545,9.05
168.30688961148394,0.0007208274990944119,33.72578929343224,20.816293180070545,9.05
168.30688961148394,0.0007208274990944119,33.65577633810945,20.816293180070545,9.05
168.30688961148394,0.0007208274990944119,33.5826393220105,11.461828723518465,9.05
168.30688961148394,0.0007208274990944119,33.5791934979923,11.461828723518465,9.05
168.30688961148394,0.0007208274990944119,33.57444983684734,11.461828723518465,9.05
168.30688961148394,0.0007208274990944119,33.39371249605773,2.6435422948226233,9.05
168.30688961148394,0.0007208274990944119,33.38239158110218,2.6435422948226233,9.05
168.30688961148394,0.0007208274990944119,33.0496590703989,11.461828723518465,9.05
168.13845501894593,0.0007208274990944119,30.79472490411454,11.612814648915446,9.05
168.13845501894593,0.0007208274990944119,30.77899346368622,11.612814648915446,9.05
168.13845501894593,0.0007208274990944119,30.75642459493177,11.612814648915446,9.05
168.13845501894593,0.0007208274990944119,30.731194185767365,11.612814648915446,9.05
168.13845501894593,0.0007208274990944119,30.349378977301722,20.967279105467526,9.05
168.13845501894593,0.0007208274990944119,30.34620289446023,20.967279105467526,9.05
168.13845501894593,0.0007208274990944119,30.205087962228394,21.696868913030983,9.05
168.13845501894593,0.0007208274990944119,29.793387967102987,21.696868913030983,9.05
168.13845501894593,0.0007208274990944119,29.58119826444187,21.696868913030983,9.05
168.13845501894593,0.0007208274990944119,28.741635273903594,20.768174471643874,9.05
168.13845501894593,0.0007208274990944119,28.601884371084815,20.768174471643874,9.05
168.13845501894593,0.0007208274990944119,28.425168262926004,11.413707047412856,9.05
168.13845501894593,0.0007043888664384212,28.36071386503883,2.6435361410124187,9.05
168.13845501894593,0.0007043888664384212,28.006299439413993,2.6435358231944974,9.05
168.13845501894593,0.0007043888664384212,28.002952442190722,2.6435358231944974,9.05
168.13845501894593,0.0007043888664384212,28.002792784004445,2.6435358231944974,9.05
168.13845501894593,0.0007043888664384212,27.855211826543094,2.6435358231944974,9.05
168.13845501894593,0.0007043888664384212,26.17403773659659,2.6435358231944974,9.05
168.13845501894593,0.0007043888664384212,26.119069838875216,2.839104139411006,9.05
168.13845501894593,0.0007043888664384212,25.34771458941232,2.258980940201468,9.05
168.13845501894593,0.0007043888664384212,25.11514763612328,10.790254005998065,9.05
168.13845501894593,0.0005942884336036514,25.104874656200778,10.790254005998065,9.05
168.13845501894593,0.0005942884336036514,25.083095086380766,10.790254005998065,9.05
168.1185495878367,0.0005942884336036514,24.871055502494134,10.78983131476457,9.05
168.1185495878367,0.0005942884336036514,23.87228484593865,2.4418806837244347,9.05
168.1185001070778,0.0005942884336036514,23.81979722537088,2.4418806837244347,9.05
168.1185001070778,0.0005942884336036514,23.134380426629754,2.8389588158170227,9.05
168.1185001070778,0.0005942884336036514,22.866985809287783,2.8931070942323913,9.05
168.1185001070778,0.0005942884336036514,22.48677198236329,2.893106374037586,9.05
168.1185001070778,0.0005603663299780237,22.48282544455834,2.893106374037586,9.05
168.1185001070778,0.00010471240148035577,22.46779909612672,2.461724210056275,9.05
168.11652922619794,0.00010471240148035577,22.464903444236032,2.461724210056275,9.05
168.11652922619794,0.00010471240148035577,21.53555183430253,2.893106374037586,9.05
168.11652922619794,0.00010471240148035577,21.52463423442859,2.893106374037586,9.05
168.11652827649743,0.00010471240148035577,21.52271368946361,2.893106374037586,9.05
168.11652827649743,0.00010471240148035577,21.425501068970036,2.893106374037586,9.05
139.54280786468098,0.00010471240148035577,20.063729271510738,2.9552411711470654,9.05
139.54280786468098,0.00010471240148035577,19.623968040777815,2.893106374037586,9.05
139.54280786468098,0.00010471240148035577,19.32562022063037,10.789096626001196,9.05
120.1418099991248,0.00010471240148035577,17.57121464307819,2.893106374037586,9.05
120.1418099991248,0.00010471240148035577,17.282150730683174,2.9552411711470654,9.05
120.1418099991248,0.00010471240148035577,16.53168020277909,2.9552411711470654,9.05
120.1418099991248,0.00010471240148035577,16.336812365936495,11.488363651798977,9.05
120.1418099991248,0.00010471240148035577,16.169495454113086,11.488363651798977,9.05
120.1418099991248,0.00010471240148035577,16.16549810386162,11.48836356579875,9.05
120.1418099991248,0.00010471072414475202,16.137294754832862,2.913615335636223,9.05
120.1418099991248,0.00010471072414475202,16.13720212273818,2.913615335636223,9.05
120.1418099991248,0.0001045451233494532,15.942775428901436,2.913615335636223,9.05
120.1418099991248,0.0001045451233494532,15.933354013043527,2.913615335636223,9.05
120.1418099991248,0.0001045451233494532,15.909441567168846,2.1661950153621206,9.05
120.14132631364976,0.0001045451233494532,15.903046196260789,2.078624911630584,9.05
120.14132631364976,0.0001045451233494532,15.757654536713604,2.036928728409805,9.05
120.14132629331652,0.00010400244991615182,14.614960194390573,2.063669550508166,9.05
120.14132629331652,0.00010382184075297118,14.594032614237213,2.063669550508166,9.05
120.14132629331652,0.00010382184075297118,14.56230218381137,2.03690308501848,9.05
120.14132629331652,0.00010382184075297118,14.535710864729662,2.03690308501848,9.05
120.1410143500583,0.00006050995318673813,14.523749111075826,11.009109632286595,9.05
120.1410143500583,0.00006050995318673813,14.365366300125402,2.03690308501848,9.05
120.1410143500583,0.00006050995318673813,13.338643500263258,10.895231645035437,9.05
120.1410143500583,0.00006050995318673813,13.247942955677411,10.895231645035437,9.05
120.1410143500583,0.00006050995318673813,13.199872939527204,10.895231645035437,9.05
120.1410143500583,0.00006050995318673813,13.082467309564526,19.625439975718677,9.05
120.1410143500583,0.000060423935792641714,13.055717282620394,19.322387409122143,9.05
120.1410143500583,0.000060423935792641714,13.03644180116054,19.029091242706215,9.05
120.1410143500583,0.000060423935792641714,13.035347369605446,19.029091242706215,9.05
120.14051022934063,0.000060423935792641714,13.006805528643499,19.02907969268682,9.05
120.14051022934063,0.000060423935792641714,12.971688731006694,19.322387409122143,9.05
120.14051022934063,0.000060423935792641714,12.966621027121668,19.322387409122143,9.05
120.14051022934063,0.000060423935792641714,12.783282258741997,19.076704484368918,9.05
120.14051022934063,0.000060423935792641714,12.660801302824774,18.602367332922825,9.05
120.14051022934063,0.000060423935792641714,12.331833139979649,17.02416850332645,9.05
120.14050777463342,0.000060423935792641714,12.105604763048273,67.89748580823033,9.05
120.14050777463342,0.000060423935792641714,12.06803474968774,66.3878149989294,9.05
120.14050777463342,0.000060423935792641714,11.971699389744295,66.3878149989294,9.05
120.14050777463342,0.000060423935792641714,11.956747882971294,66.3878149989294,9.05
120.14050777463342,0.00006042350685220299,11.910713710653095,66.38781499528778,9.05
120.14050777463342,0.00006042350685220299,11.841766178201205,12.577461510617127,9.05
120.14050777463342,0.00006042350685220299,11.34024274777008,65.53766723909382,9.05
120.14050777463342,0.00006042350685220299,11.304556917385467,11.583611151389334,9.05
120.14050777463342,0.00006042350685220299,11.196255878958814,11.582678601731402,9.05
118.55553366403956,0.00006042350685220299,9.962808621329396,11.14454722590483,9.05
118.55553366403956,0.00006042350685220299,9.814695858063773,11.14454722590483,9.05
118.55553366403956,0.00006042350685220299,9.807212137549618,10.871694793010533,9.05
118.55553366403956,0.00006042350685220299,9.79996426565118,10.871694793010533,9.05
118.55553366403956,0.00006042350685220299,9.721366765975722,10.753501761155803,9.05
118.55553366403956,0.00006042350685220299,9.667923105546464,10.753501761155803,9.05
118.55553366403956,0.00006042350685220299,9.490906642698274,10.753501761155803,9.05
118.55553366403956,0.00006042350685220299,9.48140487995755,10.753501761155803,9.05
118.55553366403956,0.00006042350685220299,9.300552317686307,10.736431200289076,9.05
118.55553366403956,0.00006042350685220299,9.288064719064387,10.736431200289076,9.05
118.55553366403956,0.00006042350685220299,9.278766544095163,10.736431200289076,9.05
118.55553366403956,0.00006042350685220299,9.27617868821914,10.736431200289076,9.05
118.55553366403956,0.00006042350685220299,9.083461716923516,10.736431200289076,9.05
118.55553366403956,0.00006042350685220299,9.015920548821862,6.301168309220884,9.05
118.55553366403956,0.00006042350685220299,9.015138906598908,6.301167429978591,9.05
118.55553366403956,0.00006042350685220299,9.00607348119127,6.301167429978591,9.05
118.55553366403956,0.00006042350685220299,8.972342698467106,6.210388285610065,9.05
118.55553366403956,0.000028789197017431434,8.793892883835435,6.210388285610065,9.05
118.55553366403956,0.000028789197017431434,8.780077115101946,6.210388285610065,9.05
118.55553366403956,0.000028789197017431434,8.51650294463848,1.7254129376071319,9.05
118.55553366403956,0.000028789197017431434,8.51503176138794,1.7254129376071319,9.05
118.55553366403956,0.000028789197017431434,8.494848090778437,1.7254129376071319,9.05
118.55553366403956,0.000028789197017431434,8.333042367847513,1.7254129376071319,9.05
118.55553366403956,0.000028789197017431434,8.332696198203067,1.7254129376071319,9.05
118.55553366403956,0.000028789197017431434,8.169486702803216,1.7254129376071319,9.05
118.55553277018942,0.000028789197017431434,8.157906187200904,1.6428993486239847,9.05
118.51335225281196,0.000028789193493139464,8.157477331022013,1.642882016504359,9.05
118.51335225281196,0.000028789193493139464,8.071413584822226,1.6305958096278914,9.05
118.51335225281196,0.00002878645386772405,7.952010297330737,1.6305958096278914,9.05
118.51335225281196,0.00002878645386772405,7.948100151749815,1.6305958096278914,9.05
118.51335225281196,0.00002878645386772405,7.921258948019145,1.6305958096278914,9.05
118.51335225281196,0.00002847620498869219,7.915658951371064,1.6305958096278914,9.05
118.51335225281196,0.00002847620498869219,7.840658213474711,1.4783828684138598,9.05
118.51335225281196,0.00002847620498869219,7.826176342490426,1.3237230929611883,9.05
118.51335225281196,0.00002847620498869219,7.8087934914145585,1.3236861123379526,9.05
118.50158267630172,0.00002847620498869219,7.8005588906117795,1.3236861123379526,9.05
118.50158267630172,0.00002847620498869219,7.78549363097173,1.3236861123379526,9.05
118.50158267630172,0.000028456020345402067,7.785472089309966,1.3236861123379526,9.05
118.50158267630172,0.000028456020345402067,7.78166091408631,1.3236861123379526,9.05
118.50158267630172,0.000028456020345402067,7.4629852500634,1.2555045985667448,9.05
118.50158267630172,0.000028456020345402067,7.405523397213734,1.2372981177647944,9.05
118.50158267630172,0.000028456020345402067,7.403357301089767,1.2372981177647944,9.05
118.50156874990023,0.000028456020345402067,7.399599229459677,1.2372981177647944,9.05
118.50156874990023,0.000028456020345402067,7.26335073403747,1.2372981177647944,9.05
118.50156874990023,0.000028456020345402067,7.240936058872259,1.2372981177647944,9.05
118.50156874990023,0.000028456020345402067,7.199304454437863,1.209832402167308,9.05
118.50156874990023,0.000028456020345402067,7.193640537455156,1.209832402167308,9.05
118.50156874990023,0.000028456020345402067,7.191753415012555,1.1782231761034154,9.05
118.50156874990023,0.000028456020345402067,6.875929050791585,1.1590840560339757,9.05
118.50156874990023,0.000028448352622945094,6.866134548567767,1.1590840273378262,9.05
118.50156874990023,0.000028448352622945094,6.853029273605853,1.146966736921513,9.05
118.50156874990023,0.000028448352622945094,6.851534913419601,1.1385145449376637,9.05
118.50156874990023,0.000028448352622945094,6.84745319385852,1.1385145449376637,9.05
118.50156874990023,0.000028448352622945094,6.841477208292107,1.1385145449376637,9.05
118.50156874990023,0.000028448352622945094,6.628485417411701,1.0805184347705108,9.05
118.50156874990023,0.000028448352622945094,6.521161323339881,1.017163153562592,9.05
118.50156874990023,0.000028448352622945094,6.5209405556192985,1.017163153562592,9.05
118.50156874990023,0.000028448352622945094,6.520808424532305,1.017163153562592,9.05
118.50156874990023,0.000028319553393885144,6.520448375990354,1.017163153562592,9.05
118.50156874990023,0.000028319553393885144,6.448317179598345,0.8538217910303842,9.05
118.50156874990023,0.000028319553393885144,6.43815639413741,0.8538217910303842,9.05
118.50156874990023,0.000028319553393885144,6.431442124016315,0.831014039780996,9.05
118.50156874990023,0.000028319553393885144,6.426188793290579,0.831014039780996,9.05
118.50156874990023,0.000028319553393885144,6.3686630300380624,0.831014039780996,9.05
118.50156874990023,0.000028319553393885144,6.235005132789787,0.7953416043932862,9.05
118.50156874990023,0.000028319553393885144,6.217927556670056,0.7953416043932862,9.05
118.50156874990023,0.0000266514030045073,5.985963538069099,0.7953416043932862,9.05
118.50156874990023,0.0000266514030045073,5.82373990077582,0.7953416043932862,9.05
118.50156874990023,0.0000266514030045073,5.822175349932115,0.7953416043932862,9.05
118.50156874990023,0.0000266514030045073,5.755943726999343,0.7953416043932862,9.05
118.50156874990023,0.0000266514030045073,5.624240216901536,0.7953416043932862,9.05
118.50156874990023,0.0000266514030045073,5.613382361919931,0.7161879318703654,9.05
118.50156874990023,0.0000266514030045073,5.555731244076218,0.7161879318703654,9.05
118.49336129448557,0.0000266514030045073,5.554487306847554,0.7161879318703654,9.05
118.48845195199374,0.0000266514030045073,5.553394199961572,0.7161879318703654,9.05
118.48845195199374,0.0000266514030045073,5.405573884200001,0.7161879318703654,9.05
118.48845195199374,0.0000266514030045073,5.405140247685701,0.7161879318703654,9.05
118.48845195199374,0.0000266514030045073,5.238427762225362,0.6541441689789735,9.05
118.48845195199374,0.0000266514030045073,5.160514987776907,0.6541441689789735,9.05
118.48845195199374,0.0000266514030045073,4.999198181681743,0.6541441689789735,9.05
118.48845195199374,0.0000266514030045073,4.994883767947995,0.6541441689789735,9.05
118.48807847273963,0.0000266514030045073,4.987442232299562,0.6541439450274424,9.05
118.48807843440045,0.0000266514030045073,4.844811343476031,0.6541439450274424,9.05
118.48807843440045,0.0000266514030045073,4.843991029339235,0.6541439450274424,9.05
118.48807843440045,0.0000266514030045073,4.840024124286334,0.6541407990279708,9.05
118.48807843440045,0.0000266514030045073,4.839867336180237,0.6541407990279708,9.05
118.48807843440045,0.0000266514030045073,4.8347836029148255,0.6114634300834041,9.05
118.48807843440045,0.0000266514030045073,4.83138246179534,0.6114634300834041,9.05
118.48807843440045,0.0000266514030045073,4.818009626927247,0.5774854920829284,9.05
118.48807843440045,0.0000266514030045073,4.803798044516245,0.5774854920829284,9.05
118.48807843440045,0.0000266514030045073,4.803237201339709,0.5774806397146222,9.05
118.48807843440045,0.0000266514030045073,4.802279520888354,0.5774806397146222,9.05
118.48807843440045,0.0000266514030045073,4.754365031437559,0.49209040303236407,9.05
118.48807843440045,0.0000266514030045073,4.751068254733715,0.49209040303236407,9.05
118.48807843440045,0.000026650778636394534,4.738775595394089,0.4201085756960765,9.05
118.48807843440045,0.000026650778636394534,4.72695674734361,0.4201085756960765,9.05
118.48807843440045,0.000026650778636394534,4.725931724119286,0.41955420338558724,9.05
118.48807843440045,0.000026650778636394534,4.6929418819209605,0.36502818074234256,9.05
118.48807843440045,0.000026650778636394534,4.009449463062039,0.34661858286420966,9.05
118.4880783019637,0.000026650778636394534,4.009292187974986,0.34661858286420966,9.05
118.4880783019637,0.000026650778636394534,3.9951141588065298,0.34661858286420966,9.05
118.4880783019637,0.000026650778636394534,3.983503182812176,0.30261772004990917,9.05
118.4880783019637,0.000026650778636394534,3.9694619246162337,0.26628687789809646,9.05
118.4880783019637,0.000026650778636394534,3.969328163909432,0.2633578548775404,9.05
118.4880783019637,0.000026650778636394534,3.9436557354194757,0.2633578548775404,9.05
118.4880783019637,0.000026650778636394534,3.942518914798475,0.25897852686864553,9.05
118.4880783019637,0.000026650778636394534,3.8442967706580613,0.25894107367537345,9.05
118.4880783019637,0.000026650778636394534,3.8442701928059533,0.25894107367537345,9.05
118.4880783019637,0.000026650778636394534,3.844167307747024,0.25894101128346847,9.05
118.48719718010875,0.000026650778636394534,3.8174348011641293,0.25894101128346847,9.05
118.48719718010875,0.000026650778636394534,3.790487387776752,0.23235754035340506,9.05
118.48719718010875,0.000026650778636394534,3.7647636844468058,0.21458983440743395,9.05
118.48719718010875,0.000026650778636394534,3.6433666463202328,0.21458983440743395,9.05
109.80276694283043,0.000026650778636394534,3.552165588594734,0.21458983440743395,9.05
109.80276694283043,0.000026650778636394534,3.5515766957542407,0.21458983440743395,9.05
109.80276694283043,0.000026650778636394534,3.5485069970631593,0.2137359383843318,9.05
109.80276694283043,0.000026650778636394534,3.5478052872729484,0.2137359383843318,9.05
109.80276694283043,0.00002664708881638944,3.547715746854859,0.2137359383843318,9.05
109.80276694283043,0.00002664708881638944,3.540625180861681,0.20828946823127126,9.05
109.80276694283043,0.00002664708881638944,3.347531264331774,0.20828946823127126,9.05
109.80276694283043,0.00002664708881638944,3.3475300207471186,0.20828946823127126,9.05
109.80276694283043,0.00002664708881638944,3.34721369477909,0.20828946823127126,9.05
109.80276694283043,0.00002664708881638944,3.3287914474868217,0.20828946823127126,9.05
109.80276694283043,0.00002664708881638944,3.3188147636670715,0.1948182124926916,9.05
109.80276694283043,0.00002664708881638944,3.261500319979027,0.1948182124926916,9.05
109.80274565051218,0.00002664708881638944,3.2549924631165084,0.16785759418723956,9.05
109.80274565051218,0.00002664708881638944,3.246584081606411,0.16785759418723956,9.05
109.80274565051218,0.00002664708881638944,3.2465834560184077,0.1678456802915207,9.05
109.80274565051218,0.00002664708881638944,3.245601651434977,0.1678456802915207,9.05
109.80274565051218,0.00002664708881638944,3.2455654653824433,0.16783528858786667,9.05
109.80274565051218,0.00002664708881638944,3.230359746197379,0.16783528858786667,9.05
109.80274565051218,0.00002664708881638944,3.1991039861935437,0.16778680078004982,9.05
109.80274565051218,0.00002664708881638944,3.197972609806702,0.16778680078004982,9.05
109.80274565051218,0.00002664708881638944,3.197891923674953,0.16778680078004982,9.05
109.80274565051218,0.00002664708881638944,3.187347945359778,0.16778680078004982,9.05
109.80274565051218,0.00002664708881638944,3.1865287777762457,0.16778680078004982,9.05
109.80274565051218,0.00002664708881638944,3.186446405935137,0.16778680078004982,9.05
109.80274565051218,0.00002664708881638944,3.185902049013636,0.16778661038551945,9.05
109.80274565051218,0.00002664708881638944,3.1841684093300056,0.16778661038551945,9.05
109.73635045523702,0.000026453473310539266,3.1834662290065148,0.16778661038551945,9.05
109.71745924213769,0.000026453473310539266,3.169479114829203,0.15049992733565887,9.05
109.71745924213769,0.000026453473310539266,3.16550896964324,0.15049992572949122,9.05
109.71745924213769,0.000026453473310539266,3.153378754145797,0.15037539205093253,9.05
109.71745924213769,0.000026453473310539266,3.113955657093446,0.15037539205093253,9.05
109.71745924213769,0.000026453473310539266,3.109834678318842,0.1444871051407972,9.05
109.71745924213769,0.000026453473310539266,3.1085349561354576,0.1443601132581307,9.05
109.71745924213769,0.000026453473310539266,2.959602966480213,0.1443600699263925,9.05
27.321353253719735,0.000026453473310539266,1.8762922713140882,0.1443600699263925,9.05
24.958082410014867,0.000026453473310539266,1.772117821442007,0.13933841096093147,9.05
24.958082410014867,0.000026453473310539266,1.7644601391875812,0.13582551664103448,9.05
24.958082410014867,0.000026453473310539266,1.753503062050388,0.13582551664103448,9.05
24.958082410014867,0.000026453473310539266,1.7534637537502817,0.13582551664103448,9.05
24.958082410014867,0.000026453473310539266,1.7534558825033661,0.13582551664103448,9.05
24.958082410014867,0.000026222505539408303,1.752667611739032,0.13582551468914517,9.05
24.958082410014867,0.000026222505539408303,1.6854520362311871,0.12027521959896603,9.05
24.958082410014867,0.000026222505539408303,1.6791853065259648,0.12027521959896603,9.05
24.958082410014867,0.000026222505539408303,1.6791116121397862,0.12027521959896603,9.05
24.958082410014867,0.000026222505539408303,1.6786029224908168,0.12027521959896603,9.05
24.958082410014867,0.000026222505539408303,1.6727866252730303,0.12027521959896603,9.05
24.958082410014867,0.000026222505539408303,1.6326474240274627,0.11225863141379477,9.05
24.958082410014867,0.000026222505539408303,1.6246506481696212,0.11225863141379477,9.05
24.958082410014867,0.00002622199724555685,1.6241692989844625,0.11225863141379477,9.05
24.958082410014867,0.00002622199724555685,1.6238077291702415,0.11225863141379477,9.05
24.95806577508631,0.00002622199724555685,1.6225312385772304,0.11225863141379477,9.05
24.95806577508631,0.00002622199724555685,1.6220529534838783,0.11225863141379477,9.05
24.95806577508631,0.00002622199724555685,1.618376633162584,0.11225863141379477,9.05
24.95806577508631,0.00002622199724555685,1.6090254271355615,0.11225863141379477,9.05
24.958047300409362,0.00002622199724555685,1.605407177101116,0.11225863141379477,9.05
24.958047300409362,0.00002622127362883475,1.5932494115610267,0.11225863125889646,9.05
24.958047300409362,0.00002622127362883475,1.5672041186088654,0.10674692800881758,9.05
24.958047300409362,0.00002621974385874637,1.5671821611478742,0.10674692800881758,9.05
24.958047300409362,0.00002621974385874637,1.5668696668615019,0.10674692800881758,9.05
24.706427364936303,0.00002621974385874637,1.542159216630514,0.10674692800881758,9.05
24.706427364936303,0.00002621974385874637,1.5304250568850408,0.09973246347584563,9.05
24.706427364936303,0.00002621974385874637,1.5265771498947687,0.09344591755308329,9.05
24.706427364936303,0.00002621974385874637,1.519581754520002,0.09344566244158159,9.05
24.706427364936303,0.00002621974385874637,1.5105681480301758,0.07802693097454494,9.05
24.706427364936303,0.00002621974385874637,1.5072889498885014,0.07802693097454494,9.05
24.706427364936303,0.00002621974385874637,1.5045533367659323,0.07219266226474019,9.05
24.706427364936303,0.00002621974385874637,1.5030858516796786,0.07219266226474019,9.05
24.706427364936303,0.00002621974385874637,1.4822658051899191,0.07155517686788926,9.05
24.706427364936303,0.00002621974385874637,1.4311502747321152,0.07155517686788926,9.05
24.706276606156734,0.00002621974385874637,1.430855663834932,0.07072714721334705,9.05
24.706276606156734,0.000025828923753579147,1.430559875075611,0.06804399385060833,9.05
24.706276606156734,0.000025828923753579147,1.4302602098238675,0.06804399385060833,9.05
24.704945060682803,0.000025828923753579147,1.2799280838876075,0.06804399385060833,9.05
24.704945060682803,0.000025828923753579147,1.2798999712890144,0.06804399385060833,9.05
22.92727106871871,0.000025828923753579147,1.2570030668285552,0.06470784141754393,9.05
22.92727106871871,0.000025828923753579147,1.2559638053373816,0.06470782196760183,9.05
22.92727106871871,0.000025828923753579147,1.181078103261143,0.06470782196760183,9.05
22.92727106871871,0.000025828923753579147,1.180836588972495,0.06470782196760183,9.05
22.92727106871871,0.000025828923753579147,1.1805300844467228,0.06470201993801084,9.05
22.92727106871871,0.000025828923753579147,1.1804085340556254,0.06470201993801084,9.05
22.92727106871871,0.000025828923753579147,1.0861370893256765,0.06470201993801084,9.05
22.927125849584854,0.000025828923753579147,1.0540720874958822,0.06343060808683276,9.05
22.927125849584854,0.000025828923753579147,1.0539967803121397,0.06343060808683276,9.05
22.927125849584854,0.000025826303158282826,1.0539421303738539,0.06216549223165657,9.05
22.927125849584854,0.000025826303158282826,1.0495012687027225,0.06216549223165657,9.05
22.927042766521936,0.000025826303158282826,1.0494794360536264,0.062165490587688055,9.05
22.927042766521936,0.000025826303158282826,1.0377747977703677,0.06120761517121309,9.05
22.927042766521936,0.000025826303158282826,1.0368097975805575,0.06120761517121309,9.05
22.927042766521936,0.000025826303158282826,1.0365483066663272,0.0563869734737068,9.05
22.927042766521936,0.000025826303158282826,1.0314701606712617,0.05196314788918244,9.05
22.926581011830876,0.000025786553578655003,1.0185221313242823,0.049354909657267854,9.05
22.926581011830876,0.000025786553578655003,0.9995700709156017,0.04934851233446125,9.05
22.926581011830876,0.000025786553578655003,0.9904634975398097,0.04934851233446125,9.05
22.926581011830876,0.000025786553578655003,0.9904418124777464,0.04934851233446125,9.05
22.926581011830876,0.000025786553578655003,0.979552098574336,0.04934851233446125,9.05
22.926581011830876,0.000025786553578655003,0.9793522158363419,0.04934851233446125,9.05
9.607614930116597,0.000025786553578655003,0.7675690401772988,0.04934851233446125,9.05
9.607614930116597,0.000025786553578655003,0.7674058141531509,0.04934851233446125,9.05
9.607614930116597,0.000025786553578655003,0.760920477431764,0.04934851233446125,9.05
9.607614930116597,0.000025786553578655003,0.760887124841214,0.04934851196588852,9.05
9.607614930116597,0.000025786553578655003,0.7593791292023911,0.04934851196588852,9.05
9.607614401866613,0.000025786553578655003,0.7587882254421288,0.04739567547755996,9.05
9.607614401866613,0.000025786553578655003,0.7584228269328639,0.045268972679593844,9.05
9.607614401866613,0.000025786553578655003,0.7581247036701586,0.044995796899002016,9.05
9.607614401866613,0.000025786553578655003,0.7578767588649066,0.044995796899002016,9.05
9.607614401866613,0.000025786553578655003,0.7574265153793044,0.04444999550321427,9.05
9.607614401866613,0.000025786553578655003,0.7573536176217306,0.04444999550321427,9.05
9.607614401866613,0.000025786553578655003,0.7560830975532223,0.04284828353826242,9.05
9.607614401866613,0.000025786553578655003,0.7543464225106391,0.04214911292757506,9.05
9.60667070342538,0.000025786553578655003,0.7455111597711505,0.04214911292757506,9.05
9.60667070342538,0.000025786553578655003,0.7453165166059671,0.04214911292757506,9.05
9.60667070342538,0.000025786553578655003,0.7337150118459612,0.04214911292757506,9.05
9.60667070342538,0.000025786553578655003,0.7334888568969246,0.04165463634370781,9.05
9.60667070342538,0.000025786553578655003,0.7271138814263202,0.041121453680091236,9.05
9.60667070342538,0.000025786553578655003,0.7219729500718745,0.041121119979322884,9.05
9.60667070342538,0.000025786553578655003,0.721880808692963,0.041121119979322884,9.05
9.60667070342538,0.000025786553578655003,0.715571558083933,0.041121119979322884,9.05
9.605669949435992,0.000025786553578655003,0.7037577802628425,0.041121119979322884,9.05
9.605669949435992,0.000025786553578655003,0.7036049657404646,0.041121119979322884,9.05
9.605669949435992,0.000025786553578655003,0.6857193668177297,0.04019623670620831,9.05
9.605669949435992,0.000025786553578655003,0.6856123653582631,0.039806624658126566,9.05
9.605669949435992,0.000025786553578655003,0.6855133879218306,0.039806624658126566,9.05
9.605669949435992,0.000025786553578655003,0.681000982923864,0.039516997854320834,9.05
9.605669949435992,0.000025786553578655003,0.6808420526138047,0.039483223887941676,9.05
9.605669949435992,0.000025786553578655003,0.6714698768223354,0.03704532835399732,9.05
9.605105446579046,0.000025786553578655003,0.6714266462134049,0.036368628044670004,9.05
9.605102287089267,0.000025786553578655003,0.6694200143829926,0.03123228773762321,9.05
9.605102211423173,0.000025786553578655003,0.6690090064081289,0.03123228773762321,9.05
9.605102211423173,0.000025786553578655003,0.6512064203629211,0.03123228773762321,9.05
9.605102211423173,0.000025786553578655003,0.6413996988872281,0.03123228773762321,9.05
9.605102211423173,0.000025786553578655003,0.6345106481675521,0.03123228773762321,9.05
9.605102211423173,0.000025786553578655003,0.6286313347950409,0.031056545567878402,9.05
9.605102211423173,0.000025786553578655003,0.6181862882172925,0.031056545567878402,9.05
9.605102211423173,0.000025786553578655003,0.6178270278497416,0.031038057084288084,9.05
9.605102211423173,0.000025786553578655003,0.6149541006677715,0.031038057084288084,9.05
9.605102211423173,0.000025786553578655003,0.6053345424556948,0.031038057084288084,9.05
9.605102211423173,0.000025786553578655003,0.6052427014106547,0.031038057084288084,9.05
9.605102211423173,0.000025786553578655003,0.6048329520030825,0.031038057084288084,9.05
9.605102211423173,0.000025786553578655003,0.6036230425136125,0.030992986259605004,9.05
9.605102177976732,0.000025786553578655003,0.6035885974236953,0.030992986259605004,9.05
9.605102177976732,0.000025786553578655003,0.5982664264890661,0.030979895048290018,9.05
9.605102177976732,0.000025784327476685576,0.5717853104578,0.030979895048290018,9.05
9.605102177976732,0.000025784327476685576,0.5709429413367979,0.028958959311353283,9.05
9.605102177976732,0.000025784327476685576,0.5706265780220587,0.028958959311353283,9.05
9.605102177976732,0.000025784327476685576,0.5706242594661012,0.028958959311353283,9.05
9.100143092254257,0.000025784327476685576,0.5567081742005052,0.028958959311353283,9.05
9.100143092254257,0.000025784327476685576,0.5539997202448057,0.028958959311353283,9.05
9.100143092254257,0.000025784327476685576,0.5539944854076145,0.028956487792129337,9.05
9.100143092254257,0.000025784327476685576,0.5505965105742245,0.028956487792129337,9.05
9.100143092254257,0.000025784327476685576,0.5505042227421416,0.028956487792129337,9.05
9.100143092254257,0.000025784327476685576,0.550434356929228,0.028956487792129337,9.05
9.100143092254257,0.000025784327476685576,0.5491992358606592,0.027411188720975588,9.05
9.100143092254257,0.000025784327476685576,0.5479767348468931,0.02419942642541173,9.05
9.100143092254257,0.000025784327476685576,0.5479178856307305,0.02419942642541173,9.05
9.100143092254257,0.000025784327476685576,0.5478682107856627,0.02419942642541173,9.05
9.100143092254257,0.000025784327476685576,0.5472058672283197,0.022196681137586438,9.05
9.100143092254257,0.000025784327476685576,0.545113860641294,0.022196681137586438,9.05
9.100143092254257,0.000025784327476685576,0.545096337215856,0.022161045516440936,9.05
9.100143092254257,0.000025784327476685576,0.5295950970180866,0.022161045516440936,9.05
9.100143092254257,0.000025784327476685576,0.5295727633399975,0.022161043873268227,9.05
9.100143092254257,0.000025784327476685576,0.5287460824418361,0.022158339415341288,9.05
9.100143092254257,0.000025784327476685576,0.5281619130390857,0.021624801632924573,9.05
9.100143092254257,0.000025784327476685576,0.528155412147139,0.021624801632924573,9.05
7.260578848132127,0.000025784327476685576,0.4379440155588054,0.021624801632924573,9.05
6.937406666619609,0.000025784327476685576,0.42726994053454065,0.021624801632924573,9.05
6.937406666619609,0.000025784327476685576,0.4265147022780809,0.021624801632924573,9.05
6.937406666619609,0.000025784327476685576,0.4263217395129846,0.021624801632924573,9.05
6.937406666619609,0.00002576194856374059,0.4260966512814025,0.019915971576097036,9.05
6.937406666619609,0.00002576194856374059,0.4255859560715578,0.019906077979044312,9.05
6.823576078983251,0.00002576194856374059,0.42167445500135387,0.019906077979044312,9.05
6.823576078983251,0.00002576194856374059,0.420106148429021,0.017085844226244262,9.05
6.823576078983251,0.00002576194856374059,0.41452270974073824,0.017085844226244262,9.05
6.823576078983251,0.00002576194856374059,0.4140011545318407,0.017085844226244262,9.05
6.823576078983251,0.00002576194856374059,0.35704472571723045,0.01702255757038529,9.05
6.823194401346541,0.00002576194856374059,0.3569271153490422,0.01702255757038529,9.05
6.823194401346541,0.00002576194856374059,0.339511656919409,0.01702255757038529,9.05
6.823194401346541,0.00002576194856374059,0.33897293976493986,0.01702255757038529,9.05
6.823194401346541,0.00002576194856374059,0.33282960281900387,0.01513181066445668,9.05
6.823194401346541,0.00002576194856374059,0.33270607415517817,0.01441985687097258,9.05
6.823194401346541,0.00002576194856374059,0.3322472051671423,0.01441985687097258,9.05
6.823194401346541,0.00002576194856374059,0.33124192657923,0.014039957794921065,9.05
6.822904413100787,0.00002576194856374059,0.3308869978602786,0.01350623343364532,9.05
6.822900278978182,0.00002576194856374059,0.3300525847466497,0.01271036017891447,9.05
6.822900278978182,0.00002576194856374059,0.3236334557756879,0.012417970447302196,9.05
6.822900278978182,0.00002576194856374059,0.3235790591495902,0.012417970447302196,9.05
6.822900278978182,0.00002576194856374059,0.3228334711536206,0.012173012342259426,9.05
6.822900278978182,0.00002576194856374059,0.3226626729567761,0.012007681255397529,9.05
6.48558928562079,0.00002576194856374059,0.3190620184587226,0.012007681255397529,9.05
6.48558928562079,0.00002576194856374059,0.3180873917789654,0.012007681255397529,9.05
6.48558928562079,0.00002576194856374059,0.31798750260001496,0.012007681255397529,9.05
6.48558928562079,0.00002576194856374059,0.31218637532572985,0.011902848693921442,9.05
6.48558928562079,0.00002576194856374059,0.3121581019576752,0.011900782506359064,9.05
6.48558928562079,0.00002576194856374059,0.3121420815877809,0.011900776992661122,9.05
6.48558928562079,0.00002576194856374059,0.3112753781987396,0.01171062480443652,9.05
6.48558928562079,0.00002576194856374059,0.3112733314468892,0.011615842537366916,9.05
6.48558928562079,0.00002576194856374059,0.30643100649590677,0.011609456513667737,9.05
6.48558928562079,0.00002576194856374059,0.30640909413790157,0.011609456513667737,9.05
6.48558928562079,0.00002576194856374059,0.3063694921124249,0.011609456513667737,9.05
6.485589218125369,0.00002576194856374059,0.3059521532273288,0.011090356847773819,9.05
6.485589218125369,0.00002576194856374059,0.3059352501701153,0.011090356847773819,9.05
6.485589218125369,0.00002576194856374059,0.3055492178927136,0.011090356847773819,9.05
6.485589218125369,0.00002576194856374059,0.3048071001495714,0.011090356847773819,9.05
6.485589218125369,0.00002576194856374059,0.29315274900291116,0.01070816932337948,9.05
6.485589218125369,0.00002576194856374059,0.28120282628738097,0.01070816932337948,9.05
6.485589218125369,0.00002576194856374059,0.281198314576244,0.01070816932337948,9.05
6.485589218125369,0.00002576194856374059,0.2811979294003049,0.01070816932337948,9.05
6.485589210200374,0.00002576194856374059,0.2807374497858211,0.010707203101901541,9.05
6.485589210200374,0.00002576194856374059,0.2807024322988002,0.010707203101901541,9.05
6.25852351034564,0.00002576194856374059,0.27835993130647696,0.010707203101901541,9.05
6.25852351034564,0.00002576194856374059,0.27834939002632725,0.010707169353167956,9.05
6.258523033033725,0.00002576194856374059,0.2783025918759449,0.010707169353167956,9.05
6.258523033033725,0.00002576194856374059,0.27801969310162805,0.010568728402233774,9.05
6.258523033033725,0.00002576194856374059,0.27622693445830465,0.00967717084472497,9.05
6.258523033033725,0.00002576194856374059,0.2761888523485572,0.009675363165797535,9.05
6.258523033033725,0.00002576194856374059,0.26023581566214715,0.009675363165797535,9.05
6.258523033033725,0.00002576194856374059,0.24811553433209155,0.009675363165797535,9.05
6.258523033033725,0.00002576183021574252,0.2479538336341409,0.009432080858630343,9.05
6.258523033033725,0.00002576183021574252,0.24366146494122973,0.009432080858630343,9.05
6.258523033033725,0.00002576183021574252,0.24356648657620553,0.009432080858630343,9.05
6.258523033033725,0.000025760560220078332,0.2435645575520641,0.009432080858630343,9.05
6.258523033033725,0.000025760560220078332,0.2428848902886341,0.009141197990686578,9.05
6.258020366598657,0.000025760560220078332,0.24282454144327859,0.009141197990686578,9.05
6.258020366598657,0.000025760560220078332,0.24282348255948932,0.009141197990686578,9.05
6.258020366598657,0.000025760560220078332,0.2427476382509883,0.009118808097696274,9.05
6.258020366598657,0.000025760560220078332,0.24248741033176885,0.009118769653071013,9.05
6.258020366598657,0.000025760560220078332,0.2415222578939131,0.009118769653071013,9.05
6.258020366598657,0.000025760560220078332,0.24152182756189064,0.009118769653071013,9.05
6.258020366598657,0.000025760560220078332,0.23938802920243007,0.009118769653071013,9.05
6.258020366598657,0.000025760560220078332,0.23505662496986587,0.009118769653071013,9.05
6.258020366598657,0.000025760560220078332,0.23094139793624208,0.009118769653071013,9.05
6.258020366598657,0.000025760560220078332,0.23093916551974758,0.00909423891971528,9.05
6.258020366598657,0.000025760560220078332,0.23093848950448545,0.00909423891971528,9.05
6.258020366598657,0.000025760560220078332,0.23092801165597393,0.00909423891971528,9.05
6.258020366598657,0.000025760560220078332,0.230913638580447,0.009083735860656361,9.05
6.2579939245310925,0.000025760560220078332,0.23087608814308966,0.009083735860656361,9.05
6.2579939245310925,0.000025760560220078332,0.23085536977031437,0.009071352831654167,9.05
6.2579939245310925,0.000025760560220078332,0.23064245868773697,0.008957035704213467,9.05
6.2579939245310925,0.000025760560220078332,0.23064163282217237,0.008929269707550702,9.05
6.2579939245310925,0.000025760560220078332,0.2299749811194408,0.008929269707550702,9.05
6.2579939245310925,0.000025760560220078332,0.20711975380048217,0.008929269707550702,9.05
6.2579939245310925,0.000025760560220078332,0.2071096550163986,0.008929269707550702,9.05
6.2579939245310925,0.000025760560220078332,0.20710952871092103,0.008929269707550702,9.05
6.2579939245310925,0.000025760560220078332,0.20279924654453452,0.008929269707550702,9.05
6.2579939245310925,0.000025760560220078332,0.20186455691138122,0.008321768895257264,9.05
6.2579939245310925,0.000025760560220078332,0.20186453488398115,0.008321768895257264,9.05
6.2579939245310925,0.000025760560220078332,0.2003647802817443,0.008321768895257264,9.05
6.2579939245310925,0.000025760560220078332,0.2001708680715842,0.008321768895257264,9.05
6.2579939245310925,0.000025760560220078332,0.20015303708367355,0.008321768895257264,9.05
6.2579939245310925,0.000025760560220078332,0.20003991746942573,0.007372406979413881,9.05
6.2579939245310925,0.000025760560220078332,0.19985214517692157,0.007372406979413881,9.05
6.2579939245310925,0.000025760560220078332,0.19983372745895508,0.007372406979413881,9.05
6.2579939245310925,0.000025760560220078332,0.19983064647980428,0.007372406979413881,9.05
6.2579939245310925,0.000025760560220078332,0.19912038540048002,0.007372406979413881,9.05
6.2579939245310925,0.000025760560220078332,0.19905161891828585,0.006877472972121268,9.05
6.2579939245310925,0.000025760560220078332,0.1989203217698514,0.006877471624761711,9.05
6.257959842864466,0.000025760560220078332,0.19878801453878964,0.006877471624761711,9.05
6.257959842864466,0.000025760560220078332,0.1974621581731992,0.006877471624761711,9.05
6.257959842864466,0.000025760560220078332,0.1972904198107517,0.006608047142833584,9.05
6.257959842864466,0.000025760560220078332,0.19678641715526282,0.006459803827624455,9.05
3.6131589412480025,0.000025760560220078332,0.17033840806967077,0.006459803827624455,9.05
3.6131589412480025,0.000025760560220078332,0.17033438020151265,0.006459803827624455,9.05
3.6131589412480025,0.000025760560220078332,0.16728042904484255,0.006459803827624455,9.05
3.6131589412480025,0.000025760560220078332,0.1672797251984241,0.006459803827624455,9.05
3.6131589412480025,0.000025760560220078332,0.16678845291549352,0.006158673586924124,9.05
3.6131589412480025,0.000025760560220078332,0.16638708044763803,0.005787639935533662,9.05
3.6131589412480025,0.000025760560220078332,0.16638666024775034,0.005786829463431786,9.05
3.6131589412480025,0.000025760560220078332,0.1662579506071586,0.005373456446250202,9.05
3.6131589412480025,0.000025760560220078332,0.16625441286057935,0.005373456446250202,9.05
3.6131589412480025,0.000025760560220078332,0.16595440235070213,0.0047894467671767416,9.05
3.6131589412480025,0.00002576055385361542,0.1659518418840264,0.0047894467671767416,9.05
3.6131589412480025,0.00002576055385361542,0.1659511467142613,0.0047894467671767416,9.05
3.6131589412480025,0.00002576055385361542,0.16594927677993268,0.0047894467671767416,9.05
3.612728353918783,0.00002576055385361542,0.16324799939650347,0.004789445791629987,9.05
3.612728353918783,0.00002576055385361542,0.16314282139378178,0.004510405263545181,9.05
3.612728353918783,0.00002576055385361542,0.1631257842124137,0.004304897999702462,9.05
3.612728353918783,0.00002576055385361542,0.1630947857016099,0.004304897999702462,9.05
3.612728353918783,0.00002576055385361542,0.16296876112019845,0.004304897999702462,9.05
3.612728353918783,0.00002576055385361542,0.1629109217487087,0.004194989711777453,9.05
3.612728353918783,0.00002576055385361542,0.16211920616026987,0.004181465500835202,9.05
3.612728353918783,0.000025759996105989558,0.16199464232372862,0.004181465500835202,9.05
2.996751206074009,0.000025759996105989558,0.15570414576460168,0.00418024853740917,9.05
2.996751206074009,0.000025759996105989558,0.1556748925911495,0.004075428431576711,9.05
2.996751206074009,0.000025759996105989558,0.15533787799192283,0.004075428431576711,9.05
2.996751206074009,0.000025759996105989558,0.15533178350018034,0.003954253615688685,9.05
2.996751206074009,0.000025759996105989558,0.15532128107615903,0.003954253615688685,9.05
2.996751206074009,0.000025759996105989558,0.15520526352106573,0.003954253615688685,9.05
2.996751206074009,0.000025757781259017065,0.15515386494548808,0.003954253615688685,9.05
2.996751206074009,0.000025757781259017065,0.15497041845027637,0.003954253615688685,9.05
2.996751206074009,0.000025757781259017065,0.15496820439030898,0.003954253615688685,9.05
2.996751206074009,0.000025757781259017065,0.15418574809824348,0.003954253615688685,9.05
2.996751206074009,0.000025757781259017065,0.1537745966413388,0.003954253615688685,9.05
2.996751206074009,0.000025757781259017065,0.1537743297448435,0.003954253615688685,9.05
2.996751206074009,0.000025757781259017065,0.1495707768677812,0.003954253615688685,9.05
2.996751206074009,0.000025757781259017065,0.14845904839988974,0.0036139806023811616,9.05
2.996751206074009,0.00002574344580352772,0.14809275999947885,0.003171026599375182,9.05
2.996751206074009,0.00002574172833647026,0.14648071924655595,0.0029997131344430272,9.05
2.996751206074009,0.00002574172833647026,0.14646233467497383,0.0029997131344430272,9.05
2.996751206074009,0.00002574172833647026,0.1438640467975381,0.0029997131344430272,9.05
2.996751206074009,0.00002574172833647026,0.14313834158823055,0.002999527427107296,9.05
2.996751206074009,0.00002574172833647026,0.14313626446375224,0.002999527427107296,9.05
2.996751206074009,0.00002574169491253997,0.14309263873746658,0.002901657081849862,9.05
2.996751206074009,0.00002574169491253997,0.14288196718920176,0.002895960912553619,9.05
2.996751206074009,0.00002574169491253997,0.1428731854109765,0.002895960912553619,9.05
2.976751841121086,0.00002574169491253997,0.14262453101673372,0.002824682756624952,9.05
2.976751841121086,0.00002574169491253997,0.14261571335604686,0.002824682756624952,9.05
2.976750836920928,0.00002574169491253997,0.14243440297512508,0.002824682756624952,9.05
2.976750836920928,0.00002574169491253997,0.142388476737043,0.002824682756624952,9.05
2.976750836920928,0.00002574169491253997,0.1423625407765212,0.002824682756624952,9.05
2.976405354253302,0.00002574169491253997,0.1423353669820517,0.002824682756624952,9.05
2.976405354253302,0.000025729744038471836,0.14233534607036405,0.002824682756624952,9.05
2.976405354253302,0.000025727147885845625,0.14233520526297752,0.002824682756624952,9.05
2.976405354253302,0.000025727147885845625,0.1423218580378375,0.002824682756624952,9.05
2.976405354253302,0.000025727147885845625,0.14187405738969575,0.002824682756624952,9.05
2.976405354253302,0.000025726956664584577,0.1417187758567434,0.002824682756624952,9.05
2.95575023380502,0.000025726956664584577,0.14150418579158555,0.002824682756624952,9.05
2.95575023380502,0.000025726956664584577,0.1411177688788996,0.0027019676209647514,9.05
2.946667639695306,0.000025726956664584577,0.14095479582418194,0.0024621325446787523,9.05
2.946667639695306,0.000025726956664584577,0.1409520995353637,0.0024621325446787523,9.05
2.946667639695306,0.000025726956664584577,0.14094933667290546,0.0024621325446787523,9.05
2.946667639695306,0.000025726956664584577,0.14094650719653146,0.0024621325446787523,9.05
2.946667639695306,0.000025726956664584577,0.13580367578411823,0.0024621325446787523,9.05
2.946667639695306,0.000025726956664584577,0.13580065591163476,0.0024331182043511035,9.05
2.946667639695306,0.000025726956664584577,0.13571848597952452,0.0023639248076392505,9.05
2.946667639695306,0.000025726956664584577,0.13569171961349866,0.0020651834187788154,9.05
2.946667639695306,0.000025726956664584577,0.13553043947835136,0.0020618541058183837,9.05
2.946667639695306,0.000025726956664584577,0.13552327299434297,0.0020618541058183837,9.05
2.946667639695306,0.000025726956664584577,0.12397797540774605,0.0018996718034713922,9.05
2.946667639695306,0.000025726956664584577,0.12396050241049011,0.0017452343064405795,9.05
2.946667639695306,0.000025726956664584577,0.12395667911997635,0.0017452343064405795,9.05
2.946667639695306,0.000025726956664584577,0.12165758409114233,0.0017452343064405795,9.05
2.946667639695306,0.000025726956664584577,0.12158191264350193,0.0017452343064405795,9.05
2.9466617908759645,0.000025726956664584577,0.12147018512958767,0.0017452343064405795,9.05
2.9466617908759645,0.000025726956664584577,0.12145953133408398,0.0017452343064405795,9.05
2.9466617908759645,0.000025726956664584577,0.12145623384031295,0.0017452192009272949,9.05
2.9466617908759645,0.000025726956664584577,0.12145170200510393,0.0017452192009272949,9.05
2.9466617908759645,0.000025726956664584577,0.10611728044479833,0.0015426062122401163,9.05
2.9466617908759645,0.000025726956664584577,0.10584646834203454,0.0015426062122401163,9.05
2.9466617908759645,0.000025726956664584577,0.1058464196074931,0.0015426062122401163,9.05
2.9466617908759645,0.000025726956664584577,0.10573578156749136,0.0014820581174035397,9.05
2.9466617908759645,0.000025726956664584577,0.10570550160786751,0.0014820581174035397,9.05
2.8954233774970817,0.000025726956664584577,0.10518675354137941,0.0014820581174035397,9.05
2.8954233774970817,0.000025726956664584577,0.10517021205746233,0.0014820581174035397,9.05
2.895423082100592,0.000025726956664584577,0.10517007083891258,0.0014820581174035397,9.05
2.895423082100592,0.00002571156301200972,0.09661333943328372,0.0014820581174035397,9.05
2.8953826602022446,0.00002571156301200972,0.09661290965120088,0.0014820581174035397,9.05
2.8953826602022446,0.00002571156301200972,0.09620254941932785,0.0014820581174035397,9.05
2.8953826602022446,0.00002571156301200972,0.096189784425153,0.0014820581174035397,9.05
2.8953826602022446,0.00002571156301200972,0.09618532690773236,0.0014820581174035397,9.05
2.8953826602022446,0.000025473071218584664,0.09616219137142706,0.0014820581174035397,9.05
2.8953826602022446,0.000025473071218584664,0.09613384109005096,0.0014820581174035397,9.05
2.8953826602022446,0.000025473071218584664,0.09610243998356509,0.0014820581174035397,9.05
2.895382515649999,0.000025473071218584664,0.08861783520468179,0.0014820581174035397,9.05
2.895382515649999,0.000025473071218584664,0.08858322676170247,0.001481825985422347,9.05
2.895382515649999,0.000025473071218584664,0.08745368028131907,0.001481825985422347,9.05
2.895382515649999,0.000025473071218584664,0.08740643296952384,0.001481825985422347,9.05
2.895382515649999,0.000025473071218584664,0.0849510417821955,0.001481825985422347,9.05
2.895382515649999,0.000025473068831161072,0.08486689961998764,0.0014260306338087503,9.05
2.895382515649999,0.000025473068831161072,0.08486648712299939,0.0014260306338087503,9.05
2.8028666747233046,0.000025473068831161072,0.07720613225189368,0.0014260306338087503,9.05
2.8028666747233046,0.000025473068831161072,0.07719598438845424,0.0014260306338087503,9.05
2.8028666747233046,0.000025473068831161072,0.07688993697296836,0.0014260306338087503,9.05
2.8028666747233046,0.000025473068831161072,0.07673313067357412,0.0014260306338087503,9.05
2.8028666747233046,0.000025473068831161072,0.07628650493173836,0.0014260284185638739,9.05
2.8028666747233046,0.000025473068831161072,0.07628089730762667,0.0014113878796138124,9.05
2.8028666747233046,0.00002547257997775887,0.07621925428587246,0.0012711888253988946,9.05
2.8028666747233046,0.00002547257997775887,0.07616134629733323,0.001154383050504748,9.05
2.8028666747233046,0.00002547257997775887,0.07605887054075651,0.0010862220649414667,9.05
2.8028666747233046,0.00002547257997775887,0.07605497109231124,0.0010862220649414667,9.05
2.8028666747233046,0.00002547257997775887,0.07605260199488498,0.0010862220649414667,9.05
2.8028666747233046,0.00002547257997775887,0.07604574635398535,0.0010862220649414667,9.05
2.8028666747233046,0.00002547257997775887,0.07604272839268447,0.0010861995223763188,9.05
2.802818951175368,0.00002547257997775887,0.07604225100371878,0.0010861995223763188,9.05
2.802818951175368,0.00002547257997775887,0.076038509814191,0.0010861995223763188,9.05
2.802818951175368,0.00002547257997775887,0.07603846810894765,0.0010861995223763188,9.05
2.802818951175368,0.00002547257997775887,0.07594540450327145,0.0010861995223763188,9.05
2.802818951175368,0.00002547257997775887,0.07584852869617294,0.001004528774217306,9.05
2.8028147527903684,0.00002547257997775887,0.0756675235449154,0.0009647236186083319,9.05
2.8028147527903684,0.00002547257997775887,0.07560172775135697,0.000948557115634685,9.05
2.8028147527903684,0.00002545753511640214,0.07475011146384986,0.000948557115634685,9.05
2.8028147527903684,0.00002545753511640214,0.07434209600484337,0.000948557115634685,9.05
2.8028147527903684,0.00002545753511640214,0.07433840053583708,0.000948557115634685,9.05
2.8028147527903684,0.00002545753511640214,0.07418196935965966,0.000948557115634685,9.05
2.8028147527903684,0.00002545753511640214,0.07417770324236017,0.000948557115634685,9.05
2.8028147527903684,0.00002545753511640214,0.07417758907836401,0.000948557115634685,9.05
2.8028147527903684,0.00002545753511640214,0.07416690973291679,0.000948557115634685,9.05
2.8028147527903684,0.00002545753511640214,0.07412216082516011,0.000948557115634685,9.05
2.8028147527903684,0.00002545753511640214,0.07412044464043334,0.0009454419340499953,9.05
2.8028147527903684,0.000025457435299358622,0.07400808190472276,0.0009454419340499953,9.05
2.775745406201281,0.000025457435299358622,0.07373347272130445,0.0009454419340499953,9.05
2.7735236746925693,0.000025455257173234713,0.07360857731852775,0.0009454419340499953,9.05
2.7735236746925693,0.000025455257173234713,0.07360536927739644,0.0009453445911731251,9.05
2.7735236746925693,0.000025455257173234713,0.07359324364352006,0.0009453445911731251,9.05
2.725341206674443,0.000025455257173234713,0.07299352425013808,0.0009453445911731251,9.05
2.725341206674443,0.000025455257173234713,0.07299351101143657,0.0009453445911731251,9.05
2.725341206674443,0.000025455257173234713,0.07297461822161722,0.0009453445911731251,9.05
2.725341206674443,0.000025455257173234713,0.07295535939983211,0.000915279653440848,9.05
2.725341206674443,0.000025455257173234713,0.07295433160575612,0.000915279653440848,9.05
2.725341206674443,0.000025455257173234713,0.07295049620010786,0.000915279653440848,9.05
2.725341206674443,0.000025455257173234713,0.07294999063706996,0.000915279653440848,9.05
2.725341206674443,0.000025455257173234713,0.07294905798272225,0.000915279653440848,9.05
2.725341206674443,0.000025455257173234713,0.06957097734207877,0.000915279653440848,9.05
2.725341206674443,0.000025455257173234713,0.06951315057348324,0.0008503431890858337,9.05
2.725341206674443,0.000025455257173234713,0.06945992449746541,0.000811953604397786,9.05
2.725341206674443,0.000025455257173234713,0.06942670660261797,0.000811953604397786,9.05
2.725341206674443,0.000025455257173234713,0.06941365357326618,0.000811953604397786,9.05
2.725341206674443,0.000025455257173234713,0.06941303335893281,0.000811953604397786,9.05
2.725341206674443,0.000025455257173234713,0.0694106282946973,0.000811953604397786,9.05
2.725341206674443,0.000025455257173234713,0.06941008582346171,0.000811953604397786,9.05
2.7253350718488036,0.000025455257173234713,0.06936308641125948,0.000811953604397786,9.05
2.7253350718488036,0.000025455257173234713,0.06811738189555512,0.000811953604397786,9.05
2.7253350718488036,0.000025455257173234713,0.06810399079157832,0.000811953604397786,9.05
2.7253350718488036,0.000025455257173234713,0.0680167489249186,0.000811953604397786,9.05
2.7253350718488036,0.000025455257173234713,0.06801080410785858,0.0008116708248735449,9.05
2.7253336077872063,0.000025455257173234713,0.06612545098354417,0.0008116708248735449,9.05
2.724074698397544,0.000025455257173234713,0.0661023253989515,0.0008116708248735449,9.05
2.724074698397544,0.000025455257173234713,0.06610128420095521,0.0008116708248735449,9.05
2.724074698397544,0.000025455257173234713,0.066100015357124,0.0008116708248735449,9.05
2.724074698397544,0.000025455257173234713,0.06609671878052267,0.0008116708248735449,9.05
2.724074698397544,0.000025455257173234713,0.06609547907673459,0.0008116708248735449,9.05
2.677824772353233,0.000025455257173234713,0.06561654015144427,0.0008116708248735449,9.05
2.677824772353233,0.000025455257173234713,0.06557913824258776,0.0007797711503485516,9.05
2.6777690826327216,0.000025455257173234713,0.065563414222554,0.0007091860737205025,9.05
2.6777690826327216,0.000025455257173234713,0.06551369327460294,0.0007091860737205025,9.05
2.6777690826327216,0.000025455257173234713,0.06551307926732534,0.0006790550509094828,9.05
2.677769026589658,0.000025455257173234713,0.06550905776241052,0.0006790550509094828,9.05
2.677769026589658,0.000025455257173234713,0.06550794164437207,0.0006790550509094828,9.05
2.675775437388438,0.000025455257173234713,0.06548800014289896,0.0006790550509094828,9.05
2.675775437388438,0.000025455257173234713,0.0654000234471846,0.0006790550509094828,9.05
2.675775437388438,0.000025455257173234713,0.06539315977407682,0.0006790550509094828,9.05
2.675775437388438,0.000025455257173234713,0.06536616994718202,0.0006790550509094828,9.05
2.675775437388438,0.000025455257173234713,0.06530477405026318,0.0006790550509094828,9.05
2.675775437388438,0.000025455257173234713,0.06525639752140364,0.0005866134021061953,9.05
2.675775437388438,0.000025455257173234713,0.06412534773591005,0.0005866134021061953,9.05
2.675775437388438,0.000025455257173234713,0.06412519694998992,0.0005866134021061953,9.05
2.6756760004184343,0.000025455257173234713,0.06412372619366352,0.0005866134021061953,9.05
2.6756760004184343,0.000025455257173234713,0.06393481310199718,0.0005866134021061953,9.05
2.6756760004184343,0.000025455257173234713,0.06393304787222177,0.0005866134021061953,9.05
2.6756760004184343,0.000025455257173234713,0.0639287658903504,0.0005866127128228982,9.05
2.6756187106012703,0.000025455257173234713,0.0639265495670645,0.0005866127128228982,9.05
2.6756187106012703,0.000025455257173234713,0.0636934071201631,0.0005866127128228982,9.05
2.6756187106012703,0.000025455257173234713,0.06366246357000477,0.0005866127128228982,9.05
2.6756187106012703,0.000025455257173234713,0.06366237679072924,0.0005866127128228982,9.05
2.6756187106012703,0.000025455257173234713,0.06366053037486949,0.0005866127128228982,9.05
2.6756187106012703,0.000025455257173234713,0.06364821174654821,0.0005866127128228982,9.05
2.6756187106012703,0.000025455257173234713,0.06361562540352111,0.0005866127128228982,9.05
2.6756187106012703,0.000025455257173234713,0.06354326243460719,0.0005866127128228982,9.05
2.6756187106012703,0.000025455257173234713,0.06354268130104743,0.0005866127128228982,9.05
2.6756187106012703,0.000025455257173234713,0.06353466612879288,0.0005866127128228982,9.05
2.6756187106012703,0.000025455257173234713,0.06317815814645769,0.0005866127128228982,9.05
2.6756187106012703,0.000025455257173234713,0.06307070467613471,0.0005866127128228982,9.05
2.6756187106012703,0.00002545518100305344,0.06247113486605258,0.000586346245711411,9.05
2.6756187106012703,0.00002545518100305344,0.06244271108064254,0.000586346245711411,9.05
2.674961021049512,0.00002545518100305344,0.06243613305599979,0.000586346245711411,9.05
2.674961021049512,0.00002545518100305344,0.0624333808845131,0.000586346245711411,9.05
2.674961021049512,0.00002545518100305344,0.062395244207988296,0.000586346245711411,9.05
2.674961021049512,0.00002545518100305344,0.06239474520760155,0.000586346245711411,9.05
2.674961021049512,0.00002545518100305344,0.062394252764531755,0.000586346245711411,9.05
2.6748927434146026,0.00002545518100305344,0.06233841648154794,0.000586346245711411,9.05
2.6748927434146026,0.00002545518100305344,0.06230300268715041,0.0005339661504990545,9.05
2.6748927434146026,0.00002545518100305344,0.06115809170720354,0.0005339661504990545,9.05
2.6748927434146026,0.00002545518100305344,0.06114222921397186,0.0005339605444305562,9.05
2.6748927434146026,0.00002545518100305344,0.06110436465256839,0.0005339605444305562,9.05
2.6748927434146026,0.00002545518100305344,0.06086071742027457,0.0005339605444305562,9.05
2.6748927434146026,0.00002545518100305344,0.0602203903607915,0.0005339605444305562,9.05
2.674890862965526,0.00002545518100305344,0.060123640134991094,0.0005339605444305562,9.05
2.674890862965526,0.00002545518100305344,0.06007642884277402,0.0005339605444305562,9.05
2.674890862965526,0.00002545518100305344,0.06007556113754504,0.0005339605444305562,9.05
2.674890862965526,0.00002545518100305344,0.06007493454242535,0.0005296847699582941,9.05
2.6231875946568834,0.00002545518100305344,0.059556065473622084,0.0005296847699582941,9.05
2.6231875442961154,0.00002545518100305344,0.05955576058696352,0.0005296847699582941,9.05
2.6231875442961154,0.00002545518100305344,0.05946285679777475,0.0005296847699582941,9.05
2.6231875442961154,0.00002545518100305344,0.05945689387850848,0.0005296847699582941,9.05
2.6231875442961154,0.00002545518100305344,0.05937623140892129,0.00044623910559948854,9.05
2.6231875442961154,0.00002545518100305344,0.05936112194361954,0.0003830490041423218,9.05
2.6231875442961154,0.00002545518100305344,0.059360972303915106,0.0003830490041423218,9.05
2.6231704838010046,0.00002545518100305344,0.05896465027739737,0.0003829266372576967,9.05
2.6231704838010046,0.00002545518100305344,0.057453956371933824,0.0003829266372576967,9.05
2.6231704838010046,0.00002545518100305344,0.057453715899494,0.0003829266372576967,9.05
2.6231523608794305,0.00002545518100305344,0.05745226748822688,0.0003829266372576967,9.05
2.6231523608794305,0.00002545518100305344,0.057447516941978166,0.0003829266372576967,9.05
2.6231523608794305,0.00002545518100305344,0.057445097825738006,0.0003829266372576967,9.05
2.6231523608794305,0.00002545518100305344,0.057415000371970566,0.0003829266372576967,9.05
2.6231523608794305,0.00002545518100305344,0.05736768877468648,0.0003829266372576967,9.05
2.6231523608794305,0.00002545518100305344,0.05736586409018287,0.0003829266372576967,9.05
2.6231523608794305,0.00002545518100305344,0.05731619515155899,0.0003829266372576967,9.05
2.6231523608794305,0.00002545518100305344,0.057309757363793776,0.0003829266372576967,9.05
2.6231523608794305,0.00002545518100305344,0.05730971957188899,0.0003829266372576967,9.05
2.6231523608794305,0.00002545518100305344,0.057309518969203735,0.0003829266372576967,9.05
2.6231424245579547,0.00002545518100305344,0.057276089252345626,0.0003825501612482185,9.05
2.6231424245579547,0.00002545518100305344,0.05726624722096176,0.0003825501612482185,9.05
2.6231424245579547,0.00002545518100305344,0.05725306401740795,0.0003684473145995071,9.05
2.6231424245579547,0.00002545518100305344,0.05725251584992293,0.0003684473145995071,9.05
2.6231424245579547,0.00002545518100305344,0.05725251577440872,0.0003684473145995071,9.05
2.6231424245579547,0.00002545518100305344,0.057252252915582176,0.0003653733729152009,9.05
2.6231424245579547,0.00002545518100305344,0.057233905188478505,0.00036429512681479537,9.05
2.6231424245579547,0.00002545518100305344,0.05723384983949359,0.00036429512681479537,9.05
2.615099569424501,0.00002545518100305344,0.05714993453684997,0.00032436395457580147,9.05
2.615099569424501,0.00002545518100305344,0.05705422544955127,0.00031234608246677453,9.05
1.1727089333767253,0.00002545518100305344,0.031312820020854136,0.00031216102593134565,9.05
1.1727089333767253,0.00002545518100305344,0.03131190157263972,0.000295626580964381,9.05
1.1727089333767253,0.00002545518100305344,0.03130818135898949,0.000295626580964381,9.05
1.1727089333767253,0.00002545518100305344,0.03130764817053091,0.000295626580964381,9.05
1.1727089333767253,0.00002545518100305344,0.03130755999734561,0.000295626580964381,9.05
1.1727089333767253,0.00002545518100305344,0.031307549673813356,0.0002956160168423594,9.05
1.1716404910293932,0.00002545518100305344,0.03128093793699122,0.0002877467292137226,9.05
1.1716404910293932,0.00002545518100305344,0.0312809370197283,0.00028774667094921824,9.05
1.1631807303233472,0.00002545518100305344,0.03119473177102918,0.00028774667094921824,9.05
1.1631807303233472,0.00002545518100305344,0.029455904277427863,0.00028774667094921824,9.05
1.1631807303233472,0.00002545518100305344,0.029450342789994012,0.0002785570302421547,9.05
1.1631807303233472,0.00002545518100305344,0.02944739218042514,0.0002667395135631523,9.05
1.1631807303233472,0.00002545518100305344,0.0292939953601865,0.0002667395135631523,9.05
1.1631807303233472,0.00002545518100305344,0.029292812281966008,0.0002667395135631523,9.05
1.1631807303233472,0.00002545518100305344,0.029292459003643218,0.00026670719097410256,9.05
1.1631807303233472,0.00002545518100305344,0.029289848365049238,0.0002567601935083985,9.05
1.1631807303233472,0.00002545518100305344,0.02928177599876335,0.0002567601935083985,9.05
1.1631807303233472,0.00002545518100305344,0.029161297539365024,0.00023251119159795053,9.05
1.1631807303233472,0.00002545518100305344,0.029161287057042955,0.00023250700604648955,9.05
1.1631807303233472,0.00002545518100305344,0.029158352081336717,0.00023250700604648955,9.05
1.1631807303233472,0.00002545517747876147,0.029158105689851936,0.00023250700604648955,9.05
1.1631807303233472,0.00002545517747876147,0.029098821125445512,0.00023250700604648955,9.05
1.1631807303233472,0.00002545517747876147,0.029091280032647545,0.00019012019981801132,9.05
1.1631807303233472,0.00002545517747876147,0.029091079462696144,0.00019012019981801132,9.05
1.163165296793295,0.00002545517747876147,0.029085074067800178,0.00019012019981801132,9.05
1.163165296793295,0.00002545517747876147,0.028600499255927617,0.00019012019981801132,9.05
1.163165296793295,0.00002545517747876147,0.028576988972261005,0.0001648918201340166,9.05
1.163165296793295,0.00002545517747876147,0.028576975764274266,0.0001648918201340166,9.05
1.163157640833333,0.00002545517747876147,0.02857404026627819,0.0001648918201340166,9.05
1.163157640833333,0.00002545517747876147,0.02857382528681228,0.0001648918201340166,9.05
1.163157640833333,0.00002545517747876147,0.02857131548091047,0.0001648918201340166,9.05
1.163157640833333,0.00002545517747876147,0.02857110213100782,0.0001648918201340166,9.05
1.163157640833333,0.00002545517747876147,0.028249693336347262,0.0001648918201340166,9.05
1.163157640833333,0.000025455173840782663,0.028245552604298608,0.0001648918201340166,9.05
1.163157640833333,0.000025455173840782663,0.02824256067694023,0.0001648918201340166,9.05
1.163157640833333,0.000025455173840782663,0.028214906101446786,0.0001648918201340166,9.05
1.163157640833333,0.000025455173840782663,0.02821050276750839,0.0001648918201340166,9.05
1.163157640833333,0.000025455173840782663,0.028209623051553764,0.0001648918201340166,9.05
1.163157640833333,0.000025455173840782663,0.028209004763982647,0.0001648918201340166,9.05
1.163157640833333,0.000025455155650888628,0.02820863711981133,0.0001648918201340166,9.05
1.163157640833333,0.000025455155650888628,0.02820532507087364,0.0001648918201340166,9.05
1.1631576401498478,0.000025455155650888628,0.02820319276680493,0.00015382361613092144,9.05
1.1631576401498478,0.000025455155650888628,0.02815946527230949,0.00015382361613092144,9.05
1.1631576401498478,0.000025455155650888628,0.02815946272471365,0.00015382361613092144,9.05
1.1631576401498478,0.000025455155650888628,0.02809094057569382,0.00013233027419801147,9.05
1.1631576401498478,0.000025455155650888628,0.028079438635763836,0.000118384731081278,9.05
1.1631576401498478,0.000025455155650888628,0.027128878928172073,0.00011421306089687278,9.05
1.1631576401498478,0.000025455155650888628,0.027123206642278318,0.00011421306089687278,9.05
1.1631576401498478,0.000025455155650888628,0.027106455763847636,0.00011421306089687278,9.05
1.1631576401498478,0.000025455155650888628,0.02384273913270249,0.00011421306089687278,9.05
1.1631576401498478,0.000025455155650888628,0.023747778351615807,0.00011421306089687278,9.05
1.1631576401498478,0.000025455155650888628,0.02374605000907195,0.00011421306089687278,9.05
1.1631576401498478,0.000025455155650888628,0.023573094945726326,0.00011421306089687278,9.05
1.1631576401498478,0.000025455155650888628,0.023497212822544498,0.00011421306089687278,9.05
1.1631576401498478,0.000025455155650888628,0.02349689299852912,0.00011421306089687278,9.05
1.1631576401498478,0.000025455155650888628,0.02346601269311577,0.00011421306089687278,9.05
1.1631576401498478,0.000025455155650888628,0.0233754660293107,0.00011386788634126788,9.05
1.1631576401498478,0.000025455155650888628,0.023349885930770142,0.00011386782068711909,9.05
1.1631576401498478,0.000025455155650888628,0.023344782735446188,0.00011386782068711909,9.05
1.1541016503758783,0.000025455155650888628,0.023221555802110744,0.00011386782068711909,9.05
1.1541016503758783,0.000025455155650888628,0.02321643305954467,0.00011386782068711909,9.05
1.1541016503758783,0.000025455155650888628,0.023144557812547647,0.00011386782068711909,9.05
1.1541016503758783,0.000025455155650888628,0.02314452060960775,0.00011354494239412816,9.05
1.1541015896862064,0.000025455155650888628,0.02314197929023294,0.00011354494239412816,9.05
1.1541015896862064,0.000025455155650888628,0.023139965028954067,0.00011354494239412816,9.05
1.1541015896862064,0.000025455155650888628,0.023139141640118623,0.00011354494239412816,9.05
1.1541015896862064,0.000025455155650888628,0.023131308505306834,0.00011354494239412816,9.05
1.1541015896862064,0.000025455155650888628,0.02312821401887959,0.00011354494239412816,9.05
1.1541015896862064,0.000025455155650888628,0.023099301046138408,0.00011354494239412816,9.05
1.1541015896862064,0.000025455155650888628,0.023086486991107904,0.00011354494239412816,9.05
1.1541015896862064,0.000025455155650888628,0.02306644624020919,0.00011354494239412816,9.05
1.1541015896862064,0.000025455155650888628,0.023063021458184493,0.00011354494239412816,9.05
1.1541015896862064,0.000025455155650888628,0.023050572860699958,0.00011354494239412816,9.05
1.1541015896862064,0.000025455155650888628,0.023047468012850913,0.00011354494239412816,9.05
1.1541015896862064,0.000025455155650888628,0.023045991406277153,0.00011354494239412816,9.05
1.1541015896862064,0.000025455155650888628,0.023045689369097316,0.00011354494239412816,9.05
1.1541015896862064,0.000025455155650888628,0.022472485954530157,0.00010494075803535452,9.05
1.1541015896862064,0.000025455155650888628,0.022472382250668943,0.00010454201463971913,9.05
1.1541015896862064,0.000025455155650888628,0.02109378747224582,0.00010454201463971913,9.05
1.1541015896862064,0.000025455155650888628,0.0210936574140203,0.00009815751633368563,9.05
1.1541015896862064,0.000025455155650888628,0.021093143124643346,0.00009815751633368563,9.05
1.1541015896862064,0.000025455155650888628,0.020074114103194915,0.00009815751633368563,9.05
1.1541015896862064,0.000025455155650888628,0.019483013249000578,0.00009815751633368563,9.05
1.1541015896862064,0.000025455155650888628,0.01948264383195465,0.00009815751633368563,9.05
1.1430312758699301,0.000025455155650888628,0.019371750643404084,0.00009815751633368563,9.05
1.1430312758699301,0.000025455155650888628,0.01936988572157702,0.00009815751633368563,9.05
1.1430312758699301,0.000025455155650888628,0.01936988175862325,0.00009815751633368563,9.05
1.1430312758699301,0.000025455155650888628,0.019362078742350377,0.00009815751633368563,9.05
1.1430312758699301,0.000025455155650888628,0.019357024675642834,0.00009815751633368563,9.05
1.1430312758699301,0.000025455155650888628,0.019356993912778078,0.00009815751633368563,9.05
1.1430312758699301,0.000025455155650888628,0.01932472148371062,0.00009815751633368563,9.05
1.1430312758699301,0.000025455155650888628,0.019322870085309207,0.00009815751633368563,9.05
1.1430312758699301,0.000025455155650888628,0.019257456019540767,0.00009815751633368563,9.05
1.1430312758699301,0.000025455155650888628,0.019030008647124532,0.00009815751633368563,9.05
1.1430312758699301,0.000025455155650888628,0.019015753306522356,0.00009815751633368563,9.05
1.1430312758699301,0.000025455155650888628,0.019015688756483087,0.00009815751633368563,9.05
1.1430312758699301,0.000025455155650888628,0.018998875091489252,0.00009815751633368563,9.05
1.1430312758699301,0.000025455155650888628,0.018998816248250706,0.00009815751633368563,9.05
1.1430312758699301,0.000025455155650888628,0.01899794777975444,0.00009815751633368563,9.05
1.1430312758699301,0.000025455155650888628,0.018968710564868162,0.00009815751633368563,9.05
1.1430312758699301,0.000025455155650888628,0.0189683031366269,0.00009815751633368563,9.05
1.143031164868603,0.000025455155650888628,0.01895536623674502,0.00009815751633368563,9.05
1.143031164868603,0.000025455155650888628,0.01893217718199253,0.00009815751633368563,9.05
1.143031164868603,0.000025455155650888628,0.018932126446979964,0.00009813864068064504,9.05
1.143031164868603,0.000025455155650888628,0.018889107081250814,0.00009025107181059866,9.05
1.143031164868603,0.000025455155650888628,0.01888910203557998,0.00009025107181059866,9.05
1.143031164868603,0.000025455155650888628,0.018889098176867947,0.00009025107181059866,9.05
1.143031164868603,0.000025455155650888628,0.018886699286061914,0.00009025097824633121,9.05
1.143031164868603,0.000025455155650888628,0.018885693838456064,0.0000823171995989469,9.05
1.143031164868603,0.000025455155650888628,0.01888498004490657,0.00007751536952582683,9.05
1.143031164868603,0.000025455155650888628,0.018884948411880487,0.00007751536952582683,9.05
1.143031164868603,0.000025455155650888628,0.01888067626874431,0.00007751536952582683,9.05
1.143031164868603,0.000025455155650888628,0.018876798148650096,0.00006837805574377853,9.05
1.143031164868603,0.000025455155650888628,0.01887569494164154,0.00006837805574377853,9.05
1.1430311616471727,0.000025455155650888628,0.018862336953425256,0.00006837805574377853,9.05
1.1430311616471727,0.000025455155650888628,0.018840243066575793,0.00006837805574377853,9.05
1.1430311616471727,0.000025455155650888628,0.018840242027828254,0.00006837805574377853,9.05
1.1430311616471727,0.000025455155650888628,0.018833430669637892,0.00006837805574377853,9.05
1.1430311616471727,0.000025455155650888628,0.018833337098229777,0.00006837799969616754,9.05
1.1430311616471727,0.000025455155650888628,0.018821016742209623,0.00006837799969616754,9.05
1.1430311616471727,0.000025455155650888628,0.018820759760974397,0.00006837799969616754,9.05
1.143026360368367,0.000025455155650888628,0.018820702841741196,0.00006837799969616754,9.05
1.143026360368367,0.000025455155650888628,0.018688725323834206,0.00006837799969616754,9.05
1.143026360368367,0.000025455155650888628,0.01868806745604161,0.00006837799969616754,9.05
1.143026360368367,0.00002545514257690229,0.018687394884578906,0.00006837799969616754,9.05
0.9972075265227431,0.00002545514257690229,0.0172288166426074,0.00006836703198587202,9.05
0.23441072541208996,0.00002545514257690229,0.009274271341066651,0.00006836703198587202,9.05
0.2327276006883494,0.00002545514257690229,0.009238788604998263,0.00006836703198587202,9.05
0.2327276006883494,0.00002545514257690229,0.009238655452045351,0.00006836703198587202,9.05
0.2327276006883494,0.00002545514257690229,0.009231661939760443,0.00006048303805528121,9.05
0.2319827042497309,0.00002545514257690229,0.00922301480026249,0.000060163510511301865,9.05
0.2319827042497309,0.00002545514257690229,0.009222984707063233,0.000060163510511301865,9.05
0.2319827042497309,0.00002545514257690229,0.00889797887985992,0.000060163510511301865,9.05
0.2319827042497309,0.00002545514257690229,0.008815060820883219,0.000059956915720249526,9.05
0.2319827042497309,0.00002545514257690229,0.00881283470522817,0.000059956915720249526,9.05
0.2319827042497309,0.00002545514257690229,0.008705304689907507,0.00005612195377580065,9.05
0.2319827042497309,0.00002545514257690229,0.008684964425465297,0.00005612195377580065,9.05
0.2319827042497309,0.00002545514257690229,0.008678191151591363,0.00005612195377580065,9.05
0.2319827042497309,0.00002545514257690229,0.008677569909804107,0.00005612195377580065,9.05
0.2319827042497309,0.00002545514257690229,0.008673257678862002,0.00005612195377580065,9.05
0.2319827042497309,0.00002545514257690229,0.008668153193376611,0.00005612195377580065,9.05
0.2319827042497309,0.00002545514257690229,0.008668134324227594,0.00005612195377580065,9.05
0.2319827042497309,0.00002545514257690229,0.008667684069656616,0.00005612195377580065,9.05
0.2319827042497309,0.00002545514257690229,0.008666224257414114,0.00005612195377580065,9.05